8.699999999999999956e-01
8.699999999999999956e-01
8.699999999999999956e-01
8.699999999999999956e-01
8.699999999999999956e-01
8.699999999999999956e-01
8.699999999999999956e-01
8.699999999999999956e-01
8.699999999999999956e-01
8.699999999999999956e-01
8.699999999999999956e-01
8.699999999999999956e-01
8.699999999999999956e-01
8.699999999999999956e-01
8.699999999999999956e-01
8.699999999999999956e-01
8.699999999999999956e-01
8.699999999999999956e-01
8.699999999999999956e-01
8.699999999999999956e-01
8.699999999999999956e-01
8.699999999999999956e-01
8.699999999999999956e-01
8.699999999999999956e-01
8.699999999999999956e-01
8.699999999999999956e-01
8.699999999999999956e-01
8.699999999999999956e-01
8.699999999999999956e-01
8.699999999999999956e-01
8.699999999999999956e-01
8.699999999999999956e-01
8.699999999999999956e-01
8.699999999999999956e-01
8.699999999999999956e-01
8.699999999999999956e-01
8.699999999999999956e-01
8.699999999999999956e-01
8.699999999999999956e-01
8.699999999999999956e-01
8.699999999999999956e-01
8.699999999999999956e-01
8.699999999999999956e-01
8.699999999999999956e-01
8.699999999999999956e-01
8.699999999999999956e-01
8.699999999999999956e-01
8.699999999999999956e-01
8.699999999999999956e-01
8.699999999999999956e-01
8.699999999999999956e-01
8.699999999999999956e-01
8.699999999999999956e-01
8.699999999999999956e-01
8.699999999999999956e-01
8.699999999999999956e-01
8.699999999999999956e-01
8.699999999999999956e-01
8.699999999999999956e-01
8.699999999999999956e-01
8.699999999999999956e-01
8.699999999999999956e-01
8.699999999999999956e-01
8.699999999999999956e-01
8.699999999999999956e-01
8.699999999999999956e-01
8.699999999999999956e-01
8.699999999999999956e-01
8.699999999999999956e-01
8.699999999999999956e-01
8.699999999999999956e-01
8.699999999999999956e-01
8.699999999999999956e-01
8.599999999999999867e-01
8.599999999999999867e-01
8.599999999999999867e-01
8.599999999999999867e-01
8.599999999999999867e-01
8.599999999999999867e-01
8.599999999999999867e-01
8.599999999999999867e-01
8.599999999999999867e-01
8.599999999999999867e-01
8.599999999999999867e-01
8.599999999999999867e-01
8.599999999999999867e-01
8.599999999999999867e-01
8.599999999999999867e-01
8.599999999999999867e-01
8.599999999999999867e-01
8.599999999999999867e-01
8.599999999999999867e-01
8.599999999999999867e-01
8.599999999999999867e-01
8.599999999999999867e-01
8.599999999999999867e-01
8.599999999999999867e-01
8.599999999999999867e-01
8.599999999999999867e-01
8.599999999999999867e-01
8.599999999999999867e-01
8.599999999999999867e-01
8.599999999999999867e-01
8.599999999999999867e-01
8.599999999999999867e-01
8.599999999999999867e-01
8.599999999999999867e-01
8.599999999999999867e-01
8.599999999999999867e-01
8.599999999999999867e-01
8.599999999999999867e-01
8.599999999999999867e-01
8.599999999999999867e-01
8.599999999999999867e-01
8.599999999999999867e-01
8.599999999999999867e-01
8.599999999999999867e-01
8.599999999999999867e-01
8.599999999999999867e-01
8.599999999999999867e-01
8.599999999999999867e-01
8.599999999999999867e-01
8.599999999999999867e-01
8.599999999999999867e-01
8.599999999999999867e-01
8.599999999999999867e-01
8.599999999999999867e-01
8.599999999999999867e-01
8.599999999999999867e-01
8.599999999999999867e-01
8.599999999999999867e-01
8.599999999999999867e-01
8.599999999999999867e-01
8.599999999999999867e-01
8.599999999999999867e-01
8.599999999999999867e-01
8.599999999999999867e-01
8.599999999999999867e-01
8.599999999999999867e-01
8.599999999999999867e-01
8.599999999999999867e-01
8.599999999999999867e-01
8.599999999999999867e-01
8.599999999999999867e-01
8.599999999999999867e-01
8.599999999999999867e-01
8.599999999999999867e-01
8.599999999999999867e-01
8.599999999999999867e-01
8.599999999999999867e-01
8.599999999999999867e-01
8.599999999999999867e-01
8.599999999999999867e-01
8.599999999999999867e-01
8.599999999999999867e-01
8.599999999999999867e-01
8.599999999999999867e-01
8.599999999999999867e-01
8.599999999999999867e-01
8.599999999999999867e-01
8.599999999999999867e-01
8.599999999999999867e-01
8.599999999999999867e-01
8.599999999999999867e-01
8.599999999999999867e-01
8.599999999999999867e-01
8.599999999999999867e-01
8.599999999999999867e-01
8.599999999999999867e-01
8.599999999999999867e-01
8.599999999999999867e-01
8.599999999999999867e-01
8.599999999999999867e-01
8.599999999999999867e-01
8.599999999999999867e-01
8.599999999999999867e-01
8.599999999999999867e-01
8.599999999999999867e-01
8.599999999999999867e-01
8.599999999999999867e-01
8.599999999999999867e-01
8.599999999999999867e-01
8.599999999999999867e-01
8.599999999999999867e-01
8.599999999999999867e-01
8.699999999999999956e-01
8.699999999999999956e-01
8.699999999999999956e-01
8.699999999999999956e-01
8.699999999999999956e-01
8.699999999999999956e-01
8.699999999999999956e-01
8.699999999999999956e-01
8.699999999999999956e-01
8.699999999999999956e-01
8.699999999999999956e-01
8.699999999999999956e-01
8.699999999999999956e-01
8.699999999999999956e-01
8.699999999999999956e-01
8.699999999999999956e-01
8.699999999999999956e-01
8.699999999999999956e-01
8.699999999999999956e-01
8.699999999999999956e-01
8.699999999999999956e-01
8.699999999999999956e-01
8.699999999999999956e-01
8.699999999999999956e-01
8.699999999999999956e-01
8.699999999999999956e-01
8.699999999999999956e-01
8.699999999999999956e-01
8.699999999999999956e-01
8.699999999999999956e-01
8.699999999999999956e-01
8.699999999999999956e-01
8.699999999999999956e-01
8.699999999999999956e-01
8.699999999999999956e-01
8.699999999999999956e-01
8.699999999999999956e-01
8.699999999999999956e-01
8.699999999999999956e-01
8.699999999999999956e-01
8.699999999999999956e-01
8.699999999999999956e-01
8.699999999999999956e-01
8.699999999999999956e-01
8.699999999999999956e-01
8.699999999999999956e-01
8.699999999999999956e-01
8.699999999999999956e-01
8.699999999999999956e-01
8.699999999999999956e-01
8.699999999999999956e-01
8.699999999999999956e-01
8.699999999999999956e-01
8.699999999999999956e-01
8.699999999999999956e-01
8.699999999999999956e-01
8.699999999999999956e-01
8.699999999999999956e-01
8.699999999999999956e-01
8.699999999999999956e-01
8.699999999999999956e-01
8.699999999999999956e-01
8.699999999999999956e-01
8.699999999999999956e-01
8.699999999999999956e-01
8.699999999999999956e-01
8.699999999999999956e-01
8.699999999999999956e-01
8.699999999999999956e-01
8.699999999999999956e-01
8.699999999999999956e-01
8.699999999999999956e-01
8.699999999999999956e-01
8.699999999999999956e-01
8.699999999999999956e-01
8.699999999999999956e-01
8.699999999999999956e-01
8.699999999999999956e-01
8.699999999999999956e-01
8.699999999999999956e-01
8.699999999999999956e-01
8.699999999999999956e-01
8.699999999999999956e-01
8.699999999999999956e-01
8.699999999999999956e-01
8.699999999999999956e-01
8.699999999999999956e-01
8.699999999999999956e-01
8.699999999999999956e-01
8.699999999999999956e-01
8.699999999999999956e-01
8.699999999999999956e-01
8.699999999999999956e-01
8.699999999999999956e-01
8.699999999999999956e-01
8.699999999999999956e-01
8.699999999999999956e-01
8.699999999999999956e-01
8.699999999999999956e-01
8.699999999999999956e-01
8.699999999999999956e-01
8.699999999999999956e-01
8.699999999999999956e-01
8.699999999999999956e-01
8.699999999999999956e-01
8.699999999999999956e-01
8.699999999999999956e-01
8.699999999999999956e-01
8.699999999999999956e-01
8.699999999999999956e-01
8.699999999999999956e-01
8.699999999999999956e-01
8.699999999999999956e-01
8.699999999999999956e-01
8.699999999999999956e-01
8.699999999999999956e-01
8.699999999999999956e-01
8.699999999999999956e-01
8.699999999999999956e-01
8.699999999999999956e-01
8.699999999999999956e-01
8.699999999999999956e-01
8.699999999999999956e-01
8.699999999999999956e-01
8.699999999999999956e-01
8.699999999999999956e-01
8.699999999999999956e-01
8.699999999999999956e-01
8.699999999999999956e-01
8.699999999999999956e-01
8.699999999999999956e-01
8.699999999999999956e-01
8.699999999999999956e-01
8.699999999999999956e-01
8.699999999999999956e-01
8.699999999999999956e-01
8.699999999999999956e-01
8.699999999999999956e-01
8.699999999999999956e-01
8.699999999999999956e-01
8.699999999999999956e-01
8.699999999999999956e-01
8.699999999999999956e-01
8.699999999999999956e-01
8.699999999999999956e-01
8.699999999999999956e-01
8.699999999999999956e-01
8.699999999999999956e-01
8.699999999999999956e-01
8.699999999999999956e-01
8.699999999999999956e-01
8.699999999999999956e-01
8.699999999999999956e-01
8.699999999999999956e-01
8.699999999999999956e-01
8.699999999999999956e-01
8.699999999999999956e-01
8.699999999999999956e-01
8.699999999999999956e-01
8.699999999999999956e-01
8.699999999999999956e-01
8.699999999999999956e-01
8.699999999999999956e-01
8.699999999999999956e-01
8.699999999999999956e-01
8.699999999999999956e-01
8.699999999999999956e-01
8.699999999999999956e-01
8.699999999999999956e-01
8.699999999999999956e-01
8.699999999999999956e-01
8.699999999999999956e-01
8.699999999999999956e-01
8.699999999999999956e-01
8.699999999999999956e-01
8.699999999999999956e-01
8.699999999999999956e-01
8.699999999999999956e-01
8.699999999999999956e-01
8.699999999999999956e-01
8.699999999999999956e-01
8.699999999999999956e-01
8.699999999999999956e-01
8.699999999999999956e-01
8.699999999999999956e-01
8.699999999999999956e-01
8.699999999999999956e-01
8.699999999999999956e-01
8.699999999999999956e-01
8.699999999999999956e-01
8.699999999999999956e-01
8.699999999999999956e-01
8.699999999999999956e-01
8.699999999999999956e-01
8.699999999999999956e-01
8.699999999999999956e-01
8.699999999999999956e-01
8.699999999999999956e-01
8.699999999999999956e-01
8.699999999999999956e-01
8.699999999999999956e-01
8.699999999999999956e-01
8.699999999999999956e-01
8.699999999999999956e-01
8.699999999999999956e-01
8.699999999999999956e-01
8.699999999999999956e-01
8.699999999999999956e-01
8.699999999999999956e-01
8.699999999999999956e-01
8.699999999999999956e-01
8.699999999999999956e-01
8.699999999999999956e-01
8.699999999999999956e-01
8.699999999999999956e-01
8.699999999999999956e-01
8.699999999999999956e-01
8.699999999999999956e-01
8.699999999999999956e-01
8.699999999999999956e-01
8.699999999999999956e-01
8.699999999999999956e-01
8.699999999999999956e-01
8.699999999999999956e-01
8.699999999999999956e-01
8.699999999999999956e-01
8.699999999999999956e-01
8.699999999999999956e-01
8.699999999999999956e-01
8.699999999999999956e-01
8.699999999999999956e-01
8.699999999999999956e-01
8.699999999999999956e-01
8.699999999999999956e-01
8.699999999999999956e-01
8.699999999999999956e-01
8.699999999999999956e-01
8.699999999999999956e-01
8.699999999999999956e-01
8.699999999999999956e-01
8.699999999999999956e-01
8.699999999999999956e-01
8.699999999999999956e-01
8.699999999999999956e-01
8.699999999999999956e-01
8.699999999999999956e-01
8.699999999999999956e-01
8.699999999999999956e-01
8.699999999999999956e-01
8.699999999999999956e-01
8.699999999999999956e-01
8.699999999999999956e-01
8.699999999999999956e-01
8.699999999999999956e-01
8.699999999999999956e-01
8.699999999999999956e-01
8.699999999999999956e-01
8.699999999999999956e-01
8.699999999999999956e-01
8.699999999999999956e-01
8.699999999999999956e-01
8.699999999999999956e-01
8.699999999999999956e-01
8.699999999999999956e-01
8.699999999999999956e-01
8.699999999999999956e-01
8.699999999999999956e-01
8.699999999999999956e-01
8.699999999999999956e-01
8.699999999999999956e-01
8.699999999999999956e-01
8.699999999999999956e-01
8.699999999999999956e-01
8.699999999999999956e-01
8.699999999999999956e-01
8.699999999999999956e-01
8.699999999999999956e-01
8.699999999999999956e-01
8.699999999999999956e-01
8.699999999999999956e-01
8.699999999999999956e-01
8.699999999999999956e-01
8.699999999999999956e-01
8.699999999999999956e-01
8.699999999999999956e-01
8.699999999999999956e-01
8.699999999999999956e-01
8.699999999999999956e-01
8.699999999999999956e-01
8.699999999999999956e-01
8.699999999999999956e-01
8.699999999999999956e-01
8.699999999999999956e-01
8.699999999999999956e-01
8.699999999999999956e-01
8.699999999999999956e-01
8.699999999999999956e-01
8.699999999999999956e-01
8.699999999999999956e-01
8.699999999999999956e-01
8.699999999999999956e-01
8.699999999999999956e-01
8.699999999999999956e-01
8.699999999999999956e-01
8.699999999999999956e-01
8.699999999999999956e-01
8.699999999999999956e-01
8.699999999999999956e-01
8.699999999999999956e-01
8.699999999999999956e-01
8.699999999999999956e-01
8.699999999999999956e-01
8.699999999999999956e-01
8.699999999999999956e-01
8.599999999999999867e-01
8.599999999999999867e-01
8.599999999999999867e-01
8.599999999999999867e-01
8.599999999999999867e-01
8.599999999999999867e-01
8.599999999999999867e-01
8.599999999999999867e-01
8.599999999999999867e-01
8.599999999999999867e-01
8.599999999999999867e-01
8.599999999999999867e-01
8.599999999999999867e-01
8.599999999999999867e-01
8.599999999999999867e-01
8.599999999999999867e-01
8.599999999999999867e-01
8.599999999999999867e-01
8.599999999999999867e-01
8.599999999999999867e-01
8.599999999999999867e-01
8.599999999999999867e-01
8.599999999999999867e-01
8.599999999999999867e-01
8.599999999999999867e-01
8.599999999999999867e-01
8.599999999999999867e-01
8.599999999999999867e-01
8.599999999999999867e-01
8.599999999999999867e-01
8.599999999999999867e-01
8.599999999999999867e-01
8.599999999999999867e-01
8.599999999999999867e-01
8.599999999999999867e-01
8.599999999999999867e-01
8.599999999999999867e-01
8.599999999999999867e-01
8.599999999999999867e-01
8.599999999999999867e-01
8.599999999999999867e-01
8.599999999999999867e-01
8.599999999999999867e-01
8.599999999999999867e-01
8.599999999999999867e-01
8.599999999999999867e-01
8.599999999999999867e-01
8.599999999999999867e-01
8.599999999999999867e-01
8.599999999999999867e-01
8.599999999999999867e-01
8.599999999999999867e-01
8.599999999999999867e-01
8.599999999999999867e-01
8.599999999999999867e-01
8.599999999999999867e-01
8.599999999999999867e-01
8.599999999999999867e-01
8.599999999999999867e-01
8.599999999999999867e-01
8.599999999999999867e-01
8.599999999999999867e-01
8.599999999999999867e-01
8.599999999999999867e-01
8.599999999999999867e-01
8.599999999999999867e-01
8.599999999999999867e-01
8.599999999999999867e-01
8.599999999999999867e-01
8.599999999999999867e-01
8.599999999999999867e-01
8.599999999999999867e-01
8.599999999999999867e-01
8.599999999999999867e-01
8.599999999999999867e-01
8.599999999999999867e-01
8.599999999999999867e-01
8.599999999999999867e-01
8.599999999999999867e-01
8.599999999999999867e-01
8.599999999999999867e-01
8.599999999999999867e-01
8.599999999999999867e-01
8.599999999999999867e-01
8.599999999999999867e-01
8.599999999999999867e-01
8.599999999999999867e-01
8.599999999999999867e-01
8.599999999999999867e-01
8.599999999999999867e-01
8.599999999999999867e-01
8.599999999999999867e-01
8.599999999999999867e-01
8.599999999999999867e-01
8.599999999999999867e-01
8.599999999999999867e-01
8.599999999999999867e-01
8.599999999999999867e-01
8.599999999999999867e-01
8.599999999999999867e-01
8.599999999999999867e-01
8.599999999999999867e-01
8.599999999999999867e-01
8.599999999999999867e-01
8.599999999999999867e-01
8.599999999999999867e-01
8.599999999999999867e-01
8.599999999999999867e-01
8.599999999999999867e-01
8.599999999999999867e-01
8.599999999999999867e-01
8.599999999999999867e-01
8.599999999999999867e-01
8.599999999999999867e-01
8.599999999999999867e-01
8.599999999999999867e-01
8.599999999999999867e-01
8.599999999999999867e-01
8.599999999999999867e-01
8.599999999999999867e-01
8.599999999999999867e-01
8.599999999999999867e-01
8.599999999999999867e-01
8.599999999999999867e-01
8.599999999999999867e-01
8.599999999999999867e-01
8.599999999999999867e-01
8.599999999999999867e-01
8.699999999999999956e-01
8.699999999999999956e-01
8.699999999999999956e-01
8.699999999999999956e-01
8.699999999999999956e-01
8.699999999999999956e-01
8.699999999999999956e-01
8.699999999999999956e-01
8.699999999999999956e-01
8.699999999999999956e-01
8.699999999999999956e-01
8.699999999999999956e-01
8.699999999999999956e-01
8.699999999999999956e-01
8.699999999999999956e-01
8.699999999999999956e-01
8.699999999999999956e-01
8.699999999999999956e-01
8.699999999999999956e-01
8.699999999999999956e-01
8.699999999999999956e-01
8.699999999999999956e-01
8.699999999999999956e-01
8.699999999999999956e-01
8.699999999999999956e-01
8.699999999999999956e-01
8.699999999999999956e-01
8.699999999999999956e-01
8.699999999999999956e-01
8.699999999999999956e-01
8.699999999999999956e-01
8.699999999999999956e-01
8.699999999999999956e-01
8.699999999999999956e-01
8.699999999999999956e-01
8.699999999999999956e-01
8.699999999999999956e-01
8.699999999999999956e-01
8.699999999999999956e-01
8.699999999999999956e-01
8.699999999999999956e-01
8.699999999999999956e-01
8.699999999999999956e-01
8.699999999999999956e-01
8.699999999999999956e-01
8.699999999999999956e-01
8.699999999999999956e-01
8.699999999999999956e-01
8.699999999999999956e-01
8.699999999999999956e-01
8.699999999999999956e-01
8.699999999999999956e-01
8.699999999999999956e-01
8.699999999999999956e-01
8.699999999999999956e-01
8.699999999999999956e-01
8.699999999999999956e-01
8.699999999999999956e-01
8.699999999999999956e-01
8.699999999999999956e-01
8.699999999999999956e-01
8.699999999999999956e-01
8.699999999999999956e-01
8.699999999999999956e-01
8.699999999999999956e-01
8.699999999999999956e-01
8.699999999999999956e-01
8.699999999999999956e-01
8.699999999999999956e-01
8.699999999999999956e-01
8.699999999999999956e-01
8.699999999999999956e-01
8.699999999999999956e-01
8.699999999999999956e-01
8.699999999999999956e-01
8.699999999999999956e-01
8.699999999999999956e-01
8.699999999999999956e-01
8.699999999999999956e-01
8.699999999999999956e-01
8.699999999999999956e-01
8.699999999999999956e-01
8.699999999999999956e-01
8.699999999999999956e-01
8.699999999999999956e-01
8.699999999999999956e-01
8.699999999999999956e-01
8.699999999999999956e-01
8.699999999999999956e-01
8.699999999999999956e-01
8.699999999999999956e-01
8.699999999999999956e-01
8.699999999999999956e-01
8.699999999999999956e-01
8.699999999999999956e-01
8.699999999999999956e-01
8.699999999999999956e-01
8.699999999999999956e-01
8.699999999999999956e-01
8.699999999999999956e-01
8.699999999999999956e-01
8.699999999999999956e-01
8.699999999999999956e-01
8.699999999999999956e-01
8.699999999999999956e-01
8.699999999999999956e-01
8.699999999999999956e-01
8.699999999999999956e-01
8.699999999999999956e-01
8.699999999999999956e-01
8.699999999999999956e-01
8.699999999999999956e-01
8.699999999999999956e-01
8.699999999999999956e-01
8.699999999999999956e-01
8.699999999999999956e-01
8.699999999999999956e-01
8.699999999999999956e-01
8.699999999999999956e-01
8.699999999999999956e-01
8.699999999999999956e-01
8.699999999999999956e-01
8.699999999999999956e-01
8.699999999999999956e-01
8.699999999999999956e-01
8.699999999999999956e-01
8.699999999999999956e-01
8.699999999999999956e-01
8.699999999999999956e-01
8.699999999999999956e-01
8.699999999999999956e-01
8.699999999999999956e-01
8.699999999999999956e-01
8.699999999999999956e-01
8.699999999999999956e-01
8.699999999999999956e-01
8.699999999999999956e-01
8.699999999999999956e-01
8.699999999999999956e-01
8.699999999999999956e-01
8.699999999999999956e-01
8.699999999999999956e-01
8.699999999999999956e-01
8.699999999999999956e-01
8.699999999999999956e-01
8.699999999999999956e-01
8.699999999999999956e-01
8.699999999999999956e-01
8.699999999999999956e-01
8.699999999999999956e-01
8.699999999999999956e-01
8.699999999999999956e-01
8.699999999999999956e-01
8.699999999999999956e-01
8.699999999999999956e-01
8.699999999999999956e-01
8.699999999999999956e-01
8.699999999999999956e-01
8.699999999999999956e-01
8.699999999999999956e-01
8.699999999999999956e-01
8.699999999999999956e-01
8.699999999999999956e-01
8.699999999999999956e-01
8.699999999999999956e-01
8.699999999999999956e-01
8.699999999999999956e-01
8.699999999999999956e-01
8.699999999999999956e-01
8.699999999999999956e-01
8.699999999999999956e-01
8.699999999999999956e-01
8.699999999999999956e-01
8.699999999999999956e-01
8.699999999999999956e-01
8.699999999999999956e-01
8.699999999999999956e-01
8.699999999999999956e-01
8.699999999999999956e-01
8.699999999999999956e-01
8.699999999999999956e-01
8.699999999999999956e-01
8.699999999999999956e-01
8.699999999999999956e-01
8.699999999999999956e-01
8.699999999999999956e-01
8.699999999999999956e-01
8.699999999999999956e-01
8.699999999999999956e-01
8.699999999999999956e-01
8.699999999999999956e-01
8.699999999999999956e-01
8.699999999999999956e-01
8.699999999999999956e-01
8.699999999999999956e-01
8.699999999999999956e-01
8.699999999999999956e-01
8.699999999999999956e-01
8.699999999999999956e-01
8.699999999999999956e-01
8.699999999999999956e-01
8.699999999999999956e-01
8.699999999999999956e-01
8.699999999999999956e-01
8.699999999999999956e-01
8.699999999999999956e-01
8.699999999999999956e-01
8.699999999999999956e-01
8.599999999999999867e-01
8.599999999999999867e-01
8.599999999999999867e-01
8.599999999999999867e-01
8.599999999999999867e-01
8.599999999999999867e-01
8.599999999999999867e-01
8.599999999999999867e-01
8.599999999999999867e-01
8.599999999999999867e-01
8.599999999999999867e-01
8.599999999999999867e-01
8.599999999999999867e-01
8.599999999999999867e-01
8.599999999999999867e-01
8.599999999999999867e-01
8.599999999999999867e-01
8.599999999999999867e-01
8.599999999999999867e-01
8.599999999999999867e-01
8.599999999999999867e-01
8.599999999999999867e-01
8.599999999999999867e-01
8.599999999999999867e-01
8.599999999999999867e-01
8.599999999999999867e-01
8.599999999999999867e-01
8.599999999999999867e-01
8.599999999999999867e-01
8.599999999999999867e-01
8.599999999999999867e-01
8.599999999999999867e-01
8.599999999999999867e-01
8.599999999999999867e-01
8.599999999999999867e-01
8.599999999999999867e-01
8.599999999999999867e-01
8.599999999999999867e-01
8.599999999999999867e-01
8.599999999999999867e-01
8.599999999999999867e-01
8.599999999999999867e-01
8.599999999999999867e-01
8.599999999999999867e-01
8.599999999999999867e-01
8.599999999999999867e-01
8.599999999999999867e-01
8.599999999999999867e-01
8.599999999999999867e-01
8.599999999999999867e-01
8.599999999999999867e-01
8.599999999999999867e-01
8.599999999999999867e-01
8.599999999999999867e-01
8.599999999999999867e-01
8.599999999999999867e-01
8.599999999999999867e-01
8.599999999999999867e-01
8.599999999999999867e-01
8.599999999999999867e-01
8.599999999999999867e-01
8.599999999999999867e-01
8.599999999999999867e-01
8.599999999999999867e-01
8.599999999999999867e-01
8.599999999999999867e-01
8.599999999999999867e-01
8.599999999999999867e-01
8.599999999999999867e-01
8.599999999999999867e-01
8.599999999999999867e-01
8.599999999999999867e-01
8.599999999999999867e-01
8.599999999999999867e-01
8.599999999999999867e-01
8.599999999999999867e-01
8.599999999999999867e-01
8.599999999999999867e-01
8.599999999999999867e-01
8.599999999999999867e-01
8.599999999999999867e-01
8.599999999999999867e-01
8.599999999999999867e-01
8.599999999999999867e-01
8.599999999999999867e-01
8.599999999999999867e-01
8.599999999999999867e-01
8.599999999999999867e-01
8.599999999999999867e-01
8.599999999999999867e-01
8.599999999999999867e-01
8.599999999999999867e-01
8.599999999999999867e-01
8.599999999999999867e-01
8.599999999999999867e-01
8.599999999999999867e-01
8.599999999999999867e-01
8.599999999999999867e-01
8.599999999999999867e-01
8.599999999999999867e-01
8.599999999999999867e-01
8.599999999999999867e-01
8.599999999999999867e-01
8.599999999999999867e-01
8.599999999999999867e-01
8.599999999999999867e-01
8.599999999999999867e-01
8.599999999999999867e-01
8.599999999999999867e-01
8.599999999999999867e-01
8.599999999999999867e-01
8.599999999999999867e-01
8.599999999999999867e-01
8.599999999999999867e-01
8.599999999999999867e-01
8.599999999999999867e-01
8.599999999999999867e-01
8.599999999999999867e-01
8.599999999999999867e-01
8.599999999999999867e-01
8.599999999999999867e-01
8.599999999999999867e-01
8.599999999999999867e-01
8.599999999999999867e-01
8.599999999999999867e-01
