-8.415052400000000432e-02
-1.442382600000000070e-01
-2.004493699999999878e-01
-2.372773399999999755e-01
-2.721669899999999975e-01
-2.760436199999999896e-01
-2.663520500000000069e-01
-2.392156500000000019e-01
-1.597447700000000081e-01
-9.384209400000000090e-02
-6.864401000000000530e-02
-7.058232500000000131e-02
-4.150761299999999876e-02
5.011926500000000485e-03
5.011926500000000485e-03
5.011926500000000485e-03
1.276518299999999939e-02
1.082686899999999938e-02
1.082686899999999938e-02
3.073612400000000008e-03
1.082686899999999938e-02
6.950240700000000563e-03
8.888554800000000172e-03
1.858012499999999942e-02
5.011926500000000485e-03
5.011926500000000485e-03
8.888554800000000172e-03
3.073612400000000008e-03
6.950240700000000563e-03
5.011926500000000485e-03
6.950240700000000563e-03
1.664181099999999941e-02
5.011926500000000485e-03
1.276518299999999939e-02
1.664181099999999941e-02
8.888554800000000172e-03
6.950240700000000563e-03
3.073612400000000008e-03
1.082686899999999938e-02
6.950240700000000563e-03
6.950240700000000563e-03
6.950240700000000563e-03
5.011926500000000485e-03
3.073612400000000008e-03
5.011926500000000485e-03
1.135298299999999965e-03
-1.049458699999999967e-02
-2.741330000000000156e-03
6.950240700000000563e-03
1.470349699999999940e-02
3.073612400000000008e-03
1.082686899999999938e-02
1.276518299999999939e-02
1.082686899999999938e-02
1.276518299999999939e-02
2.827169600000000241e-02
2.439506799999999892e-02
2.245675400000000238e-02
3.214832399999999896e-02
3.021000999999999895e-02
4.183989500000000195e-02
4.959315200000000146e-02
4.571652299999999503e-02
3.990158100000000541e-02
4.765483699999999850e-02
4.183989500000000195e-02
4.183989500000000195e-02
4.377820899999999849e-02
4.183989500000000195e-02
4.183989500000000195e-02
4.377820899999999849e-02
3.990158100000000541e-02
3.602495299999999845e-02
3.021000999999999895e-02
3.796326700000000193e-02
3.602495299999999845e-02
3.796326700000000193e-02
4.959315200000000146e-02
4.377820899999999849e-02
4.765483699999999850e-02
4.571652299999999503e-02
3.796326700000000193e-02
3.990158100000000541e-02
4.959315200000000146e-02
5.346978000000000147e-02
5.153146600000000493e-02
4.765483699999999850e-02
5.153146600000000493e-02
4.765483699999999850e-02
5.734640800000000149e-02
5.540809399999999801e-02
6.316135000000000499e-02
6.897629299999999408e-02
6.703797899999999754e-02
6.897629299999999408e-02
7.479123499999999758e-02
8.060617800000000055e-02
8.254449199999999709e-02
8.642111999999999017e-02
9.029774799999999713e-02
8.835943400000000059e-02
9.223606199999999367e-02
9.805100499999999664e-02
9.417437700000000356e-02
9.998931899999999318e-02
9.611269100000000010e-02
8.642111999999999017e-02
8.448280599999999363e-02
9.029774799999999713e-02
9.417437700000000356e-02
8.448280599999999363e-02
8.254449199999999709e-02
8.642111999999999017e-02
8.254449199999999709e-02
8.642111999999999017e-02
8.060617800000000055e-02
8.060617800000000055e-02
6.897629299999999408e-02
5.928472199999999803e-02
4.959315200000000146e-02
5.153146600000000493e-02
6.316135000000000499e-02
5.734640800000000149e-02
4.183989500000000195e-02
1.470349699999999940e-02
3.073612400000000008e-03
-8.556272400000000319e-03
-8.030158500000000952e-04
-4.679644099999999765e-03
-1.824784299999999970e-02
-5.313749699999999881e-02
-1.209784900000000080e-01
-1.810662299999999947e-01
-2.721669899999999975e-01
-3.613294400000000017e-01
-4.214171800000000023e-01
-3.787742699999999685e-01
-2.547221700000000255e-01
-1.267934300000000125e-01
-7.058232500000000131e-02
