1.340570899999999899e-01
9.208283799999999672e-03
-1.296087499999999948e-01
-2.455831199999999881e-01
-2.887369599999999870e-01
-2.984498400000000218e-01
-2.732501099999999905e-01
-2.385402399999999867e-01
-1.991138699999999984e-01
-1.372870800000000058e-01
-8.268283299999999725e-02
-6.577338499999998978e-02
-5.927731499999999709e-02
-2.495733300000000168e-02
1.242376300000000086e-02
3.747157400000000055e-02
3.324364800000000064e-02
2.934656899999999943e-02
2.986982000000000179e-02
3.106323200000000312e-02
3.196613899999999758e-02
3.365408500000000025e-02
3.666453399999999863e-02
3.210893100000000028e-02
3.286511599999999977e-02
3.356871100000000108e-02
3.448922599999999783e-02
3.564524700000000490e-02
3.162902499999999811e-02
3.398333299999999751e-02
2.970602500000000395e-02
3.086371900000000126e-02
2.075444200000000142e-02
2.496802199999999944e-02
2.931300700000000203e-02
1.828006100000000023e-02
2.050525900000000137e-02
1.298401499999999806e-02
1.594902499999999862e-02
1.935935600000000117e-02
4.607182199999999665e-03
6.396887399999999675e-03
1.754172899999999896e-03
-7.929924700000000326e-04
5.954585400000000223e-03
4.176654099999999948e-04
-8.482003999999999586e-03
-8.752666799999999497e-03
-1.360951699999999806e-02
-4.932773499999999409e-03
-1.576313199999999914e-02
-2.439759700000000003e-02
-1.376388799999999843e-02
-2.085278999999999952e-02
-1.896642500000000203e-02
-1.698178399999999977e-02
-6.781499200000000796e-03
-1.006275700000000030e-02
-1.767004600000000175e-02
-1.080886399999999962e-02
-3.698685599999999938e-03
4.147308600000000145e-04
5.055248300000000569e-03
1.356348099999999876e-02
2.318377599999999969e-02
2.974718800000000080e-02
3.213856699999999983e-02
3.531439599999999790e-02
4.355705599999999678e-02
4.670058900000000068e-02
4.870036900000000030e-02
5.090432400000000079e-02
5.075886500000000023e-02
5.135306099999999846e-02
5.127463799999999738e-02
5.791028099999999401e-02
5.164393499999999498e-02
5.309669599999999878e-02
6.562753699999999968e-02
5.732118400000000419e-02
5.677865800000000268e-02
5.555266700000000002e-02
4.880682700000000401e-02
5.563943300000000203e-02
5.723604200000000086e-02
5.936517900000000403e-02
5.753960900000000545e-02
5.889398099999999803e-02
6.089867100000000144e-02
6.189114899999999947e-02
5.606026699999999696e-02
6.936470799999999715e-02
7.068052700000000688e-02
6.444121199999999772e-02
7.043807199999999047e-02
6.574641900000000039e-02
7.337122000000000088e-02
7.438888200000000339e-02
7.857522200000000012e-02
7.678670299999999782e-02
7.932186900000000318e-02
8.559859699999999849e-02
8.347120799999999119e-02
9.112342300000000894e-02
8.635517000000000887e-02
8.429895600000000822e-02
8.719844799999999785e-02
8.565655399999999586e-02
9.075414600000000775e-02
9.489195799999999847e-02
9.449886799999999976e-02
8.480163500000000021e-02
9.137872999999999135e-02
9.378643999999999870e-02
8.720687000000000577e-02
7.111319900000000194e-02
5.992321000000000453e-02
4.246429200000000070e-02
3.959499699999999983e-02
4.319556600000000468e-02
4.313818800000000092e-02
3.375537299999999824e-02
1.136549400000000029e-02
1.744353400000000056e-03
-1.570624999999999799e-02
-1.631725800000000115e-02
-3.797450899999999831e-04
-1.285494600000000077e-02
-4.796147299999999752e-02
-9.258970699999999332e-02
-1.596601200000000165e-01
-2.074993699999999885e-01
-2.592021199999999803e-01
-3.210525200000000079e-01
-3.732456299999999949e-01
-3.603149999999999964e-01
-2.916109299999999904e-01
-1.672907800000000000e-01
-7.143365900000001045e-02
3.426708399999999627e-02
