-3.019660000000000052e-02
-1.103448200000000101e-01
-1.257827900000000054e-01
-1.495175900000000058e-01
-1.439479100000000122e-01
-1.111491800000000002e-01
-6.877932000000000490e-02
-4.389632599999999940e-02
-4.656102200000000052e-02
-1.629466199999999795e-02
1.222538600000000128e-02
6.266578000000000079e-03
6.711667000000000154e-03
5.926782199999999431e-03
7.173875200000000632e-03
8.379618900000000009e-03
5.744515900000000258e-03
5.494899100000000605e-03
7.938900599999999808e-03
4.934086800000000127e-03
7.837649099999999952e-03
7.573139600000000637e-03
7.142937800000000517e-03
7.564961100000000722e-03
1.642824500000000148e-03
2.298216599999999832e-03
3.498476100000000397e-03
1.936917900000000112e-03
2.388625799999999962e-03
1.153583899999999999e-03
-1.236628600000000021e-03
1.701080300000000099e-03
-3.626788100000000181e-03
-2.862725100000000026e-03
-5.977641899999999557e-03
-7.074133000000000678e-03
-5.284721899999999910e-03
-1.151042199999999932e-02
-9.584596600000000119e-03
-9.086148700000001160e-03
-1.319878499999999934e-02
-1.187240600000000028e-02
-1.311402299999999896e-02
-1.025916800000000080e-02
-9.183945000000000650e-03
-1.245739799999999974e-02
-9.211078600000000352e-03
-6.016526900000000212e-03
-3.003852599999999769e-03
7.226462099999999937e-04
5.133958299999999766e-04
2.878170299999999876e-03
9.471319500000000349e-03
1.098265199999999900e-02
9.146968899999999986e-03
1.263816100000000019e-02
1.675065699999999866e-02
1.559773100000000010e-02
1.879721699999999801e-02
1.930810200000000060e-02
1.666671299999999967e-02
1.908808000000000032e-02
2.201879300000000178e-02
2.412453599999999851e-02
2.224830400000000000e-02
2.515516300000000122e-02
2.604110600000000136e-02
2.493182099999999984e-02
2.694077200000000172e-02
3.002674300000000157e-02
2.705240899999999948e-02
2.431369300000000080e-02
2.989442700000000119e-02
3.051387600000000228e-02
3.147283399999999814e-02
3.349789200000000133e-02
3.356772700000000553e-02
3.438554500000000347e-02
3.495654999999999596e-02
4.126949900000000115e-02
3.823540200000000167e-02
3.830370400000000092e-02
3.954714399999999935e-02
3.811874800000000091e-02
3.647132599999999836e-02
4.182999299999999587e-02
3.876079699999999961e-02
3.735524900000000009e-02
4.337922200000000200e-02
3.796341500000000035e-02
3.976116999999999846e-02
3.891458700000000048e-02
3.494083399999999701e-02
3.598164899999999750e-02
3.726900899999999878e-02
3.788024499999999989e-02
3.960320999999999980e-02
3.318912599999999935e-02
3.275388699999999542e-02
3.570941600000000077e-02
3.475402899999999878e-02
3.843843499999999996e-02
3.534261100000000294e-02
3.620233700000000110e-02
3.233688900000000060e-02
3.198860099999999845e-02
3.724617100000000153e-02
3.384632699999999550e-02
3.005988499999999800e-02
3.232925600000000066e-02
3.247682100000000294e-02
3.247010499999999911e-02
3.140670300000000109e-02
3.493901500000000382e-02
3.993174199999999924e-02
5.027998200000000084e-02
6.030823600000000118e-02
6.594503599999999854e-02
7.549019199999999763e-02
8.049961599999999606e-02
8.580454699999999491e-02
9.804520899999999428e-02
1.069128899999999965e-01
1.080913500000000027e-01
1.098748099999999894e-01
1.195221900000000004e-01
1.321109699999999942e-01
1.341702100000000120e-01
1.091323800000000011e-01
8.030609800000000631e-02
4.889332200000000295e-02
1.610182099999999880e-02
-3.402792600000000001e-02
-1.147963199999999934e-01
-1.936385199999999807e-01
-2.850739999999999941e-01
-3.581939299999999937e-01
-4.649047800000000175e-01
-5.203029900000000207e-01
-5.797644600000000370e-01
