-1.041624399999999950e-01
-1.529148100000000121e-01
-1.495400699999999972e-01
-2.061693399999999787e-01
-2.247736800000000312e-01
-2.288579799999999886e-01
-2.173764699999999883e-01
-1.804286300000000065e-01
-1.405719400000000063e-01
-9.188599399999999862e-02
-5.401468000000000241e-02
-4.203690599999999888e-02
-3.649106800000000150e-02
-1.938885499999999998e-02
5.113565900000000344e-03
2.819547199999999920e-02
4.074792199999999892e-02
4.143823800000000224e-02
4.133069400000000115e-02
4.311426699999999779e-02
4.281927900000000176e-02
4.149495799999999845e-02
4.298930499999999849e-02
4.505607500000000099e-02
4.355228400000000361e-02
4.363712000000000146e-02
4.284884600000000293e-02
3.755820399999999781e-02
3.829551700000000114e-02
4.426600700000000305e-02
4.423299900000000201e-02
4.161681300000000250e-02
4.248615800000000303e-02
4.366871600000000325e-02
4.280741799999999986e-02
4.150087100000000168e-02
3.830882700000000363e-02
3.446786100000000241e-02
3.694398200000000021e-02
3.809807599999999461e-02
3.402959800000000118e-02
3.445112799999999753e-02
3.554918599999999651e-02
3.785282200000000125e-02
4.299231499999999623e-02
3.947167499999999773e-02
3.488701900000000522e-02
3.804908599999999586e-02
3.486807299999999943e-02
2.659201400000000409e-02
2.708023799999999953e-02
2.950211099999999753e-02
2.876904599999999951e-02
2.653804100000000180e-02
1.972667700000000149e-02
1.834536999999999973e-02
2.162343200000000146e-02
2.248445599999999989e-02
2.155566700000000058e-02
1.363262000000000154e-02
1.318835200000000041e-02
1.953055499999999806e-02
1.682718600000000092e-02
1.766769300000000167e-02
1.953090799999999960e-02
1.780927300000000046e-02
2.068829600000000185e-02
2.027227699999999827e-02
2.023070299999999919e-02
2.595374699999999923e-02
2.883449599999999766e-02
2.994111300000000184e-02
3.173882699999999724e-02
3.224348600000000176e-02
3.394719599999999893e-02
3.661995299999999676e-02
3.665489699999999879e-02
3.820260300000000164e-02
4.253567999999999932e-02
4.603087399999999940e-02
4.903726600000000296e-02
4.905775799999999992e-02
4.788444700000000359e-02
5.120655600000000029e-02
5.555614800000000658e-02
5.399590099999999893e-02
4.922722000000000209e-02
5.007473399999999575e-02
5.529176999999999703e-02
5.563547199999999832e-02
5.348723500000000103e-02
5.708478399999999953e-02
5.750972299999999870e-02
5.278747900000000520e-02
5.448276600000000192e-02
5.226774400000000487e-02
4.790066099999999716e-02
5.230011599999999372e-02
4.817489600000000177e-02
4.098100200000000248e-02
4.625002100000000227e-02
5.229333800000000171e-02
5.399876500000000412e-02
5.405907599999999757e-02
5.201032599999999562e-02
5.100065299999999302e-02
4.922896599999999900e-02
4.543877999999999806e-02
4.843661300000000336e-02
5.089470499999999842e-02
4.908535399999999771e-02
5.350816699999999537e-02
5.200572599999999518e-02
4.784564599999999862e-02
5.103761999999999188e-02
4.283860600000000129e-02
2.796417400000000136e-02
2.100973999999999897e-02
1.770377799999999988e-02
1.952773499999999746e-02
2.716772599999999621e-02
3.590478400000000209e-02
4.029582799999999881e-02
4.029602699999999815e-02
3.782393900000000087e-02
3.320912399999999959e-02
3.778955299999999656e-02
4.770915800000000151e-02
4.203485199999999755e-02
2.058651499999999968e-02
-2.605479399999999918e-02
-7.735038400000000813e-02
-1.293797000000000141e-01
-2.024859499999999701e-01
-2.506715099999999863e-01
-3.409348700000000010e-01
-4.181297800000000064e-01
-4.210942799999999875e-01
-4.744910199999999856e-01
-2.567319700000000315e-01
