3.574594300000000224e-02
-5.619521699999999870e-02
-1.437005800000000222e-01
-2.216619400000000017e-01
-2.956676599999999988e-01
-3.377038600000000224e-01
-3.106878200000000034e-01
-2.589287200000000011e-01
-2.049842700000000240e-01
-1.484658000000000089e-01
-1.064042099999999991e-01
-8.811866200000000038e-02
-7.589009599999999023e-02
-3.943582400000000127e-02
1.155778199999999908e-02
3.898173800000000189e-02
4.214744999999999603e-02
3.722738199999999636e-02
3.120700200000000105e-02
2.964612900000000023e-02
3.455412600000000445e-02
3.531742000000000214e-02
3.396297999999999678e-02
3.576622999999999608e-02
3.211650200000000510e-02
3.086273700000000120e-02
3.496949200000000479e-02
3.480904699999999574e-02
2.889747799999999728e-02
2.844351700000000149e-02
3.199218699999999832e-02
3.161792900000000295e-02
3.014139199999999949e-02
2.352973400000000007e-02
1.885384400000000155e-02
2.018323999999999813e-02
1.877637500000000140e-02
2.326643200000000009e-02
2.236319900000000027e-02
1.515144200000000108e-02
2.094319099999999989e-02
1.629443600000000242e-02
9.755911799999999329e-03
6.383810099999999779e-03
-1.520587099999999928e-03
2.593911499999999697e-03
2.075009400000000191e-03
-5.305458199999999944e-03
-6.422810299999999820e-03
-1.192197700000000027e-02
-8.712777200000000610e-03
-1.976922500000000138e-02
-2.332266799999999779e-02
-1.309505300000000060e-02
-1.776542199999999946e-02
-1.162867400000000030e-02
-2.263124799999999964e-02
-2.629528600000000105e-02
-1.605911299999999986e-02
-1.709517899999999854e-02
-2.107426899999999964e-02
-2.106641399999999859e-02
-1.344890300000000163e-02
-1.147496800000000032e-02
-1.063926200000000002e-02
-5.279331300000000490e-03
-1.629784299999999892e-03
-1.075416999999999953e-03
3.101012299999999881e-03
1.753000500000000128e-02
2.339054600000000164e-02
2.208698699999999890e-02
3.332087300000000085e-02
2.838611100000000206e-02
3.408320499999999836e-02
4.360802700000000059e-02
4.580479199999999695e-02
4.947172700000000006e-02
3.791037199999999774e-02
4.788693500000000547e-02
5.166985100000000275e-02
5.058741300000000468e-02
5.281721900000000552e-02
5.769874000000000530e-02
6.467245499999998981e-02
5.560708199999999518e-02
5.405060400000000209e-02
5.771180000000000060e-02
6.062184499999999365e-02
5.875579600000000596e-02
6.031350900000000126e-02
6.206956500000000709e-02
5.799062299999999809e-02
6.069454399999999611e-02
6.433931099999999625e-02
6.529083799999998994e-02
6.120386300000000418e-02
6.280957900000000427e-02
6.893797499999999856e-02
6.769451499999999677e-02
6.408700100000000455e-02
6.253356499999999929e-02
6.758769100000000529e-02
7.442381099999999250e-02
7.455449799999999683e-02
7.585298000000000040e-02
7.325803499999999913e-02
7.829757400000000866e-02
9.247053400000000700e-02
8.941175599999999501e-02
8.821908300000000369e-02
9.475472199999999956e-02
9.616667599999999261e-02
1.003076200000000001e-01
1.004893999999999926e-01
9.427233999999999614e-02
9.328265300000000704e-02
8.206971700000000036e-02
6.392144299999999446e-02
6.369877699999999809e-02
6.579607600000000889e-02
7.322230799999999984e-02
6.293454200000000998e-02
3.560308599999999907e-02
2.951057000000000333e-02
2.759289200000000081e-02
3.209411399999999998e-02
4.371631100000000075e-02
6.838691799999999099e-02
6.449723799999999840e-02
3.057495399999999794e-02
-1.667416199999999932e-02
-9.007707200000000802e-02
-1.523994999999999933e-01
-2.231408599999999964e-01
-3.013242700000000052e-01
-3.791505400000000359e-01
-3.525984600000000024e-01
-3.270513600000000132e-01
-1.783468899999999802e-01
