-6.192699499999999857e-02
-1.253363799999999972e-01
-1.440594199999999936e-01
-1.976101899999999911e-01
-2.042717000000000005e-01
-2.079533899999999880e-01
-2.166862599999999917e-01
-1.998919600000000074e-01
-1.796719200000000127e-01
-1.570591400000000137e-01
-1.215353700000000037e-01
-7.393862100000000992e-02
-3.781897799999999615e-02
-3.039648799999999929e-02
-2.557547499999999682e-02
3.604561700000000288e-03
3.572721699999999861e-02
5.021066300000000260e-02
5.332923800000000103e-02
4.380794899999999881e-02
4.067819899999999822e-02
4.456936499999999968e-02
2.898148899999999917e-02
2.251268099999999966e-02
3.719109400000000093e-02
4.018248800000000232e-02
3.506699200000000516e-02
3.371691200000000166e-02
3.737230000000000413e-02
4.164725200000000266e-02
3.797226499999999810e-02
3.370185600000000226e-02
3.103672800000000301e-02
2.986207799999999676e-02
3.594631300000000057e-02
3.837292900000000007e-02
3.494511000000000145e-02
3.785857999999999585e-02
4.465806600000000320e-02
4.492904099999999595e-02
3.963453699999999746e-02
3.561007500000000492e-02
3.045250199999999935e-02
2.036653399999999864e-02
1.623560300000000123e-02
2.284070199999999745e-02
2.503752799999999640e-02
2.179224299999999934e-02
2.846266399999999863e-02
3.381094999999999934e-02
3.007432400000000297e-02
3.437966900000000159e-02
3.845806899999999751e-02
3.293584900000000315e-02
3.312215699999999929e-02
3.767896099999999693e-02
3.653249800000000352e-02
3.342843999999999677e-02
3.209334900000000018e-02
2.875539799999999799e-02
2.287747000000000044e-02
2.355298800000000040e-02
3.658184800000000014e-02
4.577962099999999951e-02
3.652882999999999825e-02
2.902975600000000031e-02
2.441262599999999977e-02
1.662558700000000070e-02
2.777713199999999952e-02
3.625680700000000201e-02
3.381525400000000292e-02
4.250034200000000345e-02
4.013214699999999996e-02
4.050592900000000302e-02
5.154009499999999411e-02
4.403183700000000422e-02
4.482359899999999869e-02
5.711113300000000143e-02
5.271785100000000307e-02
4.880192400000000347e-02
5.262121300000000002e-02
5.337685699999999978e-02
5.353072800000000658e-02
5.519028200000000023e-02
5.477501799999999477e-02
5.258833300000000099e-02
5.387530100000000044e-02
5.699097800000000463e-02
5.844285800000000031e-02
6.050249199999999800e-02
6.107242699999999858e-02
5.941194199999999537e-02
5.850936599999999321e-02
5.486457900000000359e-02
5.119057700000000100e-02
5.477753500000000220e-02
5.916063400000000361e-02
5.881584899999999644e-02
6.004167800000000110e-02
6.307350800000000035e-02
6.128973599999999744e-02
5.636537999999999965e-02
5.588904700000000420e-02
5.915317100000000439e-02
6.341307399999999983e-02
6.823366899999999680e-02
6.864556000000000824e-02
6.701479800000000042e-02
6.263115500000000779e-02
5.070052499999999629e-02
4.892567299999999592e-02
5.337094100000000507e-02
4.982433199999999895e-02
5.230798800000000665e-02
5.135405899999999357e-02
4.326126200000000172e-02
4.771043099999999759e-02
5.310516499999999585e-02
5.476821899999999299e-02
5.973823099999999581e-02
5.568161400000000427e-02
4.360401600000000238e-02
3.251555899999999943e-02
1.461546099999999973e-02
-3.902275999999999662e-03
1.347548199999999805e-04
1.678457900000000086e-02
1.310209800000000126e-02
-1.181746900000000058e-02
-4.398274500000000364e-02
-9.634336100000000236e-02
-1.591760700000000028e-01
-2.246771200000000079e-01
-2.897495300000000329e-01
-3.421549999999999869e-01
-4.134913199999999955e-01
-4.086949200000000171e-01
-3.254276500000000127e-01
-3.010392800000000202e-01
-1.177498300000000137e-01
