-7.911041800000000873e-03
-6.197848099999999499e-02
-8.685574900000000986e-02
-1.230938700000000080e-01
-1.384001699999999890e-01
-1.729394000000000209e-01
-1.951059700000000174e-01
-2.040659100000000170e-01
-1.882617999999999792e-01
-1.464310999999999807e-01
-1.097336599999999968e-01
-7.277631500000000808e-02
-4.627218900000000523e-02
-4.470414300000000174e-02
-4.054923000000000555e-02
-1.450579999999999925e-02
1.552806800000000077e-02
3.512959200000000115e-02
3.920746800000000226e-02
3.451453599999999844e-02
3.556845900000000366e-02
3.880586200000000346e-02
3.730048000000000391e-02
3.786429900000000404e-02
3.898015999999999981e-02
3.634889700000000501e-02
4.203611299999999995e-02
4.324054600000000470e-02
2.997999399999999939e-02
3.101473900000000297e-02
3.874472799999999911e-02
3.840054600000000068e-02
3.855665200000000375e-02
3.601946500000000051e-02
3.599607300000000343e-02
3.927718700000000507e-02
4.353208599999999762e-02
4.598650199999999855e-02
4.055451799999999773e-02
3.775956999999999925e-02
4.184436799999999984e-02
4.330442799999999898e-02
4.333088799999999796e-02
4.302756500000000373e-02
3.811686300000000083e-02
3.681747200000000386e-02
4.113957299999999873e-02
4.119337499999999735e-02
4.198949200000000326e-02
4.600397299999999662e-02
4.269978500000000399e-02
3.658936999999999606e-02
3.601917200000000208e-02
3.744616599999999601e-02
3.997277500000000205e-02
4.182057000000000135e-02
4.112978800000000046e-02
4.234955899999999496e-02
3.822211099999999612e-02
3.417154399999999814e-02
3.942732599999999865e-02
4.032606300000000227e-02
4.168957300000000060e-02
4.237429499999999932e-02
3.649082499999999757e-02
3.813217199999999890e-02
4.098269200000000112e-02
3.759558300000000186e-02
3.843555099999999836e-02
4.248264399999999996e-02
4.606736599999999848e-02
4.923730999999999941e-02
4.643900599999999795e-02
4.400932700000000086e-02
4.493833099999999803e-02
4.639990100000000034e-02
5.266026299999999882e-02
5.616494500000000084e-02
5.187008499999999633e-02
4.855711799999999634e-02
5.143150500000000236e-02
5.501156599999999786e-02
5.423016200000000536e-02
5.303889600000000204e-02
5.461431799999999503e-02
5.501343499999999942e-02
5.513220900000000146e-02
5.765600299999999734e-02
6.004395700000000197e-02
6.160494399999999482e-02
5.490645899999999774e-02
5.097306700000000385e-02
5.884481400000000223e-02
6.313111099999998976e-02
6.592775900000000244e-02
6.022545099999999929e-02
5.546013500000000068e-02
6.102620500000000003e-02
5.860501500000000336e-02
6.070907599999999377e-02
6.190123699999999785e-02
5.726017900000000133e-02
5.816066500000000028e-02
5.793241200000000257e-02
6.212169299999999866e-02
6.442209100000000077e-02
5.920673699999999540e-02
6.022302000000000211e-02
6.131354100000000612e-02
5.794537100000000246e-02
6.065469199999999617e-02
5.975603999999999638e-02
5.866516200000000680e-02
5.947497200000000095e-02
4.754061199999999598e-02
3.786215299999999562e-02
3.301738299999999737e-02
3.206099999999999922e-02
3.944122500000000336e-02
4.441296599999999817e-02
4.350337699999999586e-02
3.015946700000000230e-02
1.265218899999999945e-02
-2.139688199999999901e-03
-2.779400599999999957e-02
-5.321179900000000407e-02
-6.344165599999999905e-02
-7.505976200000000209e-02
-9.709346500000000380e-02
-1.217135199999999917e-01
-1.557703899999999808e-01
-2.060874300000000159e-01
-2.586479400000000206e-01
-3.230049799999999971e-01
-3.673954899999999912e-01
-4.029081599999999597e-01
-4.138587399999999472e-01
-3.196696799999999561e-01
-2.534654000000000074e-01
-9.424309000000000158e-02
