-2.987569600000000020e-02
-1.294083400000000106e-01
-2.057219700000000040e-01
-2.660370900000000316e-01
-2.739686199999999960e-01
-2.522550499999999807e-01
-2.031425000000000036e-01
-1.274880800000000036e-01
-7.315999199999999314e-02
-6.216811599999999549e-02
-4.516604200000000346e-02
-8.245104899999999501e-03
1.625544300000000136e-02
1.170466799999999967e-02
1.765047999999999964e-02
1.620697500000000194e-02
1.460177600000000034e-02
2.431969200000000039e-02
1.957173699999999877e-02
1.687195999999999835e-02
1.760048399999999957e-02
1.603517000000000137e-02
1.816310800000000072e-02
2.630422800000000241e-02
2.283000900000000180e-02
2.237065400000000023e-02
1.584631599999999918e-02
2.427931399999999976e-02
1.572692199999999735e-02
1.520510200000000159e-02
1.755904500000000229e-02
1.346968299999999966e-02
1.254974799999999946e-02
1.273061299999999826e-02
1.082532699999999917e-02
5.399845700000000144e-03
5.454413800000000243e-03
1.265609799999999844e-03
3.822277899999999666e-03
4.395354100000000222e-03
7.537871499999999544e-03
1.225722500000000006e-02
7.510815399999999815e-03
1.169069000000000011e-02
1.263723200000000171e-02
1.128689600000000112e-02
1.160183000000000048e-02
1.559699800000000081e-02
2.289381900000000275e-02
2.035910800000000076e-02
2.199550999999999937e-02
2.715095799999999587e-02
3.210806399999999866e-02
3.131998100000000368e-02
3.758841599999999949e-02
4.448923600000000145e-02
4.360681400000000069e-02
4.625987899999999681e-02
4.507251899999999839e-02
3.792689200000000371e-02
3.560752699999999993e-02
4.031021499999999647e-02
4.004656799999999767e-02
4.187873899999999816e-02
3.945904599999999762e-02
3.930632700000000201e-02
4.322963800000000079e-02
3.754033999999999843e-02
3.218307299999999954e-02
3.357924199999999526e-02
3.159487500000000143e-02
3.293988400000000261e-02
3.576918199999999659e-02
3.125455100000000541e-02
3.129521799999999965e-02
3.749875200000000325e-02
3.128873399999999860e-02
3.222091800000000117e-02
2.658243900000000284e-02
4.152268599999999615e-02
4.599958900000000045e-02
4.076442400000000049e-02
4.436165200000000142e-02
4.214079399999999531e-02
4.728999300000000239e-02
4.592241300000000220e-02
4.303551099999999852e-02
4.032712399999999892e-02
4.371019300000000135e-02
4.220546000000000020e-02
4.200889900000000232e-02
5.565182500000000199e-02
4.846322599999999814e-02
4.277524500000000340e-02
4.329968599999999695e-02
4.275075099999999656e-02
4.419751200000000130e-02
4.632310499999999637e-02
3.608886000000000038e-02
3.600851900000000272e-02
3.662668100000000121e-02
3.679313900000000248e-02
3.771184699999999973e-02
3.392659199999999847e-02
3.305737300000000101e-02
2.777711299999999911e-02
2.830049600000000137e-02
2.395839699999999933e-02
1.951160700000000026e-02
2.534650399999999887e-02
2.373844300000000143e-02
2.531778499999999890e-02
3.224785299999999993e-02
3.983802499999999913e-02
4.642937200000000347e-02
5.823263099999999998e-02
6.809683699999999340e-02
7.399139200000000305e-02
7.968726499999999324e-02
8.715553700000000514e-02
8.270500899999999600e-02
9.055040300000000153e-02
1.142431699999999911e-01
1.169132999999999978e-01
1.081897200000000031e-01
9.162213599999999292e-02
7.524126000000000425e-02
4.609232200000000501e-02
4.508899100000000187e-02
3.828235500000000402e-02
8.081155399999999725e-03
-5.352591599999999283e-02
-1.312960900000000042e-01
-1.990359500000000170e-01
-2.951540200000000169e-01
-4.227879700000000129e-01
-4.800661700000000143e-01
-4.074088899999999680e-01
-2.797539199999999893e-01
-2.174286400000000063e-01
