8.743290200000000678e-02
6.547104600000000843e-03
-1.079817400000000066e-01
-1.941562299999999852e-01
-2.430450700000000297e-01
-2.730194499999999969e-01
-2.860026500000000249e-01
-2.757775100000000035e-01
-2.660946299999999987e-01
-2.602373399999999837e-01
-2.285064199999999879e-01
-1.776089000000000140e-01
-1.253557000000000143e-01
-8.897232800000000330e-02
-7.638009399999999560e-02
-6.128758499999999859e-02
-4.035048900000000327e-02
-1.972911999999999930e-02
7.213334699999999870e-03
2.594858800000000160e-02
3.058778799999999770e-02
2.803902999999999951e-02
2.307066099999999925e-02
2.635601699999999895e-02
3.360047199999999928e-02
3.120967800000000111e-02
2.701141899999999832e-02
3.015244300000000099e-02
3.377829799999999827e-02
3.565113999999999783e-02
2.909539600000000253e-02
2.091609399999999966e-02
2.895254400000000367e-02
3.438858799999999771e-02
2.646455799999999914e-02
2.298063399999999978e-02
2.337009799999999887e-02
2.237781399999999934e-02
2.420554600000000139e-02
2.732542600000000335e-02
2.895823799999999726e-02
2.857658000000000073e-02
2.424923000000000009e-02
1.790107499999999893e-02
1.861033599999999816e-02
2.202331199999999975e-02
1.783694799999999830e-02
1.806801200000000135e-02
1.881024599999999922e-02
1.445615299999999936e-02
1.998473199999999811e-02
1.799491599999999969e-02
1.064045299999999937e-02
1.305936900000000123e-02
8.223480800000000299e-03
9.514183700000001381e-03
1.198005100000000024e-02
1.138719900000000149e-03
1.157286200000000060e-03
3.283289300000000101e-03
7.114309400000000221e-04
7.473346300000000171e-03
8.487871900000000872e-03
1.959229700000000070e-03
6.870981700000000636e-03
1.334128599999999908e-02
1.109005700000000039e-02
1.313293500000000183e-02
1.562107000000000079e-02
1.192192100000000025e-02
1.492410100000000038e-02
2.454538300000000048e-02
3.246789700000000251e-02
3.979291899999999604e-02
3.834018900000000368e-02
3.125619100000000261e-02
3.554361300000000168e-02
4.125506699999999943e-02
4.441810999999999676e-02
5.444857699999999801e-02
6.086986500000000216e-02
6.137829999999999675e-02
6.102034099999999878e-02
5.917552400000000018e-02
5.769719800000000509e-02
5.578762499999999347e-02
5.560447899999999832e-02
5.749241299999999916e-02
5.890924499999999897e-02
6.275064799999999221e-02
6.871685800000000566e-02
7.501306199999999147e-02
7.934257799999999694e-02
7.608432899999999222e-02
6.727196300000000406e-02
6.295535900000000240e-02
7.003836500000000520e-02
7.438597599999999255e-02
6.852027899999998950e-02
7.376956900000000705e-02
7.907039800000000007e-02
7.177971899999999184e-02
7.470719099999999224e-02
7.722300199999999892e-02
6.917200100000001073e-02
7.131983499999999809e-02
7.860783400000000143e-02
8.001721600000000212e-02
8.270475099999999302e-02
8.071665000000000090e-02
7.530258600000000468e-02
7.890140100000000989e-02
7.600809499999999774e-02
6.517630900000000171e-02
5.779951300000000375e-02
5.117422700000000269e-02
5.518130400000000046e-02
6.006860099999999925e-02
6.356599899999999803e-02
7.049298299999999518e-02
5.902802499999999786e-02
4.996954800000000252e-02
5.325874200000000475e-02
4.758413000000000226e-02
5.849225799999999836e-02
8.627805200000000785e-02
8.865826000000000262e-02
6.437872999999999513e-02
2.986185700000000207e-02
-2.262389799999999992e-02
-9.180018199999999406e-02
-1.567661499999999930e-01
-2.208568099999999867e-01
-2.945886300000000180e-01
-3.478197000000000094e-01
-3.463720499999999869e-01
-2.780912500000000120e-01
-1.714027399999999979e-01
-7.415975900000000565e-02
2.495886099999999885e-02
