-4.697062999999999933e-02
-8.782036199999999904e-02
-1.007522400000000068e-01
-1.255968299999999926e-01
-1.318222500000000019e-01
-1.172894499999999895e-01
-8.114643299999999004e-02
-3.723228399999999744e-02
-2.205799500000000038e-02
-3.808992299999999862e-03
1.862447000000000061e-02
2.320049700000000048e-02
2.209033800000000103e-02
2.124651799999999896e-02
2.375610599999999906e-02
2.845743700000000209e-02
2.777361300000000255e-02
2.735097799999999801e-02
2.665381399999999790e-02
2.681133299999999969e-02
2.689435800000000015e-02
2.795075100000000284e-02
2.647045900000000174e-02
2.370613199999999782e-02
2.489012900000000042e-02
2.350057900000000061e-02
1.973703099999999863e-02
2.149601599999999973e-02
2.305071300000000045e-02
1.752473200000000120e-02
1.824228699999999939e-02
1.908942100000000225e-02
2.063508500000000093e-02
1.769527400000000042e-02
1.588699699999999992e-02
1.775374199999999944e-02
1.459607800000000191e-02
1.608051199999999820e-02
1.459226199999999994e-02
1.253086200000000025e-02
1.336566999999999963e-02
1.705903500000000017e-02
1.926518399999999770e-02
1.972532499999999842e-02
2.113585600000000148e-02
2.182117899999999958e-02
2.734287399999999965e-02
2.738728600000000027e-02
2.957474600000000245e-02
2.895901199999999925e-02
3.141995799999999783e-02
3.245532199999999479e-02
3.235419999999999963e-02
3.382864800000000283e-02
3.287310000000000232e-02
3.403506499999999629e-02
3.054837699999999809e-02
3.073729099999999992e-02
3.387931699999999907e-02
3.226744999999999614e-02
2.975812500000000332e-02
3.180576499999999973e-02
3.248613399999999984e-02
3.300038400000000066e-02
3.367015899999999812e-02
3.387255900000000347e-02
3.320761700000000177e-02
3.419845000000000523e-02
3.437568300000000410e-02
3.633070000000000049e-02
3.704455999999999721e-02
3.789828800000000220e-02
3.966428799999999893e-02
3.905909800000000043e-02
4.537533500000000275e-02
4.667142999999999986e-02
4.764336400000000055e-02
4.894918899999999712e-02
4.612159000000000397e-02
4.816243700000000239e-02
5.146951400000000787e-02
5.335708300000000653e-02
5.489171299999999476e-02
4.902232200000000012e-02
4.879713700000000431e-02
4.893651699999999882e-02
4.909548600000000068e-02
4.703929899999999970e-02
4.403888899999999773e-02
4.600386899999999585e-02
4.371781100000000225e-02
4.269925399999999899e-02
4.127520399999999590e-02
4.180737699999999973e-02
3.830944000000000016e-02
4.059597200000000100e-02
4.264157000000000364e-02
4.027822899999999873e-02
4.178889400000000004e-02
3.889226700000000120e-02
3.993124199999999874e-02
4.041037399999999891e-02
3.874416199999999866e-02
3.403487300000000021e-02
3.205734300000000203e-02
3.345229800000000531e-02
3.040886099999999884e-02
2.999500700000000061e-02
3.515956700000000268e-02
3.559848100000000126e-02
3.817570699999999623e-02
4.433636200000000416e-02
4.691729700000000364e-02
4.989566699999999771e-02
5.988140100000000077e-02
6.182005799999999718e-02
5.913880400000000315e-02
5.004768799999999990e-02
4.180523800000000151e-02
4.356578600000000218e-02
4.249903600000000392e-02
4.779198199999999674e-02
4.925749699999999731e-02
4.437263400000000108e-02
3.852305100000000260e-02
2.370121000000000033e-02
-4.616174600000000003e-04
-1.095045999999999867e-02
7.333688799999999938e-03
7.419801099999999774e-03
-8.341603799999999791e-02
-1.728081200000000095e-01
-2.385941799999999891e-01
-3.056302399999999975e-01
-3.582636700000000340e-01
-3.838789200000000124e-01
-3.784627999999999881e-01
-4.046644299999999639e-01
-4.230235999999999441e-01
-4.639000099999999738e-01
