-1.137917700000000004e-01
-1.405299799999999988e-01
-1.469516299999999998e-01
-1.716560899999999834e-01
-1.736828800000000117e-01
-1.737877999999999923e-01
-1.582759599999999933e-01
-1.418812100000000076e-01
-1.159222699999999939e-01
-8.861940900000001009e-02
-7.486568300000000231e-02
-6.868931000000000342e-02
-6.232438399999999656e-02
-5.706555100000000602e-02
-4.616226199999999558e-02
-3.954039399999999954e-02
-4.539207699999999596e-02
-3.924225800000000208e-02
-2.598970500000000183e-02
-3.172037300000000309e-02
-4.042157300000000231e-02
-4.312572700000000259e-02
-4.420036900000000324e-02
-4.250469599999999459e-02
-4.359968100000000124e-02
-3.920774999999999955e-02
-3.443975500000000245e-02
-4.050209999999999921e-02
-4.091090499999999741e-02
-3.857397499999999646e-02
-4.427558200000000083e-02
-4.038033300000000436e-02
-3.296665999999999486e-02
-3.264719400000000438e-02
-3.284945100000000173e-02
-3.822722700000000251e-02
-3.562374199999999991e-02
-3.103614699999999657e-02
-3.396062600000000070e-02
-3.392468599999999557e-02
-3.544724600000000170e-02
-3.730372800000000127e-02
-3.274623299999999959e-02
-2.509474600000000111e-02
-2.505006900000000120e-02
-3.360013800000000161e-02
-3.826883799999999947e-02
-3.513732700000000292e-02
-3.349376700000000068e-02
-3.589563599999999466e-02
-3.532626500000000253e-02
-2.932067000000000007e-02
-2.348920999999999995e-02
-2.011000699999999919e-02
-2.521911600000000322e-02
-2.895105399999999690e-02
-2.672851199999999941e-02
-2.437943100000000002e-02
-1.589523799999999903e-02
-1.190534700000000015e-02
-1.679354999999999737e-02
-2.510536400000000154e-02
-2.742227500000000290e-02
-1.465005500000000037e-02
-6.855181899999999995e-03
-1.802886100000000019e-02
-2.789686699999999880e-02
-2.873943699999999962e-02
-2.930723499999999745e-02
-2.835358499999999712e-02
-2.332727500000000148e-02
-2.183034799999999942e-02
-2.382116999999999915e-02
-2.600270599999999696e-02
-2.797477699999999928e-02
-2.916330699999999942e-02
-3.147180600000000494e-02
-2.728800299999999818e-02
-2.604965799999999637e-02
-3.062218400000000368e-02
-3.039816699999999677e-02
-2.603545199999999712e-02
-1.910347199999999981e-02
-1.950614099999999768e-02
-2.909161299999999881e-02
-3.429803900000000239e-02
-3.272398599999999658e-02
-2.890494499999999786e-02
-2.385040700000000055e-02
-2.312638700000000172e-02
-3.292342899999999711e-02
-4.193513100000000049e-02
-3.675945700000000232e-02
-2.737762899999999708e-02
-1.779279300000000119e-02
-1.522732499999999989e-02
-1.483008299999999911e-02
-1.564054200000000033e-02
-2.036054200000000231e-02
-1.863081999999999933e-02
-2.100785599999999836e-02
-2.283495199999999864e-02
-2.303022199999999950e-02
-2.647929299999999750e-02
-2.162737999999999813e-02
-1.649061800000000202e-02
-1.802546499999999746e-02
-1.781361899999999929e-02
-1.666546299999999842e-02
-1.164219300000000033e-02
-6.739606400000000552e-03
-3.864387600000000148e-03
-5.066638100000000512e-03
-6.699691800000000079e-03
-7.742406899999999944e-04
9.209344999999998990e-03
2.429365500000000080e-02
3.581162200000000129e-02
3.717127599999999615e-02
4.492794199999999849e-02
6.869200699999999937e-02
1.004236399999999946e-01
1.306017100000000097e-01
1.483805300000000105e-01
1.557052800000000015e-01
1.620601299999999967e-01
1.663484399999999863e-01
1.755639499999999964e-01
1.897780299999999865e-01
1.983429499999999901e-01
1.986907299999999821e-01
2.064172599999999913e-01
2.266394500000000201e-01
2.478976900000000039e-01
2.792427899999999630e-01
2.943734100000000020e-01
3.363958699999999857e-01
3.161393499999999857e-01
3.836529300000000031e-01
3.340533900000000056e-01
