-1.911834199999999928e-01
-2.443741199999999725e-01
-2.575381800000000054e-01
-2.515777799999999731e-01
-2.464979500000000212e-01
-2.255247100000000171e-01
-1.904457099999999903e-01
-1.392689500000000025e-01
-9.222003199999999346e-02
-8.257948200000000960e-02
-7.051099499999999298e-02
-4.643037199999999753e-02
-2.536418400000000142e-02
-1.849021999999999818e-02
-1.918549900000000169e-02
-2.554416400000000115e-02
-2.635986100000000179e-02
-2.485425800000000060e-02
-2.303075400000000050e-02
-1.799187299999999851e-02
-1.564210299999999748e-02
-1.539893300000000007e-02
-1.615142400000000103e-02
-1.867676100000000006e-02
-1.719050999999999912e-02
-1.878057500000000074e-02
-1.698998399999999964e-02
-2.166427300000000125e-02
-2.472627499999999895e-02
-2.120414999999999800e-02
-2.033494200000000168e-02
-2.244474299999999964e-02
-2.346824399999999922e-02
-2.803021199999999880e-02
-2.623805000000000234e-02
-2.778016999999999986e-02
-3.773913599999999952e-02
-2.930050900000000236e-02
-3.038519399999999732e-02
-3.134644100000000266e-02
-3.065219000000000277e-02
-3.294065499999999924e-02
-3.774702700000000244e-02
-3.524941499999999922e-02
-3.300011199999999811e-02
-2.963630800000000010e-02
-3.657819699999999979e-02
-3.350270300000000173e-02
-3.156595899999999760e-02
-2.606852200000000022e-02
-2.352001899999999965e-02
-3.095994799999999755e-02
-2.886077100000000034e-02
-2.655081100000000055e-02
-2.157542400000000277e-02
-1.291824199999999992e-02
-1.027581600000000012e-02
-6.752567099999999718e-03
3.319109099999999809e-03
-4.510453400000000342e-03
4.125946499999999864e-03
5.171646999999999703e-03
-3.657576500000000227e-03
4.753643300000000640e-03
4.328863100000000103e-03
4.967149799999999969e-03
4.820087600000000014e-03
4.422373799999999681e-03
5.611929199999999944e-03
1.498265799999999983e-03
-1.201591199999999969e-03
4.899634899999999807e-03
1.083698200000000021e-02
1.288884499999999947e-02
1.116409999999999972e-02
4.438422299999999696e-03
1.364572600000000038e-02
1.370969300000000023e-02
9.911248299999999775e-03
1.190556599999999937e-02
1.046174100000000010e-02
1.558244300000000138e-02
8.707309200000000818e-03
1.345283400000000032e-02
1.694358500000000059e-02
1.855537300000000001e-02
2.206141699999999983e-02
1.510614299999999896e-02
1.685868600000000120e-02
1.439284899999999923e-02
2.596645399999999992e-02
2.359580699999999989e-02
2.151678200000000166e-02
3.022569600000000328e-02
3.323924300000000165e-02
3.504563000000000123e-02
3.298549399999999715e-02
3.360011000000000247e-02
3.668476199999999576e-02
3.869204999999999867e-02
3.950780899999999790e-02
3.579896100000000414e-02
3.336726400000000065e-02
3.827055699999999672e-02
3.804950599999999683e-02
3.980007300000000525e-02
4.908390699999999607e-02
4.862690199999999963e-02
5.328224399999999944e-02
6.619982500000000381e-02
7.907502400000000764e-02
9.497298600000000923e-02
1.002018699999999984e-01
1.111919999999999992e-01
1.260878799999999855e-01
1.489961999999999953e-01
1.643069199999999952e-01
1.730197499999999999e-01
1.809541199999999961e-01
1.851514099999999885e-01
2.064574700000000040e-01
2.180279900000000048e-01
2.262409200000000120e-01
2.442352299999999976e-01
2.592831800000000020e-01
2.473723999999999923e-01
2.222389199999999787e-01
1.825383299999999986e-01
1.612919200000000053e-01
1.134859000000000007e-01
3.765634699999999974e-02
-2.191529500000000130e-02
-6.510275000000000090e-02
-9.312297899999999462e-02
-1.024066200000000038e-01
-1.403055200000000169e-01
-1.954082000000000041e-01
-2.354802100000000231e-01
-2.497538599999999942e-01
-2.411825700000000128e-01
