4.033003899999999531e-01
3.297775199999999907e-01
4.417517099999999919e-02
-1.739473599999999953e-01
-2.987796500000000077e-01
-3.647033000000000080e-01
-2.964859499999999981e-01
-1.326780800000000038e-01
-7.416041199999999500e-02
-6.893670999999999827e-02
8.728639299999998991e-02
1.126069100000000045e-01
1.009474999999999956e-01
1.003413099999999891e-01
1.160673299999999963e-01
1.104652600000000096e-01
9.578918200000000049e-02
1.036207199999999995e-01
1.005249000000000004e-01
9.051232000000000721e-02
9.647066199999999869e-02
8.031728700000000110e-02
6.987011699999999548e-02
7.786445399999999961e-02
7.424772100000000263e-02
5.221634499999999734e-02
5.460259099999999893e-02
5.003945199999999816e-02
4.299238899999999891e-02
2.806031299999999645e-02
1.410291999999999969e-02
1.050004399999999918e-03
-6.839019800000000274e-03
-2.798784600000000025e-02
-3.034152700000000008e-02
-2.662404500000000243e-02
-3.214960099999999987e-02
-2.064513899999999985e-02
-3.236637600000000226e-02
-2.005068800000000054e-02
-3.379185199999999722e-02
-2.283751900000000057e-02
-2.956357299999999924e-02
-1.063753699999999899e-02
-7.832269200000000278e-03
1.593644699999999942e-02
1.978624500000000092e-02
2.200686599999999993e-02
3.375787599999999916e-02
3.153686800000000262e-02
4.382466899999999665e-02
3.690697899999999948e-02
4.928213099999999985e-02
5.403070599999999779e-02
4.250655799999999984e-02
4.795471700000000087e-02
4.695015500000000036e-02
4.728446700000000363e-02
5.580030000000000406e-02
6.022079500000000751e-02
4.953438500000000022e-02
5.755946199999999180e-02
3.915121500000000310e-02
3.770945700000000178e-02
3.109370799999999768e-02
3.063618000000000244e-02
4.229521099999999922e-02
4.421677300000000088e-02
5.396775099999999437e-02
5.018303699999999978e-02
5.173123200000000199e-02
5.565442200000000200e-02
5.002958100000000352e-02
5.170483500000000454e-02
5.520052300000000134e-02
6.480262300000000364e-02
4.945849700000000404e-02
4.440108599999999933e-02
4.107394999999999796e-02
5.337729000000000085e-02
5.346435299999999918e-02
4.869638899999999965e-02
3.665483600000000314e-02
3.322083099999999928e-02
3.187693899999999997e-02
2.285026199999999966e-02
2.799295700000000060e-03
9.357451399999999406e-03
1.687027399999999761e-02
6.629760799999999572e-03
1.795204200000000182e-03
-3.033925800000000089e-03
-2.458652899999999933e-02
-1.518132000000000162e-02
-1.720482699999999893e-02
-2.562401599999999946e-02
-3.801084600000000091e-02
-4.352991099999999752e-02
-3.939571900000000265e-02
-4.663601600000000236e-02
-2.368892300000000062e-02
-1.848010900000000151e-02
1.062685300000000034e-02
3.756096500000000171e-02
3.485863799999999735e-02
2.101373299999999972e-02
5.214596400000000298e-02
1.005015800000000070e-01
9.741565900000000167e-02
4.511562200000000106e-02
1.492471599999999933e-02
-3.242278299999999582e-03
-5.542532800000000461e-03
-1.091867300000000027e-02
-3.709269599999999445e-02
-7.051561300000000476e-02
-1.266662199999999960e-01
-1.586916200000000055e-01
-1.789362099999999844e-01
-1.647110099999999910e-01
-1.783294300000000110e-01
-1.674779000000000129e-01
-1.683680099999999846e-01
-1.703214700000000026e-01
-1.848993700000000073e-01
-1.790538700000000039e-01
-1.732855600000000051e-01
-1.693878799999999907e-01
-1.540043100000000054e-01
-1.653700200000000065e-01
-1.644360500000000003e-01
-1.460077099999999850e-01
-8.026877100000000265e-02
-5.502204800000000395e-02
1.277969800000000079e-02
2.497508000000000020e-02
7.685777700000000212e-02
2.995575100000000268e-02
2.668555899999999759e-02
7.083049900000000509e-02
