-1.266333500000000056e-01
-1.878288399999999969e-01
-2.195762900000000073e-01
-2.728859599999999830e-01
-2.798732300000000284e-01
-2.854217300000000401e-01
-2.581864500000000118e-01
-2.196037000000000128e-01
-1.557319600000000026e-01
-1.108036100000000107e-01
-1.102287700000000037e-01
-1.004186199999999862e-01
-7.431571400000000494e-02
-5.670892899999999820e-02
-4.991551600000000005e-02
-4.261656800000000050e-02
-3.502853899999999743e-02
-2.456445800000000082e-02
-2.825761600000000276e-02
-3.650013200000000457e-02
-3.281070600000000198e-02
-4.010885799999999723e-02
-4.302989999999999593e-02
-4.410961400000000532e-02
-4.642945199999999606e-02
-4.277075799999999900e-02
-3.310661200000000054e-02
-3.339510500000000132e-02
-3.928388400000000502e-02
-3.398130900000000121e-02
-3.651012099999999955e-02
-4.298974099999999798e-02
-3.608013599999999876e-02
-3.588057000000000052e-02
-3.867329800000000178e-02
-3.294647199999999748e-02
-3.876132200000000083e-02
-4.365481999999999696e-02
-3.087180400000000269e-02
-3.649978300000000092e-02
-4.226611300000000099e-02
-4.044826599999999661e-02
-4.411867300000000408e-02
-3.292967200000000011e-02
-3.554110700000000234e-02
-4.482090899999999906e-02
-6.228919899999999649e-02
-6.059890999999999195e-02
-6.035691800000000246e-02
-6.515697800000000428e-02
-6.299891800000000097e-02
-6.370043599999999917e-02
-5.772496800000000150e-02
-6.949009200000000330e-02
-7.652802200000000110e-02
-6.743008500000000072e-02
-6.172032800000000485e-02
-6.185404399999999692e-02
-6.518012399999999207e-02
-6.011347999999999692e-02
-5.138830500000000218e-02
-5.219284999999999897e-02
-5.246377500000000416e-02
-4.903110299999999949e-02
-4.611055499999999752e-02
-3.845848799999999901e-02
-2.725152800000000403e-02
-2.145429000000000086e-02
-1.255276600000000166e-02
-1.340590600000000042e-02
-1.673693199999999950e-02
-1.219713700000000026e-02
-7.875371299999999603e-03
-3.532329299999999953e-03
-1.006926399999999921e-03
-6.636591100000000312e-03
-1.027801700000000040e-02
1.079188600000000053e-02
1.382794400000000000e-02
-5.623904500000000486e-03
-8.296710500000000280e-03
4.878777799999999346e-03
1.074386899999999964e-02
-1.419275299999999947e-04
-1.327517199999999915e-03
5.775049499999999718e-03
3.796442299999999801e-03
8.254663599999999962e-03
1.424923700000000140e-02
2.240746799999999983e-02
2.200470599999999888e-02
1.725809799999999949e-02
2.592560099999999951e-02
2.778451300000000027e-02
2.396579400000000207e-02
3.539189999999999697e-02
4.613636299999999968e-02
5.057092399999999627e-02
5.435738100000000322e-02
4.700080400000000019e-02
4.443242900000000245e-02
3.935129199999999605e-02
3.444453599999999782e-02
4.554120799999999969e-02
5.460981999999999642e-02
5.513234999999999664e-02
4.979856400000000349e-02
5.498596900000000259e-02
6.726316599999999923e-02
6.273537300000001093e-02
6.899207200000000151e-02
8.055248299999999417e-02
8.566796000000000133e-02
8.703485199999999589e-02
7.687249200000000060e-02
6.982865700000000231e-02
7.652679999999999205e-02
8.265410800000000391e-02
8.061420700000000716e-02
8.060568700000000919e-02
8.340783599999999909e-02
8.731207100000000498e-02
8.235395300000000751e-02
6.849145900000000453e-02
6.863541399999999182e-02
8.382853300000001062e-02
9.121773800000000654e-02
1.160036899999999926e-01
1.527420899999999970e-01
1.714654700000000087e-01
1.889730599999999983e-01
1.792476100000000017e-01
1.716184699999999952e-01
1.862646500000000038e-01
2.106375500000000067e-01
2.530306900000000025e-01
3.115433900000000311e-01
3.045141000000000098e-01
2.542241100000000031e-01
2.019470899999999958e-01
