-8.496129100000000822e-02
-1.044221400000000105e-01
-8.373010999999999648e-02
-1.030716399999999922e-01
-7.531751000000000418e-02
-5.899433200000000349e-02
-8.838886500000001090e-02
-8.881036800000000064e-02
-5.788731200000000326e-02
-3.027649800000000238e-02
-2.055514300000000141e-02
-2.595507899999999896e-02
-3.170354200000000122e-02
-2.862889499999999796e-02
-1.390127700000000008e-02
-1.197793800000000047e-02
-3.131855499999999792e-02
-3.618111200000000138e-02
-3.702104999999999979e-02
-5.256427500000000752e-02
-4.164615500000000414e-02
-1.877385200000000059e-02
-2.863001600000000119e-02
-3.914219400000000515e-02
-3.585108499999999782e-02
-4.313188299999999586e-02
-5.224048900000000106e-02
-5.152959799999999591e-02
-4.624666700000000519e-02
-4.271488099999999621e-02
-4.023474700000000126e-02
-3.250206900000000149e-02
-2.650398600000000021e-02
-3.367791399999999630e-02
-4.519670599999999622e-02
-4.749873500000000026e-02
-4.769827799999999673e-02
-5.453056499999999612e-02
-6.307678499999999633e-02
-6.992009200000000313e-02
-6.658036300000000351e-02
-4.710791400000000073e-02
-3.462511199999999956e-02
-4.290434900000000135e-02
-4.884407200000000226e-02
-4.515849800000000525e-02
-5.020824900000000340e-02
-5.824876599999999349e-02
-5.492104500000000167e-02
-5.378473000000000281e-02
-5.870814500000000324e-02
-5.566501900000000308e-02
-4.396825199999999934e-02
-2.516359300000000146e-02
-1.098674300000000020e-02
-1.604293099999999986e-02
-2.571649200000000052e-02
-2.623294400000000109e-02
-2.261006200000000022e-02
-1.367567299999999930e-02
1.274483600000000016e-04
1.052492500000000095e-02
2.187758599999999748e-02
2.882917099999999719e-02
9.368687599999999879e-03
-6.208267200000000020e-03
5.819844900000000106e-03
-3.221191600000000189e-03
-1.559095100000000046e-02
5.359070100000000100e-03
1.127876899999999925e-02
1.505562599999999904e-02
4.101591999999999738e-02
3.242732400000000043e-02
-8.042776200000000680e-04
-1.091813799999999911e-02
-1.077011300000000130e-02
-8.292763899999999744e-03
-5.251946900000000265e-03
-1.590038499999999952e-02
-3.036805499999999797e-02
-2.657902200000000076e-02
-6.384256000000000479e-03
6.070079799999999982e-04
-1.337535099999999973e-03
1.137966400000000114e-02
-2.361973399999999987e-03
-4.280111099999999585e-02
-3.855620299999999723e-02
-1.871356700000000040e-02
-2.623665800000000298e-02
-1.558368199999999801e-02
-2.557850799999999807e-03
-2.500577799999999934e-02
-3.607361199999999796e-02
-1.006501699999999902e-02
1.979091499999999920e-02
3.665914199999999873e-02
3.382496200000000008e-02
1.631038599999999963e-02
2.644360800000000039e-02
5.950013400000000313e-02
6.727685399999999705e-02
7.669365100000000157e-02
1.124705800000000144e-01
1.277788799999999836e-01
1.314854200000000195e-01
1.734366400000000030e-01
2.193845500000000115e-01
2.343014300000000050e-01
2.599891699999999917e-01
2.937151900000000149e-01
2.950522199999999762e-01
2.809441400000000089e-01
2.641245399999999632e-01
2.540745799999999943e-01
2.644471099999999852e-01
2.538437199999999949e-01
2.159166299999999983e-01
1.931314799999999943e-01
1.828201600000000093e-01
1.667097100000000109e-01
1.314297999999999855e-01
9.166817800000000294e-02
8.205894399999999478e-02
6.620028999999999497e-02
1.328895099999999850e-02
-3.982125000000000248e-02
-8.632651700000000539e-02
-1.305440099999999881e-01
-1.481252399999999914e-01
-1.505984699999999843e-01
-1.634562199999999854e-01
-1.603023100000000034e-01
-1.493778099999999998e-01
-1.597158800000000045e-01
-1.376392700000000080e-01
-1.396296100000000151e-01
-1.981826999999999894e-01
-8.757477399999999412e-02
