-2.500575700000000068e-01
-4.789500800000000003e-01
-4.328755599999999926e-01
-4.073579900000000587e-01
-2.663833899999999977e-01
-2.034556600000000104e-01
-1.664224699999999890e-01
-8.968536600000000247e-02
-3.919642699999999896e-02
-4.333837100000000053e-02
-4.166611900000000146e-02
-3.580655600000000327e-02
-3.836528699999999792e-02
-2.940882400000000008e-02
-3.150393899999999470e-02
-3.779019100000000075e-02
-3.769772000000000400e-02
-3.830127900000000057e-02
-4.093300600000000095e-02
-4.123310200000000064e-02
-3.742256400000000538e-02
-4.343100899999999959e-02
-5.165581600000000023e-02
-4.959096200000000232e-02
-5.360127900000000167e-02
-6.149734500000000187e-02
-6.748678700000000641e-02
-6.195230300000000023e-02
-6.417609700000000139e-02
-7.126385699999999990e-02
-6.937627300000000219e-02
-6.873010599999999914e-02
-7.950670899999999486e-02
-8.462768200000000962e-02
-7.694572499999999260e-02
-7.723533099999999041e-02
-6.866686899999999150e-02
-6.273678099999999147e-02
-6.098554499999999517e-02
-5.530595000000000649e-02
-3.731617599999999951e-02
-2.755529699999999943e-02
-1.741961800000000130e-02
-1.009739399999999912e-02
-4.070055399999999643e-03
-3.635595700000000059e-04
-6.271305500000000192e-04
6.574879100000000087e-03
8.100061599999999751e-03
1.229807599999999980e-02
1.277486400000000036e-02
2.191269499999999940e-02
1.831547000000000036e-02
2.744903000000000273e-02
2.886227300000000079e-02
2.444350799999999921e-02
2.650759700000000080e-02
3.238567299999999677e-02
2.634271200000000077e-02
2.496546499999999918e-02
3.413843200000000327e-02
4.520150099999999810e-02
5.131908799999999882e-02
4.583610700000000093e-02
5.286727100000000734e-02
5.709867100000000362e-02
6.086496799999999846e-02
6.496923899999999807e-02
7.105146599999999368e-02
6.678910799999999981e-02
6.571493800000000052e-02
7.214192499999999564e-02
6.403690600000000455e-02
7.586037300000000871e-02
7.310631700000000399e-02
6.243141700000000294e-02
6.381226599999999249e-02
6.144223899999999572e-02
6.316333799999999943e-02
6.543644600000000922e-02
5.618615300000000257e-02
4.876988599999999840e-02
4.762787599999999955e-02
5.400462000000000318e-02
5.336848500000000023e-02
4.170411300000000099e-02
4.062779600000000074e-02
3.849446000000000118e-02
5.533279500000000406e-02
3.998474500000000209e-02
3.630659700000000295e-02
3.330837700000000012e-02
3.420530100000000046e-02
3.545341200000000359e-02
3.154859899999999662e-02
3.078961399999999987e-02
3.068746399999999763e-02
2.929250700000000235e-02
4.231171400000000027e-02
4.840331199999999695e-02
7.536032200000000736e-02
9.593300400000000228e-02
1.166552400000000073e-01
1.314870900000000009e-01
1.532868599999999970e-01
2.018145399999999867e-01
2.143158399999999797e-01
2.036515299999999973e-01
1.890779999999999961e-01
1.585279399999999783e-01
1.352134600000000075e-01
1.121925599999999967e-01
7.487372800000000050e-02
1.677938799999999925e-02
-1.412339800000000055e-02
-3.266502000000000294e-02
-3.244972699999999766e-02
-3.704846099999999781e-02
-3.467301999999999884e-02
-3.747265500000000055e-02
-2.637129499999999946e-02
-3.025576300000000149e-02
-2.974604000000000137e-02
-3.124969100000000305e-02
-3.453126599999999796e-02
-3.640587099999999937e-02
-2.623101099999999852e-02
-2.299219300000000105e-02
-2.104533700000000077e-02
-2.539563500000000060e-03
4.980193600000000498e-02
1.153532500000000044e-01
1.176172900000000132e-01
1.014752899999999958e-01
6.685639599999999849e-02
2.174579199999999849e-04
-3.105331599999999748e-02
-2.136226299999999939e-02
8.422914099999999349e-02
-1.150533900000000054e-01
