8.366184599999999805e-02
9.506229700000000393e-03
-7.323315700000000705e-02
-1.598475899999999839e-01
-2.512387600000000054e-01
-3.267755800000000099e-01
-3.450439900000000226e-01
-3.245442399999999838e-01
-2.657095600000000113e-01
-1.923462999999999978e-01
-1.269994000000000123e-01
-9.885328499999999907e-02
-9.028929300000000657e-02
-6.257521200000000505e-02
-8.900187800000000649e-03
3.315962299999999918e-02
3.303497700000000009e-02
2.572802399999999864e-02
2.826100599999999824e-02
2.965920000000000362e-02
2.849495599999999837e-02
2.502249599999999824e-02
2.889241799999999610e-02
2.885499300000000239e-02
3.508314499999999614e-02
3.807972499999999483e-02
2.913205899999999834e-02
2.764988600000000199e-02
2.998834000000000222e-02
3.177358800000000538e-02
3.019002100000000091e-02
2.684695899999999663e-02
2.480390199999999920e-02
2.086849299999999838e-02
2.480309199999999881e-02
1.967081300000000227e-02
1.508352400000000093e-02
1.780680200000000005e-02
6.035040499999999933e-03
9.163713100000000014e-03
1.416609500000000008e-02
8.642223699999999897e-03
1.042660599999999972e-02
-1.477711699999999847e-03
-2.416192299999999943e-04
4.030032299999999901e-03
-3.991933700000000265e-03
-5.312742500000000243e-03
-6.936549000000000187e-03
-1.128878399999999962e-02
-1.520041000000000100e-02
-2.084174400000000232e-02
-2.128458100000000033e-02
-2.180916399999999894e-02
-2.367004099999999930e-02
-2.178312500000000040e-02
-2.141269999999999979e-02
-2.051820700000000011e-02
-1.779271400000000114e-02
-1.564630700000000166e-02
-7.755038000000000556e-03
-1.308305100000000179e-02
-1.287648700000000070e-02
-2.766735499999999938e-03
-3.076914500000000208e-03
6.523397900000000096e-03
3.263712500000000381e-03
9.173712900000000406e-03
2.125733599999999821e-02
2.627814600000000222e-02
3.252636799999999995e-02
3.677606900000000151e-02
3.724804899999999835e-02
4.384599200000000030e-02
4.901675900000000002e-02
4.524378199999999628e-02
4.921250400000000413e-02
4.708262500000000295e-02
5.352717900000000112e-02
5.592144500000000018e-02
5.747780799999999829e-02
5.873905399999999888e-02
5.457708599999999688e-02
5.889163499999999773e-02
5.621149100000000232e-02
5.598668100000000342e-02
6.140781800000000290e-02
5.769275599999999782e-02
5.996616999999999920e-02
6.460352999999999235e-02
5.962502699999999711e-02
6.280387400000000953e-02
6.573982400000000226e-02
6.254351700000000680e-02
6.437575100000000883e-02
6.563085700000000078e-02
6.780517399999999584e-02
6.948779800000000340e-02
7.103343900000000377e-02
7.554434399999999938e-02
7.273513600000000578e-02
7.211107399999999723e-02
7.504393499999999217e-02
7.739618099999999445e-02
8.404927100000000872e-02
8.223920799999999420e-02
8.035674900000000509e-02
9.053908000000000789e-02
9.579645900000000047e-02
9.896015700000000692e-02
1.044369899999999934e-01
9.927388499999999227e-02
9.966987200000000657e-02
1.031923899999999950e-01
1.002657899999999935e-01
9.175879500000000411e-02
7.561039799999999533e-02
6.447375699999999266e-02
6.356425400000000059e-02
6.374862800000000163e-02
5.641010400000000258e-02
5.019105199999999989e-02
3.834294600000000275e-02
3.206538899999999970e-02
1.976412300000000150e-02
2.895854900000000010e-02
6.205396500000000259e-02
5.383183700000000738e-02
2.278514100000000181e-02
-2.518061200000000152e-02
-9.371217299999999584e-02
-1.503564099999999959e-01
-2.192935500000000038e-01
-2.928570300000000182e-01
-3.572161999999999837e-01
-3.475895800000000091e-01
-2.810230499999999965e-01
-1.545155300000000120e-01
-8.192093200000000186e-02
-6.397443899999999059e-03
