-5.147125500000000742e-02
-2.951136400000000104e-01
-4.177825699999999642e-01
-4.499400900000000147e-01
-3.629873599999999811e-01
-2.636260899999999796e-01
-1.881760199999999994e-01
-1.668921499999999891e-01
-1.026757100000000034e-01
-5.290379699999999547e-02
-3.647460300000000127e-02
-4.486159099999999927e-02
-4.175657700000000305e-02
-4.008129400000000342e-02
-3.833538599999999907e-02
-4.644483200000000533e-02
-5.727862799999999810e-02
-4.404395099999999785e-02
-4.661103999999999942e-02
-5.867275400000000751e-02
-6.975611800000000584e-02
-6.156765800000000427e-02
-5.425804699999999675e-02
-5.646367700000000378e-02
-6.673528700000000424e-02
-5.890048300000000348e-02
-6.680861500000000175e-02
-6.647135899999999376e-02
-8.353700799999999593e-02
-7.835465399999999581e-02
-7.638618599999999481e-02
-8.329588200000000164e-02
-8.378329700000000657e-02
-9.445484499999999561e-02
-8.957857700000000645e-02
-8.811407000000000267e-02
-8.233339200000000524e-02
-8.285757600000000223e-02
-8.732413199999999875e-02
-7.670638800000000035e-02
-6.890518399999999433e-02
-4.919102699999999828e-02
-5.146689200000000020e-02
-4.312749400000000233e-02
-2.805547099999999849e-02
-2.260556400000000160e-02
-6.026393399999999817e-03
-3.222430600000000291e-03
-1.716319800000000060e-03
-1.899939600000000216e-03
6.515880699999999741e-03
1.544842700000000069e-02
3.946284700000000228e-03
1.912017800000000069e-03
1.003714400000000131e-02
1.420200200000000003e-02
1.408625900000000028e-02
1.068040400000000098e-02
2.451732499999999954e-02
2.992337600000000153e-02
2.494638499999999801e-02
3.098186900000000216e-02
2.678200199999999920e-02
2.867571300000000198e-02
2.872006400000000001e-02
4.136801199999999568e-02
4.907417199999999924e-02
5.521551599999999921e-02
5.014519400000000404e-02
5.278732000000000563e-02
6.160085600000000244e-02
5.955890099999999743e-02
6.563988400000000945e-02
6.476564099999999879e-02
5.726817499999999755e-02
6.369418699999999933e-02
5.494143700000000269e-02
5.213098299999999879e-02
5.251832699999999660e-02
5.655339499999999242e-02
5.611543100000000728e-02
4.964868900000000279e-02
4.279349500000000084e-02
5.660772600000000404e-02
5.212406200000000572e-02
5.471451699999999724e-02
4.712928499999999993e-02
3.218752700000000050e-02
4.443733999999999879e-02
3.900616800000000078e-02
4.299690099999999710e-02
5.276380499999999696e-02
3.831799699999999947e-02
3.917762699999999959e-02
3.654208299999999604e-02
3.973225699999999999e-02
5.979605000000000337e-02
7.965143099999999476e-02
9.410100799999999988e-02
1.069930199999999942e-01
1.172809100000000021e-01
1.417065900000000211e-01
1.712427799999999833e-01
1.802328799999999842e-01
1.708484700000000023e-01
1.722797799999999935e-01
1.682478300000000149e-01
1.428868400000000149e-01
1.197094300000000056e-01
1.047795400000000043e-01
7.814932999999998908e-02
3.912167100000000369e-02
-2.336788800000000018e-04
-1.225149199999999924e-02
-2.247991099999999826e-02
-1.617244200000000215e-02
-1.677176600000000045e-02
-2.266998500000000014e-02
-1.877332999999999780e-02
-1.848422699999999891e-02
-2.746438099999999952e-02
-2.558043500000000206e-02
-1.943591500000000152e-02
-2.047025599999999917e-02
-1.839731400000000142e-02
-1.962280999999999748e-02
-1.433806800000000069e-02
-9.016654400000000819e-03
9.270402000000000503e-03
3.088781299999999660e-02
8.849977600000000222e-02
8.789683800000000491e-02
8.555717499999999920e-02
1.153004200000000007e-01
1.219933200000000023e-01
9.232929800000000409e-02
9.464987099999999653e-02
1.560493399999999808e-01
2.037048599999999876e-01
6.097240700000000103e-03
