-2.315078599999999959e-02
-1.319157799999999825e-01
-2.388385299999999933e-01
-3.204472200000000326e-01
-4.171284199999999442e-01
-4.208953000000000277e-01
-3.189653399999999861e-01
-1.913541900000000073e-01
-1.535916099999999895e-01
-1.430330700000000121e-01
-6.128764100000000381e-02
-3.411780200000000263e-02
-3.657050900000000104e-02
-3.823935299999999676e-02
-3.801872499999999627e-02
-4.040251300000000101e-02
-4.046858099999999653e-02
-5.290194000000000146e-02
-2.964573699999999840e-02
-2.201266199999999881e-02
-1.815387300000000093e-02
-9.373908199999999441e-03
-4.215729699999999636e-02
-5.572210100000000305e-02
-3.261390200000000017e-02
-3.326601199999999758e-02
-3.069725400000000021e-02
-3.130950899999999926e-02
-3.889723500000000223e-02
-3.748681799999999814e-02
-2.695321299999999670e-02
-2.947578299999999846e-02
-3.384917999999999955e-02
-4.441703900000000538e-02
-4.192875199999999969e-02
-3.357477799999999957e-02
-3.015940899999999814e-02
-4.122130699999999870e-02
-4.728141699999999920e-02
-3.537364900000000006e-02
-2.380546500000000135e-02
-2.506378599999999762e-02
-2.146322999999999981e-02
-3.349727100000000207e-02
-2.556365299999999868e-02
-9.690833899999999265e-03
-1.156508200000000083e-02
1.269430499999999948e-02
6.422715199999999916e-03
-1.079235800000000016e-02
9.252044500000000671e-03
3.309457999999999844e-02
5.498831000000000031e-03
-4.545040400000000327e-03
1.094959099999999984e-02
6.469363300000000212e-03
1.553842400000000033e-02
6.575038399999999332e-03
-3.158485400000000075e-03
1.687204900000000007e-02
3.075649700000000070e-02
4.264551600000000137e-02
1.874783600000000036e-02
-2.241005199999999975e-03
2.417778599999999972e-02
2.313692099999999779e-02
1.596281199999999983e-02
2.903318599999999902e-02
4.197501900000000230e-02
4.988117799999999824e-02
3.674440999999999818e-02
3.227682800000000046e-02
3.273602500000000193e-02
2.924047799999999683e-02
4.471324699999999763e-02
4.586472700000000097e-02
5.905446199999999507e-02
6.808506200000000175e-02
6.367737799999999282e-02
6.912992199999999643e-02
7.015164599999999806e-02
5.996329799999999821e-02
6.153846799999999895e-02
5.576568899999999329e-02
5.798887000000000486e-02
7.163399800000000428e-02
5.902123999999999565e-02
4.204516999999999977e-02
5.050107299999999355e-02
6.805312900000000387e-02
5.281060199999999816e-02
5.162718499999999905e-02
5.354385999999999868e-02
4.176905799999999780e-02
4.611574699999999860e-02
4.389363200000000187e-02
7.499558100000000560e-02
9.226527399999999435e-02
1.010158200000000062e-01
1.170895199999999886e-01
1.252505200000000041e-01
1.607329200000000013e-01
2.097954399999999997e-01
2.162000000000000033e-01
2.028075699999999926e-01
2.094008300000000100e-01
2.017510500000000151e-01
1.731207100000000110e-01
1.446721099999999927e-01
1.119521299999999969e-01
7.096119800000000311e-02
5.924784300000000142e-02
2.857576399999999656e-02
1.178963600000000091e-02
-1.231693700000000002e-02
-2.468530499999999767e-02
-2.121310200000000104e-02
-1.795935400000000029e-02
-8.987033499999999911e-03
-1.711384699999999801e-02
-8.473205500000000751e-03
-1.142189299999999894e-02
-1.329459000000000023e-02
-1.428665200000000038e-02
-3.118419000000000052e-02
-1.374911400000000151e-02
-1.071436300000000105e-02
-8.177692199999999495e-03
1.789525399999999933e-02
6.920788299999999782e-02
1.600964699999999907e-01
1.661588199999999849e-01
8.757637700000001080e-02
-1.035229600000000041e-02
-1.025209199999999876e-01
-1.793677699999999819e-01
-1.856689899999999782e-01
-1.352442199999999983e-01
-4.202889099999999878e-02
-9.314293900000000792e-02
