8.520552400000000470e-02
-3.856919100000000267e-02
-1.453745399999999965e-01
-1.870516899999999927e-01
-2.241125999999999951e-01
-2.408613799999999860e-01
-2.274242900000000012e-01
-1.880079499999999793e-01
-1.292002800000000007e-01
-8.657682299999999720e-02
-7.349933999999999634e-02
-6.047122400000000397e-02
-1.328426499999999996e-02
1.777666199999999863e-02
2.061004400000000097e-02
2.345534300000000003e-02
2.566585099999999994e-02
2.303445000000000145e-02
1.001321099999999929e-02
1.574222700000000100e-02
2.667392099999999974e-02
2.962906599999999904e-02
2.244027800000000100e-02
2.594875300000000148e-02
1.899592700000000273e-02
2.269715099999999874e-02
2.675643500000000202e-02
2.394731599999999974e-02
2.218107999999999885e-02
2.415814900000000029e-02
2.386575599999999839e-02
1.985221100000000155e-02
2.501062499999999814e-02
2.577380799999999875e-02
2.377960299999999985e-02
1.826564300000000154e-02
1.902350400000000011e-02
1.403866999999999962e-02
7.391553700000000164e-03
1.196633799999999997e-02
8.306542000000000092e-03
7.876928199999999256e-03
-5.701523099999999608e-03
-1.338862799999999910e-04
-5.733240599999999895e-03
-5.957100099999999496e-03
-2.379303099999999747e-03
-1.573093299999999903e-02
-1.191351099999999989e-02
-5.766221499999999930e-03
-8.539444999999999675e-03
-1.334319700000000108e-02
-1.469694399999999998e-02
-6.052815599999999789e-03
-9.321695100000000969e-03
-5.589162199999999882e-05
-5.318427400000000057e-04
2.164649000000000260e-03
-4.629729900000000540e-05
1.873020499999999977e-02
1.469437799999999926e-02
2.010475899999999982e-02
2.841484000000000371e-02
2.329081000000000207e-02
2.784565399999999746e-02
2.307498399999999977e-02
2.265689600000000276e-02
3.772178899999999863e-02
4.063016400000000333e-02
3.860185800000000278e-02
4.435663699999999737e-02
4.355746300000000459e-02
4.521396300000000285e-02
4.015655899999999445e-02
3.805208699999999833e-02
4.165904499999999872e-02
3.493687399999999971e-02
4.824413500000000049e-02
5.445912800000000248e-02
5.016706399999999733e-02
4.880992499999999706e-02
5.739725500000000119e-02
5.241252700000000042e-02
5.125086399999999320e-02
6.212597199999999459e-02
6.454004199999999192e-02
6.373958100000000349e-02
5.787105900000000247e-02
5.809133399999999448e-02
6.602679499999999924e-02
5.807812999999999171e-02
5.509961000000000025e-02
6.972029300000000263e-02
6.651460500000000442e-02
7.159906499999998952e-02
7.048724800000000235e-02
6.954777199999999382e-02
7.020692200000000494e-02
7.233695599999999393e-02
7.291274999999999840e-02
8.557971400000000117e-02
8.071916999999999287e-02
8.065023799999999909e-02
8.029260200000000458e-02
8.690670699999999971e-02
8.106692399999999854e-02
8.330648400000000009e-02
8.482171099999999409e-02
8.102993999999999475e-02
7.778353999999999824e-02
7.844395600000000912e-02
8.158390699999999718e-02
8.293269400000000124e-02
8.174961799999999612e-02
8.287487500000000062e-02
8.438815400000000688e-02
8.377571899999999849e-02
7.160930399999999862e-02
5.710639600000000371e-02
3.281439700000000209e-02
2.822573299999999591e-02
3.666855100000000062e-02
3.820109300000000541e-02
2.343115299999999970e-02
7.409571500000000817e-03
-1.280198399999999889e-02
-2.327177000000000065e-02
-2.972241600000000150e-02
-1.456290199999999910e-02
-1.182854499999999934e-02
-3.310486399999999774e-02
-7.499120000000000785e-02
-1.509783299999999939e-01
-2.163710700000000264e-01
-3.138706399999999785e-01
-4.268667999999999907e-01
-4.628508100000000569e-01
-3.975551700000000133e-01
-2.699382599999999854e-01
-2.019051800000000174e-01
