6.978424099999999686e-02
5.330707999999999280e-02
1.207969100000000004e-02
-5.181774500000000533e-02
-9.829954899999999995e-02
-1.148302100000000020e-01
-1.510284199999999966e-01
-1.768756300000000059e-01
-1.837708499999999856e-01
-1.431268699999999894e-01
-9.187872299999999548e-02
-6.109949999999999409e-02
-4.254444799999999860e-02
-3.776435399999999998e-02
-1.705018900000000032e-02
1.660879800000000101e-02
4.062302699999999905e-02
4.407657200000000136e-02
4.081272300000000214e-02
4.196033200000000296e-02
4.634486599999999845e-02
4.307213699999999645e-02
4.231708699999999629e-02
4.444475700000000140e-02
4.324247399999999603e-02
3.795700100000000410e-02
3.438715099999999775e-02
3.881226699999999752e-02
4.571956300000000473e-02
3.122365499999999947e-02
3.429598799999999947e-02
3.014876600000000045e-02
2.546268600000000173e-02
2.516290199999999741e-02
2.871908000000000100e-02
2.558740099999999920e-02
2.134344200000000066e-02
2.142008499999999843e-02
1.834220099999999895e-02
2.370356399999999988e-02
2.071620899999999932e-02
2.066634800000000105e-02
1.207356199999999949e-02
1.689665300000000106e-02
2.148522500000000016e-02
9.676634300000000466e-03
1.393193899999999909e-02
8.182615899999998860e-03
8.242261400000000862e-03
1.321913299999999923e-02
5.938725500000000337e-03
-2.556698300000000146e-03
1.759866400000000041e-03
-3.169989499999999964e-03
-3.882403300000000085e-03
-2.543477599999999922e-03
-6.112051200000000357e-03
-4.144756399999999577e-03
-9.607263399999999703e-03
-6.480340299999999901e-03
-7.347738500000000963e-03
-8.274703899999999446e-03
-5.280580899999999869e-03
-5.398226499999999196e-04
-2.360154599999999929e-03
6.323253200000000102e-04
7.165604299999999999e-04
6.317791399999999821e-03
7.569419500000000578e-03
5.429128499999999816e-03
1.298271400000000110e-02
1.863074600000000011e-02
2.003396400000000133e-02
2.532914800000000272e-02
3.197620199999999524e-02
2.778862999999999819e-02
3.151096299999999600e-02
3.995029199999999836e-02
3.696361399999999880e-02
3.794373399999999980e-02
4.141147399999999673e-02
3.455906799999999834e-02
4.275373899999999894e-02
4.574234800000000212e-02
4.942182099999999773e-02
4.787736799999999654e-02
4.518380699999999944e-02
5.461823300000000214e-02
5.328964099999999871e-02
5.505022999999999861e-02
5.294147500000000173e-02
5.689094900000000316e-02
5.220282299999999542e-02
5.616256400000000509e-02
5.841452900000000670e-02
5.735864699999999872e-02
6.026609800000000405e-02
6.737098500000000822e-02
6.834637999999999824e-02
6.687754799999999500e-02
6.620486500000000163e-02
6.214367800000000081e-02
6.480307600000000112e-02
6.516212300000000235e-02
7.169548400000000377e-02
7.365995499999999918e-02
7.351479499999999390e-02
7.644512400000000318e-02
8.121451200000000259e-02
8.087967700000001092e-02
7.875746499999999872e-02
7.936951999999999896e-02
9.014666099999998905e-02
9.018888799999999484e-02
9.198083900000000868e-02
8.882730099999999740e-02
8.675368499999999705e-02
8.457605500000001109e-02
8.916986699999999988e-02
8.684167299999999423e-02
6.745013499999999440e-02
4.666692800000000335e-02
3.921312899999999935e-02
4.449128000000000110e-02
4.097063899999999620e-02
9.349153699999999609e-03
-1.653839900000000224e-02
-3.847276100000000115e-02
-6.906522299999999503e-02
-9.619969500000000173e-02
-1.158390299999999956e-01
-1.336285700000000021e-01
-1.707949200000000167e-01
-2.135443300000000044e-01
-2.741645799999999911e-01
-3.050549200000000072e-01
-3.810190999999999995e-01
-4.314532699999999998e-01
-4.759823699999999880e-01
-3.805965299999999885e-01
