9.767185000000000450e-02
-3.519579400000000247e-02
-1.546312300000000084e-01
-2.405172400000000210e-01
-2.881164999999999976e-01
-2.980564099999999939e-01
-2.933870699999999720e-01
-2.817702400000000051e-01
-2.570647899999999875e-01
-2.137302799999999947e-01
-1.549408099999999844e-01
-1.022074899999999981e-01
-6.979848400000000785e-02
-5.656477600000000411e-02
-4.616891199999999945e-02
-1.613927500000000154e-02
2.352339399999999955e-02
4.312413199999999558e-02
4.679011100000000228e-02
4.570489999999999969e-02
4.343239499999999864e-02
4.500944099999999726e-02
4.071327599999999963e-02
4.429774200000000106e-02
5.294264099999999862e-02
4.349715499999999568e-02
4.158584099999999839e-02
4.942532700000000501e-02
4.711969400000000363e-02
4.352120899999999820e-02
4.325733899999999882e-02
4.450164200000000098e-02
4.193432400000000199e-02
4.209346900000000141e-02
4.807111900000000243e-02
4.590847499999999720e-02
3.835011600000000354e-02
3.222801299999999980e-02
3.535638500000000406e-02
3.927642499999999676e-02
3.112964899999999882e-02
3.149566599999999855e-02
3.373699000000000142e-02
2.920298700000000316e-02
3.159775000000000084e-02
2.804634400000000083e-02
2.225834800000000072e-02
2.224384199999999978e-02
1.723710999999999993e-02
1.841556999999999916e-02
2.592852399999999793e-02
1.932867799999999844e-02
1.266778600000000032e-02
1.771717700000000062e-02
1.501496700000000059e-02
7.586409800000000828e-03
4.694690900000000368e-03
-1.552241300000000039e-06
-1.283247099999999981e-03
1.342149500000000117e-03
-5.356439899999999822e-04
-1.982465200000000218e-04
9.233117199999999521e-04
-3.339208199999999828e-03
-4.165199399999999774e-03
-1.437544700000000040e-03
3.829422600000000065e-03
8.614018700000000001e-03
8.285621599999999295e-03
9.429836799999999006e-03
1.342506499999999992e-02
2.149232699999999857e-02
3.270245800000000369e-02
3.277031200000000283e-02
3.019492799999999935e-02
4.202876800000000107e-02
4.037731399999999748e-02
3.187749100000000085e-02
4.360234799999999911e-02
4.963982100000000064e-02
5.420956400000000175e-02
5.698296900000000831e-02
5.054992000000000513e-02
5.761585700000000643e-02
6.390795099999999063e-02
6.722427400000000053e-02
7.226247199999999427e-02
6.724073399999999645e-02
6.444944599999999357e-02
6.531330999999999942e-02
6.478009500000000975e-02
6.802293800000000501e-02
7.167352500000000182e-02
7.208596200000000342e-02
7.046149399999999952e-02
6.418259800000000737e-02
5.995093299999999792e-02
6.208691699999999841e-02
6.502580599999999156e-02
7.116067700000000551e-02
6.996651099999999512e-02
6.467430999999999874e-02
6.893009499999999679e-02
6.740951100000000529e-02
6.358629200000000259e-02
6.982671700000001036e-02
7.674587200000000664e-02
7.894759900000000719e-02
7.836394100000000640e-02
8.188182699999999037e-02
9.014936799999999362e-02
8.578598400000000956e-02
7.349272199999999644e-02
6.851324699999999934e-02
5.305815699999999469e-02
4.072493800000000219e-02
5.022394200000000059e-02
5.231271199999999733e-02
4.934709199999999518e-02
5.101669500000000079e-02
4.077299799999999780e-02
2.363194499999999795e-02
1.160504099999999997e-02
3.435283199999999981e-03
3.059188200000000080e-03
2.062319300000000147e-02
3.078416500000000222e-02
4.707786999999999736e-03
-3.509062300000000134e-02
-7.917311200000000382e-02
-1.334161700000000006e-01
-1.874935900000000155e-01
-2.439140800000000053e-01
-3.012579300000000071e-01
-3.398644000000000109e-01
-3.441059599999999885e-01
-2.794927600000000067e-01
-1.616835699999999987e-01
-6.185985400000000578e-02
6.566330000000000777e-02
