-3.384871500000000144e-02
-3.001727600000000384e-01
-4.291294700000000129e-01
-4.285052000000000305e-01
-3.570065800000000178e-01
-2.662884699999999993e-01
-1.739575899999999953e-01
-1.598641000000000090e-01
-9.942937400000000092e-02
-3.745855699999999650e-02
-3.901650199999999458e-02
-3.826249699999999948e-02
-3.997808099999999865e-02
-3.885732399999999864e-02
-3.608524600000000138e-02
-4.005957999999999741e-02
-3.539845400000000281e-02
-4.531548700000000152e-02
-3.958027499999999810e-02
-4.442789700000000092e-02
-4.930743199999999826e-02
-5.002119800000000283e-02
-4.413569199999999720e-02
-5.125347900000000456e-02
-5.667411100000000618e-02
-5.768355899999999536e-02
-6.488596300000000483e-02
-7.451478000000000268e-02
-7.533482299999999521e-02
-7.924148400000000092e-02
-8.838867200000000146e-02
-8.525988799999999201e-02
-9.550828799999999674e-02
-9.188101099999999855e-02
-1.034612099999999979e-01
-9.953376499999999627e-02
-9.023330899999999766e-02
-9.572192200000000095e-02
-8.153924099999999842e-02
-7.229851000000001027e-02
-6.561332899999999801e-02
-5.703472200000000297e-02
-4.391031499999999838e-02
-3.981436700000000328e-02
-3.065126300000000151e-02
-2.152321000000000095e-02
-1.323416099999999949e-02
-1.317547299999999831e-02
-2.979185700000000318e-03
-1.914230800000000111e-03
1.809332400000000004e-03
-4.864095300000000240e-03
9.421261099999999385e-04
3.606255899999999924e-03
4.059618499999999817e-03
8.840374800000000075e-03
4.086479199999999701e-03
1.747881199999999982e-02
1.648422499999999818e-02
1.988016100000000036e-02
2.110519100000000231e-02
1.898526399999999822e-02
2.567163800000000357e-02
2.398386400000000057e-02
2.933196699999999699e-02
3.610782799999999459e-02
4.678824200000000072e-02
5.464808799999999744e-02
4.774498400000000420e-02
6.253371800000000202e-02
7.132275099999998980e-02
7.058238199999999907e-02
6.042399499999999424e-02
6.750694699999999771e-02
6.231411799999999473e-02
6.430125600000000108e-02
6.911978500000000303e-02
6.983865499999999948e-02
6.305653199999999847e-02
5.941792700000000232e-02
5.401019099999999906e-02
5.935888099999999529e-02
5.322771099999999700e-02
5.021564499999999626e-02
5.210392499999999538e-02
5.341360099999999805e-02
4.462710200000000182e-02
4.558359599999999706e-02
3.998050100000000162e-02
4.337092599999999715e-02
3.589802599999999955e-02
2.752610800000000052e-02
3.262726800000000094e-02
2.985063299999999795e-02
3.389694899999999567e-02
3.907969000000000026e-02
5.207083500000000281e-02
7.718246800000000407e-02
9.266628600000000049e-02
9.886318899999999021e-02
1.136324099999999893e-01
1.309246700000000208e-01
1.494282399999999900e-01
1.740954200000000007e-01
1.707974300000000001e-01
1.613550599999999946e-01
1.518165100000000156e-01
1.224946199999999985e-01
1.213199300000000064e-01
9.321767799999999826e-02
7.109829900000000369e-02
5.286383999999999528e-02
1.164579099999999909e-02
-7.413018999999999858e-03
-1.854438800000000193e-02
-2.297400399999999926e-02
-3.443743999999999972e-02
-2.648413299999999998e-02
-3.008829700000000343e-02
-3.290048899999999804e-02
-3.689585599999999771e-02
-2.840826200000000010e-02
-3.853295999999999805e-02
-2.444781700000000016e-02
-2.511324399999999984e-02
-2.935894900000000224e-02
-2.131813999999999931e-02
-1.435283900000000092e-02
-2.090251300000000104e-02
-4.469932000000000245e-03
5.354868799999999707e-02
1.017481099999999888e-01
1.210925300000000038e-01
1.619307100000000055e-01
1.977172399999999886e-01
1.917113599999999973e-01
1.479035099999999880e-01
8.939228099999999011e-02
1.087766199999999905e-01
8.484013700000000990e-02
