4.222791800000000317e-01
1.460415100000000133e-01
-1.200318999999999969e-01
-2.621886999999999968e-01
-3.852009399999999917e-01
-3.542705899999999963e-01
-2.007546299999999895e-01
-1.260895599999999894e-01
-1.111586699999999872e-01
1.739923100000000111e-02
7.755546500000000398e-02
5.392457200000000395e-02
4.993604299999999940e-02
5.546669899999999431e-02
6.710285200000000450e-02
4.925695600000000451e-02
4.478375199999999612e-02
4.869675700000000024e-02
2.488989800000000058e-02
2.037405399999999908e-02
4.100079699999999855e-02
2.266721000000000014e-02
1.965226700000000104e-02
-5.142806399999999903e-03
-9.474431699999999110e-03
-1.335392499999999913e-02
-1.927989999999999912e-02
-3.363986400000000543e-02
-4.182170999999999805e-02
-4.300821000000000505e-02
-6.079867500000000341e-02
-6.632093899999999542e-02
-7.117285900000000498e-02
-7.626401200000000602e-02
-8.257946900000000257e-02
-7.298712899999999781e-02
-8.944223300000000987e-02
-8.485852299999999127e-02
-8.955951100000000831e-02
-1.005420200000000097e-01
-7.671856800000000087e-02
-8.201134899999999728e-02
-6.421266700000000105e-02
-5.566869500000000415e-02
-4.412945000000000062e-02
-2.499089600000000203e-02
-1.987631800000000046e-02
-1.238842000000000068e-02
-1.162565599999999984e-02
1.029038500000000058e-04
1.408279400000000091e-02
1.393013300000000079e-02
7.718000200000000102e-03
2.173591500000000148e-02
2.225609299999999763e-02
1.176608799999999920e-02
2.173096700000000034e-02
2.045917100000000169e-02
1.092131199999999899e-02
3.627453500000000358e-02
3.816258599999999834e-02
2.101557500000000162e-02
3.271408499999999692e-02
2.671306500000000111e-02
2.501070200000000271e-02
2.808900500000000022e-02
3.177733500000000377e-02
3.464889499999999900e-02
4.461083799999999988e-02
4.947603500000000154e-02
5.504550700000000740e-02
5.447679199999999611e-02
4.390542000000000056e-02
5.354808100000000431e-02
6.235167000000000487e-02
7.132704600000000505e-02
6.146757600000000293e-02
6.366146200000000199e-02
5.580875400000000208e-02
4.115032100000000359e-02
4.765305499999999972e-02
6.118729099999999782e-02
3.796836800000000234e-02
3.826466800000000168e-02
4.370055899999999993e-02
3.568191799999999997e-02
1.711963799999999952e-02
2.809723499999999818e-02
2.337373100000000176e-02
9.681569299999999781e-03
1.659086900000000114e-02
8.805645300000001369e-03
4.570288399999999744e-03
2.807131899999999909e-03
2.890079200000000327e-03
-7.607052999999999905e-03
3.274205200000000152e-04
-1.639040099999999889e-02
-8.383841999999998990e-03
-8.790669800000001227e-03
-7.450836899999999617e-04
4.175647999999999860e-02
7.400910600000000505e-02
9.234427100000000554e-02
9.363172399999999951e-02
1.313802900000000107e-01
1.882545099999999860e-01
2.295095799999999908e-01
2.249870599999999887e-01
2.300565300000000091e-01
1.850131200000000031e-01
1.769986699999999968e-01
1.390646700000000013e-01
8.102366699999999367e-02
2.247374900000000120e-02
-5.613123199999999619e-02
-1.003990600000000122e-01
-1.125840500000000050e-01
-1.165959099999999971e-01
-1.281544500000000031e-01
-1.263624200000000031e-01
-1.122148700000000082e-01
-1.284997400000000012e-01
-1.342347700000000033e-01
-1.024827900000000042e-01
-1.157465900000000103e-01
-1.328342499999999871e-01
-1.173497900000000094e-01
-1.249580899999999939e-01
-1.144846000000000058e-01
-1.107935099999999978e-01
-9.612132700000000640e-02
-2.648014000000000270e-02
1.609636100000000044e-03
3.139507999999999882e-02
8.868597999999999759e-02
8.409270500000000370e-02
9.773471899999999768e-02
3.794039300000000281e-02
4.226057300000000266e-02
