1.386183699999999908e-01
1.539725000000000121e-01
1.276299700000000092e-01
7.078640499999999669e-02
1.537105300000000084e-03
-6.726976099999999736e-02
-8.935490399999999889e-02
-1.224158800000000047e-01
-1.627557500000000046e-01
-1.769015700000000080e-01
-1.554715700000000034e-01
-1.087426900000000030e-01
-6.729213300000000397e-02
-3.966308300000000175e-02
-2.789080199999999926e-02
-3.063160599999999872e-02
-1.463145100000000018e-02
2.382280599999999846e-02
5.268589099999999859e-02
5.509832099999999178e-02
5.096126299999999970e-02
5.316263499999999975e-02
5.416948800000000175e-02
5.394324499999999384e-02
5.050530699999999928e-02
4.628827400000000425e-02
4.712757000000000057e-02
4.860107400000000105e-02
4.811659399999999864e-02
5.067061400000000271e-02
4.423562899999999853e-02
4.200958300000000312e-02
4.873692400000000091e-02
3.612529099999999688e-02
3.640132899999999616e-02
3.442013900000000237e-02
3.124942800000000270e-02
4.220170999999999645e-02
3.908377600000000063e-02
3.586608100000000104e-02
3.076668499999999848e-02
3.004746400000000289e-02
3.490221100000000243e-02
3.068198300000000295e-02
2.792176299999999875e-02
2.985762599999999822e-02
2.284330799999999967e-02
1.951938400000000073e-02
2.397189300000000106e-02
2.045512600000000056e-02
2.151519600000000032e-02
1.849532400000000049e-02
9.932736899999999175e-03
1.545715400000000073e-02
1.520333700000000079e-02
7.828855699999999820e-03
9.443166700000000038e-03
6.605246200000000449e-03
9.137051900000000074e-04
3.421250199999999880e-03
2.887765100000000071e-03
1.689212500000000002e-03
-6.218051300000000366e-04
-3.003288100000000259e-03
4.794710800000000044e-03
3.258010900000000293e-03
2.535653599999999896e-03
2.246037900000000080e-03
-3.102342199999999755e-03
1.286850199999999933e-04
-4.627358300000000246e-04
2.576983599999999909e-03
7.814804800000000121e-03
6.591147699999999263e-03
1.233696400000000061e-02
1.958376699999999845e-02
1.690587400000000129e-02
2.083972699999999886e-02
2.966133200000000206e-02
2.831202700000000003e-02
3.078767600000000340e-02
3.796771399999999963e-02
3.161058500000000354e-02
3.695528799999999586e-02
5.203235999999999972e-02
4.725736200000000414e-02
4.740915600000000091e-02
5.137841399999999725e-02
4.464769200000000271e-02
5.392258599999999458e-02
5.704855599999999333e-02
5.475250299999999404e-02
5.780983499999999692e-02
5.405640200000000339e-02
6.317220599999999464e-02
6.508797800000000466e-02
6.357631599999999383e-02
6.304888100000000106e-02
5.821880999999999584e-02
5.882034299999999716e-02
6.298104799999999781e-02
6.811594800000000949e-02
6.502737299999999943e-02
6.104333800000000254e-02
6.686282600000000020e-02
6.726664499999999991e-02
6.643266600000000133e-02
6.504798500000000261e-02
6.225239899999999993e-02
6.605334499999999942e-02
6.094605699999999793e-02
6.484768900000000003e-02
8.021945199999999665e-02
7.443995600000000157e-02
6.750558800000000526e-02
7.076602299999999734e-02
6.996885499999999647e-02
6.461345599999999967e-02
5.343210400000000110e-02
4.609204700000000404e-02
2.525449100000000044e-02
2.334089299999999798e-02
2.438344199999999823e-02
-1.860426499999999830e-03
-1.965610100000000221e-02
-4.257847199999999915e-02
-6.424330100000000265e-02
-8.782164099999999196e-02
-1.129160699999999934e-01
-1.192843899999999902e-01
-1.397546299999999908e-01
-1.866849299999999989e-01
-2.230667400000000133e-01
-2.621022100000000021e-01
-3.071954499999999810e-01
-3.255567200000000216e-01
-3.915369300000000052e-01
-3.891591200000000250e-01
-4.447538999999999798e-01
-2.780453200000000402e-01
