2.521126300000000112e-02
-7.997834499999999236e-02
-1.477023900000000167e-01
-2.259962100000000029e-01
-3.008320100000000386e-01
-3.485793400000000153e-01
-3.542253800000000341e-01
-3.200967700000000304e-01
-2.738853900000000063e-01
-2.215236500000000164e-01
-1.591596900000000203e-01
-1.131356300000000009e-01
-8.923142400000000363e-02
-8.051841899999999386e-02
-7.237457699999999550e-02
-2.378823499999999785e-02
3.165218499999999935e-02
4.461894699999999908e-02
4.468700600000000134e-02
4.186606500000000092e-02
3.471876999999999602e-02
4.350180799999999598e-02
5.233581499999999387e-02
4.208806899999999879e-02
3.501748999999999834e-02
3.866464099999999959e-02
3.677697500000000341e-02
3.564786300000000185e-02
4.236141599999999896e-02
4.759245299999999984e-02
4.900802799999999515e-02
4.567953900000000511e-02
3.839147199999999593e-02
4.000839099999999732e-02
4.671726500000000087e-02
4.583763700000000052e-02
4.223177900000000401e-02
3.573460399999999620e-02
3.646627599999999886e-02
4.365488799999999586e-02
3.142994100000000290e-02
2.141386799999999910e-02
2.560497700000000099e-02
2.196255999999999903e-02
1.922577799999999892e-02
1.727382400000000012e-02
1.452246299999999934e-02
1.670326500000000186e-02
1.133710199999999994e-02
6.606688400000000454e-03
1.226863700000000064e-02
1.656871099999999986e-02
1.568989700000000126e-02
1.150185899999999969e-02
6.516752100000000256e-03
3.565321400000000338e-03
4.505427299999999668e-04
-1.780254300000000097e-03
5.827232300000000000e-04
-3.840231099999999974e-03
-9.819938800000000551e-03
-1.439006600000000040e-03
-2.179882800000000067e-04
-1.094791200000000062e-02
-1.185981599999999872e-02
-7.905858700000000655e-03
-6.220978199999999472e-03
-8.155319499999999153e-03
-1.350468200000000049e-02
-7.612386199999999700e-03
5.023433299999999560e-03
4.506688600000000218e-03
6.170160400000000191e-03
1.603759299999999929e-02
1.472620999999999999e-02
2.264369299999999946e-02
3.668490400000000429e-02
3.243749699999999569e-02
3.828749599999999725e-02
5.228129200000000004e-02
4.720862299999999817e-02
4.561569499999999777e-02
5.950314300000000139e-02
6.557420299999999758e-02
6.065226199999999845e-02
6.157890099999999839e-02
6.994023099999999160e-02
7.570151899999999490e-02
7.338221999999999801e-02
7.053043999999999980e-02
7.675577999999999568e-02
8.351760099999999687e-02
8.135423299999999802e-02
7.176245700000000172e-02
7.229619900000000543e-02
8.609784299999999335e-02
8.340040600000001025e-02
7.161844000000000543e-02
7.598284199999999489e-02
7.873238000000000458e-02
7.647116699999999268e-02
8.349326500000001094e-02
8.577062900000000101e-02
8.488769799999999754e-02
9.507758600000000559e-02
9.286101199999999278e-02
7.677513599999999383e-02
8.129230299999999632e-02
9.246321999999999874e-02
8.596482499999999471e-02
8.146242000000000760e-02
8.562225300000000927e-02
8.003441899999999554e-02
6.551834399999999226e-02
5.106895700000000510e-02
4.280606800000000267e-02
4.335675600000000324e-02
3.989415699999999954e-02
3.533308500000000019e-02
2.827716200000000152e-02
1.601352500000000068e-02
1.627566999999999903e-02
1.176757100000000097e-02
1.463178800000000147e-02
4.313426299999999908e-02
3.419233700000000320e-02
-8.147998600000001118e-03
-4.015832700000000061e-02
-9.128277399999999708e-02
-1.552497300000000025e-01
-1.944810800000000006e-01
-2.237203099999999778e-01
-2.658696999999999866e-01
-2.942730199999999963e-01
-2.661479199999999823e-01
-1.856200199999999967e-01
-8.188257799999999753e-02
1.648101899999999953e-02
8.685318000000000205e-02
1.396855200000000075e-01
