4.509339899999999929e-02
-3.213867899999999639e-02
-1.220870200000000044e-01
-2.179424399999999873e-01
-2.781752100000000061e-01
-3.527318700000000029e-01
-3.628756699999999835e-01
-3.491261199999999842e-01
-3.182265800000000366e-01
-2.775763900000000062e-01
-2.021847199999999845e-01
-1.296279100000000128e-01
-1.088608299999999918e-01
-1.080575299999999989e-01
-6.901154600000000694e-02
-2.594441499999999845e-02
-1.513576699999999962e-02
-1.644905099999999926e-02
-1.426910299999999999e-02
-7.890977699999999345e-03
-5.639911499999999793e-03
-1.006638400000000114e-02
-6.198800799999999375e-03
2.978113199999999749e-03
-2.316038199999999932e-03
-1.948305100000000036e-03
-2.308124400000000076e-03
-2.353992999999999971e-03
-1.404195700000000031e-03
1.823102100000000090e-04
-9.033936399999999926e-04
-1.032752999999999970e-02
-5.453480900000000006e-03
-1.553164400000000027e-03
-7.443311200000000483e-04
-3.911357699999999660e-03
-1.122318699999999992e-03
-1.045836400000000124e-02
-6.640390799999999760e-03
-7.188816200000000718e-03
-1.644105100000000166e-02
-1.196221800000000016e-02
-1.849293200000000012e-02
-9.862173999999999593e-03
-1.112687900000000098e-02
-1.603602399999999942e-02
-1.946414499999999867e-02
-2.735970600000000100e-02
-2.165322700000000058e-02
-1.687005400000000238e-02
-1.434318900000000098e-02
-1.232639200000000025e-02
-1.962995299999999860e-02
-2.254951399999999967e-02
-2.058135399999999962e-02
-1.472263500000000128e-02
-1.054868299999999967e-02
-5.475346600000000064e-03
5.831966800000000251e-05
1.665819899999999897e-03
4.855219100000000496e-03
9.468864199999999648e-03
2.131175999999999904e-02
2.300758500000000054e-02
2.260463000000000056e-02
3.650283000000000000e-02
3.099108300000000260e-02
3.651774199999999887e-02
3.897114499999999870e-02
3.807446299999999589e-02
4.887197399999999858e-02
4.852427100000000076e-02
5.133260499999999643e-02
5.025740899999999595e-02
4.800672599999999957e-02
5.583727600000000513e-02
4.991456899999999891e-02
4.997958000000000262e-02
5.807847000000000703e-02
5.283504100000000619e-02
4.743077299999999552e-02
5.364212900000000367e-02
5.572933399999999843e-02
5.703055299999999772e-02
5.682341400000000264e-02
4.882332500000000075e-02
5.159031299999999876e-02
6.308682699999999810e-02
7.117945400000000311e-02
6.382533299999999798e-02
6.331085399999999974e-02
6.326135699999999029e-02
6.482600899999999000e-02
7.266645699999998986e-02
6.575682000000000749e-02
6.552501400000000642e-02
7.064421199999999790e-02
7.047113200000000577e-02
7.826529200000000019e-02
8.109057999999999544e-02
8.516036899999999965e-02
8.949263999999999830e-02
8.656577399999999811e-02
1.003588200000000014e-01
1.059595400000000048e-01
1.024460100000000040e-01
1.016034499999999979e-01
1.032076299999999947e-01
1.170191200000000042e-01
1.093866800000000000e-01
1.137568799999999908e-01
1.114074999999999926e-01
1.101285600000000003e-01
1.123833600000000016e-01
1.018251800000000012e-01
9.208590699999999463e-02
7.854805099999999374e-02
8.040342100000000269e-02
8.520211800000000724e-02
7.358418899999999430e-02
5.796598600000000406e-02
4.852038300000000026e-02
4.551233000000000362e-02
3.907865200000000538e-02
4.401891700000000462e-02
4.880545000000000022e-02
2.850583500000000020e-02
2.793308999999999896e-03
-4.227269799999999744e-02
-8.896100799999999420e-02
-1.111646799999999879e-01
-1.697867100000000073e-01
-2.505362400000000211e-01
-2.715937499999999671e-01
-2.208276199999999745e-01
-9.844720199999999755e-02
-1.120343600000000064e-02
9.168585900000000843e-02
9.061065799999999670e-02
9.416660599999999992e-02
