1.511564700000000150e-01
-5.196947200000000266e-02
-2.275451100000000226e-01
-3.518121300000000007e-01
-4.290036599999999534e-01
-3.597876799999999986e-01
-2.453730600000000039e-01
-1.857342100000000107e-01
-1.580244900000000174e-01
-4.221213099999999996e-02
-3.127130599999999871e-03
-1.140194400000000066e-02
-6.440287399999999537e-03
-1.954346900000000081e-02
-1.611549400000000104e-02
-1.231349300000000001e-02
-8.941128300000000112e-03
-1.649408100000000071e-02
-2.417669000000000068e-02
-2.644946000000000103e-02
-4.227514200000000166e-02
-3.036670600000000025e-02
-3.315200699999999723e-02
-4.979100100000000140e-02
-4.824651200000000528e-02
-4.836533599999999489e-02
-5.208686799999999451e-02
-5.142345400000000039e-02
-6.169098800000000216e-02
-8.191724100000000175e-02
-8.120787699999999776e-02
-8.343482199999999183e-02
-8.368159000000000014e-02
-9.211831900000000406e-02
-9.744434400000000218e-02
-1.097255499999999911e-01
-1.059462899999999985e-01
-1.073388799999999976e-01
-1.091701300000000041e-01
-9.414304799999999307e-02
-9.593945699999999188e-02
-8.929362400000000199e-02
-8.824932900000000136e-02
-7.768517799999999363e-02
-6.697654699999999739e-02
-5.864723899999999684e-02
-3.186943199999999615e-02
-2.798170300000000360e-02
-1.197684400000000038e-02
-2.441925799999999924e-02
-1.419631399999999807e-02
-2.539006900000000209e-03
-9.573946399999999982e-03
-1.092196599999999910e-03
1.450233099999999851e-02
1.084029400000000032e-02
1.310254200000000001e-02
1.614961499999999911e-02
1.495374600000000040e-02
2.039168100000000178e-02
1.782750599999999991e-02
3.099978500000000192e-02
2.328994499999999940e-02
2.359950200000000137e-02
2.995719300000000002e-02
3.713691300000000056e-02
3.242621199999999593e-02
3.784739499999999895e-02
3.414238900000000215e-02
4.631578299999999926e-02
4.832251799999999486e-02
5.051233400000000595e-02
4.107740999999999476e-02
5.606607900000000477e-02
6.888782499999999975e-02
5.513795700000000133e-02
5.561517299999999692e-02
5.269380900000000117e-02
5.982690400000000019e-02
5.001377900000000126e-02
3.615200600000000042e-02
4.803129500000000163e-02
3.836667500000000286e-02
3.987916500000000114e-02
3.574101000000000361e-02
2.906258700000000084e-02
3.025748899999999852e-02
2.334334700000000040e-02
2.847765199999999913e-02
1.924776699999999896e-02
1.773604699999999784e-02
1.812106999999999954e-02
3.211200399999999955e-02
2.212352299999999911e-02
1.807141400000000092e-02
3.024400199999999900e-02
3.257775200000000149e-02
3.038098799999999766e-02
3.937406599999999923e-02
4.736111800000000066e-02
7.133665699999999776e-02
9.983437900000000087e-02
1.242308000000000023e-01
1.331675200000000114e-01
1.333483200000000202e-01
1.651204099999999952e-01
2.079987399999999875e-01
2.272647399999999929e-01
2.187210900000000069e-01
2.139319400000000149e-01
1.775511800000000029e-01
1.492818699999999832e-01
1.286910099999999946e-01
8.225266600000000206e-02
2.848147599999999863e-02
-1.776971999999999927e-02
-4.134334800000000198e-02
-4.050912699999999894e-02
-3.988918000000000325e-02
-5.481663900000000034e-02
-4.853998099999999594e-02
-2.251647700000000002e-02
-4.355333000000000121e-02
-2.611333399999999846e-02
-4.098444600000000076e-02
-3.374341900000000366e-02
-4.403417600000000126e-02
-3.227192400000000044e-02
-2.590475600000000100e-02
-4.018534799999999574e-02
-2.626490399999999864e-02
-1.063363100000000103e-02
5.407692499999999791e-02
8.245967600000000952e-02
9.406258100000000621e-02
1.613968800000000203e-01
2.054183399999999771e-01
2.022818099999999786e-01
1.070059099999999958e-01
7.213602099999999462e-02
