1.404097799999999840e-01
1.107594400000000007e-01
-8.518742500000001105e-02
-2.418866899999999875e-01
-3.182517900000000344e-01
-3.839283700000000188e-01
-3.314680399999999638e-01
-2.290727499999999917e-01
-1.806120200000000120e-01
-1.763509699999999958e-01
-8.729445399999999355e-02
-3.994566399999999878e-02
-4.657462700000000039e-02
-4.874117499999999770e-02
-4.990729099999999946e-02
-4.494224499999999872e-02
-4.793896300000000110e-02
-5.074679199999999890e-02
-4.750607099999999694e-02
-4.997400600000000137e-02
-5.904717999999999772e-02
-5.512807699999999755e-02
-6.287619099999999794e-02
-6.767993799999999505e-02
-6.406661599999999290e-02
-6.768595499999999210e-02
-7.590969899999999715e-02
-8.613881799999999200e-02
-8.795800299999999294e-02
-7.994758700000000051e-02
-8.082285499999999900e-02
-8.870176700000000081e-02
-9.764540000000000719e-02
-1.044731400000000060e-01
-9.643818099999999782e-02
-1.009154200000000057e-01
-9.755758000000000485e-02
-1.062632999999999911e-01
-1.074220899999999979e-01
-1.013328299999999987e-01
-9.727114000000000593e-02
-9.369764699999999502e-02
-8.459433899999999062e-02
-8.330196199999999329e-02
-7.615339399999999925e-02
-5.572095400000000309e-02
-5.314172299999999488e-02
-4.348906000000000299e-02
-3.047124999999999834e-02
-3.169701899999999989e-02
-3.139613800000000399e-02
-3.625366800000000365e-03
-1.813064799999999921e-02
-8.988116200000000056e-03
-1.019977600000000068e-02
-3.881454500000000064e-03
-8.082758900000000524e-03
-3.396223400000000000e-03
-3.060264799999999879e-03
-1.158940600000000001e-03
5.251132199999999570e-03
1.003536699999999990e-03
4.363488500000000173e-03
3.793971899999999588e-03
9.571880899999999498e-03
1.780163700000000210e-02
1.465155800000000029e-02
5.221066400000000038e-03
1.302929600000000097e-02
2.645795799999999670e-02
2.813058800000000151e-02
3.626145499999999799e-02
3.773523899999999681e-02
3.673288100000000195e-02
4.581477099999999719e-02
4.679491399999999995e-02
5.480480299999999916e-02
4.656484000000000317e-02
4.977517699999999684e-02
5.505369400000000024e-02
4.727266800000000380e-02
4.190151899999999818e-02
4.763558500000000112e-02
4.879158699999999738e-02
4.564479999999999926e-02
3.162699800000000339e-02
4.802610000000000212e-02
3.526387999999999745e-02
3.328813800000000184e-02
3.820431600000000205e-02
4.295922200000000524e-02
3.409193099999999893e-02
2.560309800000000122e-02
2.871339399999999625e-02
3.700334699999999893e-02
2.402990899999999860e-02
2.880088800000000365e-02
3.137711499999999709e-02
4.209420199999999723e-02
4.202828000000000119e-02
5.891697199999999801e-02
9.623281200000000091e-02
1.174198199999999942e-01
1.401883700000000066e-01
1.391937799999999892e-01
1.549195099999999825e-01
2.006545799999999991e-01
2.192842300000000244e-01
2.170409799999999945e-01
1.982677800000000046e-01
1.863758500000000096e-01
1.887645000000000017e-01
1.550057999999999991e-01
1.285340799999999950e-01
9.627481400000000022e-02
3.872298200000000301e-02
3.257798099999999718e-03
3.344827999999999777e-03
-8.985293400000000236e-03
-1.243373400000000011e-02
-1.239914200000000015e-02
-7.107455399999999639e-03
-3.693485800000000097e-03
4.727985100000000121e-03
-4.039195699999999570e-03
-7.884321799999999963e-03
-8.239603500000001329e-03
-5.354863100000000105e-03
-9.073605499999999949e-03
-2.710485700000000130e-03
3.947413900000000184e-03
4.940627000000000386e-03
6.031746300000000172e-02
1.023924199999999979e-01
1.137772900000000031e-01
1.587631800000000037e-01
1.592155100000000045e-01
1.799182599999999965e-01
1.568860099999999924e-01
1.400935799999999953e-01
