3.807510700000000387e-02
-1.513922200000000218e-01
-3.346023999999999665e-01
-4.095983499999999999e-01
-4.001045000000000296e-01
-3.716075399999999584e-01
-2.975292800000000071e-01
-1.714138399999999840e-01
-1.236859600000000114e-01
-9.994389200000000639e-02
-3.608546299999999818e-02
-1.244143600000000016e-02
-2.513025799999999907e-02
-1.804430900000000143e-02
-2.389762399999999926e-02
-2.241110799999999903e-02
-2.905857299999999727e-02
-2.874814800000000115e-02
-2.942320799999999931e-02
-2.366590799999999939e-02
-2.828126000000000251e-02
-3.074803899999999784e-02
-3.399226500000000067e-02
-3.628030499999999881e-02
-3.025680099999999983e-02
-3.777610199999999890e-02
-4.775016399999999772e-02
-4.599892800000000143e-02
-6.029262399999999605e-02
-6.049536199999999697e-02
-5.242122600000000132e-02
-6.315193700000000521e-02
-6.403397400000000739e-02
-5.997060800000000164e-02
-6.911295200000000527e-02
-6.488864099999999691e-02
-7.341381999999999075e-02
-7.176229700000000267e-02
-7.257161800000000440e-02
-6.506631000000000220e-02
-6.211163400000000584e-02
-5.659108799999999773e-02
-4.666993800000000109e-02
-4.479911999999999783e-02
-3.410093799999999731e-02
-3.108891899999999958e-02
-2.507873000000000047e-02
-2.327925200000000028e-02
-1.042127500000000068e-02
-5.195873200000000226e-03
-1.178457100000000063e-02
-2.480729099999999694e-03
5.063051100000000304e-03
3.415006500000000115e-03
1.955130600000000007e-03
9.252444099999999894e-03
7.861523900000000342e-03
4.405593699999999988e-03
1.084890200000000055e-02
8.451131000000000615e-03
1.443248799999999853e-02
1.765672000000000075e-02
1.465951100000000007e-02
1.816725699999999916e-02
1.839348500000000108e-02
1.873388900000000010e-02
1.728584099999999971e-02
2.189357299999999951e-02
2.396810900000000133e-02
3.236255400000000171e-02
3.069142500000000134e-02
3.971177299999999882e-02
4.573174700000000314e-02
4.566843799999999870e-02
4.608169100000000101e-02
4.515405699999999745e-02
4.883967000000000169e-02
4.825691099999999956e-02
4.373143300000000011e-02
4.605108800000000391e-02
4.737772299999999659e-02
4.352120899999999820e-02
3.584469599999999534e-02
5.139575500000000130e-02
4.041567899999999602e-02
3.617425800000000080e-02
3.871914699999999543e-02
3.942933599999999539e-02
3.307608799999999655e-02
3.368436899999999873e-02
2.579457399999999720e-02
4.020919499999999619e-02
4.415430599999999733e-02
4.817560399999999687e-02
6.564292499999999086e-02
8.304668499999999509e-02
9.554727999999999832e-02
1.208873099999999978e-01
1.276352000000000042e-01
1.476544999999999941e-01
1.694806500000000105e-01
1.998689399999999949e-01
2.130449000000000093e-01
1.936880200000000163e-01
1.836966499999999891e-01
1.661571099999999968e-01
1.439516599999999813e-01
1.225361799999999945e-01
9.907169300000000234e-02
6.082754099999999886e-02
1.891810699999999998e-02
-1.018596199999999979e-02
-1.042337899999999998e-02
-2.382012199999999913e-02
-1.899159099999999864e-02
-1.364281699999999806e-02
-9.593132199999999943e-03
-9.560268000000000238e-03
-3.759130900000000157e-03
-9.873212100000000602e-03
-1.120038700000000088e-02
-2.802118900000000190e-02
-1.897293200000000138e-02
-1.428229599999999988e-02
-1.283923399999999972e-02
-1.427635899999999888e-02
-1.128729599999999875e-02
7.568377699999999202e-03
5.024534400000000428e-02
8.955715000000000203e-02
9.959193299999999360e-02
1.171186300000000013e-01
1.300646099999999972e-01
1.250261599999999973e-01
1.232873700000000072e-01
9.989003899999999991e-02
9.870632900000000931e-02
8.860292599999999852e-02
-1.913136099999999951e-02
-2.555737200000000042e-01
