-1.151123200000000041e-01
-2.945127399999999951e-01
-3.866901699999999997e-01
-4.420363900000000013e-01
-4.160634899999999803e-01
-3.697361799999999699e-01
-2.842000399999999871e-01
-1.653797300000000026e-01
-1.291521300000000039e-01
-1.067289200000000049e-01
-4.420108600000000054e-02
-2.020439800000000188e-02
-3.011844200000000221e-02
-2.723544800000000238e-02
-3.283462799999999765e-02
-1.575007399999999932e-02
-1.191519599999999943e-02
-1.286446099999999891e-02
-6.681746800000000833e-03
-1.022544100000000021e-04
-1.140903000000000056e-02
-1.608369500000000202e-02
-1.218142200000000078e-02
-2.084875200000000164e-02
-1.955305099999999664e-03
-1.170201300000000069e-02
-2.114351999999999898e-02
-1.002153700000000050e-02
-1.363349100000000105e-02
-9.312912399999999716e-03
-2.461516999999999872e-03
6.013556899999999636e-03
-3.168951599999999917e-03
3.078346999999999941e-03
3.080324399999999872e-03
-2.324624700000000200e-03
-2.738218900000000035e-03
-2.402442900000000166e-03
-1.106922899999999987e-02
5.310357699999999730e-03
6.396014999999999687e-03
8.823183400000000204e-03
1.460466799999999947e-03
1.117314499999999891e-02
2.774406400000000231e-02
1.579227700000000040e-02
1.558586499999999909e-02
2.649836099999999806e-02
3.049207500000000043e-02
2.255210099999999801e-02
2.942674199999999879e-02
3.287874699999999983e-02
2.592640299999999717e-02
1.805356400000000111e-02
1.370115199999999943e-02
4.492433700000000342e-03
1.168089899999999980e-02
8.209879499999999525e-03
4.881142100000000240e-03
1.134058299999999957e-02
2.303052700000000202e-02
2.159825500000000023e-02
1.572267999999999930e-02
8.070630800000000785e-03
5.214521800000000012e-03
8.261509499999999950e-03
5.534135400000000059e-03
1.161776000000000128e-02
2.291034200000000021e-02
2.651950399999999930e-02
1.975633199999999798e-02
2.359007100000000065e-02
2.830517399999999892e-02
2.347644899999999993e-02
4.108804200000000517e-02
3.595600200000000080e-02
4.524671300000000090e-02
4.365334299999999723e-02
3.423220400000000219e-02
3.666085499999999914e-02
4.079834899999999764e-02
4.398989799999999950e-02
4.740657399999999994e-02
2.970338000000000145e-02
3.754705900000000068e-02
3.698641300000000270e-02
2.499333200000000005e-02
3.559613799999999939e-02
2.381936899999999996e-02
1.575201799999999958e-02
2.498538600000000179e-02
4.864092199999999616e-02
5.343522499999999592e-02
6.978621000000000130e-02
7.550804099999999797e-02
8.762016799999999828e-02
1.196598700000000015e-01
1.335317099999999979e-01
1.630469499999999961e-01
1.978027800000000114e-01
2.178297999999999901e-01
2.115648199999999868e-01
2.119863599999999848e-01
1.964720100000000025e-01
1.689554999999999807e-01
1.370189500000000005e-01
1.127094100000000099e-01
7.750326700000000069e-02
6.704367099999999913e-02
3.144305199999999911e-02
-5.416877700000000302e-03
-3.294936399999999488e-02
-3.594183499999999837e-02
-4.082699199999999945e-02
-4.765524100000000096e-02
-4.785899100000000350e-02
-4.490397799999999717e-02
-3.894986599999999966e-02
-3.468824699999999844e-02
-3.879281799999999975e-02
-3.792930400000000396e-02
-4.420331400000000049e-02
-4.943585600000000024e-02
-4.006570899999999796e-02
-3.318682499999999619e-02
-2.607860499999999776e-02
-2.963713899999999984e-02
-2.188639699999999841e-02
3.050743899999999731e-02
8.584958200000000761e-02
9.710957000000000616e-02
9.411080699999999077e-02
7.107760100000000414e-02
1.177097499999999949e-02
-1.494431099999999832e-02
-4.057160599999999617e-02
-4.078935799999999778e-02
1.953957799999999842e-02
-3.376158700000000436e-03
-1.640736399999999928e-01
