2.530197799999999719e-01
1.649815000000000031e-01
2.470455900000000093e-02
-1.166057300000000047e-01
-2.528823900000000124e-01
-3.435729699999999776e-01
-2.940386000000000388e-01
-2.065139199999999897e-01
-1.242985699999999971e-01
-1.293822500000000042e-01
-4.041936299999999982e-02
1.077762800000000090e-02
-9.341953899999999936e-03
-4.060136599999999985e-03
-9.192484500000000502e-03
-2.106030399999999844e-02
-1.073759699999999977e-02
-1.606342000000000186e-02
-8.219289500000000886e-03
-2.036430499999999921e-02
-2.501243499999999953e-02
-1.963207999999999967e-02
-3.553663899999999487e-02
-3.785141699999999831e-02
-5.827888100000000460e-02
-4.839200000000000446e-02
-5.333179799999999970e-02
-6.979711099999999502e-02
-7.619562900000000083e-02
-7.468463200000000080e-02
-7.859430500000000319e-02
-9.287793899999999270e-02
-1.020568300000000150e-01
-1.185065000000000007e-01
-1.154885600000000040e-01
-1.192644599999999888e-01
-1.361482400000000037e-01
-1.344934299999999971e-01
-1.434931700000000032e-01
-1.358842100000000053e-01
-1.345774599999999821e-01
-1.426257400000000009e-01
-1.328810699999999900e-01
-1.168012800000000073e-01
-1.121057200000000059e-01
-1.078363699999999870e-01
-8.614956199999999897e-02
-8.868823500000000415e-02
-7.255375000000000019e-02
-6.877706000000000097e-02
-5.393123500000000098e-02
-4.821392500000000469e-02
-5.595173500000000244e-02
-3.138145700000000149e-02
-2.114885400000000165e-02
-2.033499799999999996e-02
-3.357918999999999488e-02
-1.814904800000000096e-02
-1.973291799999999860e-02
-2.163612999999999995e-02
-1.531999599999999892e-02
-1.721579699999999796e-02
-1.159222799999999956e-02
-1.455402700000000063e-02
-1.254617500000000142e-02
-1.593798600000000121e-02
-5.837465899999999888e-03
8.080187200000000245e-04
1.375342199999999952e-03
9.371218100000000203e-03
1.681218999999999769e-02
2.160190899999999900e-02
3.012180999999999886e-02
1.930310799999999938e-02
3.554732500000000461e-02
3.247233900000000284e-02
2.531083299999999786e-02
4.521068699999999940e-02
4.450482499999999786e-02
4.488723399999999808e-02
4.884147800000000067e-02
5.933130699999999980e-02
4.217892100000000116e-02
6.393606200000000184e-02
4.503092000000000206e-02
4.248361199999999699e-02
4.588235100000000177e-02
4.911993800000000188e-02
4.397051000000000431e-02
2.805385899999999696e-02
3.298591900000000243e-02
2.876987100000000241e-02
3.803252799999999600e-02
1.933477700000000091e-02
2.222762899999999875e-02
3.725666500000000131e-02
3.601356900000000222e-02
3.272404599999999969e-02
5.748972100000000751e-02
9.122338800000000247e-02
1.088379399999999941e-01
1.232125700000000074e-01
1.321429199999999970e-01
1.569544700000000126e-01
1.890753099999999964e-01
2.211566799999999944e-01
2.165359299999999876e-01
2.198377600000000209e-01
1.951456500000000038e-01
1.890220199999999851e-01
1.534264800000000040e-01
1.343190400000000007e-01
1.124111700000000047e-01
6.246650599999999803e-02
5.965118499999999893e-03
-2.251765799999999942e-02
-3.064160899999999674e-02
-3.567331699999999606e-02
-3.455959399999999904e-02
-3.168642300000000522e-02
-3.608441999999999900e-02
-3.277895200000000009e-02
-2.412691999999999962e-02
-3.026382700000000009e-02
-2.471000799999999858e-02
-3.082639599999999896e-02
-1.380488699999999833e-02
-2.791371399999999919e-02
-1.107206999999999983e-02
-1.078354299999999960e-02
3.567556100000000147e-02
1.055848100000000012e-01
9.457350800000000057e-02
9.794006600000000617e-02
1.342358899999999966e-01
1.425314299999999867e-01
1.770579600000000142e-01
1.424771100000000179e-01
1.617822899999999953e-01
2.017107100000000153e-01
