-1.269748400000000055e-01
-4.389283299999999777e-01
-4.587517600000000084e-01
-4.738660999999999568e-01
-3.619024000000000130e-01
-2.247292999999999930e-01
-1.710416200000000053e-01
-1.255631299999999950e-01
-2.511867899999999793e-02
-1.265269800000000042e-02
-1.671757399999999893e-02
-1.731897699999999929e-02
-1.826899600000000262e-02
-1.451019299999999936e-02
-1.179271499999999875e-02
-1.149996900000000051e-02
-1.493095000000000186e-02
-1.840599300000000244e-02
-2.505207999999999741e-02
-1.476339899999999997e-02
-2.566438700000000031e-02
-3.458498399999999917e-02
-3.265226599999999924e-02
-3.117238299999999795e-02
-3.592214200000000413e-02
-4.369950000000000223e-02
-3.951003200000000048e-02
-5.254701800000000089e-02
-6.251410300000000142e-02
-6.583735200000000176e-02
-6.597022199999999503e-02
-7.146789099999999173e-02
-7.477734799999999349e-02
-7.188558800000000026e-02
-5.683458200000000154e-02
-7.017585899999999322e-02
-6.831516199999999872e-02
-6.570789500000000227e-02
-6.074377100000000196e-02
-5.886835999999999458e-02
-4.032883199999999502e-02
-3.482436400000000348e-02
-3.100708599999999968e-02
-2.107080500000000148e-02
-1.520444300000000151e-02
-1.001690799999999971e-02
8.007842900000000999e-03
-3.073484599999999796e-03
-4.207356300000000306e-03
-1.269622900000000072e-03
4.972752200000000490e-03
8.929623200000000316e-03
5.417875099999999548e-03
2.792698900000000015e-03
1.235728600000000031e-02
2.145561800000000269e-02
1.010177500000000034e-02
2.088849899999999787e-02
2.210105999999999876e-02
2.695007599999999989e-02
3.281407100000000021e-02
3.013747199999999848e-02
3.153940900000000436e-02
5.038312099999999599e-02
4.841587700000000299e-02
4.870919299999999785e-02
5.177703700000000492e-02
5.617017900000000064e-02
6.125432899999999625e-02
6.120561599999999741e-02
6.094744900000000076e-02
6.759142900000000842e-02
6.765654499999999849e-02
6.572204000000000934e-02
6.311188300000000750e-02
6.310821499999999529e-02
4.934409599999999702e-02
5.218510299999999658e-02
4.651556700000000072e-02
4.526108999999999688e-02
4.789196800000000004e-02
5.237174100000000637e-02
3.845962800000000265e-02
3.878305899999999473e-02
4.061012199999999850e-02
4.300153799999999887e-02
3.647041699999999803e-02
3.274150900000000197e-02
2.830449700000000138e-02
2.659862199999999885e-02
2.129164100000000004e-02
2.522695999999999966e-02
1.262190000000000013e-02
1.223799400000000030e-02
2.690802899999999998e-02
1.207749600000000006e-02
2.072788100000000008e-02
2.464710699999999796e-02
3.701594100000000359e-02
5.311588200000000315e-02
9.277470699999999793e-02
1.039784100000000072e-01
1.220741300000000029e-01
1.427619800000000105e-01
1.698946699999999976e-01
2.009746499999999769e-01
1.890964499999999993e-01
1.791600899999999941e-01
1.622692800000000157e-01
1.399141700000000044e-01
1.168680699999999906e-01
8.687924500000000771e-02
4.428869100000000503e-02
-1.103802199999999976e-02
-4.036099799999999516e-02
-2.859941300000000061e-02
-3.562501499999999599e-02
-3.161732800000000010e-02
-3.871173399999999765e-02
-4.015435299999999680e-02
-2.926265499999999853e-02
-4.010593199999999692e-02
-2.923259400000000063e-02
-2.129520400000000160e-02
-2.962360099999999941e-02
-2.401328900000000016e-02
-2.540801999999999644e-02
-2.695107400000000195e-02
-2.142904699999999968e-02
-1.850120000000000237e-02
3.385642999999999986e-02
1.038002499999999967e-01
1.296418800000000149e-01
1.197837500000000083e-01
1.138102299999999845e-01
6.906041599999999947e-02
6.048294600000000271e-02
3.839374799999999838e-02
1.346897199999999850e-01
-5.880973499999999493e-02
