-1.167315000000000158e-01
-3.805147700000000022e-01
-4.373628199999999855e-01
-4.352753800000000450e-01
-3.278575200000000134e-01
-2.296471700000000116e-01
-1.582363999999999993e-01
-1.158040699999999951e-01
-3.016600199999999732e-02
-6.803919999999999760e-03
-2.804423600000000016e-02
-8.759318599999999649e-03
-2.205417200000000036e-02
-1.111865100000000023e-02
-1.414742999999999903e-02
-1.238568599999999992e-02
-1.809330399999999756e-02
-2.653578999999999660e-02
-2.260557199999999739e-02
-3.735576100000000122e-02
-3.170129600000000381e-02
-4.638079099999999760e-02
-5.179114500000000371e-02
-4.322285599999999700e-02
-5.268106799999999756e-02
-5.344991799999999904e-02
-6.681575700000000340e-02
-7.241735400000000322e-02
-7.549646399999999924e-02
-7.043304699999999863e-02
-8.938059099999999535e-02
-9.104421900000000956e-02
-9.223140300000000347e-02
-9.474401500000000087e-02
-1.001078099999999915e-01
-1.018340100000000026e-01
-9.659714700000000820e-02
-9.124830500000000177e-02
-9.575489400000000706e-02
-8.027341699999999969e-02
-6.141937299999999933e-02
-5.805759499999999657e-02
-5.309312600000000437e-02
-4.272205199999999647e-02
-4.238440300000000105e-02
-2.715135399999999907e-02
-1.847939100000000126e-02
-1.330228599999999997e-02
-7.139047799999999333e-03
-1.182096100000000136e-02
-1.686358799999999880e-02
-1.426778700000000052e-02
-7.637268599999999345e-03
-3.298819499999999880e-03
-5.922342199999999779e-03
-2.241548099999999925e-03
1.035088699999999959e-02
1.413571699999999990e-03
2.791869599999999979e-03
1.328266399999999958e-02
1.531136600000000160e-02
1.318764700000000026e-02
1.612666899999999973e-02
1.863230299999999937e-02
3.233282099999999770e-02
3.240725199999999750e-02
2.066268800000000197e-02
2.633429999999999799e-02
4.362854600000000416e-02
3.963251599999999958e-02
4.978832600000000080e-02
5.488813700000000351e-02
6.168529099999999626e-02
5.633263100000000106e-02
6.175812299999999810e-02
4.442725399999999936e-02
4.700817899999999716e-02
6.280406400000000666e-02
6.078641900000000126e-02
5.290656999999999999e-02
5.010416199999999376e-02
4.064677700000000199e-02
4.014092799999999933e-02
2.053552299999999997e-02
2.583136600000000144e-02
3.692615000000000480e-02
3.587722599999999817e-02
2.824503899999999956e-02
2.182141700000000267e-02
3.563232399999999994e-02
1.220894900000000019e-02
1.815241000000000077e-02
2.084353100000000195e-02
2.624517699999999801e-02
2.942832699999999718e-02
3.224962299999999810e-02
3.391451799999999767e-02
3.282416900000000026e-02
5.303301200000000437e-02
7.510842900000000433e-02
8.935004100000000504e-02
1.134091699999999897e-01
1.210788600000000104e-01
1.394342900000000163e-01
1.659275400000000122e-01
1.911117999999999983e-01
1.819333700000000109e-01
1.746724600000000016e-01
1.635847699999999905e-01
1.397266199999999958e-01
1.219365000000000032e-01
9.696549399999999930e-02
7.056167900000000215e-02
3.005262699999999843e-02
-5.422469000000000074e-03
-1.943153699999999873e-02
-1.937164799999999826e-02
-1.373734799999999992e-02
-2.050579999999999764e-02
-1.502109899999999956e-02
-1.960432499999999884e-02
-1.687135799999999949e-02
-1.810461399999999804e-02
-1.087125100000000018e-02
-8.556229000000000265e-03
-6.372987200000001032e-03
5.655637400000000170e-04
5.530926199999999446e-03
2.394527800000000040e-02
7.438222399999999679e-02
1.692068499999999920e-01
1.930773299999999915e-01
1.729575099999999810e-01
1.878114700000000081e-01
1.371424800000000110e-01
7.353663900000000087e-02
3.019114800000000098e-02
5.849337100000000234e-02
1.173603099999999955e-01
-5.541888999999999843e-02
