5.807096600000000511e-03
-3.035093300000000216e-01
-4.263147299999999751e-01
-4.995203000000000282e-01
-4.608076099999999786e-01
-3.369913800000000070e-01
-1.995583499999999955e-01
-1.661728000000000094e-01
-8.660429699999999675e-02
-1.079137200000000046e-02
-1.546972799999999856e-02
-1.264214299999999978e-02
-2.155926400000000159e-02
-2.119315000000000088e-02
-8.500808900000000196e-03
-1.578706099999999807e-02
-2.387190200000000040e-02
-2.661073099999999858e-02
-2.179050700000000063e-02
-3.137037999999999632e-02
-2.577128299999999900e-02
-3.413240799999999603e-02
-2.633504799999999979e-02
-3.189593400000000079e-02
-3.601794800000000102e-02
-4.526298499999999864e-02
-5.557645500000000377e-02
-4.811173700000000164e-02
-4.823901199999999778e-02
-6.769680499999999879e-02
-7.266563600000000567e-02
-7.262949400000000277e-02
-8.411223799999999196e-02
-7.758269300000000812e-02
-8.309982200000000374e-02
-8.395425199999999311e-02
-8.887614099999999184e-02
-7.860242900000000144e-02
-7.538951000000000680e-02
-6.972369100000000430e-02
-6.669128100000000503e-02
-6.142410499999999274e-02
-4.229882599999999770e-02
-2.657854599999999803e-02
-2.112115599999999857e-02
-1.939745699999999989e-02
-5.007005400000000273e-03
-9.330739199999999855e-04
5.673690700000000135e-03
-6.249536099999999797e-04
5.241504499999999865e-03
-3.019701500000000240e-03
1.166641900000000079e-02
1.200573699999999897e-02
6.136968500000000194e-03
1.335829199999999904e-02
1.050628999999999973e-02
1.120006399999999916e-02
6.985185200000000594e-03
2.428972899999999949e-02
2.381147000000000125e-02
2.067936299999999922e-02
2.889086299999999927e-02
2.166478000000000154e-02
2.946576100000000004e-02
3.750921999999999590e-02
5.148844799999999916e-02
4.938460800000000345e-02
5.608053799999999922e-02
5.317791200000000773e-02
5.851726799999999729e-02
6.202076899999999643e-02
7.030369000000000201e-02
7.190283999999999565e-02
6.620052099999999828e-02
7.951436200000000509e-02
6.583848600000000162e-02
6.197584999999999900e-02
6.803634299999999913e-02
5.504764399999999280e-02
6.456757800000000047e-02
5.563477799999999585e-02
6.489314300000000035e-02
5.298970299999999911e-02
5.192774199999999896e-02
5.307626699999999642e-02
4.552531199999999834e-02
4.421118799999999849e-02
4.940303799999999634e-02
3.703898299999999755e-02
3.761684199999999756e-02
4.431227599999999767e-02
3.965849000000000457e-02
3.545059700000000036e-02
2.826680499999999902e-02
3.085299799999999953e-02
4.011521299999999679e-02
2.686385300000000004e-02
3.920417600000000030e-02
3.724722600000000133e-02
4.479767700000000102e-02
4.618004700000000184e-02
4.866792699999999972e-02
5.873192800000000269e-02
6.701304999999999068e-02
8.979033399999999943e-02
1.355609099999999789e-01
1.538406999999999969e-01
1.575906300000000093e-01
1.306314199999999981e-01
1.210669099999999998e-01
1.154864300000000010e-01
9.454011100000001000e-02
1.068701499999999971e-01
7.240161600000000197e-02
3.780088999999999672e-02
-5.811664999999999930e-04
-6.333366999999999469e-03
-9.953857400000000119e-03
-5.580463400000000053e-03
-5.584297900000000092e-03
-6.584160200000000211e-04
-1.153285700000000052e-02
-1.927913300000000038e-02
-4.981399100000000538e-03
-6.541403699999999259e-03
-7.305046699999999740e-03
-9.837925399999998370e-04
-1.685213600000000063e-03
1.034987899999999933e-02
8.402874200000000349e-02
1.825756099999999993e-01
1.859326000000000034e-01
1.290946900000000119e-01
6.003561300000000156e-02
1.256273199999999833e-02
6.297498699999999269e-03
-1.061455000000000037e-02
8.725869399999999776e-02
-2.889225699999999758e-02
