-2.413867700000000005e-01
-3.351678900000000239e-01
-3.496330200000000166e-01
-3.862013499999999988e-01
-3.600662499999999766e-01
-3.205135399999999857e-01
-2.265679800000000021e-01
-1.424750100000000130e-01
-1.273709100000000038e-01
-9.492097400000000518e-02
-5.385368000000000099e-02
-4.523958699999999777e-02
-5.811398300000000100e-02
-5.064095500000000138e-02
-3.571917600000000526e-02
-3.192347499999999977e-02
-3.049450799999999656e-02
-3.124328200000000069e-02
-2.528979900000000169e-02
-2.708088699999999793e-02
-2.989237200000000039e-02
-3.020054900000000014e-02
-3.480206500000000008e-02
-3.366264400000000545e-02
-3.207194000000000017e-02
-3.371148100000000147e-02
-3.652802800000000405e-02
-3.407164299999999868e-02
-2.440325299999999975e-02
-2.859906400000000043e-02
-2.437614299999999942e-02
-2.809751400000000052e-02
-3.457540199999999814e-02
-2.611121599999999959e-02
-3.133643500000000276e-02
-2.464599799999999882e-02
-1.962858399999999753e-02
-3.062395299999999890e-02
-2.594737800000000011e-02
-1.886103899999999958e-02
-1.469931499999999926e-02
-1.510595399999999956e-02
-7.057536300000000207e-03
-4.268675899999999426e-03
-8.384397899999999470e-05
1.894349700000000055e-03
4.575606700000000096e-03
7.010422900000000401e-03
3.414860399999999734e-03
5.827212200000000085e-03
6.534414099999999274e-03
-1.573654099999999886e-03
-7.726903499999999980e-03
7.939425099999999555e-03
3.883367200000000267e-04
-6.067206199999999536e-03
-7.371668300000000160e-03
-1.007732499999999982e-02
-3.400294799999999725e-03
-5.998451000000000130e-03
3.059741599999999707e-03
7.387853799999999187e-03
9.669105699999999692e-03
8.328698800000000971e-03
8.014044499999999635e-04
4.247856099999999975e-03
1.417497299999999870e-02
1.519227300000000093e-02
1.192807699999999874e-02
1.234933000000000038e-02
1.829844800000000188e-02
1.603029800000000185e-02
2.129587499999999883e-02
2.303104099999999863e-02
3.096663399999999983e-02
3.918966399999999906e-02
4.154832500000000400e-02
4.809560999999999698e-02
4.844945199999999702e-02
5.751146399999999825e-02
5.383160500000000459e-02
6.275093800000000610e-02
6.170551500000000245e-02
6.383343500000000781e-02
6.199925899999999407e-02
5.490105600000000363e-02
5.754503500000000132e-02
6.328809600000000202e-02
6.218708600000000253e-02
5.477990400000000426e-02
5.570596399999999671e-02
7.814777800000000108e-02
9.211592799999999970e-02
1.117359999999999881e-01
1.257565999999999962e-01
1.410905000000000076e-01
1.612592100000000139e-01
1.729310799999999870e-01
2.099126800000000181e-01
2.212609200000000276e-01
2.158357500000000206e-01
1.982903800000000161e-01
1.819035200000000130e-01
1.713325699999999896e-01
1.552789800000000109e-01
1.205110199999999965e-01
8.999218700000000126e-02
5.693061600000000333e-02
3.129673399999999966e-02
2.342444800000000049e-02
6.016951899999999423e-03
4.379375199999999656e-03
-2.748318100000000062e-03
-8.246710100000000446e-03
-5.065548100000000047e-03
-1.225333500000000062e-02
-1.073074100000000024e-02
-9.410048000000000717e-03
-8.911588800000000074e-03
-5.134443399999999956e-03
-3.965408400000000264e-03
-5.587509999999999526e-03
3.534316800000000293e-03
-4.769385000000000117e-03
6.923073199999999925e-04
3.964704799999999724e-03
3.806873599999999885e-02
7.500922000000000145e-02
1.175662500000000110e-01
1.230102799999999996e-01
1.124632000000000132e-01
6.648985400000000101e-02
9.660137000000000931e-03
-3.551991000000000176e-02
-6.820830199999999843e-02
-6.551252500000000201e-02
-2.823819699999999960e-02
-2.392979399999999729e-02
-9.268137400000001080e-02
-2.111371800000000076e-01
