-8.715175399999999795e-02
-3.053329399999999971e-01
-4.327968199999999710e-01
-4.430819200000000180e-01
-3.751445599999999603e-01
-2.933763600000000027e-01
-1.911432999999999882e-01
-1.742582199999999915e-01
-1.239473299999999945e-01
-5.089099000000000400e-02
-4.563920100000000424e-02
-4.630783800000000394e-02
-4.354998799999999781e-02
-4.222696399999999878e-02
-4.583653000000000033e-02
-3.689629999999999993e-02
-4.371119999999999867e-02
-3.998307699999999881e-02
-3.608994000000000091e-02
-4.731998800000000033e-02
-4.401324599999999893e-02
-4.976537500000000058e-02
-4.965680100000000041e-02
-4.992738299999999879e-02
-5.838083699999999793e-02
-6.204738899999999446e-02
-6.107075600000000382e-02
-6.495185100000000489e-02
-6.776028700000000238e-02
-8.146543000000000534e-02
-7.607274399999999770e-02
-8.000466700000000153e-02
-8.130294999999999883e-02
-8.409591800000000561e-02
-8.252618999999999927e-02
-8.030745999999999718e-02
-8.639166700000000532e-02
-6.876582000000000527e-02
-6.928647799999999857e-02
-6.058489500000000666e-02
-4.557683099999999821e-02
-4.962213999999999514e-02
-3.816626000000000046e-02
-2.659936800000000170e-02
-1.891423199999999957e-02
-1.069861399999999865e-02
-1.468305399999999964e-03
2.234076599999999975e-03
-4.865309899999999826e-03
2.103888500000000109e-03
2.670014399999999771e-03
2.818112800000000060e-03
1.038728400000000010e-02
4.860189499999999739e-03
7.738158400000000325e-03
1.430225699999999878e-02
9.655870699999999363e-03
1.522948799999999936e-02
2.344068900000000240e-03
1.477599099999999874e-02
1.802935699999999933e-02
1.809691899999999951e-02
1.699625299999999936e-02
2.582121199999999964e-02
3.383557400000000021e-02
3.181176100000000090e-02
4.132201400000000413e-02
4.306256099999999920e-02
4.352701099999999740e-02
5.057630800000000038e-02
5.783333599999999908e-02
6.013017099999999615e-02
6.847382500000000205e-02
6.849157499999999898e-02
6.636547200000000868e-02
7.617198099999999972e-02
7.564076299999999975e-02
6.635724899999999316e-02
6.250106299999999560e-02
5.838642800000000410e-02
5.741840099999999392e-02
6.195807199999999598e-02
5.582176900000000025e-02
5.427775500000000392e-02
5.056101200000000240e-02
4.559937900000000238e-02
4.307991700000000229e-02
4.982672100000000437e-02
4.712117899999999915e-02
3.881501399999999491e-02
3.781395299999999737e-02
3.741828700000000146e-02
3.832133999999999541e-02
3.764332299999999937e-02
3.024465000000000139e-02
4.431938200000000438e-02
4.471534300000000461e-02
6.595007599999999637e-02
9.356453900000000212e-02
1.083075599999999972e-01
1.143757200000000002e-01
1.299655000000000116e-01
1.469064200000000098e-01
1.707160500000000081e-01
1.701029900000000095e-01
1.629427600000000198e-01
1.525710100000000069e-01
1.217344500000000079e-01
1.058705599999999886e-01
8.717644300000000623e-02
8.146035000000000081e-02
5.564722800000000691e-02
2.800517699999999915e-02
-2.806111500000000192e-03
-1.281516799999999831e-02
-1.692083800000000054e-02
-1.975127200000000027e-02
-1.749362700000000118e-02
-2.946395800000000190e-02
-2.495932699999999990e-02
-1.698594499999999882e-02
-1.697379499999999986e-02
-1.913109099999999937e-02
-2.518854599999999916e-02
-2.124840000000000062e-02
-2.059485600000000166e-02
-2.274168299999999865e-02
-1.658618199999999793e-02
-3.619053199999999748e-03
2.590032600000000129e-02
8.652459500000000969e-02
1.213974799999999882e-01
1.295530699999999924e-01
1.661256400000000188e-01
1.834504899999999938e-01
1.583209700000000053e-01
1.055009199999999980e-01
6.352879200000000059e-02
6.265944399999999470e-02
4.899928500000000397e-04
