-8.369731799999999278e-02
-3.282397300000000073e-01
-4.109046900000000169e-01
-4.472566600000000281e-01
-4.249658299999999889e-01
-3.558169299999999757e-01
-2.149260400000000126e-01
-1.418086600000000030e-01
-1.224444099999999896e-01
-5.307548199999999328e-02
-1.601820500000000064e-02
-2.105793499999999985e-02
-1.589646800000000040e-02
-1.258769899999999907e-02
-2.002241100000000038e-02
-1.450059899999999943e-02
-1.386238499999999964e-02
-1.292023700000000108e-02
-2.675714300000000059e-02
-1.644502100000000064e-02
-2.054752400000000104e-02
-2.060141500000000139e-02
-1.686014999999999736e-02
-1.853438500000000044e-02
-2.924978799999999879e-02
-3.959944899999999490e-02
-4.107615299999999720e-02
-3.458434900000000034e-02
-4.917520499999999961e-02
-4.075154300000000118e-02
-4.004148899999999955e-02
-5.236055499999999613e-02
-5.502503399999999351e-02
-5.576970500000000275e-02
-6.135945699999999225e-02
-5.854952300000000609e-02
-5.601623399999999808e-02
-6.982237599999999156e-02
-7.054785799999999107e-02
-5.754266799999999821e-02
-4.023924400000000040e-02
-3.483363500000000168e-02
-3.126994900000000521e-02
-1.636495099999999911e-02
-1.424959299999999963e-02
5.478291899999999590e-03
1.044542199999999935e-02
3.449911099999999984e-03
2.085381099999999988e-02
2.320026199999999927e-02
1.675245500000000019e-04
6.519039899999999783e-03
1.733344699999999836e-02
1.559877899999999838e-02
1.174156900000000031e-02
8.435481999999999356e-03
1.668763599999999875e-02
1.360993500000000009e-02
1.594986999999999794e-02
2.803654300000000404e-02
2.698574999999999585e-02
2.110377399999999876e-02
2.489298300000000047e-02
2.845998900000000151e-02
2.898518800000000201e-02
3.140588000000000407e-02
4.578914399999999690e-02
4.323410800000000026e-02
3.362334399999999945e-02
4.728010600000000230e-02
4.278951300000000124e-02
4.268884700000000199e-02
5.557701900000000528e-02
5.748719399999999841e-02
6.309411600000000564e-02
5.432501199999999197e-02
4.790776400000000546e-02
5.123961800000000066e-02
4.079991700000000499e-02
5.172227100000000022e-02
5.641095399999999926e-02
3.836905000000000177e-02
3.597308300000000292e-02
3.397918500000000203e-02
3.592722599999999961e-02
3.227605499999999794e-02
3.950507400000000113e-02
4.219145900000000060e-02
4.424916400000000055e-02
3.769048500000000274e-02
3.674545199999999789e-02
3.384578400000000376e-02
4.019462899999999561e-02
3.358514599999999628e-02
4.341864499999999877e-02
5.570752199999999543e-02
8.744036699999999107e-02
1.043426799999999932e-01
1.063322599999999979e-01
1.357356999999999869e-01
1.520149799999999940e-01
1.700416200000000044e-01
1.846450099999999983e-01
1.785469000000000084e-01
1.686819400000000024e-01
1.617916300000000196e-01
1.476674099999999989e-01
1.287692300000000123e-01
1.047028400000000053e-01
7.760349399999999509e-02
3.396765499999999938e-02
-1.217866400000000050e-02
-3.125494599999999873e-02
-2.464984699999999904e-02
-3.269571799999999862e-02
-2.934883599999999967e-02
-2.891805199999999965e-02
-2.423848099999999922e-02
-2.347595000000000237e-02
-3.292961300000000341e-02
-3.453473699999999591e-02
-3.245176500000000047e-02
-3.451598799999999745e-02
-3.181741200000000325e-02
-3.483429700000000018e-02
-2.679654000000000064e-02
-3.608722500000000055e-02
-2.859921400000000127e-02
6.434108199999999216e-03
5.245761100000000121e-02
7.283185100000000300e-02
7.391345400000000343e-02
1.019639100000000048e-01
1.062202299999999988e-01
1.026569800000000088e-01
9.715041700000000280e-02
7.786980999999999764e-02
8.607159699999999969e-02
5.570529700000000084e-02
-1.750236000000000014e-01
