-2.571137300000000403e-01
-4.456947999999999466e-01
-4.274227099999999835e-01
-4.078120400000000423e-01
-3.445539300000000082e-01
-2.232094099999999970e-01
-1.422893500000000089e-01
-1.297397399999999923e-01
-6.178814500000000265e-02
-2.443083000000000060e-02
-2.025876700000000044e-02
-2.577202299999999807e-02
-2.707218399999999914e-02
-2.261600600000000100e-02
-2.756381399999999898e-02
-1.545611199999999928e-02
-1.947676200000000163e-02
-1.969334899999999888e-02
-2.502351400000000364e-02
-2.563902900000000068e-02
-2.614528199999999886e-02
-2.980107300000000084e-02
-3.650477600000000267e-02
-2.806513600000000094e-02
-3.716498999999999497e-02
-4.030472400000000011e-02
-4.234789800000000187e-02
-4.326854200000000011e-02
-4.449245699999999915e-02
-6.431395700000000493e-02
-5.251496399999999731e-02
-4.777232199999999901e-02
-6.509717499999999324e-02
-5.679500400000000310e-02
-7.160859899999999501e-02
-6.024337600000000126e-02
-5.872479000000000587e-02
-6.495247200000001109e-02
-4.734483800000000020e-02
-5.351419300000000157e-02
-4.391473900000000125e-02
-3.753473999999999700e-02
-4.540952699999999814e-02
-2.166672000000000042e-02
-1.696978000000000028e-02
1.873243900000000003e-03
4.380554300000000581e-03
-4.163813000000000583e-03
9.362982599999999933e-03
8.033527500000000113e-03
8.581997800000001203e-03
5.594548500000000139e-03
1.455962100000000002e-02
1.378319700000000050e-02
1.344568399999999941e-02
1.622850600000000018e-02
2.026223199999999808e-02
1.385769199999999958e-02
1.436399399999999972e-02
1.940243300000000018e-02
2.102922700000000103e-02
2.034411000000000205e-02
2.676906199999999972e-02
2.392455699999999907e-02
3.312798299999999974e-02
3.528245600000000370e-02
3.575466500000000492e-02
4.458518699999999835e-02
3.992449699999999629e-02
5.174955399999999622e-02
5.006114600000000081e-02
5.054200699999999991e-02
6.238832600000000783e-02
5.789808700000000086e-02
5.106693500000000080e-02
5.647770900000000094e-02
5.769438600000000028e-02
5.798959900000000278e-02
5.310315300000000016e-02
5.745738500000000665e-02
5.910676099999999378e-02
5.646810300000000560e-02
5.312962200000000135e-02
4.376011000000000484e-02
4.058528900000000356e-02
4.745420900000000414e-02
3.980401100000000025e-02
3.885053200000000012e-02
4.389370699999999709e-02
4.152857499999999813e-02
3.368329600000000146e-02
3.055693799999999877e-02
4.008615499999999832e-02
4.126409200000000221e-02
5.958013899999999724e-02
7.284911899999998997e-02
8.953728899999999213e-02
1.100271900000000108e-01
1.272100100000000122e-01
1.425428900000000054e-01
1.598216199999999976e-01
1.801936199999999988e-01
1.913234500000000060e-01
1.812769499999999923e-01
1.704921600000000037e-01
1.636717099999999980e-01
1.388117799999999957e-01
1.278533300000000150e-01
9.800329500000000416e-02
7.361482499999999485e-02
2.740926900000000346e-02
-1.087805600000000053e-02
-2.310454699999999958e-02
-2.662659299999999701e-02
-3.294205299999999892e-02
-2.801007900000000023e-02
-2.879513400000000001e-02
-2.443488599999999941e-02
-2.177818200000000010e-02
-2.968785400000000310e-02
-3.125178399999999773e-02
-3.045944400000000218e-02
-2.559703400000000115e-02
-2.584317600000000242e-02
-3.309735400000000244e-02
-4.362243400000000160e-02
-3.530621099999999707e-02
-2.774729599999999768e-02
-3.534517300000000143e-03
4.415676899999999849e-02
6.313029300000000399e-02
6.245263699999999835e-02
8.185578400000000088e-02
8.215393499999999738e-02
9.913848899999999631e-02
8.925535700000000738e-02
9.903642099999999948e-02
1.122788200000000014e-01
3.574681200000000281e-02
-2.285168200000000094e-01
