1.331845899999999916e-01
-2.074439600000000175e-02
-2.252336500000000075e-01
-3.725704799999999817e-01
-4.521791999999999478e-01
-4.419638700000000364e-01
-3.862147900000000300e-01
-2.656134199999999890e-01
-1.435204600000000164e-01
-1.236839500000000147e-01
-6.265866800000000070e-02
-7.356424200000000364e-03
-4.421196599999999838e-03
-1.006828699999999868e-02
-6.633737700000000466e-03
-9.449230700000000108e-04
-7.603149300000000554e-03
-1.006806799999999946e-02
-1.235158400000000052e-02
-1.649854900000000124e-02
-1.047354199999999888e-02
-1.059018899999999985e-02
-7.818111699999999789e-03
-2.322534300000000246e-02
-2.931814999999999768e-02
-3.649611500000000258e-02
-3.044518600000000255e-02
-3.562734199999999934e-02
-5.189828900000000023e-02
-3.983657899999999696e-02
-4.142729499999999593e-02
-5.264074800000000109e-02
-6.877118399999999909e-02
-6.603846500000000452e-02
-7.810067600000000776e-02
-7.477706400000000420e-02
-8.146640099999999385e-02
-7.386271699999999441e-02
-6.676336299999999224e-02
-8.052345400000000819e-02
-7.070819899999999936e-02
-6.942859599999999520e-02
-6.321199600000000640e-02
-4.877713100000000135e-02
-5.419159199999999676e-02
-3.853136199999999956e-02
-2.398958400000000130e-02
-2.672470900000000274e-02
-7.428513100000000771e-03
-2.845700300000000155e-03
-1.936544499999999849e-03
3.477814399999999782e-03
-4.811778800000000335e-03
1.254131600000000114e-03
-7.604644500000000201e-04
5.741975700000000529e-03
1.161628500000000050e-02
1.890796800000000069e-02
1.320474500000000037e-02
1.042647799999999944e-02
1.211609099999999897e-02
2.353945899999999869e-02
1.855979699999999941e-02
1.806701299999999982e-02
2.576922899999999766e-02
2.218521200000000276e-02
2.240032200000000029e-02
2.611657399999999657e-02
3.218876500000000113e-02
3.549610699999999897e-02
4.512689100000000231e-02
4.091729200000000094e-02
4.345143399999999712e-02
5.349238299999999752e-02
4.728908899999999943e-02
6.058686100000000574e-02
4.900225300000000256e-02
4.442679399999999862e-02
5.525865399999999733e-02
4.153965999999999908e-02
4.016817300000000146e-02
4.501644600000000163e-02
5.569526500000000768e-02
4.106314099999999745e-02
4.471041399999999694e-02
3.229599000000000358e-02
3.367223899999999964e-02
2.563546099999999828e-02
2.537752300000000252e-02
2.622246100000000246e-02
2.957184400000000338e-02
2.863201799999999866e-02
2.687172700000000150e-02
4.004951999999999818e-02
3.907614499999999963e-02
4.246548900000000210e-02
6.990901899999998892e-02
8.659073400000000253e-02
1.147974100000000164e-01
1.141294000000000058e-01
1.311144300000000040e-01
1.558671699999999993e-01
1.701241000000000003e-01
1.835029400000000033e-01
1.802333799999999986e-01
1.729649200000000220e-01
1.607390200000000102e-01
1.383639700000000028e-01
1.212951899999999972e-01
8.987509700000000101e-02
7.143316400000000732e-02
3.797798600000000524e-02
-4.207927299999999864e-03
-2.692419899999999935e-02
-3.088888599999999734e-02
-3.587745099999999771e-02
-2.363097800000000040e-02
-3.444060599999999861e-02
-3.645646500000000040e-02
-2.638013900000000383e-02
-3.200534400000000501e-02
-3.606768500000000210e-02
-3.292409999999999781e-02
-2.893709700000000190e-02
-3.465174399999999821e-02
-3.139698300000000331e-02
-2.366780400000000062e-02
-2.166698800000000161e-02
-1.969031400000000043e-02
1.462593000000000053e-02
4.643491000000000285e-02
6.899061199999999283e-02
5.290347699999999737e-02
8.421491799999999972e-02
9.982396500000000061e-02
1.160055499999999851e-01
1.301663000000000125e-01
1.127511900000000011e-01
1.511892999999999987e-01
5.569810299999999881e-02
