-3.995398800000000278e-02
-1.953696899999999848e-01
-3.222646200000000016e-01
-4.048718599999999723e-01
-3.910128900000000018e-01
-3.012697999999999765e-01
-1.914787000000000017e-01
-1.674688900000000091e-01
-1.327322700000000133e-01
-6.147427300000000289e-02
-4.543654899999999969e-02
-4.313182699999999759e-02
-5.019401599999999408e-02
-4.725845399999999835e-02
-4.645241299999999796e-02
-4.432994900000000044e-02
-3.585553400000000140e-02
-3.947078399999999487e-02
-4.533113600000000104e-02
-4.328980899999999854e-02
-5.018282200000000193e-02
-5.624723099999999476e-02
-5.042396300000000220e-02
-5.186475000000000113e-02
-6.746425799999999917e-02
-6.747559399999999985e-02
-7.791388800000000059e-02
-7.731231099999999468e-02
-7.450389400000000106e-02
-8.598329799999999967e-02
-8.630831099999999867e-02
-9.404794800000000621e-02
-9.472656999999999605e-02
-1.038916200000000040e-01
-1.024464899999999873e-01
-1.054750800000000127e-01
-1.092701499999999964e-01
-9.040838700000000672e-02
-8.450125099999999945e-02
-7.963229400000000624e-02
-7.417777999999999872e-02
-7.100553499999999463e-02
-7.014246500000000106e-02
-6.323038899999999796e-02
-4.763478000000000157e-02
-3.094552600000000098e-02
-3.505628100000000164e-02
-1.959299499999999847e-02
-1.619669199999999865e-02
-9.582481099999999932e-03
-9.546136099999999805e-03
-7.648275700000000191e-03
-6.156364400000000243e-03
-7.208534399999999218e-03
-1.200320200000000014e-03
-1.495651999999999876e-03
1.620313699999999940e-02
2.910743599999999695e-02
2.591486000000000137e-02
1.694825800000000077e-02
1.719396699999999750e-02
2.315426699999999921e-02
2.130617800000000200e-02
2.382486400000000115e-02
2.476816700000000065e-02
3.520163099999999712e-02
4.822723699999999919e-02
4.743634299999999887e-02
5.411003699999999972e-02
5.304317899999999586e-02
4.861653000000000502e-02
5.448861600000000360e-02
6.584188199999999047e-02
7.662529500000000993e-02
8.285284099999999652e-02
7.699195100000000291e-02
7.061379199999999468e-02
7.231069799999999270e-02
7.829054100000000516e-02
6.221736599999999617e-02
5.333744099999999932e-02
5.989816399999999680e-02
6.119018899999999206e-02
6.206034499999999593e-02
5.263428500000000287e-02
6.009495599999999799e-02
6.021304100000000187e-02
5.116095499999999408e-02
4.098015300000000527e-02
2.815922799999999795e-02
4.036134200000000144e-02
4.274293800000000115e-02
4.388722600000000140e-02
3.726899799999999763e-02
4.125593300000000158e-02
5.775258800000000747e-02
7.040324200000000476e-02
6.545972299999999744e-02
8.416025600000000273e-02
1.114487700000000026e-01
1.433226599999999906e-01
1.733527300000000104e-01
1.997198199999999924e-01
2.124618400000000129e-01
1.820725499999999997e-01
1.859465899999999949e-01
1.765570999999999946e-01
1.587932799999999811e-01
1.372172200000000009e-01
1.102802999999999978e-01
9.842183399999999971e-02
5.783082899999999332e-02
2.305345099999999911e-02
-1.795818899999999940e-02
-3.155155999999999933e-02
-1.485495699999999850e-02
-1.300181499999999990e-02
5.151513499999999662e-03
-2.073772600000000146e-02
-2.656048700000000068e-02
-1.667572800000000077e-02
-1.056076799999999989e-02
-9.218142599999999687e-03
-2.408111800000000205e-02
-3.329642000000000018e-02
-2.713472299999999948e-02
-1.476321899999999930e-02
1.292117400000000098e-03
3.791858799999999613e-02
1.088227300000000064e-01
1.680792099999999789e-01
1.626405900000000015e-01
1.435457599999999945e-01
1.341590000000000005e-01
1.077469100000000013e-01
3.082136200000000145e-02
-1.587115799999999979e-02
4.105716699999999511e-03
5.922545700000000218e-02
-6.648424399999999790e-02
