5.399561000000000638e-02
-1.514264300000000008e-01
-3.401860399999999673e-01
-4.355030799999999869e-01
-4.331513799999999748e-01
-4.026551399999999670e-01
-3.294841199999999914e-01
-1.960672800000000104e-01
-1.409308599999999911e-01
-1.214474099999999918e-01
-4.640848799999999774e-02
-2.911122099999999963e-02
-2.979968000000000200e-02
-2.778154000000000040e-02
-2.493262900000000129e-02
-1.883820300000000128e-02
-1.534092500000000005e-02
-2.057166699999999834e-02
-3.016965699999999903e-02
-2.582314999999999958e-02
-2.673046899999999976e-02
-2.469588400000000128e-02
-2.186653899999999734e-02
-2.820326000000000083e-02
-3.306856200000000273e-02
-3.808615099999999865e-02
-4.207919999999999716e-02
-4.181693100000000163e-02
-4.653266799999999925e-02
-4.746507600000000188e-02
-5.020887500000000003e-02
-5.249422399999999905e-02
-6.224042700000000095e-02
-6.691189200000000059e-02
-6.413746299999999179e-02
-6.484126199999999673e-02
-5.560712300000000136e-02
-6.381983799999998985e-02
-5.980771599999999688e-02
-5.549855199999999961e-02
-5.617838400000000482e-02
-4.914497400000000099e-02
-4.234610500000000194e-02
-3.606450700000000259e-02
-1.935337000000000168e-02
-1.507825200000000032e-02
-1.763673199999999872e-02
-8.196471399999998714e-03
-1.414081199999999913e-02
3.926740399999999881e-03
-2.059127000000000006e-03
4.315843099999999363e-03
6.174487000000000204e-03
4.237566199999999970e-03
5.499077899999999658e-04
-3.349306900000000118e-03
1.075234800000000011e-02
9.270310999999999829e-03
4.224258199999999901e-03
1.289031600000000149e-03
9.305598700000000667e-03
1.076222299999999958e-02
1.969154999999999864e-02
1.446198099999999875e-02
2.158570099999999881e-02
1.474137600000000048e-02
2.286883699999999950e-02
2.535156400000000004e-02
2.877554900000000096e-02
3.083046700000000029e-02
3.308632300000000082e-02
4.985860300000000134e-02
4.535641099999999926e-02
5.018537199999999199e-02
5.274259799999999471e-02
5.409335099999999785e-02
6.033690600000000265e-02
5.099053199999999814e-02
5.865829299999999330e-02
5.354540800000000267e-02
4.803482499999999628e-02
4.789431599999999928e-02
4.637065099999999884e-02
4.674382600000000221e-02
4.092875399999999775e-02
4.342402100000000015e-02
4.682938899999999904e-02
4.048524299999999715e-02
4.179495300000000274e-02
3.964869499999999769e-02
2.989808999999999869e-02
3.791886400000000351e-02
3.269190000000000290e-02
3.688161499999999954e-02
5.161548400000000314e-02
6.085752900000000049e-02
8.704063100000000719e-02
9.821192900000000336e-02
1.092479999999999840e-01
1.314295200000000219e-01
1.505951600000000057e-01
1.752813900000000091e-01
1.902143599999999990e-01
1.766931500000000210e-01
1.723882399999999981e-01
1.556049100000000129e-01
1.459318300000000124e-01
1.338040799999999919e-01
1.061456200000000100e-01
7.995851200000000936e-02
4.805460699999999918e-02
1.458081500000000044e-02
-7.386729400000000001e-03
-7.530132200000000213e-03
-6.224564800000000411e-03
-6.998661500000000375e-03
-1.444173999999999979e-02
-1.739156199999999930e-02
-8.949903099999999972e-03
-4.404171900000000001e-03
-9.107408799999999402e-03
-1.122089100000000020e-02
-6.392016799999999770e-03
-1.094928099999999994e-02
-1.693500199999999761e-02
-1.496910100000000202e-02
-1.728640600000000025e-03
6.173093999999999630e-03
1.760836799999999924e-02
6.322362400000000604e-02
8.715294700000000838e-02
8.832623200000000452e-02
1.075338600000000089e-01
1.023287199999999980e-01
9.523349899999999923e-02
7.430306899999999937e-02
9.274984499999999743e-02
1.118383300000000136e-01
4.663264200000000193e-02
-1.923510300000000062e-01
