-1.390591899999999922e-02
-1.857964900000000086e-01
-3.213966699999999954e-01
-4.664308799999999922e-01
-4.404411299999999585e-01
-3.355956599999999623e-01
-2.100705699999999843e-01
-1.624257299999999904e-01
-1.374789299999999992e-01
-8.069335299999999545e-02
-2.893146300000000101e-02
-3.066052500000000097e-02
-3.550544700000000248e-02
-2.744167900000000354e-02
-2.023625600000000108e-02
-1.769337500000000077e-02
-2.695770599999999795e-02
-3.183820600000000084e-02
-2.072605799999999859e-02
-2.267842899999999995e-02
-2.985594500000000179e-02
-2.384343400000000016e-02
-2.814075699999999888e-02
-3.541898500000000005e-02
-3.266582499999999556e-02
-3.522571400000000519e-02
-4.320216200000000228e-02
-5.996813699999999775e-02
-5.005088700000000224e-02
-5.018753599999999787e-02
-5.884605799999999970e-02
-6.325700300000000609e-02
-6.534791399999999306e-02
-7.527042899999999981e-02
-7.942102199999999390e-02
-7.124128700000000036e-02
-6.979733000000000465e-02
-7.487622200000000616e-02
-6.311788699999999752e-02
-5.514735899999999302e-02
-4.290238700000000016e-02
-4.027175599999999883e-02
-3.225042300000000028e-02
-3.123917699999999992e-02
-2.187735299999999869e-02
-1.196210299999999997e-02
-7.740496600000000560e-03
2.365595500000000021e-03
1.579937699999999987e-02
1.888805899999999871e-02
1.142672800000000058e-02
1.500702399999999902e-02
1.295270800000000114e-03
2.476926899999999827e-03
7.089207599999999485e-03
1.142188499999999968e-02
1.236873900000000012e-02
1.592341600000000273e-02
1.759234700000000123e-02
1.092064299999999898e-02
2.053811900000000051e-02
1.970551799999999826e-02
1.478133199999999946e-02
1.736425200000000016e-02
2.270597099999999841e-02
2.394489099999999940e-02
3.318946700000000027e-02
2.915348499999999982e-02
4.976676500000000447e-02
4.092826399999999892e-02
4.394737099999999896e-02
4.105519700000000161e-02
4.274406299999999881e-02
6.053740399999999605e-02
5.348348699999999623e-02
5.779985299999999826e-02
5.117835400000000229e-02
5.084930000000000005e-02
5.448564000000000185e-02
5.665103099999999753e-02
4.781369100000000538e-02
5.061624199999999879e-02
4.198616299999999996e-02
5.251009800000000505e-02
4.583795799999999809e-02
4.165045900000000079e-02
3.972482399999999886e-02
4.381373800000000485e-02
5.188319700000000589e-02
4.159057700000000357e-02
3.979148500000000144e-02
3.855008099999999993e-02
3.587725099999999889e-02
2.933225600000000099e-02
3.797101900000000169e-02
5.347069499999999864e-02
6.312782799999999694e-02
8.399404000000000592e-02
1.179407000000000094e-01
1.321360099999999982e-01
1.572182200000000196e-01
1.833537999999999835e-01
2.067825500000000094e-01
2.228567200000000081e-01
2.266547600000000107e-01
2.154960400000000276e-01
2.019195699999999927e-01
1.666111299999999962e-01
1.481629000000000140e-01
1.311196199999999923e-01
8.386185499999999904e-02
4.086337799999999881e-02
-6.814478500000000286e-03
-2.921205800000000255e-02
-4.120656300000000161e-02
-3.956746900000000094e-02
-3.671841199999999888e-02
-3.681319900000000478e-02
-3.900725600000000404e-02
-5.590334500000000706e-02
-3.950894500000000364e-02
-3.969133799999999962e-02
-3.900443800000000238e-02
-3.990928900000000057e-02
-4.094613899999999945e-02
-3.346652199999999855e-02
-3.316389100000000090e-02
-3.857720199999999794e-02
-1.768966300000000130e-02
3.806907299999999494e-02
1.294646500000000144e-01
1.288052900000000167e-01
7.161482300000000800e-02
4.958361900000000239e-02
3.626669200000000402e-03
-3.040284200000000284e-02
-3.897654099999999650e-02
2.720385599999999848e-02
1.075683200000000089e-01
-1.123045800000000045e-02
