-6.119280400000000342e-02
-1.181251499999999843e-01
-1.710029900000000214e-01
-2.211932000000000065e-01
-2.494207100000000177e-01
-2.376142000000000254e-01
-2.068809400000000132e-01
-1.636606700000000081e-01
-1.187201400000000018e-01
-9.848332699999999551e-02
-9.119380600000000225e-02
-6.115599299999999877e-02
-3.708866300000000088e-02
-2.415708500000000175e-02
-3.145553099999999491e-02
-3.316265899999999711e-02
-2.992608799999999999e-02
-3.354142999999999708e-02
-2.727675600000000269e-02
-3.024529799999999685e-02
-2.964622499999999827e-02
-3.061020300000000249e-02
-3.023927000000000212e-02
-3.560150100000000067e-02
-3.159304200000000173e-02
-2.889489099999999894e-02
-2.675268399999999880e-02
-3.086736799999999920e-02
-3.696135899999999919e-02
-3.411985799999999597e-02
-3.759058199999999739e-02
-3.822933600000000265e-02
-4.213836099999999918e-02
-4.323074000000000361e-02
-4.376702899999999896e-02
-4.547967700000000307e-02
-4.652366800000000413e-02
-4.818708900000000239e-02
-4.641122699999999934e-02
-4.485408500000000187e-02
-5.168273799999999196e-02
-4.881407299999999949e-02
-5.010434499999999458e-02
-5.467610499999999568e-02
-5.344596100000000016e-02
-5.213183700000000032e-02
-5.580976499999999729e-02
-5.859978000000000409e-02
-5.311885499999999954e-02
-5.238750100000000298e-02
-5.302219000000000376e-02
-5.109755700000000178e-02
-4.991359399999999863e-02
-4.298325499999999799e-02
-4.374828800000000323e-02
-3.202891299999999913e-02
-2.929411999999999988e-02
-2.817865600000000331e-02
-2.639549700000000040e-02
-2.328955699999999893e-02
-1.353326900000000055e-02
-8.768342699999999088e-03
-8.994645499999998767e-03
-1.097893100000000080e-02
-6.358499099999999696e-03
-7.347844500000000681e-03
-9.066375300000000317e-03
-3.234404699999999990e-03
-2.540531899999999826e-03
-5.819759600000000074e-03
-4.748617599999999453e-03
-4.940594399999999678e-03
-2.952155699999999949e-03
-6.382551400000000333e-03
-6.416174900000000056e-03
-9.276582199999999214e-04
-4.278787200000000110e-03
-2.218378799999999856e-03
-3.411600800000000257e-04
-4.378625199999999773e-03
2.378931199999999996e-03
1.874874300000000055e-04
2.048339799999999988e-03
3.268645500000000315e-03
7.220378600000000591e-03
6.004036699999999727e-03
3.264707300000000041e-03
9.816878200000000304e-03
7.741699000000000323e-03
1.704165199999999741e-02
1.018035800000000046e-02
1.543660500000000081e-02
1.390209699999999868e-02
1.576052799999999934e-02
2.272260000000000252e-02
2.224469000000000099e-02
2.136518600000000129e-02
2.093933400000000042e-02
2.172928600000000043e-02
2.655516600000000157e-02
2.807839899999999694e-02
2.975146199999999935e-02
2.253831599999999921e-02
2.342184099999999880e-02
2.652442400000000131e-02
2.610333499999999834e-02
2.490558699999999986e-02
3.249717600000000262e-02
4.404172599999999632e-02
4.710643400000000258e-02
6.216311900000000279e-02
7.220963500000000812e-02
8.455585599999999868e-02
1.000795799999999874e-01
1.009727400000000053e-01
1.109514100000000003e-01
1.293769399999999958e-01
1.482460200000000061e-01
1.607938200000000040e-01
1.733593400000000007e-01
1.838524800000000126e-01
2.062452099999999844e-01
2.322042400000000062e-01
2.469664799999999882e-01
2.605572800000000022e-01
2.815575599999999845e-01
2.926388000000000322e-01
2.791049199999999786e-01
2.429870300000000205e-01
2.231647699999999845e-01
2.013923300000000083e-01
1.204354699999999889e-01
6.168758199999999775e-02
3.713535700000000078e-02
4.232061500000000240e-03
-1.793771000000000254e-02
-6.293356099999999897e-02
-1.637118300000000026e-01
-2.297051300000000074e-01
-2.752135599999999682e-01
