-8.392668000000000350e-02
-1.959157800000000116e-01
-3.000595899999999872e-01
-3.801872199999999924e-01
-4.257733000000000212e-01
-3.757567700000000177e-01
-2.919246100000000288e-01
-1.802143700000000126e-01
-1.366168700000000014e-01
-8.775411400000000806e-02
-3.920684400000000458e-02
-2.834732999999999697e-02
-2.582563900000000093e-02
-2.609529300000000204e-02
-2.309217599999999898e-02
-2.331942700000000021e-02
-2.071840500000000224e-02
-1.651378199999999768e-02
-2.274968399999999918e-02
-2.424882100000000026e-02
-1.477339599999999940e-02
-1.021702700000000005e-02
-5.740403499999999562e-03
-1.334206900000000154e-02
-2.111055400000000012e-02
-2.481667499999999985e-02
-2.250537899999999897e-02
-1.875503799999999818e-02
-2.059111400000000064e-02
-2.236733800000000050e-02
-2.220544299999999832e-02
-2.856691900000000311e-02
-2.188029099999999963e-02
-2.635678799999999905e-02
-3.121191699999999875e-02
-2.271626700000000179e-02
-2.053574000000000024e-02
-1.450762999999999879e-02
-1.940692899999999985e-02
-1.748054300000000116e-02
-4.760345899999999901e-03
2.865570100000000044e-03
-4.420289899999999862e-03
8.292143400000000436e-04
5.618854000000000383e-03
1.516711699999999906e-02
1.815808799999999931e-02
1.177731400000000053e-02
1.948679099999999983e-02
2.218216399999999727e-02
3.295121999999999635e-02
2.992550199999999966e-02
2.303582600000000230e-02
2.424868399999999952e-02
2.160999100000000200e-02
1.544695299999999938e-02
9.611277499999999405e-03
2.117783999999999986e-02
2.849576799999999771e-02
1.205506500000000022e-02
1.523649900000000057e-02
2.195132600000000017e-02
2.970503600000000063e-02
2.292874799999999880e-02
3.012295899999999776e-02
3.074428100000000177e-02
3.444644700000000503e-02
4.145109500000000030e-02
3.982224100000000128e-02
3.927983599999999853e-02
4.990470500000000059e-02
4.787740000000000051e-02
5.053365399999999730e-02
5.968090799999999779e-02
6.197266199999999781e-02
6.346086700000000413e-02
5.493060500000000040e-02
5.314285600000000220e-02
4.903651700000000169e-02
5.331152900000000333e-02
6.302857800000000177e-02
5.121535099999999924e-02
5.013795299999999899e-02
4.633500399999999908e-02
3.173306099999999991e-02
5.184861799999999910e-02
5.113680999999999782e-02
4.844928700000000060e-02
4.713103100000000378e-02
4.297513099999999975e-02
3.734456199999999781e-02
3.003975400000000184e-02
2.780516499999999974e-02
3.758410200000000118e-02
5.107739000000000029e-02
7.172748399999999414e-02
8.961878500000000636e-02
1.046311500000000061e-01
1.288988199999999973e-01
1.483275799999999867e-01
1.784052899999999942e-01
2.141296399999999822e-01
2.276634599999999842e-01
2.093320600000000142e-01
2.017828300000000241e-01
1.850626900000000019e-01
1.582259400000000094e-01
1.360900999999999916e-01
1.061994500000000008e-01
7.265870800000000240e-02
5.120838399999999568e-02
1.801826200000000017e-02
-1.405823099999999916e-02
-2.873618099999999953e-02
-3.428191300000000413e-02
-1.979833400000000077e-02
-2.281500399999999984e-02
-3.550444400000000306e-02
-3.295772699999999916e-02
-2.494715399999999916e-02
-2.311912799999999921e-02
-3.359632699999999528e-02
-3.618857699999999955e-02
-3.537458799999999848e-02
-3.441891899999999921e-02
-2.173222200000000243e-02
-3.025240900000000094e-02
-3.250185900000000100e-02
-3.192893200000000101e-03
5.479962200000000616e-02
1.271104399999999912e-01
1.036652799999999985e-01
4.891172100000000522e-02
-3.699337100000000406e-02
-1.286089199999999877e-01
-1.787356200000000117e-01
-1.827710800000000024e-01
-1.241501799999999989e-01
-7.879357299999999176e-02
-1.584494300000000022e-01
