-1.678311399999999828e-02
-2.329578500000000219e-01
-3.616573799999999728e-01
-4.283766499999999700e-01
-4.116345500000000435e-01
-3.564183900000000293e-01
-2.517653499999999989e-01
-1.810992200000000052e-01
-1.448757499999999976e-01
-9.163847899999999491e-02
-3.572551399999999988e-02
-2.346425400000000036e-02
-2.952786900000000173e-02
-3.211061999999999944e-02
-2.748282000000000155e-02
-2.797891200000000161e-02
-3.414137199999999622e-02
-1.752978999999999996e-02
-3.028997900000000160e-02
-3.569321300000000141e-02
-3.375109899999999968e-02
-3.934186399999999723e-02
-3.926013099999999673e-02
-3.805102300000000326e-02
-5.077961199999999481e-02
-4.963185800000000092e-02
-4.954429500000000208e-02
-6.259796399999999206e-02
-6.510595199999999472e-02
-6.786031400000000491e-02
-6.376231400000000049e-02
-7.082514199999999371e-02
-7.491334600000000565e-02
-7.456542699999998969e-02
-7.603709799999999741e-02
-7.389893499999999893e-02
-7.869967699999999566e-02
-6.810055900000000495e-02
-6.628977499999999523e-02
-5.913744299999999787e-02
-5.514966300000000154e-02
-5.423092599999999874e-02
-4.566750600000000354e-02
-4.225710800000000156e-02
-3.569203199999999854e-02
-2.504094899999999985e-02
-2.219095800000000021e-02
-1.516155299999999949e-02
-1.312373099999999959e-02
-1.235506700000000083e-02
-1.230919899999999984e-02
-1.858847500000000014e-03
-7.881041699999999026e-03
-9.062333500000000061e-04
9.617863600000000138e-03
7.294744399999999844e-03
6.447823000000000096e-03
2.344504500000000029e-03
7.032765700000000522e-03
1.497433300000000113e-02
1.165839299999999953e-02
8.948665099999999345e-03
1.687297299999999944e-02
2.586349600000000318e-02
2.093875699999999881e-02
1.648202400000000137e-02
3.687138599999999905e-02
3.629678700000000396e-02
4.990424999999999722e-02
3.990451600000000099e-02
4.249304999999999749e-02
4.769922000000000051e-02
5.108458999999999917e-02
6.499622400000000522e-02
4.803134600000000254e-02
6.219355800000000295e-02
6.269848199999999983e-02
6.039154599999999734e-02
6.353059899999999316e-02
5.687490099999999854e-02
5.441615400000000824e-02
5.464064300000000263e-02
4.618652399999999963e-02
4.386901499999999732e-02
4.506925800000000093e-02
4.125219100000000055e-02
4.544572900000000415e-02
3.564772900000000300e-02
4.424885800000000202e-02
4.340361899999999745e-02
3.576797199999999510e-02
3.642417800000000150e-02
4.414085200000000125e-02
4.381318099999999965e-02
4.694281599999999832e-02
5.784876100000000548e-02
7.156367799999999169e-02
8.243285100000000143e-02
1.067593000000000014e-01
1.128890200000000066e-01
1.286485500000000004e-01
1.510514099999999971e-01
1.899088300000000007e-01
1.975491399999999842e-01
1.799041399999999902e-01
1.800709199999999954e-01
1.648803600000000036e-01
1.376401500000000167e-01
1.219699000000000061e-01
1.009923100000000018e-01
7.052133400000000496e-02
2.554884299999999817e-02
-6.099952100000000099e-03
-2.232566100000000012e-02
-2.692159599999999903e-02
-2.300578099999999945e-02
-2.880059999999999912e-02
-2.534648899999999982e-02
-1.943910199999999977e-02
-2.904020299999999707e-02
-2.407794799999999832e-02
-1.869383999999999976e-02
-2.181469999999999937e-02
-2.018243999999999941e-02
-2.442722900000000169e-02
-2.517372000000000012e-02
-2.062169100000000102e-02
-7.379412000000000124e-03
1.652018499999999973e-02
6.743512900000001031e-02
1.047250400000000053e-01
1.082850499999999938e-01
1.348245399999999927e-01
1.374787100000000040e-01
1.138705499999999871e-01
8.470577299999999810e-02
8.142030199999999995e-02
1.192578200000000005e-01
1.348037799999999842e-01
-5.574178500000000203e-02
