9.053275499999999254e-02
1.908541899999999930e-02
-1.852937499999999793e-01
-3.148745299999999858e-01
-4.161033399999999882e-01
-4.272888199999999581e-01
-2.990647000000000166e-01
-2.247558399999999845e-01
-1.701254600000000061e-01
-6.616141700000000014e-02
-3.491485500000000158e-02
-4.890127100000000310e-02
-3.087898900000000252e-02
-3.238307899999999517e-02
-2.911136999999999753e-02
-3.007718899999999723e-02
-3.970291299999999940e-02
-4.198507099999999881e-02
-5.130495000000000194e-02
-5.707121799999999995e-02
-5.921364199999999689e-02
-5.160326200000000391e-02
-5.957294999999999952e-02
-6.964416500000000787e-02
-6.708837300000000670e-02
-7.596298799999999518e-02
-8.317644400000000215e-02
-8.735179499999999597e-02
-7.640653499999999765e-02
-8.717688900000000740e-02
-9.350090800000000757e-02
-1.033027799999999968e-01
-1.175270399999999993e-01
-9.796841600000000261e-02
-1.047613500000000031e-01
-1.124434600000000090e-01
-1.094708500000000084e-01
-1.043404699999999907e-01
-9.936545700000000425e-02
-9.003339900000000007e-02
-7.149491700000000505e-02
-6.544636900000000423e-02
-5.434370899999999699e-02
-3.501346600000000003e-02
-2.608638799999999855e-02
-2.527422799999999928e-02
-1.834056099999999741e-03
-4.868475900000000453e-03
8.193986300000001295e-04
4.339300600000000133e-03
1.304310300000000034e-02
1.559826699999999899e-02
1.940558799999999792e-02
3.515805500000000056e-03
1.044434900000000034e-02
1.975261199999999925e-02
2.495519599999999893e-02
2.830698200000000136e-02
2.977686900000000095e-02
2.713571199999999933e-02
3.947515699999999683e-02
4.441810000000000203e-02
3.213737700000000169e-02
4.456536900000000051e-02
5.195518699999999990e-02
5.026951400000000125e-02
5.090167399999999398e-02
7.129962700000000431e-02
6.541944899999999063e-02
6.642217200000000155e-02
8.341927400000000159e-02
6.702238700000000271e-02
7.289673300000000522e-02
8.051777400000000029e-02
8.417154699999999934e-02
6.848532799999999809e-02
7.177312199999999476e-02
6.397084999999999577e-02
6.632727699999999005e-02
5.655810900000000224e-02
6.251642500000000047e-02
5.245375599999999722e-02
6.034440100000000584e-02
5.766530600000000645e-02
5.448507400000000139e-02
3.820217799999999636e-02
3.571050499999999656e-02
4.466815600000000053e-02
4.388172399999999695e-02
3.716905799999999788e-02
4.201003999999999849e-02
3.287547400000000175e-02
3.679417699999999736e-02
2.727350499999999650e-02
4.050299899999999786e-02
3.343159700000000040e-02
2.862898999999999999e-02
3.318036300000000438e-02
3.127221499999999904e-02
4.071564700000000064e-02
2.454796100000000009e-02
2.902191499999999882e-02
4.805962600000000112e-02
7.292843599999999926e-02
1.127272199999999891e-01
1.429595300000000013e-01
1.427931100000000009e-01
1.593559800000000082e-01
2.085351300000000130e-01
2.104408200000000007e-01
2.088867399999999874e-01
2.026528100000000165e-01
1.706052899999999928e-01
1.351311600000000002e-01
1.164261599999999869e-01
7.455816099999999780e-02
2.596503100000000040e-04
-3.011478299999999914e-02
-3.133519900000000108e-02
-4.993761600000000411e-02
-4.457138100000000019e-02
-3.615220200000000134e-02
-4.406515100000000379e-02
-2.445958999999999980e-02
-2.684712699999999841e-02
-3.306863899999999690e-02
-2.161013999999999990e-02
-2.696315399999999959e-02
-2.890170200000000134e-02
-2.961542400000000130e-02
-2.540544499999999872e-02
-1.185443100000000034e-02
7.497748499999999997e-03
9.151420000000000388e-02
9.886211200000000199e-02
1.271602500000000024e-01
1.453596000000000055e-01
8.601882199999999479e-02
1.989381900000000009e-02
-9.521710299999999738e-03
