-2.190139900000000195e-01
-3.000348999999999933e-01
-3.662966400000000067e-01
-4.142200400000000116e-01
-3.864705600000000185e-01
-3.163904100000000108e-01
-2.062777999999999834e-01
-1.483633999999999786e-01
-1.401253499999999819e-01
-8.582859099999999575e-02
-5.968193299999999951e-02
-5.984859799999999591e-02
-5.490191399999999611e-02
-5.095226499999999659e-02
-4.911035500000000137e-02
-4.158343999999999929e-02
-4.048644299999999696e-02
-4.606720499999999996e-02
-3.407048699999999652e-02
-2.955651699999999743e-02
-4.087763200000000402e-02
-3.526552499999999896e-02
-3.103502100000000291e-02
-3.739110099999999604e-02
-3.746344000000000063e-02
-4.699583499999999969e-02
-4.262648100000000079e-02
-3.523665799999999709e-02
-3.336660699999999952e-02
-3.701642000000000127e-02
-3.877679299999999690e-02
-4.162294000000000410e-02
-3.567359700000000133e-02
-2.961984100000000092e-02
-3.640926600000000263e-02
-4.437831199999999615e-02
-4.731458100000000139e-02
-4.224661799999999967e-02
-2.644635399999999831e-02
-2.589852599999999810e-02
-2.477707000000000173e-02
-1.288743699999999812e-02
-1.596033900000000047e-02
-1.561807500000000036e-02
-8.652836000000000555e-03
-1.342904299999999815e-02
-1.276029599999999910e-02
-1.171487700000000028e-02
-7.690419199999999622e-03
-9.961690900000000348e-03
-9.189593899999999246e-03
-1.226199700000000017e-02
-8.259440899999999711e-03
-1.739407800000000032e-02
-1.681588699999999811e-02
-1.003929699999999911e-02
-1.658504599999999912e-02
-1.458276900000000063e-02
-9.388425199999999790e-03
-1.465440200000000040e-02
-1.018630100000000004e-02
-1.520437999999999998e-02
-1.307842399999999995e-02
-1.541482899999999968e-02
-1.328076900000000130e-02
-3.401102599999999802e-03
-6.923089599999999446e-04
2.265106000000000237e-03
8.876173800000001363e-03
1.129234499999999877e-02
1.701823300000000067e-02
2.625771499999999745e-02
2.203566800000000131e-02
3.690551699999999880e-02
3.236434000000000533e-02
2.505100800000000308e-02
4.395877399999999907e-02
4.436651900000000009e-02
4.728242800000000134e-02
4.165937800000000385e-02
4.301292999999999783e-02
4.482501099999999794e-02
5.331795000000000284e-02
5.172789900000000080e-02
5.496933799999999953e-02
5.583262300000000483e-02
4.742961600000000083e-02
5.112058900000000794e-02
5.059854299999999583e-02
4.755665800000000165e-02
4.835615399999999842e-02
4.997115200000000479e-02
5.949232399999999921e-02
6.100039299999999998e-02
6.898575599999999530e-02
8.854616600000000948e-02
9.651062800000000108e-02
1.198554599999999970e-01
1.444525299999999957e-01
1.734233799999999881e-01
2.004030199999999873e-01
2.148395900000000247e-01
2.127210700000000121e-01
2.001834000000000113e-01
1.795621900000000104e-01
1.708852999999999900e-01
1.581622500000000042e-01
1.289268199999999975e-01
9.558379699999999812e-02
5.949032299999999773e-02
3.838506099999999810e-02
2.617871500000000171e-02
1.593982700000000016e-02
2.052780700000000208e-02
1.377138199999999868e-02
1.210801100000000012e-02
2.793297299999999983e-02
3.281818499999999972e-02
2.737791099999999783e-02
2.813329800000000103e-02
3.044264899999999871e-02
2.716080400000000020e-02
2.325748000000000051e-02
3.197463400000000178e-02
3.717764999999999959e-02
2.499273299999999962e-02
3.097908400000000048e-02
4.888208700000000462e-02
8.461278099999999802e-02
1.392900199999999866e-01
1.610266200000000092e-01
1.431024800000000041e-01
9.120725899999999886e-02
1.197768100000000131e-03
-5.494343399999999933e-02
-8.575589200000000023e-02
-8.430967600000000006e-02
-3.821225899999999842e-02
-2.307877900000000065e-02
-9.442972499999999214e-02
