-1.980723000000000067e-01
-3.227769299999999619e-01
-3.376426599999999834e-01
-4.093286600000000108e-01
-4.036557000000000062e-01
-3.595009299999999963e-01
-2.135915899999999978e-01
-1.439252400000000098e-01
-1.258887900000000004e-01
-7.404525199999999197e-02
-2.458144400000000090e-02
-3.125186300000000472e-02
-2.187882399999999811e-02
-2.477475000000000163e-02
-2.634081200000000164e-02
4.911177500000000681e-03
-9.118236999999999523e-03
-2.028630199999999911e-02
-1.651162399999999905e-02
-2.332568800000000067e-02
-2.971856399999999593e-02
-2.049606400000000134e-02
-2.887645600000000173e-02
-2.797734399999999774e-02
-2.554605200000000312e-02
-2.729355900000000196e-02
-2.888936799999999860e-02
-4.049625700000000078e-02
-4.654744000000000242e-02
-4.664202399999999721e-02
-4.812130800000000153e-02
-5.178572999999999510e-02
-5.128967800000000521e-02
-6.100458600000000647e-02
-6.281142400000000459e-02
-7.323891000000000429e-02
-6.715905399999999581e-02
-5.257517999999999914e-02
-6.109776500000000526e-02
-4.867347699999999971e-02
-4.998141400000000178e-02
-2.850094000000000238e-02
-1.719763099999999795e-02
-2.248833000000000082e-02
-1.013391800000000044e-02
-1.132448299999999977e-02
-4.421657100000000312e-03
4.238237000000000601e-03
6.427963300000000615e-03
1.633397699999999952e-02
8.602044600000000735e-03
4.034872999999999585e-03
1.682399199999999942e-02
6.238748699999999495e-03
9.348593100000000128e-03
6.598196700000000421e-03
7.694179899999999432e-04
1.140199499999999984e-02
7.103520400000000456e-03
5.743650899999999324e-03
1.412298200000000094e-02
1.989258899999999872e-02
6.075910300000000007e-03
1.004744200000000018e-02
6.986432900000000626e-03
1.272408799999999972e-02
1.316897599999999890e-02
8.183060199999999881e-03
2.898275599999999841e-02
3.576293500000000264e-02
2.730390100000000195e-02
3.441728399999999938e-02
4.205808300000000305e-02
3.973896799999999951e-02
6.147607699999999703e-02
5.283607299999999729e-02
5.896269499999999553e-02
6.325419499999999917e-02
6.483130900000000363e-02
5.910475299999999599e-02
5.326777099999999848e-02
6.034064300000000630e-02
5.268635600000000363e-02
5.769630399999999687e-02
5.671469099999999763e-02
5.305951500000000154e-02
4.375644299999999903e-02
5.091715300000000666e-02
4.549095000000000222e-02
4.986654999999999560e-02
4.262409799999999915e-02
4.570672299999999771e-02
5.117893500000000179e-02
5.548871699999999990e-02
6.935428500000000163e-02
9.778232400000000379e-02
1.029673499999999853e-01
1.193930300000000111e-01
1.314187099999999941e-01
1.521727400000000008e-01
1.855052100000000037e-01
1.976597400000000004e-01
2.056817699999999860e-01
1.952956499999999873e-01
1.984398099999999943e-01
1.722381500000000065e-01
1.473459300000000138e-01
1.216459000000000013e-01
1.073554799999999892e-01
8.258109099999999536e-02
6.194569399999999559e-02
2.701670800000000039e-02
-2.824902300000000331e-03
-1.065826299999999942e-02
-1.920488700000000035e-02
-1.552798300000000041e-02
-2.787978500000000068e-02
-2.863137199999999868e-02
-1.581500699999999898e-02
-1.757626200000000222e-02
-2.872797499999999934e-02
-1.591160900000000017e-02
-1.654839899999999836e-02
-2.390544000000000002e-02
-1.748949999999999810e-02
-1.915723700000000057e-02
-1.709554500000000019e-02
-1.623563600000000121e-02
1.272976299999999984e-02
7.089358599999999455e-02
1.457222300000000081e-01
1.552410999999999930e-01
1.139075099999999896e-01
6.623715399999999254e-02
2.055757700000000049e-02
-1.482062200000000031e-02
-5.232018600000000463e-02
-8.869353800000000232e-02
-6.392853099999999678e-02
-1.046513300000000007e-01
