-1.159623800000000003e-02
-2.676877999999999758e-01
-4.291497999999999702e-01
-4.660153900000000293e-01
-3.857357799999999726e-01
-2.823691700000000027e-01
-1.969475099999999923e-01
-1.709550700000000145e-01
-1.158486399999999888e-01
-4.224917599999999940e-02
-3.506096100000000160e-02
-4.608691399999999966e-02
-3.211302400000000390e-02
-2.454900299999999980e-02
-3.549943800000000121e-02
-3.140552900000000147e-02
-4.039062100000000155e-02
-3.864739700000000000e-02
-3.965497599999999456e-02
-4.045855799999999863e-02
-3.644717699999999727e-02
-4.826050700000000110e-02
-4.739317199999999730e-02
-5.122102800000000178e-02
-4.995655999999999708e-02
-5.839548300000000497e-02
-6.100214200000000225e-02
-6.598467900000000441e-02
-7.353796399999999733e-02
-7.366889100000000024e-02
-7.609323999999999255e-02
-8.412960299999999725e-02
-8.091174399999999378e-02
-8.843538700000000419e-02
-1.000435600000000036e-01
-9.173689799999999728e-02
-9.555368899999999721e-02
-8.689614399999999461e-02
-8.126504399999999462e-02
-7.152247700000000097e-02
-5.814531299999999708e-02
-4.696861500000000522e-02
-5.297732800000000408e-02
-3.980414399999999964e-02
-2.521174799999999910e-02
-1.849415899999999960e-02
-6.005200799999999874e-03
-5.367076099999999739e-03
-7.061430500000000221e-03
6.121696700000000060e-04
8.367634599999999867e-03
8.475325599999999904e-03
-5.209899599999999811e-03
7.679416999999999147e-03
1.357716200000000026e-02
9.385065899999999600e-03
1.485586300000000040e-02
1.259473200000000084e-02
8.282134499999999760e-03
8.595057399999999834e-03
1.266611199999999847e-02
1.707538700000000090e-02
1.743440300000000109e-02
2.393045299999999737e-02
3.229677400000000032e-02
2.878925900000000107e-02
2.730252700000000005e-02
3.903932999999999709e-02
4.217102699999999982e-02
5.024077200000000298e-02
5.039469800000000166e-02
5.522350099999999429e-02
5.760115600000000058e-02
6.637220499999998968e-02
6.593643600000000105e-02
6.143296799999999752e-02
4.858630500000000324e-02
5.922525899999999538e-02
5.444360299999999320e-02
5.901052599999999371e-02
5.130635300000000593e-02
5.288973799999999864e-02
4.758126599999999706e-02
4.163562099999999766e-02
3.133021700000000048e-02
2.791501900000000272e-02
3.662050800000000300e-02
2.652799900000000349e-02
3.155210299999999801e-02
2.908527600000000018e-02
2.899752400000000369e-02
3.672213100000000507e-02
2.978190399999999793e-02
2.998527299999999979e-02
3.327342200000000388e-02
3.134321500000000066e-02
3.703175100000000164e-02
5.709375700000000192e-02
8.876878400000000335e-02
9.838880399999999637e-02
1.094663099999999972e-01
1.214419499999999930e-01
1.309800099999999801e-01
1.548541099999999893e-01
1.609735399999999983e-01
1.539553499999999908e-01
1.524607400000000113e-01
1.235085900000000014e-01
1.007840499999999861e-01
8.439434799999999404e-02
7.252981000000000011e-02
5.454635300000000575e-02
3.388920399999999916e-02
2.771404400000000018e-03
-1.828581200000000198e-02
-1.906262099999999834e-02
-2.084238399999999852e-02
-1.289198900000000127e-02
-1.644195000000000031e-02
-1.790300099999999825e-02
-2.017876899999999918e-02
-1.660923199999999808e-02
-1.652545899999999929e-02
-1.786380900000000133e-02
-1.788529800000000086e-02
-2.175922999999999746e-02
-1.356935599999999943e-02
-9.941599100000000216e-03
-8.441846899999999468e-04
2.583495400000000025e-02
8.689798099999999914e-02
1.228051699999999913e-01
1.252517599999999898e-01
1.548959299999999872e-01
1.906754999999999978e-01
1.707376800000000028e-01
1.507185900000000134e-01
1.228237999999999969e-01
1.554510400000000125e-01
8.864988000000000035e-02
