-5.249378899999999903e-02
-2.570743400000000123e-01
-3.825199099999999630e-01
-4.719928099999999849e-01
-4.200981299999999585e-01
-3.250359800000000021e-01
-2.028880500000000142e-01
-1.647499400000000114e-01
-1.174685299999999877e-01
-5.159734499999999585e-02
-5.374385000000000273e-02
-4.710513200000000095e-02
-4.988369000000000136e-02
-5.032716000000000273e-02
-4.622882799999999959e-02
-4.014087000000000210e-02
-4.711487200000000208e-02
-6.142030600000000090e-02
-6.102484600000000065e-02
-5.198097000000000134e-02
-5.411291499999999755e-02
-5.817582100000000256e-02
-4.885371700000000483e-02
-5.854489799999999800e-02
-5.943881899999999691e-02
-5.994311900000000304e-02
-6.330596200000000728e-02
-5.490057999999999744e-02
-6.684482499999999661e-02
-6.669450500000000115e-02
-6.320415100000000008e-02
-6.799781600000000259e-02
-7.254338899999999979e-02
-6.570137700000000525e-02
-6.379483599999999366e-02
-6.547899100000000028e-02
-6.532299499999999481e-02
-6.158882899999999772e-02
-6.139504999999999268e-02
-5.592655199999999743e-02
-5.451025000000000315e-02
-4.930188600000000310e-02
-3.293769400000000347e-02
-2.287878299999999976e-02
-2.520174900000000245e-02
5.753044000000000560e-03
5.501114499999999827e-04
3.495589600000000106e-03
2.970524200000000063e-03
5.440642699999999679e-03
8.573797099999998922e-03
5.699409500000000503e-03
3.762147600000000178e-03
1.032508199999999932e-02
1.013774000000000099e-02
1.832565400000000025e-02
1.752077800000000074e-02
1.485311099999999870e-02
1.392793800000000082e-02
1.147331199999999940e-02
3.214328500000000061e-02
2.024252900000000216e-02
1.423656199999999948e-02
2.493231700000000245e-02
2.466772999999999882e-02
3.444032699999999975e-02
3.271874500000000047e-02
4.731036200000000164e-02
4.767468100000000347e-02
4.256908999999999693e-02
5.718339799999999640e-02
5.702076600000000051e-02
5.780266400000000360e-02
5.296477200000000718e-02
5.399445699999999571e-02
5.010800299999999818e-02
5.719344999999999984e-02
4.820118199999999520e-02
5.437600299999999220e-02
6.139345599999999903e-02
5.780498299999999728e-02
5.220768399999999726e-02
5.433758400000000821e-02
4.529963799999999624e-02
4.155270900000000017e-02
3.947015099999999499e-02
3.865953300000000287e-02
4.064114400000000404e-02
3.804502099999999831e-02
4.747239799999999899e-02
4.503915099999999949e-02
4.222385599999999711e-02
4.510630999999999668e-02
4.672555700000000090e-02
4.731141099999999766e-02
4.547154500000000210e-02
5.513286800000000154e-02
7.771361200000000136e-02
9.353833400000000076e-02
1.143548699999999974e-01
1.287037600000000004e-01
1.641939000000000037e-01
1.805482500000000212e-01
1.957172100000000026e-01
1.960435399999999884e-01
1.851174899999999957e-01
1.813466100000000192e-01
1.627229500000000051e-01
1.373118099999999786e-01
1.113393400000000089e-01
7.637826799999999916e-02
4.715827000000000213e-02
9.695637300000000541e-03
-6.989475400000000338e-03
-2.034458899999999973e-02
-1.900708100000000206e-02
-1.574202000000000240e-02
-1.944750500000000035e-02
-1.605523299999999862e-02
-2.039793499999999898e-02
-2.214834800000000173e-02
-1.935359199999999932e-02
-2.288204500000000016e-02
-1.751635699999999976e-02
-2.035607999999999862e-02
-1.639606500000000133e-02
-1.330887900000000089e-02
-7.250279099999999699e-03
2.170758999999999970e-03
3.692147399999999580e-02
1.141621500000000039e-01
1.192319099999999965e-01
1.004060799999999948e-01
9.060794899999999319e-02
7.123127799999999510e-02
3.244990600000000058e-02
3.197160300000000122e-02
7.823011900000000074e-02
1.241869200000000062e-01
-1.925386600000000142e-02
