-4.688419700000000245e-02
-1.788153700000000013e-01
-3.118864499999999818e-01
-3.993777000000000021e-01
-4.405172900000000058e-01
-4.049210099999999701e-01
-3.441994700000000074e-01
-2.356631500000000157e-01
-1.352544299999999811e-01
-1.154361699999999907e-01
-6.216717800000000349e-02
-1.698784299999999900e-02
-2.525572200000000128e-02
-2.381412899999999985e-02
-2.172414199999999837e-02
-2.484205199999999988e-02
-3.142647900000000022e-02
-2.511618800000000110e-02
-2.899774399999999891e-02
-2.082284200000000113e-02
-3.037551399999999929e-02
-2.824102600000000240e-02
-1.713185100000000002e-02
-2.780964899999999879e-02
-3.905813600000000024e-02
-4.748989800000000261e-02
-3.421438100000000204e-02
-2.583937700000000365e-02
-2.532010999999999984e-02
-1.611600199999999733e-02
-3.711150299999999534e-03
-2.593039100000000402e-02
-2.718163699999999808e-02
-2.178248299999999832e-02
-2.464739999999999986e-02
-2.458572399999999977e-02
-3.663394700000000004e-02
-1.861426599999999737e-02
-1.294112799999999966e-02
-1.746703999999999965e-02
-2.150808600000000265e-02
-5.280183499999999662e-03
-6.570601399999998968e-03
-9.032438099999999873e-03
-5.887469700000000448e-04
-3.041289800000000244e-03
5.552316199999999917e-03
9.091223100000000307e-03
1.957246600000000017e-02
1.497297700000000190e-02
-1.865260100000000129e-03
1.449941899999999950e-02
9.300223399999999960e-03
3.034610200000000327e-02
2.161791899999999933e-02
1.554209300000000162e-02
6.979145400000000103e-03
1.332681999999999964e-02
1.437984800000000063e-02
2.584570200000000078e-03
9.280849199999999938e-03
-4.917970299999999476e-03
-6.677696399999999595e-03
6.675882600000000375e-04
4.388585500000000139e-03
9.575148799999998878e-03
-2.559478499999999750e-03
5.535082200000000265e-03
1.414937300000000155e-02
1.648311300000000063e-02
2.098280899999999810e-02
2.515722599999999781e-02
1.959005500000000205e-02
4.739747700000000036e-02
5.101249900000000281e-02
3.209894700000000267e-02
4.382871400000000472e-02
5.027038799999999918e-02
4.114623199999999786e-02
4.217345100000000069e-02
4.847319199999999828e-02
3.517190900000000120e-02
3.035389700000000121e-02
3.753051899999999830e-02
5.037426400000000193e-02
4.670669700000000535e-02
3.839448200000000061e-02
3.918952900000000072e-02
3.720115100000000175e-02
5.624621900000000008e-02
5.507976999999999318e-02
3.808945500000000123e-02
3.491477800000000048e-02
4.356215399999999877e-02
5.854047700000000048e-02
8.603546800000000383e-02
8.915067800000001097e-02
1.044924200000000025e-01
1.237696399999999863e-01
1.492285200000000034e-01
1.854471000000000036e-01
2.227381799999999801e-01
2.347321899999999795e-01
2.130677599999999949e-01
1.982537299999999891e-01
1.662112699999999943e-01
1.520238600000000107e-01
1.284292200000000106e-01
1.049754599999999927e-01
6.275564200000000037e-02
2.849349600000000010e-02
1.638188399999999977e-03
-1.473764999999999971e-02
-1.671113599999999796e-02
-3.971913700000000158e-02
-4.028908700000000120e-02
-1.470163499999999936e-02
-2.284742099999999970e-02
-1.598872299999999982e-02
-2.168602799999999955e-02
-1.351757100000000079e-02
-8.674854399999999341e-03
-2.038926699999999911e-02
-1.924274399999999913e-02
-1.973295100000000205e-02
-2.142696699999999815e-02
-1.026437300000000025e-02
-1.137614799999999912e-02
1.158112600000000061e-02
6.773057099999998942e-02
1.311776499999999790e-01
1.433668200000000059e-01
1.145622599999999991e-01
8.238027100000000491e-02
1.999983300000000158e-02
-2.730403099999999944e-02
-6.382710599999999457e-02
-9.541814400000001029e-02
-5.523942099999999689e-02
-6.923567799999999495e-02
