1.318257700000000001e-03
-1.982927800000000018e-01
-3.156624499999999833e-01
-4.018441400000000163e-01
-4.140352799999999500e-01
-3.539177399999999807e-01
-2.349998100000000034e-01
-1.872971699999999851e-01
-1.497869500000000020e-01
-6.787475800000000725e-02
-4.013629700000000133e-02
-4.336060800000000187e-02
-2.800818999999999878e-02
-4.439086099999999674e-02
-3.771387500000000087e-02
-3.715682199999999907e-02
-3.245608200000000415e-02
-4.300793199999999872e-02
-4.727243500000000154e-02
-4.601919000000000148e-02
-4.046552500000000219e-02
-3.912715600000000321e-02
-4.384652600000000372e-02
-6.408962199999999887e-02
-5.982834700000000394e-02
-6.026894200000000590e-02
-6.205021400000000631e-02
-5.481903700000000101e-02
-6.702740999999999560e-02
-7.550508899999999746e-02
-7.215473499999999762e-02
-9.212812900000000305e-02
-8.980898499999999396e-02
-8.071564100000000463e-02
-9.327735200000000781e-02
-9.092614799999999831e-02
-8.666627400000000148e-02
-9.424026300000000467e-02
-9.500500500000000348e-02
-7.900723600000000846e-02
-7.045128100000000448e-02
-5.507502899999999757e-02
-5.277444700000000211e-02
-5.062914699999999935e-02
-3.970758500000000357e-02
-2.252221100000000031e-02
-2.482439200000000068e-02
-8.389196800000000079e-03
-1.656867399999999851e-02
-4.552414400000000423e-03
7.853129000000000142e-04
-7.318232600000000240e-03
-5.899087100000000375e-03
1.976894100000000341e-03
-7.106496399999999609e-03
-2.335357500000000315e-03
1.689190000000000136e-03
7.185508099999999773e-03
1.240007000000000088e-02
6.150672499999999994e-03
1.078575600000000051e-02
8.073346700000001014e-03
1.005403499999999936e-02
2.528115400000000013e-02
4.211619200000000368e-02
4.533014800000000066e-02
1.760676499999999992e-02
1.588694300000000059e-02
3.192360000000000336e-02
4.348569099999999993e-02
5.365329800000000204e-02
5.484860299999999578e-02
5.266308899999999626e-02
5.126342299999999547e-02
5.814609499999999487e-02
5.910981499999999611e-02
5.709662399999999860e-02
5.122169099999999975e-02
5.738908200000000098e-02
6.347622699999999618e-02
4.567650300000000024e-02
4.352848100000000081e-02
5.083642900000000242e-02
3.713968599999999814e-02
3.948696200000000045e-02
5.526420699999999575e-02
4.152749499999999760e-02
3.738630800000000004e-02
4.026266399999999662e-02
3.466317600000000387e-02
5.081711300000000403e-02
5.882250599999999663e-02
4.787878699999999904e-02
5.036648600000000198e-02
4.194369600000000253e-02
4.616127199999999625e-02
5.768070199999999342e-02
7.726714900000000719e-02
9.896041299999999707e-02
1.047569200000000034e-01
1.193684699999999904e-01
1.325603800000000054e-01
1.573159199999999980e-01
1.853691199999999983e-01
1.863811000000000218e-01
1.879545100000000191e-01
1.748175599999999830e-01
1.575838300000000081e-01
1.392046899999999920e-01
1.175819699999999940e-01
8.150630899999999901e-02
5.368677899999999698e-02
1.586212700000000017e-02
-2.090389900000000096e-03
-2.280621999999999999e-04
-1.908241699999999735e-02
-1.764487099999999947e-02
-1.346300900000000147e-02
-1.246764600000000063e-02
5.014059300000000066e-03
-1.350452000000000076e-02
-2.435126799999999970e-03
-1.367650300000000131e-02
-3.042169900000000343e-02
-1.743404700000000113e-02
-1.506298699999999990e-02
-7.342685699999999642e-03
-5.869484900000000206e-03
9.616819100000000009e-03
7.066751500000000019e-02
1.372814200000000151e-01
1.417650400000000088e-01
1.616062100000000001e-01
1.976479600000000114e-01
1.790038300000000027e-01
8.860039000000000109e-02
2.784561999999999801e-02
4.137977299999999470e-02
1.017606699999999975e-01
-6.965849500000000083e-02
