6.160257999999999706e-02
3.135121400000000225e-02
-1.524997399999999947e-01
-2.788610799999999834e-01
-3.528400899999999951e-01
-3.600381300000000118e-01
-2.596111600000000075e-01
-1.928760599999999881e-01
-1.412217299999999898e-01
-4.910753199999999541e-02
-3.006050299999999884e-02
-4.537414000000000031e-02
-3.623790000000000344e-02
-3.676513000000000003e-02
-3.637099600000000266e-02
-3.259025299999999958e-02
-3.516582299999999883e-02
-3.783021699999999932e-02
-4.155363999999999586e-02
-5.387190499999999771e-02
-5.399604500000000640e-02
-5.529452199999999873e-02
-6.782606599999999042e-02
-6.010708900000000243e-02
-7.410021399999999758e-02
-8.551233199999999646e-02
-9.368956999999999979e-02
-9.753913399999999956e-02
-9.728523799999999611e-02
-1.081135399999999941e-01
-1.110790100000000058e-01
-1.159980999999999929e-01
-1.265132700000000110e-01
-1.339553599999999955e-01
-1.435299399999999947e-01
-1.414087799999999839e-01
-1.352577300000000204e-01
-1.303955699999999884e-01
-1.334948999999999997e-01
-1.304451999999999834e-01
-1.226212400000000063e-01
-1.184017200000000020e-01
-1.005892399999999964e-01
-8.874296900000000488e-02
-7.972735000000000238e-02
-5.623327599999999871e-02
-5.801192499999999891e-02
-4.823915799999999726e-02
-3.589558199999999533e-02
-3.394857899999999956e-02
-2.843763100000000141e-02
-1.025300799999999922e-02
-1.550855100000000063e-02
2.244542300000000080e-03
4.805380699999999526e-03
3.119557800000000180e-04
1.227855999999999913e-02
2.316705900000000026e-02
2.573508700000000024e-02
2.945269899999999885e-02
2.433483499999999911e-02
4.108309999999999740e-02
4.769932799999999917e-02
5.626925400000000466e-02
7.675053499999999473e-02
7.231635299999999988e-02
8.251786399999999633e-02
8.887444399999999689e-02
9.666017200000000253e-02
8.890114500000000086e-02
8.860384899999999841e-02
9.956819799999999665e-02
1.097684300000000002e-01
1.099191900000000138e-01
1.059478600000000048e-01
9.728075999999999390e-02
9.946098300000000281e-02
8.854939200000000454e-02
9.283561500000001021e-02
9.699725600000000392e-02
7.712407999999999764e-02
7.416020599999999241e-02
7.856698800000000427e-02
7.056995200000000523e-02
6.440038900000000233e-02
5.440932600000000091e-02
5.862066400000000288e-02
4.823356799999999750e-02
5.232531199999999882e-02
4.035183900000000046e-02
4.076549799999999724e-02
5.108998900000000232e-02
4.174451599999999540e-02
4.059889099999999806e-02
3.444179900000000211e-02
3.678373599999999743e-02
3.258289999999999798e-02
2.656627200000000188e-02
3.111992599999999914e-02
2.701440600000000122e-02
2.798704499999999859e-02
4.241580999999999824e-02
4.731308699999999673e-02
6.790838500000000166e-02
9.515271599999999830e-02
1.142436599999999969e-01
1.294805699999999893e-01
1.533150400000000135e-01
1.806980300000000095e-01
2.110193499999999944e-01
2.124023300000000281e-01
1.946523699999999912e-01
1.714746300000000168e-01
1.674632899999999869e-01
1.279324799999999873e-01
9.215045400000000664e-02
1.886633899999999933e-02
-1.667737899999999912e-02
-1.744654200000000238e-02
-2.852264299999999683e-02
-2.488646599999999945e-02
-3.879636499999999932e-02
-3.241703299999999788e-02
-2.884424500000000099e-02
-3.194233400000000278e-02
-3.733629500000000545e-02
-2.861420800000000209e-02
-2.679101300000000241e-02
-3.347784200000000071e-02
-2.257510799999999998e-02
-1.621553799999999809e-02
-5.518226100000000675e-03
5.456705899999999415e-02
1.292663199999999901e-01
8.360704199999999253e-02
1.108787100000000053e-01
1.056840599999999963e-01
4.505850399999999922e-02
-9.522613699999999889e-03
4.431651400000000129e-02
