8.986469700000000727e-02
-1.413176299999999996e-01
-2.947144000000000430e-01
-4.165255600000000169e-01
-4.770584099999999883e-01
-3.871310799999999608e-01
-2.254382800000000187e-01
-1.894148999999999972e-01
-1.067449499999999912e-01
-2.233591100000000083e-03
4.309290700000000147e-03
6.189553100000000016e-03
-4.168760300000000406e-04
2.884735399999999953e-03
-5.896753600000000442e-03
-7.643412099999999203e-03
-6.663359200000000711e-03
-1.922378400000000070e-02
-7.884164100000000397e-03
-1.765003400000000194e-02
-1.582006999999999858e-02
-2.214117900000000042e-02
-2.834900899999999793e-02
-3.183918700000000490e-02
-4.791091299999999942e-02
-5.319822199999999640e-02
-5.675314000000000053e-02
-7.972114900000000504e-02
-8.209292700000000997e-02
-8.274148600000000298e-02
-8.962938099999999408e-02
-9.496094200000000651e-02
-1.121115499999999904e-01
-1.143500900000000015e-01
-1.081651500000000016e-01
-1.119333899999999937e-01
-1.213620900000000058e-01
-1.230274600000000051e-01
-1.012089399999999972e-01
-1.019825800000000032e-01
-1.061203599999999969e-01
-8.792534300000000302e-02
-8.790446799999999949e-02
-6.835352100000000042e-02
-5.169582099999999597e-02
-4.069419999999999982e-02
-2.194988099999999748e-02
-2.792121100000000133e-02
-3.256425599999999976e-02
-2.837296499999999999e-02
-1.207069499999999934e-02
-3.679800600000000203e-03
-1.465467699999999963e-02
-2.512170299999999870e-03
-3.960108799999999783e-03
-6.468942099999999695e-03
2.906625599999999691e-03
1.250891200000000050e-02
1.122935999999999900e-02
1.551314699999999970e-02
1.554567100000000049e-02
9.440408500000000563e-03
5.778924600000000592e-03
1.464268499999999903e-02
2.775960599999999917e-02
3.471848100000000242e-02
3.250095399999999857e-02
5.881158600000000597e-02
5.016346699999999631e-02
5.246851599999999977e-02
6.687050899999999465e-02
4.949656300000000037e-02
7.138511300000000004e-02
6.714146699999999635e-02
6.514742399999999545e-02
7.089649000000000645e-02
6.878157799999999600e-02
6.284784899999999730e-02
6.075643299999999858e-02
5.521658000000000122e-02
5.833012600000000297e-02
5.568995300000000037e-02
3.800171100000000052e-02
4.985353900000000227e-02
4.837544400000000355e-02
5.042657099999999643e-02
4.320082199999999983e-02
2.583298800000000117e-02
4.626351899999999601e-02
3.408109499999999875e-02
2.053152999999999923e-02
2.648207600000000023e-02
3.020323700000000083e-02
2.703962500000000116e-02
3.682720299999999586e-02
2.509005400000000052e-02
2.403318600000000152e-02
2.320457800000000001e-02
3.348584799999999861e-02
2.663530499999999801e-02
3.367898999999999893e-02
4.478652200000000222e-02
4.473761299999999552e-02
5.782028599999999852e-02
7.574795100000000780e-02
9.707070700000000607e-02
1.120015000000000038e-01
1.299595100000000003e-01
1.787890999999999786e-01
1.873413999999999913e-01
1.647837900000000133e-01
1.191745999999999917e-01
9.810841900000000226e-02
9.357014299999999452e-02
1.021014099999999897e-01
1.113746700000000089e-01
6.553418699999999375e-02
1.674311300000000044e-02
-9.457639500000000060e-03
-1.370493199999999953e-02
-5.542683300000000174e-03
-4.721215899999999834e-03
-1.459820199999999979e-03
-3.474603599999999924e-03
-1.519561700000000024e-03
6.074155400000000489e-03
3.065907599999999865e-03
-1.180549800000000107e-02
-7.310433800000000135e-03
-2.246648700000000200e-03
1.010574800000000120e-02
2.078731400000000118e-02
1.015435600000000049e-01
1.656252800000000136e-01
1.544885000000000008e-01
1.981113999999999931e-01
1.684463700000000119e-01
1.251447200000000148e-01
3.321028799999999753e-02
1.405530899999999847e-02
