1.553187199999999935e-01
-5.353887199999999950e-03
-2.080755200000000138e-01
-3.241027799999999792e-01
-4.135119999999999907e-01
-3.909334100000000367e-01
-2.771229899999999580e-01
-1.918186600000000019e-01
-1.901286500000000101e-01
-1.042440599999999995e-01
-2.588969899999999866e-02
-2.925599099999999855e-02
-3.700592400000000254e-02
-3.225623799999999958e-02
-3.633999300000000099e-02
-3.429635600000000006e-02
-3.804076099999999933e-02
-4.378115700000000110e-02
-4.416028900000000534e-02
-5.097160499999999622e-02
-5.166650499999999452e-02
-3.634961500000000179e-02
-5.455045800000000306e-02
-6.280175000000000340e-02
-7.095973599999999548e-02
-6.988798599999999916e-02
-6.383360300000000265e-02
-7.739647699999999131e-02
-8.955779199999999718e-02
-9.128039000000000291e-02
-9.485547600000000801e-02
-1.050310299999999974e-01
-1.042363699999999949e-01
-1.032013899999999901e-01
-1.148678499999999936e-01
-1.157210199999999939e-01
-1.189893300000000043e-01
-1.229921999999999960e-01
-1.097323699999999957e-01
-1.120316799999999946e-01
-1.033796699999999930e-01
-9.921443100000000570e-02
-9.513791499999998957e-02
-8.651187099999999019e-02
-6.834434799999999921e-02
-5.443992199999999476e-02
-4.806027300000000058e-02
-3.413896200000000186e-02
-2.861891400000000224e-02
-1.443907500000000087e-02
-1.488962500000000008e-02
-2.469152899999999939e-03
-1.077582099999999923e-03
-3.412070699999999925e-03
-9.126933000000000268e-03
1.408216800000000168e-03
9.082869699999999297e-03
1.660299100000000097e-02
1.857930600000000029e-02
2.902781300000000300e-02
2.290607400000000196e-02
1.766558000000000017e-02
2.726098699999999694e-02
3.667261600000000510e-02
2.055017500000000039e-02
2.854240300000000091e-02
2.503730200000000086e-02
3.938128800000000040e-02
3.886691600000000135e-02
3.900255500000000125e-02
4.642521200000000042e-02
5.160515699999999872e-02
5.874883400000000672e-02
5.248169099999999698e-02
5.604204100000000077e-02
5.638253199999999909e-02
5.369608500000000451e-02
5.420189399999999352e-02
5.504812799999999479e-02
5.215970699999999960e-02
5.263421799999999651e-02
5.221508400000000188e-02
5.322762800000000599e-02
4.092991299999999832e-02
5.018147600000000264e-02
4.175166500000000031e-02
3.537486699999999734e-02
3.290280099999999541e-02
3.110547599999999996e-02
2.966461499999999835e-02
3.086695099999999664e-02
3.185724099999999448e-02
3.868405600000000139e-02
2.338509000000000074e-02
3.295800499999999855e-02
2.439891300000000124e-02
3.322012600000000260e-02
2.482571500000000167e-02
2.981067399999999881e-02
5.363990199999999625e-02
4.590444200000000363e-02
6.844164199999999698e-02
8.690789599999999837e-02
1.100674600000000058e-01
1.098081099999999866e-01
1.233505000000000018e-01
1.242711399999999883e-01
1.721540699999999924e-01
1.741174000000000055e-01
1.347850899999999963e-01
1.108193100000000042e-01
1.040181699999999931e-01
1.001281599999999938e-01
1.000191299999999978e-01
9.243111600000000760e-02
6.138910600000000578e-02
2.308535299999999943e-02
-3.624856500000000255e-03
1.118606399999999990e-03
-5.790090500000000077e-03
-4.125239200000000231e-03
1.786688399999999954e-03
-3.386257599999999927e-03
7.367601499999999401e-03
-1.092248900000000050e-02
8.462686800000000569e-04
-4.276795600000000107e-03
2.346603899999999930e-03
9.173314999999999594e-03
-2.891069699999999822e-03
2.232935299999999970e-02
5.970933699999999428e-02
8.937114900000001083e-02
1.050197800000000070e-01
1.633830799999999861e-01
1.857315700000000125e-01
2.192318799999999901e-01
1.573567699999999792e-01
1.741507300000000036e-01
1.985581999999999903e-01
