2.193784600000000043e-02
-1.758125600000000066e-01
-3.360546300000000208e-01
-4.592857600000000429e-01
-4.179481999999999919e-01
-3.340874900000000425e-01
-2.254830699999999799e-01
-1.700142499999999779e-01
-1.370831299999999975e-01
-5.895935599999999749e-02
-3.138976200000000161e-02
-3.431874299999999878e-02
-3.430178700000000025e-02
-4.181515499999999969e-02
-3.290052300000000096e-02
-3.144742099999999624e-02
-3.097251300000000013e-02
-3.373708999999999736e-02
-4.349380299999999755e-02
-3.402213700000000091e-02
-3.783305099999999949e-02
-3.835140399999999866e-02
-4.895172300000000254e-02
-4.616985900000000059e-02
-5.383528400000000408e-02
-6.122286500000000131e-02
-5.604513700000000181e-02
-5.935703799999999392e-02
-6.250502500000000572e-02
-6.429616500000000234e-02
-7.552309999999999579e-02
-8.030992500000000422e-02
-7.905627200000001076e-02
-9.340326599999999868e-02
-8.817127900000000518e-02
-9.583314099999999669e-02
-8.457866699999999627e-02
-8.381166500000000741e-02
-7.768160899999999869e-02
-7.510018499999999986e-02
-6.570679799999999682e-02
-5.459465399999999941e-02
-4.336315200000000203e-02
-3.770141500000000201e-02
-3.229213799999999801e-02
-3.058319999999999789e-02
-2.176023900000000066e-02
-1.496235500000000010e-02
-5.218464600000000120e-03
-2.878303700000000263e-03
2.290556700000000254e-03
-3.062506400000000132e-03
-1.199073300000000052e-05
8.316220000000000903e-03
2.355524000000000333e-03
-3.678943400000000193e-03
-7.664778499999999432e-03
2.486372300000000250e-03
6.163078000000000219e-04
5.803765699999999597e-03
5.559949199999999862e-03
8.795282200000000689e-03
7.363315800000000758e-03
5.510683100000000195e-03
8.330428099999998698e-03
1.775501100000000110e-02
1.974542800000000237e-02
1.969780999999999963e-02
2.784758600000000056e-02
3.043136299999999947e-02
3.448194599999999943e-02
4.768121799999999744e-02
5.613410100000000569e-02
5.938749699999999743e-02
6.306493100000000462e-02
6.578477900000000156e-02
5.496571799999999675e-02
5.828131399999999379e-02
6.504418100000000647e-02
5.900874099999999650e-02
5.256940100000000171e-02
4.813585199999999981e-02
5.030905199999999994e-02
4.914976199999999962e-02
4.919373900000000022e-02
4.786045400000000366e-02
3.833773799999999621e-02
3.724280900000000172e-02
3.759287099999999993e-02
3.001151799999999745e-02
2.916107700000000053e-02
2.385419899999999954e-02
2.398885400000000043e-02
3.403225399999999790e-02
2.966816800000000171e-02
4.033407199999999859e-02
5.638860399999999495e-02
6.877361699999999523e-02
7.838607200000000108e-02
9.145845700000000689e-02
1.102037399999999945e-01
1.200695599999999919e-01
1.542293299999999978e-01
1.738804599999999867e-01
1.715073599999999976e-01
1.762845799999999963e-01
1.517784199999999972e-01
1.324871300000000085e-01
1.167717499999999936e-01
9.331735500000000461e-02
7.391688500000000162e-02
4.677648899999999749e-02
8.214841900000000377e-03
-7.706967300000000867e-03
-1.365371500000000030e-02
-1.691447100000000037e-02
-1.297655099999999936e-02
-1.167329599999999967e-02
-1.287997700000000079e-02
-1.995933700000000061e-02
-2.151779499999999928e-02
-2.603578299999999984e-02
-7.997146700000000788e-03
-1.168012199999999938e-02
-1.396288900000000090e-02
-6.932793800000000735e-03
-1.512147200000000039e-02
-5.940043600000000090e-03
1.129346300000000011e-02
5.730609199999999598e-02
1.399870900000000085e-01
1.573184700000000158e-01
1.795160000000000089e-01
2.236394600000000121e-01
2.236384800000000284e-01
1.698216899999999974e-01
8.903308399999999845e-02
4.236981799999999659e-02
6.752914499999999876e-02
-1.242180399999999983e-02
