1.794550300000000154e-01
-1.945097400000000143e-01
-3.961428499999999908e-01
-4.725368399999999580e-01
-4.170222500000000387e-01
-3.258329799999999943e-01
-1.894556500000000032e-01
-1.077314600000000011e-01
-6.235689199999999710e-02
2.463895500000000058e-02
4.887656199999999840e-02
5.370091600000000132e-02
5.911682299999999890e-02
4.871737400000000079e-02
4.810700700000000024e-02
4.349842400000000081e-02
3.890058899999999931e-02
4.994101599999999780e-02
3.396586199999999944e-02
2.902420199999999895e-02
1.951025899999999855e-02
1.994556399999999896e-02
8.718169100000000907e-03
-5.641948499999999665e-03
-7.526697399999999864e-03
-1.059944500000000074e-02
-1.127312400000000025e-03
-1.086849099999999922e-02
-3.147629700000000030e-02
-3.346801300000000479e-02
-4.223057300000000042e-02
-5.424294799999999916e-02
-5.967876300000000273e-02
-5.474707300000000026e-02
-6.876799100000000053e-02
-6.441100400000000781e-02
-5.702758100000000774e-02
-6.703656900000000418e-02
-6.239642399999999200e-02
-5.268775900000000068e-02
-3.348933599999999455e-02
-3.157300400000000173e-02
-2.848275599999999796e-02
-6.735167900000000110e-03
-4.035285500000000171e-03
6.054605600000000434e-03
1.569302499999999934e-02
9.954073600000000119e-03
1.183896400000000043e-02
1.732739800000000080e-02
1.930183400000000035e-02
2.319928500000000005e-02
2.346272399999999730e-02
2.557407899999999956e-02
1.474944800000000181e-02
2.770869200000000004e-02
2.090486000000000080e-02
2.462496399999999919e-02
1.701501999999999876e-02
2.426153299999999832e-02
2.143034599999999942e-02
2.668566099999999941e-02
3.375035699999999472e-02
3.020628399999999991e-02
1.818532399999999924e-02
4.084918699999999514e-02
4.672741400000000184e-02
4.727283699999999811e-02
5.432097500000000745e-02
6.372838999999999587e-02
5.901221800000000517e-02
5.886971700000000196e-02
7.464491800000000454e-02
6.058236999999999650e-02
5.593172199999999622e-02
5.721223300000000123e-02
6.413184400000000729e-02
6.516621899999999745e-02
6.025310499999999431e-02
6.039119699999999369e-02
4.504184299999999808e-02
5.904030300000000231e-02
3.291260199999999914e-02
3.944754300000000158e-02
3.207385000000000097e-02
2.427863599999999927e-02
2.689604799999999879e-02
2.325471600000000166e-02
2.541596300000000322e-02
1.786756100000000055e-02
1.684585400000000038e-02
1.100845899999999995e-02
1.473310799999999997e-02
1.932955500000000174e-02
1.285496600000000066e-02
1.639335800000000024e-02
1.495584600000000007e-02
4.822234300000000085e-02
6.527718200000000304e-02
8.807683400000000662e-02
1.102010600000000035e-01
1.322298100000000032e-01
1.740659699999999865e-01
1.724665099999999895e-01
1.668266800000000050e-01
1.517024699999999782e-01
1.253588699999999834e-01
1.070813100000000129e-01
7.957545299999999044e-02
4.300953899999999941e-02
8.127191799999999161e-03
-2.279089699999999746e-02
-6.061764899999999567e-02
-7.689105300000000087e-02
-8.107197299999999163e-02
-7.786110599999999937e-02
-8.462699599999999600e-02
-8.737152600000000491e-02
-8.202518999999999783e-02
-8.818937400000000093e-02
-8.192030399999999934e-02
-7.642401800000001022e-02
-8.259996499999999742e-02
-8.317814700000000783e-02
-8.745262099999999428e-02
-9.261412700000000442e-02
-8.427793599999999774e-02
-7.928878899999999841e-02
-3.070516099999999818e-02
3.398035800000000217e-02
6.551204400000000538e-02
7.706784899999999383e-02
9.935992700000000066e-02
1.105174700000000065e-01
7.116436299999999437e-02
3.359224599999999922e-02
8.942649199999999632e-02
1.328238800000000053e-01
3.337343199999999455e-02
-3.247831300000000310e-01
