-1.245331799999999933e-01
-4.068877200000000083e-01
-4.931907500000000111e-01
-4.507938799999999802e-01
-2.972062799999999894e-01
-1.935475200000000007e-01
-1.592295499999999975e-01
-1.030970299999999923e-01
-2.393860800000000011e-02
-3.307771299999999470e-02
-1.971802099999999877e-02
-1.342280499999999946e-02
-2.180027999999999827e-02
-1.338263000000000126e-02
-2.087110600000000038e-02
-2.696308499999999775e-02
-2.654292500000000193e-02
-3.416344300000000167e-02
-3.417946900000000399e-02
-3.964412999999999965e-02
-3.440092699999999781e-02
-3.179463600000000112e-02
-4.271292899999999670e-02
-4.162858300000000372e-02
-5.051031999999999744e-02
-5.159364899999999837e-02
-5.146700400000000369e-02
-6.131103599999999931e-02
-7.104259899999999794e-02
-7.783475100000000757e-02
-8.601057300000000683e-02
-9.236564499999999622e-02
-8.890793199999999508e-02
-8.574142099999999822e-02
-9.884568600000000205e-02
-9.208172500000000316e-02
-9.651135400000000752e-02
-8.796171900000000765e-02
-1.020013499999999906e-01
-9.758044099999998999e-02
-8.413783799999999258e-02
-7.672262900000000052e-02
-6.082147799999999827e-02
-3.994318800000000447e-02
-3.435531900000000222e-02
-2.437946499999999947e-02
-1.473680400000000092e-02
-1.131056100000000023e-02
8.652529699999999754e-03
6.911514500000000283e-03
1.985518600000000036e-02
1.872539100000000095e-02
6.593363700000000327e-03
1.775935199999999908e-02
3.869902599999999922e-03
2.553653399999999962e-02
2.014630499999999977e-02
1.902211499999999916e-02
2.580928699999999673e-02
2.479352900000000165e-02
3.228384999999999588e-02
3.310913499999999787e-02
3.871852900000000153e-02
3.935279700000000186e-02
4.067932800000000071e-02
4.230777600000000527e-02
4.902322599999999614e-02
4.131589299999999937e-02
5.852937799999999996e-02
5.995995499999999534e-02
6.333958300000000485e-02
7.685879500000000752e-02
7.549710299999999596e-02
7.721024499999999680e-02
8.101179899999999545e-02
8.826928700000000183e-02
7.256871200000000743e-02
7.434280800000001022e-02
7.253265300000000249e-02
6.848995100000000724e-02
6.955043600000000714e-02
5.865903399999999879e-02
5.929854700000000006e-02
5.071907399999999594e-02
5.563950600000000524e-02
5.550957600000000491e-02
5.251578500000000232e-02
4.318543400000000171e-02
4.124600999999999962e-02
4.004955000000000320e-02
3.872955900000000368e-02
3.399802500000000116e-02
3.152383400000000058e-02
3.559556600000000209e-02
4.200616100000000019e-02
3.928921400000000286e-02
4.084116499999999872e-02
4.344145400000000434e-02
6.718114499999999767e-02
9.496271100000000520e-02
1.068918899999999894e-01
1.214572800000000008e-01
1.368416400000000144e-01
1.555283000000000082e-01
1.843148099999999956e-01
1.816488799999999848e-01
1.703220500000000026e-01
1.593741200000000080e-01
1.499988299999999997e-01
1.218425099999999872e-01
1.140315900000000021e-01
7.798423399999999950e-02
3.343335599999999741e-02
-5.129680200000000245e-03
-2.032948300000000236e-02
-2.366473699999999819e-02
-3.666282599999999559e-02
-3.053169900000000242e-02
-3.045633600000000052e-02
-3.058769199999999966e-02
-3.559626600000000141e-02
-2.605927000000000243e-02
-3.005746100000000059e-02
-3.042060799999999829e-02
-1.929300899999999985e-02
-3.031916899999999998e-02
-3.538362700000000083e-02
-2.638502699999999840e-02
-1.968050199999999902e-02
4.952665600000000397e-03
9.030890499999999488e-02
1.325164100000000011e-01
9.982193799999999895e-02
8.086610400000000809e-02
8.975017899999999937e-02
5.159370900000000149e-02
1.166421500000000035e-02
-2.124924499999999994e-02
4.304944900000000352e-02
8.149767900000000342e-02
