2.096702599999999972e-01
-1.198242300000000038e-01
-1.960572100000000095e-01
-2.950162600000000301e-01
-2.308865299999999787e-01
-1.428522899999999929e-01
2.476677399999999835e-02
6.969038299999999464e-02
1.043562499999999976e-01
1.638466999999999840e-01
1.799773100000000015e-01
1.687950599999999968e-01
1.657790700000000006e-01
1.685771799999999931e-01
1.728049100000000060e-01
1.526537899999999837e-01
1.428590700000000047e-01
1.438283800000000057e-01
1.397564900000000110e-01
1.283451600000000137e-01
1.274180500000000049e-01
1.171787600000000068e-01
1.226046500000000095e-01
1.085042800000000085e-01
1.037832499999999936e-01
8.699993599999999994e-02
9.545882099999999926e-02
8.029851699999999981e-02
5.695651799999999765e-02
5.761965599999999826e-02
3.804456999999999978e-02
3.854940199999999650e-02
2.916291700000000001e-02
2.071428100000000105e-02
1.312761599999999994e-02
9.033344299999999244e-03
2.006811799999999937e-02
2.052241200000000029e-02
2.123264799999999980e-02
5.862380400000000505e-03
2.572754999999999834e-02
2.264831299999999978e-02
1.687633100000000136e-02
3.236884400000000078e-02
3.822958199999999807e-02
4.955512399999999901e-02
5.294070800000000299e-02
4.948318000000000161e-02
5.180186100000000460e-02
5.371461699999999923e-02
4.878202300000000075e-02
4.799367100000000164e-02
5.356817400000000312e-02
4.091184900000000013e-02
2.959511100000000033e-02
3.819372199999999939e-02
2.502678400000000331e-02
3.050736000000000073e-02
3.125640500000000099e-02
2.504776000000000225e-02
2.753895499999999691e-02
2.371128299999999967e-02
1.889165899999999815e-02
2.360597899999999916e-02
2.387830499999999898e-02
1.916683599999999960e-02
1.913774400000000167e-02
8.143671800000000169e-03
6.870077400000000611e-03
1.178588099999999979e-02
1.573190799999999931e-02
1.275505000000000042e-02
2.240192599999999909e-02
2.705426500000000095e-02
1.345626699999999919e-02
1.618256200000000103e-02
9.846690899999999830e-03
8.118272999999998768e-03
1.542043499999999970e-02
1.091314699999999978e-02
-4.874203500000000300e-04
-3.347703500000000221e-03
-2.965301899999999921e-03
-8.590538999999999467e-03
2.639455499999999923e-03
-6.664070299999999905e-03
-2.511104200000000009e-02
-2.101841299999999968e-02
-2.954310600000000300e-02
-2.451979900000000184e-02
-3.304116399999999787e-02
-3.758754799999999840e-02
-3.693333999999999506e-02
-3.852476900000000037e-02
-1.967253000000000057e-02
-7.717986399999999733e-03
9.207827099999999626e-03
3.639309899999999820e-02
4.106812699999999594e-02
5.631158299999999839e-02
7.545137100000000319e-02
8.856522999999999479e-02
8.333767499999999995e-02
7.909698400000000906e-02
7.351395299999999300e-02
7.197381900000000832e-02
4.470393799999999862e-02
1.324374600000000068e-02
-7.282363999999999504e-03
-5.766414699999999893e-02
-1.042473900000000092e-01
-1.118547099999999961e-01
-1.181091099999999894e-01
-1.422976400000000030e-01
-1.346718600000000043e-01
-1.346978100000000012e-01
-1.433517699999999895e-01
-1.450134700000000054e-01
-1.545426699999999931e-01
-1.472605800000000020e-01
-1.480539000000000160e-01
-1.564118999999999926e-01
-1.643258300000000061e-01
-1.607476099999999852e-01
-1.575923300000000027e-01
-1.457407099999999955e-01
-1.484402699999999853e-01
-1.357156700000000105e-01
-6.454056099999999629e-02
-2.201513800000000007e-02
-2.258946699999999849e-02
-1.926612899999999989e-02
-1.872235200000000113e-02
-3.388603899999999974e-02
-4.602592999999999962e-02
-1.143947300000000000e-01
-9.890719500000000330e-02
-1.223819299999999999e-01
-1.769152700000000134e-01
-4.451658799999999583e-01
