1.564322200000000107e-01
1.482483099999999943e-01
-1.278499900000000002e-02
-2.006946500000000300e-01
-3.170719599999999860e-01
-4.072661300000000040e-01
-3.420296399999999681e-01
-2.305085899999999854e-01
-1.783939600000000181e-01
-1.566111699999999940e-01
-4.749461600000000339e-02
-1.388452400000000052e-02
-4.127330299999999903e-03
-1.146314499999999924e-02
-1.445105399999999964e-02
-2.174621300000000035e-02
-1.791004599999999891e-02
-1.794702499999999840e-02
-1.710217400000000124e-02
-1.677074799999999852e-02
-3.339933099999999738e-02
-2.886982399999999879e-02
-2.718449900000000086e-02
-4.869702699999999690e-02
-4.847694900000000529e-02
-5.527193200000000278e-02
-5.977558400000000660e-02
-5.868722499999999564e-02
-7.226486699999999652e-02
-7.466299800000000819e-02
-6.839835800000000632e-02
-8.725888299999999542e-02
-9.399292600000000442e-02
-9.701557699999999174e-02
-1.155989200000000078e-01
-1.238614199999999999e-01
-1.273293799999999920e-01
-1.172651899999999914e-01
-1.218090599999999968e-01
-1.198608099999999982e-01
-1.149215000000000098e-01
-1.218564999999999926e-01
-1.134347699999999903e-01
-9.725232999999999794e-02
-8.723973200000000039e-02
-7.533402799999999733e-02
-5.660803699999999994e-02
-5.285680200000000134e-02
-4.275376399999999966e-02
-3.171337200000000356e-02
-2.269229500000000121e-02
-2.854079099999999938e-02
-1.445989099999999902e-02
-1.109675499999999981e-02
-1.272448800000000081e-02
-1.083537099999999989e-02
6.590620000000000159e-03
4.384284699999999382e-03
4.876123999999999910e-03
1.172139200000000062e-02
1.128399100000000016e-02
4.775569799999999747e-03
1.446879600000000078e-03
2.360995899999999981e-02
2.732799000000000339e-02
1.635381600000000019e-02
2.529679599999999987e-02
3.070129899999999787e-02
4.607526199999999877e-02
2.812955300000000158e-02
4.818266100000000163e-02
6.042831199999999792e-02
5.303907700000000391e-02
6.009094599999999925e-02
6.098017799999999600e-02
7.878915499999999961e-02
6.172537799999999741e-02
5.612034500000000203e-02
5.028348500000000276e-02
4.432833700000000238e-02
4.602951699999999896e-02
5.091463000000000239e-02
3.703056000000000403e-02
3.362232299999999563e-02
2.512184900000000165e-02
3.727465099999999892e-02
3.733270200000000233e-02
2.940881399999999840e-02
2.148739100000000152e-02
1.755359100000000033e-02
3.023520800000000300e-02
2.732905999999999877e-02
1.716682300000000119e-02
2.764920799999999804e-02
2.277426399999999893e-02
2.156671800000000208e-02
2.029324000000000058e-02
2.064540000000000125e-02
2.762728799999999985e-02
3.479217700000000052e-02
3.916821999999999665e-02
7.579654500000000683e-02
9.831876200000000399e-02
1.036057800000000084e-01
1.197720499999999910e-01
1.423070700000000077e-01
1.853974599999999862e-01
1.940139200000000064e-01
1.930437899999999929e-01
1.872370700000000054e-01
1.617369499999999904e-01
1.443768099999999943e-01
1.132897100000000157e-01
8.374858400000000092e-02
3.569750700000000332e-02
-2.157168300000000122e-02
-2.151246999999999882e-02
-3.314638999999999780e-02
-4.301464099999999929e-02
-3.757013299999999861e-02
-3.548928099999999752e-02
-3.287711399999999895e-02
-2.539811599999999836e-02
-2.617693400000000239e-02
-2.551848699999999942e-02
-2.220260199999999837e-02
-3.040346500000000105e-02
-2.787394699999999961e-02
-2.028462799999999899e-02
-1.555633499999999926e-02
2.276952100000000090e-03
3.268314099999999889e-02
9.834209200000000595e-02
9.310280699999999576e-02
1.605699999999999905e-01
2.323885499999999715e-01
2.580461399999999794e-01
1.750297500000000117e-01
1.126376800000000039e-01
1.711906900000000065e-01
