-2.891169199999999925e-02
-2.902968000000000215e-01
-3.863489700000000138e-01
-4.354358300000000237e-01
-3.805221899999999824e-01
-2.597310800000000031e-01
-1.965613599999999905e-01
-1.611442700000000061e-01
-8.250024000000000246e-02
-2.953066200000000266e-02
-4.156274599999999764e-02
-4.183242699999999842e-02
-4.180752999999999553e-02
-3.978535799999999983e-02
-3.996878400000000026e-02
-3.644456399999999874e-02
-3.515389600000000392e-02
-4.507826799999999773e-02
-4.597302500000000069e-02
-5.104449800000000759e-02
-5.469635900000000689e-02
-6.092449700000000107e-02
-5.480833300000000075e-02
-6.550643200000000332e-02
-6.429483999999999200e-02
-6.455927899999999720e-02
-7.392001200000000716e-02
-7.930748399999999754e-02
-7.747951000000000144e-02
-8.114249199999999662e-02
-8.088316800000000528e-02
-9.041312700000000979e-02
-9.426630999999999205e-02
-9.656555199999999894e-02
-9.917949900000000429e-02
-9.864539399999999736e-02
-8.828404800000000385e-02
-8.929125100000000204e-02
-8.902286600000000605e-02
-8.430390499999999843e-02
-6.937578399999999590e-02
-6.510442199999999513e-02
-5.108964700000000192e-02
-3.745537499999999909e-02
-3.902544299999999994e-02
-2.800387400000000152e-02
-1.856213799999999886e-02
-1.712804899999999936e-02
-6.381132700000000102e-03
-2.668668600000000113e-03
-3.469119899999999982e-03
-1.060736500000000011e-03
-1.873078300000000128e-03
1.117857099999999999e-02
5.412603999999999679e-03
1.013790499999999914e-02
2.953364899999999862e-03
1.405519700000000018e-02
2.146461799999999781e-02
2.272061800000000145e-02
2.390808900000000042e-02
2.658367200000000263e-02
3.183444300000000393e-02
3.832621900000000165e-02
3.104942999999999939e-02
3.731528599999999612e-02
4.654195600000000238e-02
4.747586100000000114e-02
5.390720699999999865e-02
5.647235200000000344e-02
6.112795199999999929e-02
6.978314300000000581e-02
6.106384299999999266e-02
6.270233199999999951e-02
6.583969100000000574e-02
5.785690599999999961e-02
5.862833099999999881e-02
6.127575700000000014e-02
5.486586200000000135e-02
5.488946199999999997e-02
5.364094800000000079e-02
6.509612700000000363e-02
5.782135800000000325e-02
4.647834299999999835e-02
5.220733500000000055e-02
5.583003800000000544e-02
5.051816099999999199e-02
4.585034100000000279e-02
4.864293499999999826e-02
3.194779300000000211e-02
5.010797000000000168e-02
4.068071699999999818e-02
4.512745899999999477e-02
4.385917200000000182e-02
4.758046600000000181e-02
4.518703799999999882e-02
4.572546599999999933e-02
5.432181400000000299e-02
6.714968600000000010e-02
9.707363399999999198e-02
1.173763899999999971e-01
1.294931199999999893e-01
1.501613400000000043e-01
1.599187499999999984e-01
1.886801699999999804e-01
1.971389299999999900e-01
1.878677300000000105e-01
1.842405199999999910e-01
1.588485500000000050e-01
1.453319500000000153e-01
1.201050699999999943e-01
9.348403400000000751e-02
5.284076000000000051e-02
1.476217399999999944e-02
8.860197600000000416e-05
-2.863953700000000050e-03
-8.703356399999999035e-03
-1.060821999999999980e-02
-1.593127300000000274e-02
-5.402431299999999742e-03
-1.116912699999999918e-02
-2.849378899999999940e-03
-3.300803800000000430e-03
-8.079410700000001083e-03
-6.387946299999999918e-03
-1.105035000000000045e-02
1.693775800000000081e-05
4.283418399999999911e-03
7.795359600000000173e-03
4.260147300000000081e-02
1.174892599999999981e-01
1.290417100000000039e-01
1.119726999999999945e-01
8.511595099999999525e-02
5.225842600000000365e-02
2.771792699999999637e-02
5.169147600000000009e-02
1.124295999999999907e-01
8.356800999999999813e-02
-1.758655499999999816e-01
