-4.288300099999999698e-02
-2.026635900000000046e-01
-2.683157299999999745e-01
-3.769585800000000431e-01
-4.321509399999999834e-01
-3.870869900000000197e-01
-2.598294800000000015e-01
-1.609852599999999911e-01
-1.362492700000000057e-01
-8.177876900000000115e-02
-2.819398099999999990e-02
-3.440264999999999990e-02
-3.829580800000000063e-02
-2.641646400000000061e-02
-2.501909299999999919e-02
-2.646684899999999716e-02
-1.938467399999999757e-02
-1.733306500000000167e-02
-1.847057499999999949e-02
-1.708309499999999953e-02
-2.328116100000000160e-02
-3.353404999999999581e-02
-2.173162000000000010e-02
-2.392878999999999839e-02
-3.104473899999999828e-02
-1.549373800000000169e-02
-2.543661600000000217e-02
-3.482821099999999781e-02
-2.283917199999999786e-02
-3.079022199999999904e-02
-3.639027000000000234e-02
-3.822193299999999960e-02
-4.120966999999999686e-02
-3.424480700000000211e-02
-3.871409399999999751e-02
-2.737807899999999961e-02
-3.307342900000000141e-02
-3.296845699999999962e-02
-2.935607800000000073e-02
-3.418226300000000439e-02
-1.827718799999999977e-02
-1.708390800000000181e-02
-6.921072500000000072e-03
-5.035520299999999677e-05
-7.773910300000000731e-03
8.708033599999999777e-03
-1.427450499999999983e-03
6.546920600000000548e-03
2.943224700000000166e-03
1.476319499999999979e-03
6.477835300000000032e-03
5.522387599999999466e-03
1.184407300000000010e-02
1.186169299999999954e-02
2.053402900000000225e-02
1.375924900000000117e-02
-1.338304600000000000e-03
9.903049000000000573e-03
1.387865299999999948e-02
1.628047599999999859e-02
1.310484399999999917e-02
1.061150700000000092e-02
1.287698299999999983e-02
1.083130399999999993e-02
1.921157300000000262e-02
2.987449699999999986e-02
1.883417000000000077e-02
3.217738600000000226e-02
4.158501600000000242e-02
3.373270400000000224e-02
3.871264099999999903e-02
4.010802200000000012e-02
4.778622200000000320e-02
4.224602800000000491e-02
5.209706499999999796e-02
5.223096800000000262e-02
5.857002300000000578e-02
6.126982399999999357e-02
4.954106099999999735e-02
5.147261300000000039e-02
5.018122499999999597e-02
5.387027199999999683e-02
5.291378700000000379e-02
4.254002999999999951e-02
4.937752599999999797e-02
4.867260199999999537e-02
4.468521799999999877e-02
4.512171899999999763e-02
4.367002700000000015e-02
4.223769000000000134e-02
3.079136399999999815e-02
4.600260500000000197e-02
3.473544700000000263e-02
2.835447699999999946e-02
3.628923499999999608e-02
4.455704800000000187e-02
6.786296599999999679e-02
8.762046700000000743e-02
1.096408999999999995e-01
1.255694900000000058e-01
1.446092600000000172e-01
1.869620499999999907e-01
2.139410600000000162e-01
2.141202100000000053e-01
2.018693100000000240e-01
2.029018100000000158e-01
1.923351799999999945e-01
1.608136599999999972e-01
1.400872599999999912e-01
1.240886300000000053e-01
8.733396499999999951e-02
5.112544500000000547e-02
9.392430999999999697e-03
-2.068922699999999754e-02
-3.555094300000000151e-02
-2.645097499999999810e-02
-2.035011700000000090e-02
-2.899586300000000019e-02
-2.614564899999999997e-02
-2.784499500000000086e-02
-2.988924700000000073e-02
-3.631126599999999482e-02
-3.188090600000000052e-02
-1.002476000000000061e-02
-2.430539599999999995e-02
-3.109961099999999923e-02
-2.111459300000000094e-02
-1.925665400000000152e-02
-1.183215999999999955e-02
1.932905299999999882e-02
1.195494499999999877e-01
1.867572000000000121e-01
1.520980299999999952e-01
7.471360500000000238e-02
-2.483095299999999936e-02
-1.424481099999999889e-01
-2.166454299999999722e-01
-1.943583499999999853e-01
-8.548939800000000810e-02
-8.633004499999999415e-02
