8.291029699999999392e-02
-1.545150900000000216e-01
-3.074006900000000320e-01
-4.051499100000000020e-01
-4.720463699999999929e-01
-4.212664099999999801e-01
-2.764495800000000281e-01
-1.820499099999999815e-01
-1.575221699999999891e-01
-6.722586599999999524e-02
-1.033631700000000112e-02
-1.990795100000000012e-02
-1.211467800000000025e-02
-1.424069600000000060e-02
-7.648055600000000162e-03
-1.076726899999999945e-02
-9.632242500000000665e-03
-6.166489600000000029e-03
-1.775646999999999989e-02
-2.749546600000000313e-02
-3.282215900000000353e-02
-2.701479600000000064e-02
-2.657191899999999940e-02
-4.627554500000000126e-02
-3.098642099999999663e-02
-3.953901299999999785e-02
-4.704044300000000123e-02
-5.243885999999999686e-02
-4.934505900000000361e-02
-6.229406899999999359e-02
-8.228286999999999407e-02
-8.072180300000000863e-02
-8.283075800000000433e-02
-9.871694699999999933e-02
-1.067912699999999937e-01
-8.932161299999999415e-02
-9.188384800000000407e-02
-9.663246600000000019e-02
-8.230035799999999013e-02
-9.106188800000000749e-02
-1.009217400000000098e-01
-8.624893799999999722e-02
-6.461774600000000368e-02
-6.893816099999999780e-02
-5.269422199999999890e-02
-3.421418899999999902e-02
-3.315162400000000453e-02
-2.437781199999999870e-02
-1.268223599999999951e-02
-8.674003499999999311e-03
-1.125783800000000091e-02
-5.074894700000000605e-03
-4.691489799999999481e-03
-8.558533000000000113e-03
-1.152042300000000012e-02
8.228416800000000822e-03
9.619261000000000261e-04
2.123891300000000249e-03
1.828310899999999878e-02
4.300089899999999868e-03
1.360884000000000052e-02
1.099134900000000095e-02
9.061363799999999635e-03
1.239273899999999984e-02
1.135188999999999990e-02
2.409488300000000097e-02
3.505700600000000167e-02
4.156576099999999968e-02
3.671974700000000397e-02
5.238101400000000352e-02
5.377725799999999445e-02
6.199838500000000308e-02
6.720803399999999983e-02
5.521574500000000357e-02
8.350653900000000462e-02
7.675072200000000733e-02
7.573653700000000655e-02
7.376792599999999756e-02
8.646153399999999267e-02
8.532583000000000528e-02
7.664395200000000130e-02
7.797389200000000298e-02
7.646039400000000097e-02
7.000798199999999638e-02
6.826392300000000413e-02
6.898164100000001020e-02
6.246307199999999449e-02
7.147504699999999989e-02
7.226444699999999555e-02
4.199667499999999720e-02
4.501335699999999690e-02
4.654226000000000196e-02
4.154892100000000255e-02
4.266171700000000178e-02
3.237546900000000394e-02
4.515311900000000545e-02
2.726291599999999815e-02
4.086102500000000221e-02
4.638771800000000139e-02
4.164349099999999776e-02
2.672502399999999653e-02
2.992773400000000097e-02
3.250772899999999910e-02
4.580881900000000062e-02
5.065661899999999995e-02
5.742334300000000169e-02
9.738630099999999457e-02
1.314144500000000160e-01
1.339069700000000140e-01
1.094060100000000119e-01
9.796970499999999027e-02
1.014662100000000011e-01
8.193266600000000122e-02
1.007680799999999960e-01
9.663900599999999952e-02
6.977330899999999170e-02
2.981430500000000275e-02
-2.192357299999999915e-03
-4.966951700000000504e-03
-1.020911000000000041e-02
-1.358328500000000050e-02
-1.178730700000000034e-02
-2.434280200000000019e-02
-1.144755700000000057e-02
-1.717994999999999939e-02
-1.440673500000000037e-02
-1.635361499999999843e-02
-3.622522300000000084e-03
-1.051108300000000093e-02
-2.151225299999999768e-03
4.860904900000000139e-02
1.374419100000000005e-01
1.821402799999999877e-01
1.805557799999999991e-01
2.071887400000000101e-01
1.799698100000000078e-01
1.202612599999999948e-01
4.539642099999999583e-03
7.960967200000000285e-03
2.498652500000000248e-02
