-1.339197400000000093e-01
-2.746048500000000114e-01
-3.296462299999999845e-01
-3.903497200000000111e-01
-3.965091600000000271e-01
-3.698772599999999855e-01
-2.888214699999999691e-01
-1.973831199999999952e-01
-1.619828999999999852e-01
-1.189602100000000107e-01
-6.679095799999999750e-02
-4.326112199999999908e-02
-3.698573700000000464e-02
-3.517672800000000433e-02
-3.490307200000000026e-02
-3.030542399999999748e-02
-4.149936900000000123e-02
-5.740724200000000416e-02
-5.100829700000000105e-02
-2.339212499999999972e-02
-1.875275499999999942e-02
-2.346619700000000114e-02
-3.034988400000000058e-02
-2.426729999999999859e-02
-1.853495699999999774e-02
-3.248520500000000311e-02
-3.391580300000000131e-02
-2.368190300000000068e-02
-2.704707099999999892e-02
-3.905709799999999843e-02
-3.840419899999999997e-02
-3.633562299999999745e-02
-3.076125199999999935e-02
-2.392553799999999967e-02
-3.142356999999999789e-02
-3.940088700000000249e-02
-4.062515300000000412e-02
-1.882319199999999901e-02
-2.725003999999999621e-02
-2.352713399999999816e-02
-1.663470499999999963e-02
-2.517828400000000216e-02
-1.775362100000000068e-02
-1.038240600000000027e-02
-1.075558600000000101e-02
-6.323759299999999646e-03
-5.282804999999999793e-03
3.683900199999999895e-04
7.356713200000000469e-04
-5.504606300000000098e-03
9.682702599999998966e-03
1.556046699999999970e-02
1.194899900000000008e-02
-6.844691299999999638e-03
-4.689912899999999947e-03
-1.539882199999999864e-03
-4.224507500000000346e-03
-2.963833899999999792e-03
3.609065199999999911e-03
2.772492500000000269e-03
9.553058300000000225e-03
1.721763100000000060e-02
-3.997795000000000168e-03
1.218514700000000034e-02
7.272454499999999981e-03
2.943599400000000005e-03
7.779255699999999482e-03
6.129411600000000612e-03
1.892886799999999800e-02
1.582232800000000009e-02
3.538722400000000184e-02
4.713651900000000172e-02
4.968739800000000068e-02
5.058902099999999791e-02
4.915205799999999847e-02
5.019040500000000737e-02
5.007037800000000566e-02
4.871108899999999908e-02
6.413484900000000766e-02
6.837907000000000013e-02
7.240130300000000019e-02
7.070188400000000650e-02
6.292694100000000013e-02
5.624829799999999519e-02
5.589854800000000623e-02
4.885909600000000463e-02
4.734262300000000034e-02
5.482757800000000181e-02
6.575661099999999260e-02
6.413576299999999841e-02
6.404666400000000315e-02
5.193593700000000146e-02
5.236039099999999225e-02
5.826973399999999664e-02
6.840682900000000233e-02
8.568970200000000648e-02
1.025866799999999995e-01
1.171647799999999962e-01
1.171460000000000001e-01
1.439263500000000084e-01
1.584734600000000104e-01
1.837951200000000063e-01
1.996347400000000050e-01
1.888156000000000001e-01
1.854298400000000124e-01
1.701347099999999946e-01
1.555833400000000144e-01
1.417875900000000189e-01
1.113282000000000160e-01
1.031985900000000067e-01
8.867187699999999617e-02
4.507650200000000440e-02
1.400816000000000040e-02
3.779147499999999799e-03
-1.164138899999999982e-03
3.304445400000000175e-03
1.509064399999999985e-03
-1.667122999999999956e-03
1.440370599999999941e-04
-3.082849899999999792e-03
4.707878199999999800e-05
2.068576099999999956e-03
-1.845849000000000101e-03
5.176061800000000303e-03
3.114297299999999914e-03
-3.347197100000000140e-03
-1.453706700000000052e-04
2.196625599999999998e-02
4.604009399999999669e-02
1.068965200000000088e-01
1.435300199999999804e-01
1.178941500000000031e-01
6.671578599999999915e-02
-1.706455600000000156e-02
-8.726627000000000689e-02
-1.405855699999999930e-01
-1.291495300000000124e-01
-7.468754099999999618e-02
-2.895575699999999864e-02
-1.088448899999999997e-01
