-1.393423099999999970e-01
-3.325952699999999984e-01
-4.260715499999999656e-01
-4.209346499999999658e-01
-3.196954900000000266e-01
-1.965939200000000053e-01
-1.513556600000000030e-01
-1.149647800000000164e-01
-2.576311900000000099e-02
-2.407539900000000080e-02
-4.258275400000000044e-02
-1.843377099999999810e-02
-9.800693500000000682e-03
-1.193245299999999912e-02
-1.534529900000000148e-02
-3.183998700000000015e-02
-2.701989899999999653e-02
-3.577761999999999609e-02
-2.182507800000000123e-02
-3.646219700000000175e-02
-3.339551400000000114e-02
-3.634359899999999727e-02
-4.410703000000000540e-02
-4.627329600000000542e-02
-4.928398399999999596e-02
-3.805205700000000024e-02
-4.864186799999999783e-02
-4.906438800000000044e-02
-4.826713700000000162e-02
-7.340679399999999744e-02
-7.186905899999999903e-02
-6.177377899999999394e-02
-7.443951899999999566e-02
-9.860427099999999334e-02
-1.052376800000000001e-01
-1.047753899999999960e-01
-9.931387199999999749e-02
-1.101170399999999994e-01
-1.091404700000000033e-01
-1.060580200000000028e-01
-1.038469499999999934e-01
-8.618180400000000074e-02
-9.370405099999999654e-02
-9.207334699999999983e-02
-8.150650200000000845e-02
-5.155165800000000020e-02
-4.650357199999999996e-02
-3.910084900000000002e-02
-1.514419399999999971e-02
-2.074677400000000255e-02
3.998589099999999910e-03
-1.065916899999999959e-02
-1.802827400000000038e-02
-1.143974700000000098e-03
-1.404865700000000172e-03
7.473449599999999401e-03
6.204362699999999529e-03
2.588615099999999874e-03
3.926155199999999817e-03
1.090018600000000094e-02
3.114215299999999881e-02
1.707527899999999876e-02
1.517226600000000022e-02
2.651355300000000220e-02
2.561094600000000249e-02
2.987006300000000225e-02
3.648577199999999965e-02
3.915226299999999965e-02
3.423218699999999726e-02
3.655523100000000053e-02
2.769223800000000096e-02
5.138536299999999640e-02
4.117402099999999815e-02
5.572274600000000355e-02
6.540950500000000667e-02
7.081149600000000155e-02
8.295348599999999295e-02
6.414013500000000090e-02
6.317581499999999628e-02
8.318058300000000238e-02
8.457312599999999847e-02
8.607998699999999670e-02
7.721820700000001092e-02
6.385662999999999756e-02
6.452301600000000248e-02
6.259781899999999899e-02
7.229535000000000822e-02
6.859748200000000129e-02
5.808414200000000527e-02
6.784777799999999748e-02
6.265652900000000247e-02
5.184410499999999450e-02
5.229163599999999551e-02
5.055866599999999517e-02
7.736013699999999549e-02
9.542730900000000183e-02
1.046586800000000039e-01
1.174462700000000054e-01
1.291771399999999959e-01
1.557783300000000204e-01
1.731628900000000137e-01
1.887640399999999941e-01
1.966313500000000103e-01
1.925055400000000028e-01
1.963747399999999921e-01
1.724324299999999976e-01
1.555504299999999895e-01
1.668763799999999908e-01
1.295103499999999963e-01
1.106085299999999966e-01
5.293014799999999631e-02
-9.622011700000000648e-04
-1.475523699999999982e-04
-5.085753699999999954e-03
-1.616096599999999883e-02
-2.712417400000000089e-02
-2.556139900000000201e-02
-1.655509200000000042e-02
-2.158838899999999950e-02
-2.332350300000000237e-02
-2.859188999999999828e-02
-1.632959800000000072e-02
-1.730652199999999780e-02
-2.427626299999999931e-02
-3.130689799999999967e-02
-2.579279099999999894e-02
-1.241511300000000019e-02
-7.783339099999999830e-03
3.524468900000000265e-02
1.163738099999999942e-01
1.099767100000000053e-01
6.050254400000000532e-02
4.346916299999999816e-02
2.915795099999999793e-02
9.578678999999999666e-03
1.782763799999999982e-02
5.421358099999999680e-02
7.766871200000000086e-02
6.127942299999999953e-02
-1.135743899999999973e-01
