4.606634800000000002e-02
-1.116359000000000101e-01
-2.702099099999999976e-01
-4.322332000000000396e-01
-4.341080899999999465e-01
-3.558251399999999842e-01
-2.202239699999999911e-01
-1.766182599999999991e-01
-1.647150199999999898e-01
-7.552027899999999572e-02
-5.241724199999999584e-02
-4.710338299999999867e-02
-5.051433100000000259e-02
-4.341922499999999879e-02
-4.676597999999999866e-02
-4.523197799999999907e-02
-4.046488599999999852e-02
-5.033870999999999485e-02
-4.726154700000000097e-02
-4.072097700000000542e-02
-4.992773099999999603e-02
-4.847312499999999885e-02
-4.406781399999999682e-02
-4.418756499999999809e-02
-5.094913399999999315e-02
-5.655577999999999994e-02
-6.990752399999999867e-02
-6.122769599999999812e-02
-8.263509199999999333e-02
-7.947354800000000496e-02
-7.307860000000000744e-02
-9.020197800000000210e-02
-9.118873800000000529e-02
-1.024776399999999948e-01
-1.006759500000000002e-01
-1.052339399999999980e-01
-1.001758799999999949e-01
-9.357998300000000547e-02
-9.177576600000000862e-02
-8.328471800000000758e-02
-7.964073499999999028e-02
-6.115576600000000029e-02
-5.867244400000000415e-02
-4.978266399999999731e-02
-3.709475400000000062e-02
-2.561402400000000260e-02
-1.808347600000000110e-02
-1.787480100000000266e-02
2.800503999999999667e-03
-1.142795400000000058e-02
-4.538788700000000002e-03
8.719578400000000534e-03
4.992657200000000239e-03
1.071586400000000029e-02
1.066049200000000058e-02
1.231642800000000079e-02
2.207576199999999877e-02
1.846947800000000098e-02
2.831963800000000114e-02
2.598148200000000019e-02
3.213769699999999979e-02
2.406324699999999941e-02
2.993278699999999889e-02
3.612621200000000476e-02
3.706993599999999778e-02
4.188893500000000214e-02
4.949778999999999984e-02
5.835549799999999177e-02
6.036816600000000088e-02
5.716104300000000166e-02
6.231151099999999998e-02
6.515147599999999983e-02
6.274606000000000627e-02
5.628835199999999983e-02
4.898996900000000126e-02
5.121012700000000806e-02
5.885427399999999809e-02
6.889618200000000026e-02
6.761753499999999251e-02
4.881562700000000032e-02
5.067157599999999595e-02
5.302078500000000083e-02
4.208383200000000157e-02
5.035267799999999794e-02
5.210445999999999828e-02
4.309163900000000103e-02
4.618881300000000217e-02
4.555039400000000099e-02
3.995185999999999876e-02
4.089880599999999589e-02
4.324309199999999687e-02
4.387879100000000032e-02
3.175131600000000165e-02
3.371220100000000414e-02
4.561742800000000153e-02
4.469857199999999892e-02
6.699890799999999591e-02
7.862892999999999966e-02
1.054476099999999972e-01
1.236475100000000021e-01
1.333959299999999959e-01
1.661758999999999875e-01
1.834700400000000009e-01
2.108229300000000195e-01
1.986502599999999952e-01
1.944179000000000046e-01
1.831265300000000096e-01
1.517044899999999974e-01
1.330986299999999956e-01
1.054639899999999936e-01
7.741486699999999832e-02
3.551866000000000051e-02
-4.443591499999999944e-03
-2.488182499999999978e-02
-2.409984000000000084e-02
-2.728166500000000008e-02
-2.450776799999999922e-02
-2.291560499999999861e-02
-3.239979499999999513e-02
-3.593917300000000481e-02
-2.888834300000000035e-02
-2.144153099999999978e-02
-2.042859400000000131e-02
-2.177159299999999881e-02
-2.499587099999999937e-02
-2.042935499999999974e-02
-1.586331499999999936e-02
-1.162619999999999973e-02
1.684559299999999898e-02
9.714644599999999741e-02
1.305943800000000099e-01
9.742866599999999710e-02
7.438043199999999633e-02
7.738954300000000508e-02
5.622853799999999458e-02
2.824742499999999962e-02
6.429709799999999698e-02
1.349928699999999870e-01
1.388652199999999837e-01
-2.961050999999999961e-02
