-1.986631799999999948e-01
-4.065343300000000548e-01
-4.472098899999999988e-01
-4.252858200000000366e-01
-3.388991199999999981e-01
-2.287900200000000106e-01
-1.574530900000000178e-01
-1.451491500000000046e-01
-9.120384400000000613e-02
-4.083246100000000045e-02
-3.761367999999999656e-02
-4.585146699999999992e-02
-4.070005000000000150e-02
-3.312398899999999952e-02
-2.575038199999999874e-02
-3.375743099999999747e-02
-3.276233099999999870e-02
-3.878056100000000506e-02
-4.128866500000000217e-02
-4.091007500000000408e-02
-3.535639000000000143e-02
-4.013859900000000397e-02
-3.921784899999999907e-02
-4.609641199999999633e-02
-4.588732999999999701e-02
-4.333999100000000132e-02
-4.552749999999999853e-02
-4.322300399999999543e-02
-5.761924400000000002e-02
-6.074609300000000101e-02
-5.633928000000000547e-02
-6.398438100000000683e-02
-6.477541900000000075e-02
-7.052839199999999531e-02
-6.733667100000000072e-02
-6.109036399999999423e-02
-6.222280900000000392e-02
-6.999629799999999846e-02
-5.719502099999999867e-02
-6.001838000000000312e-02
-4.619821300000000186e-02
-4.192088900000000284e-02
-4.304438000000000014e-02
-2.193244700000000075e-02
-1.730707100000000026e-02
-2.021053299999999928e-02
-3.860983199999999758e-03
-4.848079600000000135e-03
1.830015900000000030e-03
-9.094599800000000359e-03
5.764233999999999808e-04
3.875841000000000095e-03
6.912354499999999631e-03
7.799192600000000135e-03
-3.124682900000000027e-03
-3.570747999999999782e-04
5.446614399999999932e-03
7.807932300000000942e-06
8.458179700000000370e-03
-1.327979999999999872e-03
5.343734599999999495e-03
1.190139100000000075e-02
9.752914999999999154e-03
1.154210400000000095e-02
2.064576599999999942e-02
1.674758900000000023e-02
1.951162199999999930e-02
2.929637900000000086e-02
2.943947300000000072e-02
3.597782299999999905e-02
3.654295600000000144e-02
3.350489699999999876e-02
5.054295800000000588e-02
4.894982399999999595e-02
5.304203300000000232e-02
4.664673600000000114e-02
5.092877099999999768e-02
5.290445900000000090e-02
5.626078599999999319e-02
5.900895200000000340e-02
4.549676100000000362e-02
5.158786600000000305e-02
5.446692300000000042e-02
5.057476400000000816e-02
4.473473299999999875e-02
5.073985300000000143e-02
4.030472000000000221e-02
4.192712199999999723e-02
4.393478399999999756e-02
3.564522800000000102e-02
3.125024399999999647e-02
3.474502000000000146e-02
4.726725600000000055e-02
5.785552600000000434e-02
6.359375700000000076e-02
8.439421399999999518e-02
1.041150799999999987e-01
1.126751400000000070e-01
1.350235499999999922e-01
1.595895499999999967e-01
1.862791099999999977e-01
2.035275500000000015e-01
1.929016600000000026e-01
1.930452099999999949e-01
1.804041799999999973e-01
1.605469399999999991e-01
1.492648799999999887e-01
1.093180700000000033e-01
9.284193699999999938e-02
6.522674800000000106e-02
2.130242199999999794e-02
-1.159860700000000036e-02
-2.623063299999999626e-02
-1.756098199999999929e-02
-3.075204000000000132e-02
-2.680024999999999769e-02
-2.754639199999999594e-02
-2.457390300000000111e-02
-2.402911299999999778e-02
-2.205174700000000002e-02
-2.183584200000000114e-02
-2.205696600000000077e-02
-2.174733499999999958e-02
-2.895871700000000187e-02
-1.671140999999999946e-02
-1.552882400000000010e-02
-1.623707299999999770e-02
-1.020761699999999869e-02
1.576794699999999744e-02
8.184883800000000709e-02
1.162688500000000069e-01
8.851082400000000183e-02
8.924381200000000569e-02
7.886632899999999891e-02
5.565840199999999571e-02
4.555123300000000347e-02
6.161288299999999329e-02
1.348206700000000036e-01
1.620554399999999950e-01
3.066973299999999764e-02
