-1.443133199999999949e-01
-2.881674200000000075e-01
-3.347804799999999914e-01
-3.881517099999999831e-01
-3.690326999999999913e-01
-3.307086099999999584e-01
-2.259605100000000033e-01
-1.262006999999999990e-01
-1.072180799999999934e-01
-6.508372100000001104e-02
-8.596384999999999790e-03
-4.242312899999999692e-03
-1.233257299999999945e-02
5.462793599999999847e-03
3.936689099999999761e-03
-3.869585100000000506e-03
2.052434899999999989e-03
-2.511692600000000036e-03
-1.995800299999999847e-02
-8.353438200000000424e-03
-1.353432800000000172e-02
-2.176979600000000098e-02
-1.844182999999999933e-02
-2.465135699999999874e-02
-4.141311899999999824e-02
-3.001426600000000125e-02
-2.175442400000000137e-02
-3.436940100000000081e-02
-3.180997500000000422e-02
-3.200589599999999896e-02
-3.581846500000000072e-02
-2.530714199999999775e-02
-3.230689900000000003e-02
-4.213971300000000225e-02
-5.037502099999999899e-02
-4.132061499999999804e-02
-5.382095500000000365e-02
-4.867067700000000247e-02
-4.266912500000000219e-02
-5.398805599999999261e-02
-5.110874899999999499e-02
-4.906822400000000056e-02
-4.662597200000000164e-02
-5.027240499999999918e-02
-5.237674799999999381e-02
-5.283126800000000067e-02
-5.005076499999999706e-02
-4.247838699999999940e-02
-3.145078800000000036e-02
-4.174374499999999877e-02
-4.392569999999999808e-02
-3.900653800000000032e-02
-5.142701699999999848e-02
-4.153544800000000259e-02
-4.420613899999999846e-02
-5.216444500000000373e-02
-4.416955399999999976e-02
-3.231207700000000155e-02
-3.443302699999999800e-02
-4.709822900000000534e-02
-5.222848500000000505e-02
-4.059899799999999725e-02
-4.938570099999999713e-02
-5.836215799999999732e-02
-3.800874099999999867e-02
-3.046040400000000342e-02
-3.353507299999999858e-02
-4.183595099999999622e-02
-3.413536999999999821e-02
-3.368254399999999482e-02
-1.783819399999999819e-02
-1.677463300000000060e-02
-1.209004199999999876e-02
-1.281247699999999920e-02
4.286915500000000254e-03
6.451669400000000290e-03
7.331302999999999952e-03
1.091205400000000089e-02
2.230062399999999806e-02
2.724491499999999802e-02
2.903377100000000335e-02
3.129748499999999989e-02
5.125879100000000493e-02
4.655948099999999978e-02
5.539686600000000294e-02
5.755633799999999856e-02
5.822412700000000052e-02
5.548452599999999929e-02
6.503862400000000321e-02
7.195316599999999896e-02
7.246295599999999504e-02
9.265162700000000029e-02
1.042060299999999912e-01
1.177083599999999980e-01
1.144048399999999938e-01
1.199543999999999888e-01
1.593081199999999975e-01
1.981380500000000100e-01
2.046770299999999820e-01
2.240736600000000078e-01
2.287333799999999862e-01
2.224484400000000250e-01
2.068135100000000060e-01
1.770421299999999920e-01
1.667315099999999994e-01
1.664388800000000113e-01
1.201889999999999903e-01
7.452512899999999552e-02
5.745378500000000027e-02
3.342944600000000155e-02
1.080670900000000115e-02
2.165543700000000047e-03
6.387734200000000015e-03
7.854335999999999957e-03
-7.000925500000000461e-03
-5.701847899999999345e-03
-7.087977800000000786e-03
5.324124700000000196e-03
1.330830099999999981e-02
7.261747199999999888e-03
1.720838799999999807e-02
6.445720800000000542e-03
5.665958399999999721e-03
5.045731400000000484e-03
6.685110599999999521e-03
2.157374999999999918e-02
4.245798199999999828e-02
6.364573599999999443e-02
1.247634099999999913e-01
1.535495899999999858e-01
1.271580600000000172e-01
1.104951700000000037e-01
1.053066899999999945e-01
7.231262299999999255e-02
3.875178299999999798e-02
2.287464200000000059e-02
2.055823799999999951e-02
3.642577599999999999e-02
5.076232699999999598e-02
-3.248099399999999914e-02
