-1.389282000000000017e-01
-3.077595300000000034e-01
-3.770165200000000216e-01
-4.301441600000000531e-01
-3.756940899999999806e-01
-2.764828699999999917e-01
-1.926287299999999980e-01
-1.661889000000000005e-01
-8.996283000000000751e-02
-5.780174099999999676e-02
-6.270753900000000658e-02
-4.380554600000000076e-02
-4.665083099999999677e-02
-4.610822500000000268e-02
-4.443207799999999985e-02
-3.180389000000000133e-02
-5.536010700000000562e-02
-6.337214900000000262e-02
-4.930754999999999860e-02
-4.991995899999999986e-02
-4.840990900000000097e-02
-5.067447499999999661e-02
-5.524314000000000308e-02
-5.012422399999999501e-02
-4.421602000000000171e-02
-6.405479299999999876e-02
-7.719825999999999078e-02
-7.224152500000000088e-02
-6.038439500000000043e-02
-5.488715100000000208e-02
-8.497852100000000131e-02
-8.188085500000000239e-02
-7.661084299999999792e-02
-8.046973400000000110e-02
-7.731134200000000511e-02
-9.584722900000000601e-02
-9.110399199999999476e-02
-7.365380600000000222e-02
-7.535181600000000202e-02
-7.167563899999999932e-02
-6.951250700000000116e-02
-6.878347099999999881e-02
-3.392953799999999520e-02
-3.086515699999999723e-02
-4.138646299999999834e-02
-1.747333699999999851e-02
-4.991717700000000354e-03
-9.612700200000001000e-03
-1.450711000000000014e-02
-8.271776200000000717e-03
-1.418577900000000079e-02
-1.086391199999999987e-03
2.189693999999999842e-03
-4.844776399999999560e-03
9.013390499999999333e-03
1.191234500000000127e-02
-1.359798800000000009e-02
-1.884490899999999997e-02
-7.049063300000000046e-03
-5.715524599999999809e-03
-1.500849200000000175e-02
-3.013573399999999996e-03
1.168317500000000050e-02
-1.821569699999999901e-03
5.989965199999999941e-03
1.206813199999999878e-02
2.184201699999999829e-02
2.994202600000000006e-02
3.643404900000000307e-02
2.837143200000000198e-02
1.426878500000000084e-02
3.953458999999999446e-02
4.415073700000000240e-02
4.540029799999999865e-02
5.011571700000000407e-02
6.030671199999999843e-02
6.803959800000000668e-02
5.189271100000000109e-02
5.286093499999999779e-02
5.337708100000000677e-02
4.675343099999999807e-02
5.747722899999999774e-02
6.473920499999999412e-02
3.799002499999999671e-02
3.630817000000000072e-02
4.096957700000000008e-02
4.562282599999999827e-02
4.363645099999999971e-02
3.793849400000000316e-02
4.135808600000000224e-02
4.242416400000000032e-02
4.574352899999999805e-02
4.091669600000000240e-02
2.483582900000000024e-02
3.287973200000000179e-02
5.017829299999999881e-02
6.587567600000000800e-02
9.846347699999999370e-02
1.167068999999999884e-01
1.072916200000000042e-01
1.306246500000000088e-01
1.638556399999999968e-01
1.735040399999999983e-01
2.054568000000000227e-01
1.931199399999999899e-01
1.864152099999999979e-01
1.766117899999999907e-01
1.562734199999999962e-01
1.510750999999999900e-01
1.278635899999999992e-01
9.999457800000000063e-02
7.357020599999999910e-02
4.849049400000000204e-02
1.022044599999999935e-02
-2.435600699999999810e-03
-2.615059099999999799e-04
2.231619599999999995e-04
-9.119089800000000634e-03
-6.077683599999999728e-03
-1.264241799999999902e-02
-5.703397300000000343e-03
8.134127100000001012e-03
-1.640132399999999794e-03
-6.654623699999999073e-03
-4.095739999999999624e-03
5.251451199999999930e-03
7.703356599999999950e-03
1.573211299999999896e-02
2.619124800000000031e-02
6.476576600000000239e-02
1.237687400000000021e-01
1.419796200000000008e-01
1.395110400000000028e-01
1.390267500000000045e-01
9.567679399999999557e-02
6.822813399999999584e-02
4.327384499999999828e-02
5.020879900000000534e-02
1.133622399999999891e-01
5.790926799999999985e-02
