-8.914321899999999577e-02
-2.159670499999999937e-01
-2.954548899999999700e-01
-3.352292099999999997e-01
-3.878014100000000131e-01
-3.911498299999999761e-01
-3.499920200000000148e-01
-2.731248700000000196e-01
-1.730676099999999829e-01
-1.277653499999999998e-01
-1.061174000000000006e-01
-4.493889599999999901e-02
-2.338901800000000100e-02
-3.307130900000000012e-02
-2.335694399999999754e-02
-2.059896200000000191e-02
-1.676290999999999892e-02
-9.634452300000000483e-03
-1.301525799999999830e-02
-1.567807900000000101e-02
-1.373006800000000152e-02
-1.434071699999999935e-02
-1.404326399999999975e-02
-1.041858399999999983e-02
-1.704200499999999896e-02
-1.516335699999999884e-02
-2.161924900000000010e-02
-2.875960500000000059e-02
-1.291242499999999994e-02
-1.976334499999999814e-02
-2.651734299999999878e-02
-2.100355999999999751e-02
-2.227079300000000053e-02
-1.816944799999999777e-02
-2.240563300000000119e-02
-2.741860900000000004e-02
-1.151616399999999887e-02
-1.891450800000000002e-02
-2.462618500000000182e-02
-1.403055199999999822e-02
-2.317356999999999924e-03
-3.154410299999999522e-03
-4.082894499999999843e-03
-5.995425599999999744e-03
-8.471682399999999396e-04
8.749446700000000372e-04
1.001372700000000004e-02
1.899555699999999972e-02
1.744582899999999950e-02
1.184475700000000090e-02
8.023083999999999771e-03
1.535170700000000089e-02
9.687497100000001110e-03
1.598609100000000088e-02
1.987502399999999808e-02
1.513594900000000097e-02
1.852890299999999935e-02
1.066473100000000021e-02
1.857998699999999920e-02
1.775892100000000043e-02
9.801392199999999985e-03
1.595772699999999794e-02
1.146508800000000002e-02
3.066870000000000186e-03
1.287291999999999950e-02
-8.947991100000000442e-04
6.160427899999999443e-03
3.532356400000000087e-03
3.152549000000000150e-03
1.228325199999999971e-02
1.860626300000000136e-02
2.148774200000000065e-02
2.416218199999999733e-02
2.874372299999999880e-02
2.322912799999999819e-02
2.361548499999999856e-02
3.033895699999999973e-02
3.502487299999999804e-02
5.651420299999999897e-02
5.081089100000000386e-02
4.893213800000000002e-02
4.875524199999999725e-02
5.257235200000000275e-02
6.023811899999999969e-02
5.829210299999999789e-02
5.431426599999999993e-02
5.736366299999999530e-02
5.901268099999999739e-02
6.305360399999999921e-02
6.713916100000000275e-02
8.045549899999999977e-02
9.307775000000000076e-02
1.048648100000000027e-01
1.174512000000000056e-01
1.298543299999999900e-01
1.436431300000000078e-01
1.637798099999999979e-01
1.789624900000000018e-01
2.020469799999999871e-01
1.974218600000000046e-01
1.979263800000000129e-01
1.794192299999999851e-01
1.528969599999999984e-01
1.496287599999999995e-01
1.218835399999999847e-01
1.039634499999999989e-01
8.590135800000001098e-02
6.166619399999999362e-02
3.265826299999999988e-02
1.697901400000000061e-03
-1.592336800000000024e-02
-1.066432699999999949e-02
-7.372108099999999213e-03
-1.754494299999999991e-03
-6.737001600000000479e-03
-2.485920800000000069e-02
-1.295329400000000061e-02
-2.964706300000000214e-03
-1.187528499999999931e-02
-2.112559200000000206e-02
-2.042566600000000204e-02
-1.325999700000000080e-02
-2.077190200000000181e-02
-1.329904200000000050e-02
-9.945446099999999748e-03
-3.782401999999999704e-04
2.954546699999999887e-02
7.460734799999999001e-02
1.146996700000000036e-01
1.141891900000000099e-01
9.062410400000001087e-02
4.956970800000000399e-02
-5.920616699999999878e-03
-3.636683200000000171e-02
-5.179442800000000346e-02
-4.897538299999999734e-02
-1.218604600000000072e-02
-5.065719700000000103e-02
-1.388089700000000037e-01
-2.654661400000000171e-01
