-1.953459099999999837e-01
-3.809191600000000344e-01
-4.641661100000000206e-01
-4.599829500000000015e-01
-3.668641500000000000e-01
-2.064069599999999727e-01
-1.549727800000000044e-01
-1.230520199999999981e-01
-4.182316800000000084e-02
-6.975739100000000366e-03
-8.041252100000000069e-03
-1.603353199999999965e-02
-3.182651999999999790e-03
-6.330391400000000453e-03
-7.220944499999999711e-03
-9.496049900000001071e-03
-7.101320199999999576e-03
-8.240231800000000911e-03
-7.381103899999999843e-03
-1.888868200000000039e-02
-1.347687100000000138e-02
-2.758261900000000266e-02
-3.058802500000000132e-02
-3.706057499999999838e-02
-3.943947199999999625e-02
-4.290603700000000104e-02
-4.800310900000000214e-02
-4.116080500000000170e-02
-4.837832000000000243e-02
-5.788959000000000465e-02
-7.173251399999999722e-02
-7.988552399999999942e-02
-8.937378799999999568e-02
-8.341212800000000205e-02
-8.557218800000000736e-02
-8.015911700000000195e-02
-8.558889000000000080e-02
-7.593493999999999244e-02
-6.576749600000000862e-02
-5.245972699999999767e-02
-3.474075100000000027e-02
-3.156056499999999876e-02
-2.456389200000000037e-02
-1.867219399999999960e-02
-7.426569500000000656e-03
8.297982199999999822e-03
1.714970000000000036e-02
1.832023600000000016e-02
2.055482800000000068e-02
1.653828300000000084e-02
2.281214100000000106e-02
3.673680099999999948e-02
1.980647199999999858e-02
3.194876700000000291e-02
2.843902499999999972e-02
3.266580200000000073e-02
4.275696099999999611e-02
2.754821499999999743e-02
3.522618000000000277e-02
2.714452099999999785e-02
3.675169300000000194e-02
3.656415999999999833e-02
3.634812800000000038e-02
3.699774399999999908e-02
3.752298899999999965e-02
3.214814700000000192e-02
2.977316999999999811e-02
4.817855799999999633e-02
4.260064700000000537e-02
4.955858000000000485e-02
4.932054300000000141e-02
5.542242200000000590e-02
5.188184500000000282e-02
4.948725999999999819e-02
5.998886799999999381e-02
6.038520099999999946e-02
7.126933500000000310e-02
5.452583800000000702e-02
6.239430999999999450e-02
4.822479300000000191e-02
5.129449600000000192e-02
5.507575599999999655e-02
6.368271699999999980e-02
4.966304600000000236e-02
4.485306299999999857e-02
4.709976100000000387e-02
6.141940599999999584e-02
4.218978699999999943e-02
4.379775200000000229e-02
4.161078899999999525e-02
3.833596699999999857e-02
4.594837599999999911e-02
4.033776900000000248e-02
4.120046100000000072e-02
6.872099699999999201e-02
9.134742700000000881e-02
1.037797099999999972e-01
1.093832300000000118e-01
1.339574299999999885e-01
1.426431199999999844e-01
1.634698200000000157e-01
1.848247600000000046e-01
1.701166600000000029e-01
1.698121599999999898e-01
1.554683800000000171e-01
1.480611599999999972e-01
1.248171700000000051e-01
1.034104099999999943e-01
6.370133799999999624e-02
3.475751400000000324e-02
-7.049282399999999733e-03
-3.293893999999999989e-02
-3.514423600000000231e-02
-3.960898799999999775e-02
-2.981040200000000320e-02
-4.183132999999999990e-02
-4.953079900000000035e-02
-4.939565299999999770e-02
-4.936575099999999938e-02
-3.163905599999999874e-02
-3.994455200000000122e-02
-4.048795200000000066e-02
-6.072174700000000647e-02
-5.076808200000000604e-02
-2.836141400000000146e-02
-3.650708400000000214e-02
-4.351376599999999539e-02
-1.213294399999999967e-02
3.989826500000000220e-02
8.331335399999999225e-02
6.250187499999999841e-02
6.580260999999999749e-02
7.740457100000000534e-02
8.052693800000000623e-02
8.317823500000000314e-02
5.332060400000000755e-02
6.536423700000000558e-02
7.438422899999999616e-02
-7.192191300000000224e-03
-2.040605100000000005e-01
