6.818035000000000068e-02
-7.540045199999999281e-02
-2.412308400000000019e-01
-4.305473100000000164e-01
-5.375715199999999694e-01
-4.883047600000000044e-01
-3.350321200000000443e-01
-1.962674199999999980e-01
-1.624152400000000163e-01
-8.834009099999999559e-02
-1.116549699999999992e-02
-1.765490700000000007e-03
3.310066400000000100e-03
2.816175599999999959e-03
-4.333995400000000128e-04
-2.106030200000000123e-03
6.944652699999999748e-03
4.097091599999999742e-04
-5.406313599999999601e-03
-7.928492400000000662e-03
-7.642216900000000160e-03
-6.685208900000000516e-03
-8.721222300000001232e-03
-1.376859800000000168e-02
-1.873307100000000044e-02
-2.307683299999999799e-02
-2.764803100000000000e-02
-3.975025899999999612e-02
-3.127765200000000301e-02
-4.398885599999999979e-02
-4.680393900000000273e-02
-6.080022000000000204e-02
-6.533406899999999462e-02
-6.504977600000000360e-02
-7.439670600000000689e-02
-7.133965700000000076e-02
-6.865826699999999505e-02
-6.174507500000000343e-02
-6.789272100000000310e-02
-5.630208100000000382e-02
-5.007369099999999656e-02
-3.740749100000000105e-02
-3.845887499999999654e-02
-1.613941099999999934e-02
-1.192428199999999959e-02
-3.819692400000000102e-03
6.928905300000000496e-03
1.017630199999999992e-02
1.154015000000000075e-02
1.022278700000000054e-02
1.450999099999999986e-02
8.326702499999999799e-03
1.474582600000000007e-02
1.656050699999999862e-02
1.751408499999999868e-02
1.668413699999999819e-02
1.445577799999999899e-02
1.079578999999999955e-02
1.266874200000000020e-02
1.155062399999999892e-02
2.584880099999999764e-02
1.229395900000000014e-02
1.672350900000000098e-02
2.734833899999999929e-02
3.592081700000000072e-02
2.934277499999999803e-02
3.874031199999999897e-02
4.759228399999999859e-02
5.014832200000000212e-02
5.506162700000000187e-02
5.967080500000000731e-02
6.479980500000000199e-02
7.073603700000000161e-02
7.930996799999999458e-02
7.592189400000000365e-02
7.008365099999999681e-02
7.439138300000000537e-02
7.969078000000000273e-02
7.460707600000000828e-02
6.711994999999999767e-02
6.855437000000000336e-02
6.712524599999999952e-02
6.242171500000000262e-02
5.786763600000000007e-02
4.604825499999999627e-02
6.201653499999999763e-02
4.546111600000000280e-02
4.639645299999999722e-02
3.977214800000000022e-02
4.135490600000000377e-02
3.780604099999999856e-02
3.202792799999999718e-02
3.350724100000000011e-02
3.048689700000000238e-02
3.143900200000000061e-02
3.828624900000000136e-02
5.103050199999999842e-02
6.019588099999999276e-02
7.825032200000001104e-02
8.389206700000000072e-02
7.580082700000000118e-02
8.911610699999999996e-02
9.387944299999999298e-02
1.222622200000000048e-01
1.113147000000000164e-01
8.482944000000000595e-02
7.142400499999999874e-02
6.443605199999999367e-02
4.349549700000000102e-02
5.144690999999999848e-02
3.909788900000000372e-02
2.762433499999999986e-02
-3.044892300000000100e-03
-3.184036700000000136e-02
-2.801812399999999842e-02
-3.570940200000000120e-02
-3.645409800000000422e-02
-4.427787799999999968e-02
-4.153120899999999949e-02
-4.391325899999999616e-02
-5.299461300000000291e-02
-3.586032499999999845e-02
-4.868650700000000386e-02
-4.275017099999999654e-02
-4.089815500000000548e-02
-3.037437200000000018e-02
-3.577476899999999793e-02
-4.150808100000000223e-02
-1.172935800000000006e-03
5.874733099999999986e-02
1.083830099999999880e-01
1.148109000000000074e-01
1.355189900000000058e-01
1.693017599999999956e-01
1.693522399999999872e-01
1.301885399999999915e-01
7.878549799999999548e-02
5.978218700000000052e-02
7.887858400000000159e-02
-1.099482999999999988e-01
