-7.553626300000000626e-02
-1.650206300000000015e-01
-2.703964600000000051e-01
-3.556343100000000090e-01
-4.286500400000000655e-01
-4.132507900000000345e-01
-3.611911399999999661e-01
-2.670062500000000005e-01
-1.560002500000000070e-01
-1.199162700000000054e-01
-5.407926500000000136e-02
-6.408179500000000129e-04
1.552943200000000100e-02
4.198642100000000293e-03
-6.967340799999999657e-04
2.893180299999999899e-02
2.622338199999999994e-02
2.251216099999999928e-02
2.106548700000000079e-02
8.735116299999999903e-03
1.182540599999999924e-03
2.059258200000000164e-02
2.293349600000000113e-02
2.294337399999999902e-02
1.552851600000000089e-02
1.310645800000000138e-02
1.513562599999999925e-02
1.153844299999999892e-02
8.881774500000000003e-03
1.544226099999999879e-02
1.473932699999999998e-02
-4.466893999999999791e-04
1.033311899999999998e-02
3.821937400000000214e-03
-4.183533399999999833e-03
-2.154038899999999784e-05
-1.271644200000000011e-03
7.798333799999999580e-03
2.350329799999999886e-02
5.555904500000000135e-03
2.031414300000000152e-03
2.143827599999999917e-02
1.470838999999999827e-02
2.494569599999999984e-02
2.497714399999999974e-02
2.052083899999999905e-02
3.566146399999999689e-02
2.298881700000000167e-02
3.067744399999999816e-02
4.443428700000000287e-02
3.453152699999999936e-02
2.186017999999999989e-02
2.327822300000000066e-02
2.445470300000000125e-02
2.743074499999999943e-02
2.011970199999999973e-02
2.252055400000000165e-02
2.212436999999999737e-02
2.303346900000000086e-02
1.698128299999999979e-02
1.884039000000000200e-02
9.336454299999999776e-03
2.226886299999999985e-02
2.953327499999999772e-02
1.212825300000000030e-02
2.403845099999999887e-02
2.066095100000000032e-02
8.454914800000001146e-03
1.070603699999999985e-02
9.614598800000000514e-03
1.783605199999999807e-02
1.454773500000000087e-02
3.283678199999999492e-02
4.053719700000000398e-02
4.060366899999999502e-02
4.110197599999999840e-02
4.727954499999999921e-02
5.489046100000000150e-02
5.276934800000000758e-02
5.338415500000000258e-02
6.022603800000000257e-02
5.176545999999999925e-02
5.188965899999999770e-02
4.906703800000000032e-02
5.600814899999999319e-02
6.597473600000000604e-02
5.526127600000000500e-02
4.603378100000000278e-02
5.375144200000000344e-02
4.222472500000000462e-02
4.492857399999999890e-02
4.944744599999999907e-02
6.867324099999999598e-02
7.377979700000000807e-02
9.772444099999999523e-02
1.023644199999999838e-01
1.038800399999999929e-01
1.195019199999999976e-01
1.422514400000000068e-01
1.686153400000000024e-01
1.845658000000000021e-01
1.837259099999999923e-01
1.708779300000000112e-01
1.534313800000000061e-01
1.377224699999999857e-01
1.204065799999999992e-01
1.009436299999999925e-01
8.434287499999999771e-02
5.339374099999999457e-02
1.033396900000000014e-02
-2.393381400000000117e-02
-3.977056899999999867e-02
-4.318644400000000438e-02
-4.772977700000000101e-02
-3.248657099999999881e-02
-4.799058800000000069e-02
-5.090966300000000777e-02
-4.956194700000000203e-02
-4.918599499999999625e-02
-5.237866100000000691e-02
-5.578289699999999796e-02
-4.588470099999999996e-02
-4.979613500000000526e-02
-5.239130499999999913e-02
-5.352833700000000222e-02
-5.614892500000000231e-02
-4.001535800000000087e-02
4.037836099999999977e-03
7.975665699999999469e-02
1.000633099999999887e-01
7.232130200000000397e-02
5.410235100000000685e-02
1.005704600000000004e-02
-3.684937500000000365e-02
-1.291762800000000044e-01
-1.771706299999999956e-01
-1.519236500000000212e-01
-1.060773200000000027e-01
-1.202211799999999969e-01
-2.177296699999999863e-01
