-9.017079100000000014e-02
-2.125095599999999862e-01
-2.613128399999999907e-01
-3.398772899999999986e-01
-3.925316600000000045e-01
-3.782458800000000343e-01
-2.899467800000000151e-01
-1.935296599999999922e-01
-1.655387200000000003e-01
-1.347708400000000029e-01
-7.567221200000000259e-02
-6.956246499999999000e-02
-7.493273300000000137e-02
-6.701650700000000294e-02
-6.647997099999999882e-02
-6.693263800000000263e-02
-6.480376899999999718e-02
-6.745519199999999715e-02
-6.411913700000000660e-02
-7.218470800000000021e-02
-6.623284100000000063e-02
-6.510453699999999011e-02
-7.555291199999999985e-02
-6.987503300000000306e-02
-7.109739200000000925e-02
-6.785412500000000124e-02
-7.114643400000000839e-02
-7.261195499999999192e-02
-7.208494399999999802e-02
-7.555743700000000507e-02
-7.703596399999999844e-02
-8.059847500000000275e-02
-8.098770699999999212e-02
-8.124015100000001044e-02
-7.640538399999999286e-02
-7.464580800000000793e-02
-7.356567599999999651e-02
-6.795922499999999811e-02
-7.466850799999999455e-02
-6.066201200000000127e-02
-5.262074799999999497e-02
-5.529422999999999977e-02
-4.240154000000000145e-02
-4.000630200000000053e-02
-3.273259499999999628e-02
-2.337710999999999956e-02
-1.921898600000000040e-02
-1.628513100000000130e-02
-1.601651700000000095e-02
-1.785346900000000028e-02
-1.273953899999999938e-02
-1.302659899999999982e-02
-9.386258099999999355e-03
-8.403063900000000419e-03
-6.711609700000000130e-03
-7.961736899999998646e-03
-7.534739699999999304e-03
-6.136841999999999991e-03
-3.782089899999999637e-03
-4.495702900000000599e-03
-7.116366800000000110e-03
6.453491300000000104e-03
-9.488689599999999141e-04
-9.096233000000000226e-04
8.159062700000000584e-03
1.166770699999999938e-02
1.716020799999999971e-02
2.217742900000000197e-02
2.909014400000000181e-02
2.950688100000000216e-02
3.127290400000000414e-02
4.240176500000000098e-02
4.602984200000000137e-02
4.610137599999999947e-02
5.019659199999999821e-02
4.598614100000000121e-02
6.264057900000000179e-02
5.693273599999999768e-02
5.836633100000000740e-02
5.848812199999999656e-02
5.918262199999999723e-02
5.800246100000000515e-02
5.272205100000000588e-02
5.106057600000000335e-02
4.978756499999999890e-02
4.997734300000000046e-02
5.039008400000000165e-02
4.488642999999999800e-02
4.438984299999999827e-02
4.616994700000000285e-02
4.546284800000000015e-02
4.854264099999999749e-02
4.310743100000000161e-02
4.688739299999999943e-02
4.534081300000000064e-02
4.622324099999999825e-02
5.104804500000000023e-02
6.839897400000000127e-02
8.489096299999999984e-02
9.386066299999999696e-02
1.056507800000000136e-01
1.186416700000000046e-01
1.357242899999999974e-01
1.550351400000000157e-01
1.644178399999999818e-01
1.724928199999999912e-01
1.605451099999999909e-01
1.473789199999999966e-01
1.374347999999999959e-01
1.251224700000000134e-01
1.030670399999999987e-01
8.788678499999999505e-02
7.498681699999999728e-02
4.273870899999999973e-02
2.699195899999999940e-02
2.868621800000000291e-02
2.642237499999999795e-02
1.955693199999999909e-02
1.740772600000000184e-02
2.171668900000000083e-02
2.372979199999999955e-02
1.945190399999999903e-02
2.598536100000000196e-02
2.701911900000000116e-02
2.807351500000000027e-02
3.231294199999999728e-02
2.388569600000000140e-02
3.025396400000000124e-02
3.537483400000000083e-02
6.313725500000000324e-02
1.217308899999999944e-01
1.736536899999999994e-01
1.782067999999999985e-01
1.867119799999999996e-01
1.979092299999999915e-01
1.599901300000000082e-01
8.923293100000000144e-02
1.543180000000000072e-02
1.352637299999999952e-02
-1.304701400000000087e-02
