-9.948392100000000293e-02
-4.105134600000000522e-01
-4.534422700000000361e-01
-4.422880599999999829e-01
-3.483456799999999909e-01
-2.377820400000000001e-01
-1.965383900000000073e-01
-1.433663700000000207e-01
-6.080678900000000692e-02
-3.238790600000000103e-02
-3.248885899999999494e-02
-3.287970199999999676e-02
-2.998666199999999726e-02
-3.032536499999999996e-02
-2.669506699999999941e-02
-3.056469900000000073e-02
-2.680667299999999614e-02
-2.023290600000000189e-02
-2.695007099999999906e-02
-3.287456500000000142e-02
-3.776640700000000184e-02
-3.273675899999999722e-02
-3.131425000000000181e-02
-4.078950599999999621e-02
-4.571240499999999762e-02
-4.703721900000000511e-02
-4.942763199999999912e-02
-3.909183700000000428e-02
-4.705771000000000259e-02
-5.192101000000000355e-02
-6.124868799999999558e-02
-6.868662100000000326e-02
-6.459295600000000692e-02
-6.040340600000000670e-02
-7.219946499999999046e-02
-6.852272099999999477e-02
-6.142420800000000097e-02
-6.632030899999999396e-02
-6.113085499999999783e-02
-4.876000700000000104e-02
-4.342251500000000181e-02
-4.021013500000000102e-02
-3.907545499999999505e-02
-2.505375200000000205e-02
-1.711188899999999818e-02
-6.195872899999999711e-03
-5.906894900000000080e-03
7.855737999999999263e-03
4.185930600000000237e-03
8.259612900000001118e-03
2.028578900000000199e-02
1.349269999999999983e-02
2.036003200000000013e-02
2.477785199999999952e-02
1.862097400000000194e-02
2.286369599999999933e-02
2.282833299999999926e-02
2.436521500000000257e-02
3.155343199999999931e-02
3.245607099999999606e-02
3.784815500000000138e-02
3.861493600000000248e-02
4.172351000000000532e-02
3.670951299999999917e-02
4.470347200000000104e-02
5.269863700000000650e-02
4.937720299999999451e-02
6.295926400000000089e-02
6.649621199999999899e-02
6.513010500000000758e-02
6.680620400000000791e-02
7.236685899999999172e-02
7.368483400000000461e-02
6.861001199999999800e-02
6.825618499999999700e-02
6.248858999999999664e-02
7.028701699999999331e-02
5.771267000000000064e-02
6.043935000000000279e-02
5.877169399999999932e-02
5.142379299999999542e-02
5.508518899999999968e-02
5.027823500000000445e-02
4.413815199999999994e-02
4.124942699999999823e-02
5.144785899999999856e-02
3.714252999999999999e-02
3.374299399999999838e-02
4.101286399999999610e-02
3.576839799999999986e-02
3.283962899999999518e-02
4.196985599999999983e-02
3.014232600000000400e-02
3.303256200000000142e-02
3.289753999999999595e-02
3.254399900000000401e-02
3.197268200000000227e-02
3.539789000000000130e-02
3.908410799999999935e-02
5.100975399999999743e-02
7.906667200000000451e-02
1.003971200000000064e-01
1.129332500000000128e-01
1.254023400000000010e-01
1.563444999999999974e-01
1.902198499999999959e-01
1.991682899999999978e-01
2.012719399999999825e-01
1.923549099999999901e-01
1.579138600000000170e-01
1.397309200000000085e-01
1.017359399999999969e-01
6.105790599999999513e-02
1.166959899999999925e-02
-1.905184600000000075e-02
-2.582573000000000160e-02
-3.014452399999999893e-02
-3.053432200000000263e-02
-3.764581399999999967e-02
-2.750643500000000269e-02
-3.185144399999999959e-02
-3.176489799999999974e-02
-2.747958699999999976e-02
-3.286892900000000506e-02
-2.819004299999999796e-02
-3.455082799999999871e-02
-2.739394700000000182e-02
-2.531976200000000260e-02
-1.958440399999999970e-02
2.560369399999999976e-03
6.093141399999999624e-02
1.353401300000000029e-01
1.301873499999999795e-01
1.086809200000000003e-01
6.100290000000000573e-02
-9.059405600000000613e-03
-3.463469800000000542e-02
-8.277084100000000125e-03
6.978218599999999605e-02
-1.779583100000000084e-01
