-6.957102499999999468e-02
-2.147798900000000288e-01
-2.737461099999999870e-01
-3.691322200000000109e-01
-4.134006099999999462e-01
-3.564322300000000165e-01
-2.295711500000000016e-01
-1.380621900000000013e-01
-1.272125699999999970e-01
-9.034899799999999981e-02
-1.190953999999999971e-02
-1.170386699999999974e-02
-2.652674600000000035e-02
-9.569667900000000324e-03
-4.252543600000000326e-03
-1.100261200000000016e-02
-1.913520800000000077e-02
-1.417999799999999921e-02
2.076017199999999894e-04
-8.313241199999999928e-03
-2.877325399999999811e-02
-1.323297399999999978e-02
-9.478128299999999395e-03
-1.276874199999999959e-02
8.870373399999999676e-04
-1.453351200000000190e-02
-2.178615299999999907e-02
-1.991546899999999815e-02
1.582057799999999834e-03
8.470614899999999448e-03
-1.701126400000000163e-02
-9.094250499999999640e-04
1.299138099999999976e-02
9.040782299999999480e-03
-3.599334399999999743e-03
1.302531300000000017e-02
8.847023499999998736e-03
-3.544197000000000233e-03
3.662309700000000116e-03
6.880696599999999719e-03
1.896894000000000011e-02
2.179403799999999822e-02
-3.993769500000000049e-04
2.175949399999999728e-02
3.561041999999999680e-02
3.715402099999999541e-02
1.556710800000000051e-03
3.185795799999999785e-03
1.684614899999999776e-02
1.314895299999999968e-02
2.126654900000000264e-02
3.237564099999999667e-02
2.048024400000000161e-02
1.452421899999999967e-02
2.369034700000000049e-02
2.868158999999999986e-02
2.233682000000000029e-02
1.568987200000000054e-02
2.005196199999999956e-02
1.991637400000000058e-02
3.328015899999999666e-02
1.911987999999999882e-02
-6.825141099999999447e-03
-2.365462000000000033e-03
1.181370499999999900e-02
2.191584900000000113e-02
9.251799600000000859e-03
3.568736199999999938e-03
1.440324599999999976e-02
1.483507000000000055e-02
1.812466800000000003e-02
2.961461400000000091e-02
3.570219200000000065e-02
2.965511200000000083e-02
4.230271299999999873e-02
3.509876299999999810e-02
3.616891600000000234e-02
4.969119200000000208e-02
6.199547100000000338e-02
4.649433700000000363e-02
5.173223099999999658e-02
6.050039799999999690e-02
6.138695899999999789e-02
6.927066099999999726e-02
5.435996699999999515e-02
5.078612899999999930e-02
4.710204099999999727e-02
6.022052599999999645e-02
5.543242400000000097e-02
4.792549999999999588e-02
5.846253099999999814e-02
6.520758699999999741e-02
4.834431200000000040e-02
4.950540999999999969e-02
4.738029700000000177e-02
6.022852199999999268e-02
8.374824000000000157e-02
7.903445200000000503e-02
8.819466900000000331e-02
1.277787900000000032e-01
1.575015399999999954e-01
1.751557699999999884e-01
1.993685300000000160e-01
2.026948299999999925e-01
2.199761000000000077e-01
1.997636500000000148e-01
1.646657100000000207e-01
1.566769000000000078e-01
1.237716100000000041e-01
8.980673100000000075e-02
5.793356800000000473e-02
1.950463599999999881e-02
-1.638764499999999930e-02
-3.437130900000000266e-02
-4.113546199999999764e-02
-4.004935499999999482e-02
-3.827838100000000021e-02
-4.419619300000000167e-02
-3.136024199999999651e-02
-5.683903300000000408e-02
-5.301418199999999997e-02
-4.529943900000000384e-02
-5.825348200000000226e-02
-4.321407000000000026e-02
-4.023929899999999921e-02
-4.856589199999999940e-02
-4.334704400000000124e-02
-4.170587900000000126e-02
-2.590392799999999968e-02
2.816251599999999855e-02
1.008946899999999952e-01
1.413153199999999943e-01
8.781564999999999510e-02
4.295521800000000334e-02
-8.581847500000000517e-02
-1.897848599999999997e-01
-2.300073900000000060e-01
-2.588159500000000168e-01
-2.240310799999999936e-01
-1.576225500000000002e-01
