1.457343799999999967e-01
-1.975178400000000140e-02
-2.201340900000000045e-01
-3.244989200000000240e-01
-3.909415600000000213e-01
-4.253940999999999972e-01
-3.206358500000000000e-01
-1.936870700000000167e-01
-1.684135600000000177e-01
-1.205334899999999931e-01
-2.171041700000000269e-02
4.670865500000000343e-03
-8.644919299999999709e-03
-1.521286900000000039e-02
-7.795834800000000023e-03
-8.739679499999999934e-03
-2.466410499999999867e-02
-1.575467300000000029e-02
-1.697662200000000024e-02
-1.853254500000000096e-02
-2.398193000000000200e-02
-3.754696300000000264e-02
-3.472012500000000446e-02
-4.630829300000000037e-02
-3.469236499999999584e-02
-4.215638500000000455e-02
-5.884788500000000255e-02
-5.573405099999999279e-02
-5.261464899999999945e-02
-7.354797600000000102e-02
-6.597682099999999106e-02
-8.034205599999999503e-02
-8.218294800000000566e-02
-8.402529499999999985e-02
-1.073827800000000110e-01
-1.010779400000000050e-01
-1.028287799999999946e-01
-9.775577300000000414e-02
-9.240831400000000528e-02
-9.353648200000000412e-02
-8.376654999999999518e-02
-8.610492899999999672e-02
-7.985096399999999650e-02
-7.368884200000000440e-02
-5.290910199999999952e-02
-5.582943199999999828e-02
-3.882137299999999930e-02
-3.580987199999999954e-02
-2.696858599999999925e-02
-2.171443799999999910e-02
-4.557807799999999930e-03
-1.065106099999999986e-02
-1.790997800000000001e-02
-1.140163599999999972e-02
1.581995300000000205e-03
5.411997299999999223e-04
-1.412627399999999943e-02
-1.600111300000000084e-02
-1.601034900000000011e-02
-9.900097700000000736e-03
8.687281099999999423e-03
5.584625599999999516e-03
1.142456500000000111e-02
-6.312646300000000635e-04
-4.104797900000000180e-03
2.010607199999999914e-02
1.583075200000000002e-02
1.849256599999999848e-02
3.937436100000000355e-02
3.871967199999999665e-02
4.253077900000000466e-02
3.808933600000000141e-02
4.830915499999999946e-02
4.576541399999999732e-02
5.894224599999999675e-02
5.548268400000000433e-02
4.978422500000000139e-02
6.396441799999999511e-02
5.729696600000000473e-02
5.490837800000000074e-02
5.499387199999999920e-02
4.713902400000000159e-02
4.760689499999999630e-02
3.455709099999999812e-02
3.985272299999999962e-02
4.128354399999999841e-02
3.037399199999999896e-02
3.545443999999999679e-02
4.397556799999999960e-02
3.811270399999999725e-02
2.899664100000000008e-02
2.794392899999999930e-02
2.050811899999999827e-02
2.390797299999999903e-02
2.634128200000000058e-02
2.381037199999999979e-02
3.076511000000000176e-02
2.090528800000000104e-02
2.310705399999999840e-02
3.161047499999999899e-02
5.360278100000000212e-02
8.153776499999999816e-02
1.240080999999999961e-01
1.344208299999999912e-01
1.356306800000000035e-01
1.599941800000000136e-01
1.977046100000000028e-01
2.102666000000000257e-01
1.954564599999999985e-01
1.822752099999999931e-01
1.557864999999999944e-01
1.537505100000000069e-01
1.207213799999999893e-01
9.925663099999999794e-02
4.928973300000000224e-02
6.056252300000000352e-03
-2.603454700000000163e-02
-2.747321300000000327e-02
-3.892870500000000095e-02
-3.036930099999999785e-02
-2.272800600000000198e-02
-3.109514700000000006e-02
-1.525359000000000090e-02
-1.429682100000000122e-02
-2.416616900000000123e-02
-2.253220599999999907e-02
-1.701993499999999993e-02
-1.923186899999999866e-02
-1.781959100000000268e-02
-1.522374599999999981e-02
2.321953400000000001e-02
8.879549000000000469e-02
1.660045599999999955e-01
1.622543700000000089e-01
1.922706200000000032e-01
1.895770600000000194e-01
1.642150099999999946e-01
8.354815499999999895e-02
1.231825399999999897e-02
3.359190399999999882e-02
