-1.527755399999999875e-01
-4.038557700000000028e-01
-4.330705899999999775e-01
-4.259849400000000341e-01
-3.803681200000000318e-01
-3.146531799999999768e-01
-1.794671200000000078e-01
-1.245075799999999927e-01
-1.016097599999999934e-01
-3.857443099999999930e-02
-2.332587900000000075e-02
-3.373572400000000165e-02
-3.363590799999999909e-02
-3.756780399999999631e-02
-3.163782700000000031e-02
-3.349321800000000515e-02
-3.362022700000000253e-02
-2.483418400000000220e-02
-3.237886599999999920e-02
-4.375035700000000360e-02
-3.431353599999999865e-02
-3.208199899999999993e-02
-3.323615700000000228e-02
-4.051017299999999655e-02
-3.840287399999999657e-02
-4.235020199999999652e-02
-5.530082299999999895e-02
-5.116242299999999854e-02
-6.314769700000000263e-02
-5.682350400000000384e-02
-5.770989399999999769e-02
-5.587581999999999965e-02
-6.108391399999999610e-02
-6.574283100000000157e-02
-5.543921100000000213e-02
-5.866802200000000023e-02
-5.359066599999999514e-02
-4.910820500000000199e-02
-5.614533900000000244e-02
-4.477962099999999862e-02
-4.998086999999999669e-02
-4.238662799999999564e-02
-3.113804800000000150e-02
-2.680265800000000004e-02
-1.655963799999999805e-02
-1.516637699999999998e-02
-7.429523200000000445e-03
1.152729799999999962e-03
-1.278687699999999858e-02
-9.409763499999999545e-03
2.961609300000000349e-04
-6.843898499999999038e-03
-6.882548199999999686e-03
2.606426800000000068e-03
6.061991000000000081e-03
-9.727874500000000674e-04
1.024912899999999875e-03
6.754832099999999277e-03
6.559364299999999488e-03
7.551333599999999688e-03
3.803939199999999739e-03
9.236170099999999744e-03
6.220500099999999935e-03
6.741429299999999840e-03
1.509935400000000059e-02
1.621970600000000040e-02
2.751721300000000217e-02
3.047200299999999751e-02
2.402748700000000015e-02
4.092441000000000134e-02
3.619666300000000392e-02
4.031001499999999765e-02
3.336984299999999626e-02
4.471583299999999650e-02
4.638922899999999711e-02
4.989114900000000269e-02
5.830709200000000481e-02
4.344380299999999612e-02
4.341676500000000299e-02
5.124546300000000498e-02
4.126853200000000360e-02
3.742559399999999953e-02
3.974396900000000399e-02
4.258055900000000393e-02
4.336472100000000190e-02
3.865705199999999730e-02
3.563509999999999595e-02
3.653045200000000492e-02
3.794555200000000045e-02
3.628388400000000236e-02
3.465194400000000396e-02
3.776581999999999856e-02
4.026430999999999760e-02
4.202713000000000282e-02
4.196912300000000401e-02
6.428660699999999562e-02
7.272177100000000449e-02
9.363999100000000575e-02
1.048769599999999913e-01
1.243189799999999956e-01
1.380866199999999933e-01
1.657894799999999891e-01
1.943150399999999944e-01
1.815585700000000025e-01
1.716508600000000162e-01
1.658388900000000166e-01
1.560956000000000010e-01
1.350567599999999979e-01
1.107160900000000031e-01
9.147083899999999823e-02
6.491704099999999478e-02
2.496209899999999801e-02
1.605588100000000058e-03
3.422081400000000131e-03
-2.709275900000000011e-03
-1.216451999999999985e-02
-1.277132199999999815e-02
-1.164961000000000121e-02
-2.339825900000000111e-03
-8.574562300000001386e-03
-5.415663600000000452e-03
-5.781371500000000163e-03
-8.250234099999999987e-03
-9.103947499999999124e-03
-2.322089999999999745e-03
3.658382899999999827e-03
-5.684132499999999463e-03
4.490914300000000033e-03
1.715799999999999964e-02
5.787074599999999375e-02
9.669173600000000035e-02
1.113873199999999980e-01
1.269933999999999785e-01
1.340665799999999908e-01
1.267785899999999966e-01
1.005727000000000010e-01
6.486830099999998933e-02
8.830080700000000893e-02
9.311954399999999854e-02
-1.355103699999999911e-01
