-1.690646400000000160e-01
-3.639005299999999998e-01
-4.377955000000000041e-01
-4.321859299999999959e-01
-3.384668000000000121e-01
-2.122605200000000081e-01
-1.560373899999999980e-01
-1.419179399999999924e-01
-5.895475700000000346e-02
-1.824776999999999996e-02
-2.409172199999999944e-02
-3.012049299999999818e-02
-2.440411799999999895e-02
-3.251599399999999945e-02
-3.257887400000000072e-02
-3.512417099999999570e-02
-2.823342499999999949e-02
-2.818642900000000243e-02
-3.496703500000000048e-02
-3.393340899999999771e-02
-4.583882100000000182e-02
-3.530375100000000127e-02
-4.512346199999999613e-02
-4.860345800000000216e-02
-5.003044899999999767e-02
-4.263059699999999924e-02
-5.794617100000000465e-02
-5.103342800000000568e-02
-5.735478600000000482e-02
-6.560748899999999106e-02
-6.623309800000000414e-02
-7.914948000000000816e-02
-7.925828700000001059e-02
-8.494920300000000091e-02
-8.931135199999999663e-02
-8.795784500000000672e-02
-9.110450700000000124e-02
-8.473101899999999076e-02
-9.151084600000000679e-02
-8.994737399999999661e-02
-8.043415000000000981e-02
-7.611634500000000192e-02
-6.793816299999999586e-02
-6.388608799999999366e-02
-4.378498900000000332e-02
-3.888635499999999745e-02
-3.438395200000000235e-02
-1.799055800000000024e-02
-1.301587700000000035e-02
-6.775525499999999861e-03
-1.493872600000000026e-03
-2.290946400000000004e-03
3.334444899999999649e-03
9.013581499999999413e-03
1.009876200000000071e-02
9.022174900000000733e-03
1.664092000000000002e-02
2.018976100000000051e-02
2.103152100000000094e-02
1.868677900000000058e-02
2.407640100000000075e-02
2.388005300000000178e-02
2.054421499999999762e-02
2.883087399999999939e-02
3.733489999999999726e-02
3.611160700000000390e-02
3.257014200000000331e-02
4.260099399999999620e-02
4.563024999999999720e-02
5.585891999999999941e-02
5.712704500000000130e-02
6.519442000000000292e-02
5.904734299999999519e-02
6.372901999999999734e-02
6.006215700000000490e-02
5.865626300000000015e-02
6.018089100000000025e-02
5.868254099999999779e-02
6.420033099999999937e-02
5.589477400000000124e-02
5.755193699999999746e-02
5.859059399999999584e-02
5.829314300000000559e-02
5.559979799999999889e-02
4.392020200000000540e-02
5.554680899999999560e-02
4.912086899999999756e-02
5.746914800000000462e-02
4.642212399999999517e-02
4.953447300000000247e-02
4.849840899999999927e-02
4.005479299999999826e-02
4.703214000000000006e-02
3.649247700000000233e-02
4.211946400000000229e-02
4.431789300000000403e-02
4.875390300000000121e-02
6.131132700000000574e-02
6.662550000000000416e-02
7.698468299999999820e-02
9.728064200000000050e-02
1.210588599999999904e-01
1.405888100000000085e-01
1.660378899999999935e-01
1.904277900000000134e-01
2.173143500000000172e-01
2.281174200000000152e-01
2.169587700000000230e-01
1.755865699999999974e-01
1.669888500000000220e-01
1.403633700000000151e-01
9.992452100000000226e-02
4.492282699999999851e-02
1.008915499999999896e-02
-4.700009100000000252e-03
-1.786575800000000241e-02
-2.125717799999999810e-02
-2.723351900000000117e-02
-2.785226700000000347e-02
-2.595051899999999828e-02
-2.315927100000000211e-02
-1.868633399999999889e-02
-2.375461899999999765e-02
-2.321081700000000164e-02
-2.606534300000000123e-02
-2.395349899999999962e-02
-2.515540299999999979e-02
-1.403772500000000090e-02
-1.483927600000000194e-02
-1.288380899999999867e-03
5.965016199999999269e-02
1.269255499999999981e-01
1.192950100000000069e-01
7.574183599999999295e-02
4.917025900000000088e-02
3.026160299999999803e-02
3.309152299999999769e-02
2.887786199999999720e-02
5.852828100000000144e-02
4.294691999999999954e-02
