5.248396800000000584e-02
-1.360937499999999856e-01
-2.855315200000000386e-01
-4.540137399999999990e-01
-4.860684700000000302e-01
-3.964690100000000106e-01
-2.561306700000000047e-01
-1.849654099999999968e-01
-1.367842800000000081e-01
-3.745378400000000385e-02
-6.567723900000000010e-03
-9.103875600000000193e-03
-5.878865999999999953e-03
-1.955004399999999906e-03
-1.057368699999999958e-03
-9.190731300000001130e-03
-7.237124200000000012e-04
2.118056600000000310e-03
-2.534855199999999989e-03
-8.396090300000000686e-03
-8.125707899999999248e-03
-1.402162700000000005e-02
-1.933194499999999968e-02
-2.073536299999999971e-02
-3.243353599999999892e-02
-3.680114099999999555e-02
-3.557968699999999873e-02
-3.722676999999999931e-02
-5.154498999999999886e-02
-5.291637000000000424e-02
-6.624023700000000736e-02
-7.819984399999999058e-02
-8.436191499999999566e-02
-8.252864899999999559e-02
-8.432045600000000196e-02
-8.331512800000000218e-02
-8.183338399999999513e-02
-8.482932600000001044e-02
-7.742497600000000646e-02
-8.129446999999999368e-02
-7.507044499999999954e-02
-6.393263799999999997e-02
-4.565992199999999862e-02
-3.779964599999999925e-02
-2.485592799999999936e-02
-1.825279999999999958e-02
-1.973304000000000030e-02
-8.719348999999999503e-03
-1.971253999999999975e-03
-2.472227600000000223e-03
-6.010714099999999935e-03
-1.078984600000000051e-02
-3.349306600000000016e-03
4.123325199999999802e-03
1.166233100000000061e-03
-5.073981600000000182e-03
4.355916100000000075e-03
1.023376299999999962e-04
2.940418299999999867e-03
8.500155299999999359e-03
8.423665700000000991e-03
2.236214599999999941e-02
2.268662599999999793e-02
2.764330400000000049e-02
2.480182900000000093e-02
2.009656500000000026e-02
3.575722700000000254e-02
3.307381899999999736e-02
4.543463300000000205e-02
5.146029700000000207e-02
5.398203000000000029e-02
6.960214700000000310e-02
5.711227900000000191e-02
7.299062800000000184e-02
7.238607500000000805e-02
6.847050000000000358e-02
8.120824699999999730e-02
8.183876799999999230e-02
8.059111300000000588e-02
7.811655500000000418e-02
7.579800000000000426e-02
6.485110600000000558e-02
6.273533800000000160e-02
5.759515200000000362e-02
5.315142899999999310e-02
5.096357399999999760e-02
3.432659700000000036e-02
4.076304499999999775e-02
4.255338399999999965e-02
3.520255400000000395e-02
3.316508199999999851e-02
2.986574000000000173e-02
2.016185599999999883e-02
2.792562200000000064e-02
3.509990799999999911e-02
2.628093100000000043e-02
2.967366599999999785e-02
4.215655499999999833e-02
5.832754599999999401e-02
8.287281399999998910e-02
9.804476900000000383e-02
1.067921099999999957e-01
1.180722199999999916e-01
1.476813299999999995e-01
1.634688799999999831e-01
1.584480899999999859e-01
1.501315099999999958e-01
1.370723500000000095e-01
1.071883700000000050e-01
8.295492200000000038e-02
6.599590600000000695e-02
4.701582299999999826e-02
3.422440799999999783e-02
-6.373389200000000206e-03
-4.287452600000000308e-02
-4.294202700000000067e-02
-4.940496400000000260e-02
-4.499647999999999842e-02
-5.273403599999999802e-02
-4.352040399999999865e-02
-4.928194300000000166e-02
-5.257902199999999610e-02
-4.748871899999999868e-02
-4.999484799999999451e-02
-4.487361100000000075e-02
-4.345054999999999751e-02
-5.602042799999999712e-02
-4.851283499999999721e-02
-3.277358699999999986e-02
-2.507225699999999710e-02
4.128113500000000352e-02
9.671143599999999785e-02
9.938439300000000143e-02
1.217441500000000093e-01
1.809305499999999955e-01
1.824049299999999929e-01
1.486501100000000020e-01
8.686356100000000580e-02
1.238719600000000032e-01
1.023374299999999931e-01
