-3.021368799999999896e-02
-1.705496599999999918e-01
-2.902811699999999773e-01
-3.769282600000000150e-01
-4.336741000000000068e-01
-4.192621300000000106e-01
-3.332766500000000076e-01
-2.054632399999999914e-01
-1.211244299999999913e-01
-1.199213400000000151e-01
-5.918660100000000535e-02
-1.618594500000000019e-02
-1.489680200000000065e-02
-1.629725599999999955e-02
-1.713580500000000048e-02
-2.485283599999999968e-02
-1.933789200000000236e-02
-1.519857300000000168e-02
-9.755172799999999728e-03
-1.483814400000000103e-02
-2.496580400000000116e-02
-1.697010399999999974e-02
-1.939642899999999975e-02
-1.623693500000000095e-02
-1.394551400000000087e-02
-2.318811000000000136e-02
-2.048571600000000104e-02
-2.195786899999999792e-02
-2.948973799999999798e-02
-2.567053600000000074e-02
-2.738622900000000152e-02
-3.125590500000000049e-02
-3.041156600000000099e-02
-3.095746400000000051e-02
-3.027970599999999998e-02
-2.913204600000000172e-02
-3.335201200000000032e-02
-3.440548499999999954e-02
-4.129424500000000026e-02
-3.455837900000000018e-02
-2.379965099999999806e-02
-2.746303399999999728e-02
-2.678557599999999844e-02
-2.175382000000000010e-02
-6.079909100000000129e-03
-6.557789399999999769e-03
-3.594229599999999771e-03
9.763910300000001180e-03
6.112653699999999815e-03
2.089002100000000167e-02
1.117620199999999966e-02
1.639231600000000053e-02
2.752530599999999938e-02
2.736441499999999610e-02
2.843661499999999842e-02
2.639209299999999842e-02
1.767058599999999854e-02
1.489573800000000038e-02
9.514912300000000905e-03
1.652807900000000108e-02
1.251789299999999869e-02
1.347415600000000102e-02
1.416123200000000103e-02
1.579793900000000043e-02
1.283333999999999864e-02
2.159932399999999961e-02
1.518533000000000036e-02
2.225952800000000065e-02
2.046995899999999938e-02
3.684282400000000318e-02
2.586009200000000119e-02
3.067875999999999936e-02
4.230658600000000019e-02
3.322425099999999631e-02
4.909484800000000343e-02
5.304250099999999885e-02
5.564171100000000342e-02
5.336733899999999975e-02
4.970055699999999937e-02
5.567010500000000445e-02
6.062390399999999235e-02
5.926790899999999362e-02
5.892180299999999482e-02
4.496720499999999621e-02
4.395157000000000230e-02
4.563614100000000506e-02
4.850776299999999541e-02
4.924275699999999811e-02
5.058415600000000512e-02
5.081682299999999708e-02
3.896052099999999796e-02
3.164105799999999968e-02
3.836987299999999879e-02
4.360889999999999905e-02
4.476967899999999972e-02
4.409091600000000083e-02
3.902911700000000206e-02
7.465212100000000184e-02
9.976014800000000682e-02
1.202548100000000036e-01
1.403127999999999875e-01
1.861825899999999812e-01
2.109877200000000175e-01
2.396583000000000185e-01
2.238098400000000099e-01
2.110623400000000149e-01
1.923640299999999914e-01
1.733306800000000147e-01
1.523454999999999948e-01
1.111845399999999984e-01
7.637401200000000501e-02
2.647984299999999597e-02
-4.550358799999999412e-03
-1.923006399999999810e-02
-2.728131300000000148e-02
-2.765192600000000028e-02
-2.154260499999999939e-02
-2.560328299999999752e-02
-2.190130700000000180e-02
-2.810614900000000388e-02
-2.060854699999999790e-02
-2.167064099999999743e-02
-2.333428300000000080e-02
-2.184776899999999952e-02
-1.935603899999999850e-02
-1.689013799999999899e-02
-2.900604999999999850e-02
-2.930966300000000316e-02
-1.487784299999999824e-02
2.993012299999999598e-02
1.059800199999999942e-01
1.267560400000000143e-01
8.767885899999999788e-02
2.889272399999999810e-02
-7.060724699999999798e-02
-1.215134699999999845e-01
-1.373440900000000020e-01
-1.293347999999999998e-01
-2.241348400000000088e-02
-6.364370900000000664e-02
