-4.342268600000000200e-02
-2.440226299999999904e-01
-3.525210799999999867e-01
-4.406867700000000054e-01
-4.047005200000000080e-01
-3.016916399999999832e-01
-2.045847900000000164e-01
-1.802025299999999997e-01
-1.184745600000000065e-01
-5.441800700000000435e-02
-5.776223600000000152e-02
-5.094021199999999860e-02
-5.130959499999999951e-02
-4.521695299999999723e-02
-5.226504499999999609e-02
-5.207114399999999976e-02
-3.914381200000000005e-02
-4.271197799999999767e-02
-4.132094700000000370e-02
-4.480390899999999593e-02
-4.548885300000000270e-02
-5.603331099999999537e-02
-5.433179099999999734e-02
-5.506736500000000006e-02
-6.230100100000000168e-02
-6.695074600000000542e-02
-6.881694400000000489e-02
-7.442906000000000521e-02
-6.869623799999999281e-02
-6.928670400000000451e-02
-8.479441800000001028e-02
-8.934961999999999072e-02
-9.214963400000000804e-02
-1.030440100000000053e-01
-9.786781599999999637e-02
-1.002693600000000018e-01
-9.669816400000000312e-02
-9.291103400000000345e-02
-8.451871600000000762e-02
-7.793259299999999445e-02
-7.053360100000000132e-02
-5.827064299999999697e-02
-4.691010299999999467e-02
-3.796560200000000107e-02
-2.224959800000000237e-02
-1.855043500000000053e-02
-1.504654900000000108e-02
-4.576675199999999735e-03
-1.253875599999999986e-03
-4.960066300000000490e-03
4.562334900000000011e-04
7.339643099999999896e-04
4.919825000000000066e-03
7.581928699999999736e-03
1.042211799999999931e-02
1.144031300000000057e-02
1.221702600000000062e-02
1.565871799999999855e-02
1.226226099999999999e-02
1.946297899999999831e-02
2.038603700000000268e-02
2.102165799999999862e-02
2.664381699999999673e-02
2.807579099999999925e-02
4.160740400000000061e-02
4.348703500000000027e-02
5.250310799999999972e-02
5.355746000000000118e-02
5.161434900000000381e-02
5.140921499999999422e-02
5.438457399999999803e-02
6.598304499999999018e-02
6.056491699999999589e-02
6.498070699999999866e-02
6.447190499999999602e-02
6.805892799999999077e-02
7.008897099999999991e-02
7.204414400000000440e-02
6.261809499999999862e-02
5.903891000000000000e-02
6.394075600000000137e-02
5.760909600000000547e-02
5.695781899999999981e-02
4.748570100000000516e-02
5.686030399999999346e-02
5.689371399999999801e-02
5.342850600000000061e-02
4.472720100000000115e-02
3.948186699999999688e-02
4.750433800000000012e-02
4.678451599999999821e-02
5.210779000000000105e-02
4.789652300000000335e-02
4.673328000000000204e-02
4.819728999999999680e-02
4.703343200000000002e-02
5.124647300000000072e-02
6.897559400000000118e-02
8.766658099999999343e-02
1.009194699999999834e-01
1.212121399999999960e-01
1.364700400000000147e-01
1.543215800000000137e-01
1.806616299999999897e-01
1.852528600000000192e-01
1.876897100000000096e-01
1.801343799999999828e-01
1.626736400000000082e-01
1.396103000000000205e-01
1.222066899999999928e-01
8.953447200000000383e-02
5.607539999999999747e-02
2.017140799999999831e-02
-1.126325900000000116e-02
-1.502514500000000017e-02
-1.726242500000000138e-02
-2.184869899999999920e-02
-2.048939999999999789e-02
-2.475810599999999848e-02
-1.925259400000000135e-02
-2.380984100000000173e-02
-1.882025600000000048e-02
-1.567176899999999859e-02
-1.811418999999999876e-02
-2.505508000000000041e-02
-2.214125299999999963e-02
-1.349292000000000026e-02
-1.013848799999999932e-02
2.518736100000000186e-02
7.348940800000000606e-02
1.358105799999999863e-01
1.270432800000000084e-01
1.100724700000000056e-01
1.018558599999999925e-01
6.767195099999999408e-02
4.366261500000000184e-02
6.875266700000000342e-02
1.268561899999999798e-01
1.132143200000000072e-01
-5.910766200000000525e-02
