3.541075999999999946e-02
-1.507447799999999949e-01
-3.154077299999999973e-01
-4.241004300000000282e-01
-4.263901500000000233e-01
-3.976553600000000133e-01
-3.126076999999999884e-01
-1.863875200000000010e-01
-1.578466799999999892e-01
-1.313524500000000095e-01
-6.814442099999999669e-02
-2.699283599999999922e-02
-2.603584299999999602e-02
-3.258439600000000158e-02
-2.563775500000000165e-02
-2.939377100000000256e-02
-2.476244699999999993e-02
-2.336674999999999863e-02
-2.642431800000000219e-02
-2.225803100000000104e-02
-2.969759300000000130e-02
-3.288047000000000192e-02
-2.674320399999999959e-02
-2.451524299999999906e-02
-3.450580200000000208e-02
-3.323033400000000026e-02
-3.900437199999999549e-02
-3.894295400000000185e-02
-5.027298999999999657e-02
-5.231381100000000173e-02
-5.027878700000000534e-02
-5.828145099999999801e-02
-5.980297100000000338e-02
-5.856817399999999368e-02
-6.084891900000000131e-02
-6.648865900000000551e-02
-6.978692100000000176e-02
-5.635789500000000507e-02
-6.520963500000000190e-02
-6.120832299999999504e-02
-5.093619000000000618e-02
-4.365975899999999937e-02
-3.994882400000000083e-02
-3.047200800000000181e-02
-2.730495999999999965e-02
-1.999635799999999880e-02
-1.024914900000000080e-02
-2.489078300000000139e-03
1.510486599999999891e-03
3.488966999999999936e-03
9.480154500000000789e-03
7.544204799999999940e-03
6.844020100000000606e-03
1.069200600000000043e-02
-5.749786400000000139e-04
2.581693500000000092e-03
3.471609500000000237e-03
4.659735699999999724e-03
1.200694300000000082e-02
6.926007799999999923e-03
1.509835599999999854e-02
1.781309600000000049e-02
8.105657500000000223e-03
1.769987099999999897e-02
1.978030600000000097e-02
2.129363899999999962e-02
3.074456300000000253e-02
3.511515599999999460e-02
4.373583500000000068e-02
4.310351199999999661e-02
5.077922999999999465e-02
5.556937299999999830e-02
6.781033699999999831e-02
5.993231999999999726e-02
5.913190200000000007e-02
5.303510399999999958e-02
6.118682600000000665e-02
7.127619999999999789e-02
6.056783400000000095e-02
5.403608399999999812e-02
6.536443399999999904e-02
6.667772099999999535e-02
5.593239199999999745e-02
5.744386799999999516e-02
4.293577399999999600e-02
4.719771899999999909e-02
5.180703399999999487e-02
4.707568300000000011e-02
4.126550999999999830e-02
4.404721099999999584e-02
3.462462300000000021e-02
4.303890600000000177e-02
4.356042799999999826e-02
6.185476199999999369e-02
7.718180300000000715e-02
9.496634800000000598e-02
1.098007200000000044e-01
1.100072099999999942e-01
1.323865499999999917e-01
1.555309199999999892e-01
1.802163099999999907e-01
1.884970899999999783e-01
1.769776000000000127e-01
1.704543900000000112e-01
1.617726899999999968e-01
1.494078500000000087e-01
1.230423899999999876e-01
1.087774800000000097e-01
8.501927400000000579e-02
4.446972800000000003e-02
3.850350800000000052e-03
-1.354011899999999977e-02
-2.454959300000000150e-02
-4.103913699999999637e-02
-2.882614499999999746e-02
-3.730900899999999715e-02
-3.621181199999999600e-02
-3.655953800000000253e-02
-5.067644999999999789e-02
-3.523656800000000283e-02
-4.160619100000000070e-02
-4.507012300000000360e-02
-3.609347300000000092e-02
-3.631900999999999879e-02
-3.093298600000000259e-02
-3.459033000000000246e-02
-2.804147200000000131e-02
3.510271699999999943e-03
4.226829999999999476e-02
8.859362499999999530e-02
8.697392299999999465e-02
9.586286899999998945e-02
1.246234000000000092e-01
1.114088500000000037e-01
1.036238999999999910e-01
8.537550400000000483e-02
7.803696499999999980e-02
8.987705799999999579e-02
5.559763100000000152e-02
-1.321036999999999906e-01
