-2.938673399999999769e-02
-1.742650400000000099e-01
-2.697398000000000295e-01
-3.632234200000000190e-01
-4.314492500000000064e-01
-4.214429700000000278e-01
-3.342520100000000438e-01
-1.991254499999999816e-01
-1.532377399999999834e-01
-1.478218400000000099e-01
-7.632809100000000069e-02
-2.899774500000000185e-02
-2.980689200000000150e-02
-4.374571099999999962e-02
-3.161448900000000256e-02
-1.495550399999999967e-02
-2.076661399999999921e-02
-1.252718600000000092e-02
-1.514670300000000094e-02
-2.671568999999999680e-02
-3.587603999999999793e-02
-2.735889300000000218e-02
-2.373630300000000026e-02
-2.542996100000000093e-02
-1.966629099999999894e-02
-2.478206300000000001e-02
-2.369138800000000072e-02
-3.592333500000000068e-02
-3.411057099999999925e-02
-3.074138100000000165e-02
-2.973549200000000226e-02
-3.129208299999999832e-02
-4.703557600000000255e-02
-5.115117700000000600e-02
-4.788316899999999626e-02
-5.275764100000000095e-02
-5.674142000000000075e-02
-4.884568200000000138e-02
-5.034946799999999445e-02
-5.080891899999999406e-02
-4.935197000000000195e-02
-3.754414099999999616e-02
-2.695795899999999662e-02
-3.090918999999999611e-02
-1.260854200000000036e-02
-1.386678099999999990e-02
-1.950018099999999838e-02
-3.178181800000000248e-03
1.048608099999999953e-02
1.283471599999999992e-03
4.354611900000000292e-03
2.030557499999999845e-03
7.481007900000000328e-03
9.059117999999999685e-03
1.933862700000000059e-02
1.916830599999999954e-02
1.719034000000000187e-02
2.247705700000000167e-02
1.555911100000000047e-02
1.370301600000000189e-02
2.490104900000000149e-02
2.138752699999999993e-02
1.978172500000000000e-02
2.051220100000000074e-02
1.380786699999999798e-02
1.583574199999999987e-02
2.332059800000000141e-02
2.339907800000000024e-02
3.301221899999999543e-02
2.752690199999999893e-02
3.747565400000000407e-02
5.197709900000000577e-02
3.898898900000000167e-02
4.851581300000000485e-02
5.566192899999999888e-02
6.251869200000000071e-02
5.387315000000000159e-02
4.735319999999999807e-02
6.363384099999999655e-02
6.832070399999999599e-02
5.949375399999999592e-02
6.091602599999999812e-02
6.748608400000000174e-02
4.902435800000000399e-02
4.148219699999999843e-02
5.802935199999999932e-02
6.763607000000000646e-02
5.217881700000000234e-02
4.041579199999999900e-02
4.812297399999999892e-02
4.225615200000000515e-02
4.107206500000000482e-02
5.329360899999999873e-02
4.949358400000000019e-02
5.141056000000000792e-02
6.126985199999999965e-02
9.291176300000000832e-02
1.179558000000000134e-01
1.308821500000000027e-01
1.466825800000000068e-01
1.719767499999999838e-01
2.022077499999999917e-01
2.086614299999999811e-01
2.063637799999999967e-01
1.956546899999999922e-01
1.866393299999999922e-01
1.664897200000000077e-01
1.510736500000000038e-01
1.218215199999999887e-01
9.722043399999999447e-02
5.573659699999999884e-02
1.015509700000000008e-02
-1.951220600000000069e-02
-2.137451900000000155e-02
-1.857423300000000249e-02
-2.615977299999999728e-02
-3.838966600000000284e-02
-2.383929200000000151e-02
-2.648235299999999667e-02
-3.324850499999999764e-02
-3.140858400000000328e-02
-3.436262600000000028e-02
-2.931773100000000312e-02
-2.297093099999999999e-02
-2.909520400000000298e-02
-2.226717300000000122e-02
-1.319034999999999999e-02
-1.656383600000000192e-02
2.099614600000000025e-02
1.043568199999999890e-01
1.517703999999999998e-01
1.260164899999999810e-01
8.541795100000000585e-02
2.168965999999999950e-02
-1.414358300000000124e-02
-4.659465000000000134e-02
-7.369519700000000395e-02
-7.788268499999999317e-02
-2.570064899999999902e-02
-9.904061499999999851e-02
