-8.301825000000000176e-02
-3.833281800000000183e-01
-4.600057600000000413e-01
-4.414653699999999681e-01
-3.590031200000000089e-01
-2.524076899999999624e-01
-1.755223699999999831e-01
-1.405873699999999893e-01
-4.984721899999999817e-02
-3.141452200000000028e-02
-3.377173399999999770e-02
-2.803592999999999710e-02
-2.867649500000000323e-02
-1.766998800000000105e-02
-2.335209199999999791e-02
-3.107940900000000228e-02
-2.519631099999999901e-02
-2.160436199999999848e-02
-3.288202099999999739e-02
-3.358700800000000153e-02
-3.835828299999999996e-02
-4.604838199999999881e-02
-4.812553199999999864e-02
-5.244157099999999933e-02
-5.148228200000000421e-02
-5.048447700000000676e-02
-6.231784900000000155e-02
-7.444041599999999537e-02
-7.455860100000000212e-02
-7.962472600000000678e-02
-7.154045000000000543e-02
-7.566259100000000126e-02
-8.322147500000000309e-02
-8.822846199999999361e-02
-9.892767900000000447e-02
-9.376386000000000442e-02
-8.462796399999999997e-02
-7.809173199999999704e-02
-6.479074900000000858e-02
-6.265128799999999942e-02
-6.730148500000000811e-02
-4.994068599999999802e-02
-4.269913300000000023e-02
-3.238948099999999775e-02
-2.068796800000000102e-02
-1.493153300000000031e-02
-1.113987500000000047e-02
-9.839151799999999379e-03
-2.427493199999999820e-03
2.642583799999999837e-03
-2.240052699999999994e-03
-3.225204599999999949e-03
8.576866600000000035e-03
7.867208900000000407e-03
2.033320400000000056e-02
1.147565099999999991e-02
9.654515100000000266e-03
1.190605800000000061e-02
1.560192999999999997e-02
1.253655400000000010e-02
1.964281899999999886e-02
1.754955899999999930e-02
2.406835599999999908e-02
2.235321300000000025e-02
2.974010599999999879e-02
2.613060099999999636e-02
3.492846600000000523e-02
5.583339299999999505e-02
4.172135999999999900e-02
5.228410999999999476e-02
5.768855299999999658e-02
5.629370799999999786e-02
5.863532299999999614e-02
6.134299800000000275e-02
6.846050700000000377e-02
6.265656099999999951e-02
5.893326299999999962e-02
5.889547299999999680e-02
5.425990000000000674e-02
5.630931000000000131e-02
5.395624200000000148e-02
4.492584800000000433e-02
4.351201200000000269e-02
3.915094900000000433e-02
3.522156499999999635e-02
3.287451000000000262e-02
2.837664899999999685e-02
3.519410099999999847e-02
2.916869200000000301e-02
2.411735500000000004e-02
2.511974900000000371e-02
3.035162500000000013e-02
2.642716500000000246e-02
3.395617499999999817e-02
2.859754700000000094e-02
1.923897399999999897e-02
2.519817100000000185e-02
3.332116100000000192e-02
3.842501799999999829e-02
5.955127699999999968e-02
8.102291999999999828e-02
1.019423600000000096e-01
1.293970099999999790e-01
1.403148499999999910e-01
1.598898699999999895e-01
1.860148199999999974e-01
1.848849899999999991e-01
1.812839900000000060e-01
1.671370199999999973e-01
1.552311299999999950e-01
1.427627200000000096e-01
1.086877899999999925e-01
7.278989500000000723e-02
3.353860200000000069e-02
-1.439213800000000007e-03
-8.632439000000000431e-03
-2.861816099999999613e-02
-2.447759499999999783e-02
-2.861734299999999995e-02
-2.809870300000000265e-02
-2.134803000000000048e-02
-2.058407200000000187e-02
-1.645155599999999912e-02
-1.752291500000000002e-02
-8.894401300000000232e-03
-1.966317199999999960e-02
-1.467337099999999929e-02
-1.374066900000000049e-02
-5.000236999999999390e-03
1.124320600000000038e-02
5.189057299999999540e-02
1.292867299999999886e-01
1.490063699999999991e-01
1.304135899999999959e-01
1.360642900000000044e-01
8.942983499999999919e-02
5.386830799999999669e-02
4.167596099999999748e-02
1.332417300000000027e-01
7.040203000000000433e-02
