8.800788499999999404e-02
-1.232377199999999950e-01
-3.386584300000000103e-01
-4.079093399999999536e-01
-3.953283300000000056e-01
-3.388778100000000015e-01
-2.572348199999999752e-01
-1.821784700000000090e-01
-1.676267499999999910e-01
-1.056190399999999974e-01
-5.055525800000000569e-02
-5.842020100000000493e-02
-5.777550199999999941e-02
-4.663001600000000330e-02
-4.579555500000000168e-02
-4.075473300000000132e-02
-6.016464600000000218e-02
-5.385442099999999954e-02
-4.902879100000000212e-02
-4.929713200000000045e-02
-4.733506999999999992e-02
-4.899355600000000061e-02
-4.405392300000000178e-02
-5.600998499999999825e-02
-7.356125300000000700e-02
-5.852228900000000511e-02
-7.666591999999999851e-02
-7.909711099999999773e-02
-8.018610600000000699e-02
-7.810934199999999827e-02
-8.395768000000000675e-02
-8.836048800000000092e-02
-9.626859599999999795e-02
-1.001106400000000007e-01
-8.605303799999999836e-02
-1.054645000000000027e-01
-1.080236400000000041e-01
-9.296425399999999617e-02
-8.737331800000000537e-02
-7.548059399999999808e-02
-7.746818899999999286e-02
-5.996798300000000248e-02
-5.078787999999999359e-02
-3.995598899999999731e-02
-2.777568400000000187e-02
-1.974023400000000233e-02
-9.647644199999999559e-03
-8.553460000000000577e-03
7.203176699999999308e-03
2.636724200000000080e-03
-1.737077100000000045e-04
1.188890199999999980e-02
8.994291399999999881e-03
8.144576199999999794e-03
1.282922800000000155e-02
2.087392000000000067e-02
2.485165199999999838e-02
1.625887900000000039e-02
2.258978399999999817e-02
1.915149999999999839e-02
1.974830899999999861e-02
2.437453699999999820e-02
2.736853799999999781e-02
2.191060599999999914e-02
3.018555199999999744e-02
3.868348099999999873e-02
3.083041799999999832e-02
3.928776399999999586e-02
4.489556299999999944e-02
4.385486300000000087e-02
3.886243200000000231e-02
5.342959499999999640e-02
5.003803799999999302e-02
5.561491600000000035e-02
5.948703600000000702e-02
5.236063600000000207e-02
5.334717199999999826e-02
5.528717800000000626e-02
4.792816200000000332e-02
5.416728400000000304e-02
4.738670500000000119e-02
4.345333099999999782e-02
4.761528300000000130e-02
4.518708800000000025e-02
5.521998000000000184e-02
4.320438299999999898e-02
4.245302399999999893e-02
5.300987499999999797e-02
3.811216399999999699e-02
4.447324300000000258e-02
3.599951099999999793e-02
3.516221800000000203e-02
4.635750400000000077e-02
3.712452000000000113e-02
4.108795700000000134e-02
5.562574399999999780e-02
5.403300700000000095e-02
5.265206500000000484e-02
7.548678600000000016e-02
9.099029899999999671e-02
1.003274500000000125e-01
1.205766499999999936e-01
1.357561800000000041e-01
1.773019899999999927e-01
1.810134200000000082e-01
1.836536200000000174e-01
1.822904599999999875e-01
1.558171500000000154e-01
1.452160600000000079e-01
1.218462500000000032e-01
8.924461699999999831e-02
6.405376599999999809e-02
2.871507200000000121e-02
-5.938835700000000620e-03
-9.698078699999999538e-03
-8.734337300000000540e-03
-2.240460099999999968e-02
-2.510562400000000000e-02
-2.097600300000000001e-02
-2.036889400000000197e-02
-1.239869499999999951e-02
-2.221142499999999992e-02
-1.616251099999999746e-02
-1.299041400000000047e-02
-2.360676499999999831e-02
-2.307125399999999937e-02
-1.576191799999999976e-02
-1.905784099999999898e-02
3.750265600000000227e-03
3.827041299999999618e-02
1.037497200000000036e-01
1.187547099999999994e-01
1.342451499999999798e-01
1.601206199999999913e-01
1.622571899999999956e-01
1.277659800000000012e-01
1.030106500000000092e-01
1.265885099999999874e-01
1.404034799999999972e-01
-2.636043599999999751e-02
