-9.403487000000000373e-01
-1.874617999999999896e+00
-1.890894599999999981e+00
-2.553392899999999965e+00
-2.721132499999999954e+00
-2.810272199999999998e+00
-2.803178099999999784e+00
-2.596246100000000112e+00
-2.474441000000000113e+00
-2.059428899999999896e+00
-1.513119199999999998e+00
-1.134695800000000032e+00
-9.242864299999999922e-01
-8.102052100000000090e-01
-6.024098199999999848e-01
-3.273504199999999753e-01
-1.092518299999999942e-01
1.370053000000000069e-02
3.138538800000000017e-02
3.072013200000000069e-02
6.585126600000000552e-02
6.203837599999999924e-02
5.502013499999999779e-02
1.168708100000000055e-01
1.225329099999999949e-01
9.132403000000000048e-02
1.503012300000000079e-01
1.544645199999999940e-01
1.045633100000000065e-01
1.102845600000000037e-01
1.106972799999999951e-01
1.324281300000000050e-01
1.424298499999999967e-01
9.311228600000000244e-02
1.652619499999999908e-01
3.023242600000000113e-01
2.517671400000000004e-01
1.455453100000000111e-01
1.734115999999999991e-01
1.752408000000000021e-01
1.409178899999999901e-01
1.467074999999999907e-01
1.338717700000000010e-01
1.314984700000000062e-01
1.252050399999999897e-01
1.330483299999999924e-01
1.935553299999999977e-01
1.961956300000000097e-01
1.836106999999999878e-01
1.797954099999999888e-01
1.490226199999999945e-01
1.625948399999999905e-01
1.535024200000000005e-01
1.318504400000000132e-01
1.916766900000000107e-01
2.066216200000000058e-01
1.666957000000000022e-01
1.926801999999999959e-01
2.042004600000000003e-01
1.644667999999999963e-01
2.027476199999999895e-01
2.876944300000000010e-01
2.751295899999999794e-01
2.533002300000000151e-01
3.181633200000000272e-01
3.419236600000000181e-01
3.407369000000000092e-01
4.030341299999999904e-01
4.047402500000000236e-01
3.783330599999999988e-01
4.132259899999999875e-01
4.313634499999999816e-01
4.488903200000000093e-01
4.718510699999999836e-01
4.486286999999999914e-01
5.018090899999999577e-01
6.403367100000000312e-01
6.811373400000000355e-01
6.442844100000000296e-01
6.836523700000000092e-01
7.207313100000000139e-01
6.826313299999999806e-01
7.061352199999999524e-01
7.423192299999999966e-01
6.871759400000000406e-01
7.121699599999999908e-01
7.726761699999999955e-01
7.381951799999999508e-01
7.713293799999999534e-01
8.155315600000000442e-01
7.353715100000000060e-01
7.246230299999999458e-01
8.044601999999999586e-01
7.736364700000000205e-01
7.097578500000000234e-01
7.151326900000000153e-01
7.341924199999999567e-01
7.918508899999999739e-01
7.939714399999999728e-01
7.182609100000000302e-01
7.559623899999999841e-01
8.241842999999999808e-01
8.198367899999999819e-01
8.054558000000000551e-01
7.893050799999999922e-01
8.087133899999999764e-01
8.576190700000000389e-01
8.765638199999999935e-01
8.809595199999999959e-01
8.581721599999999617e-01
8.026081099999999857e-01
7.492012900000000197e-01
6.964748200000000500e-01
6.615642000000000467e-01
7.193810299999999769e-01
8.114555900000000044e-01
8.045334400000000441e-01
7.387007500000000171e-01
7.128420500000000049e-01
6.717526600000000014e-01
5.510896600000000367e-01
4.211567500000000241e-01
4.251794700000000038e-01
5.890351999999999810e-01
6.899073700000000198e-01
5.068341899999999622e-01
1.528021699999999872e-01
-1.947041899999999992e-01
-6.327467199999999847e-01
-1.170961900000000000e+00
-1.684599799999999981e+00
-2.169992199999999816e+00
-2.796810600000000147e+00
-3.226591299999999940e+00
-3.015088500000000060e+00
-2.664523700000000161e+00
-1.807141000000000108e+00
-7.643208999999999698e-01
-7.500045499999999921e-01
5.313371599999999750e-01
