1.264385700000000057e+00
3.764279999999999848e-01
-4.709694799999999959e-01
-1.452536300000000002e+00
-2.332107800000000175e+00
-2.914767200000000003e+00
-3.063039600000000195e+00
-2.882289600000000007e+00
-2.554705100000000062e+00
-2.116923299999999841e+00
-1.647410500000000111e+00
-1.189763799999999927e+00
-8.153434600000000199e-01
-6.559002499999999625e-01
-6.390789099999999445e-01
-4.797231800000000268e-01
-7.380617400000000217e-02
2.723989399999999783e-01
3.607660500000000048e-01
3.625802200000000086e-01
3.541217899999999918e-01
3.157080600000000126e-01
3.307221300000000030e-01
3.437704100000000262e-01
3.021090900000000246e-01
3.535916599999999743e-01
4.416395100000000129e-01
4.153430300000000019e-01
4.045689900000000172e-01
3.649409599999999809e-01
3.318137199999999787e-01
4.362661600000000139e-01
3.828229899999999741e-01
2.914636299999999736e-01
3.578367000000000075e-01
3.322180900000000214e-01
3.370158300000000162e-01
3.910569500000000143e-01
3.569138900000000114e-01
3.446870499999999948e-01
2.989820100000000203e-01
2.845600600000000036e-01
3.442646500000000054e-01
3.435345699999999836e-01
3.159679899999999764e-01
2.732799899999999726e-01
2.562117800000000001e-01
2.578357900000000091e-01
2.006778499999999910e-01
2.205818700000000132e-01
2.849637799999999999e-01
2.346932700000000094e-01
1.668252000000000068e-01
1.049494900000000064e-01
1.724901699999999843e-02
2.486363200000000009e-02
8.618990499999999721e-02
5.089898699999999970e-02
1.891128099999999854e-02
2.021846600000000091e-02
-1.585892300000000046e-02
4.904673299999999471e-04
2.809279099999999890e-02
-3.464884000000000019e-02
-6.466244999999999632e-02
-3.802748100000000187e-02
-4.606092500000000256e-02
1.727701899999999980e-03
4.337063800000000302e-02
2.487168799999999944e-02
1.173689700000000030e-01
1.273061699999999963e-01
4.306026400000000087e-02
1.824258199999999885e-01
2.984034899999999935e-01
2.551052100000000267e-01
2.839243499999999920e-01
3.838237199999999794e-01
4.389824999999999977e-01
3.956352399999999991e-01
4.189311199999999902e-01
5.391306999999999627e-01
5.680480100000000476e-01
5.953676100000000471e-01
6.391000199999999909e-01
6.323155599999999987e-01
6.648352100000000098e-01
6.772938600000000253e-01
6.882361599999999857e-01
7.607962999999999809e-01
7.833645399999999981e-01
7.984031900000000403e-01
8.783804899999999583e-01
8.794677699999999820e-01
7.933282600000000073e-01
7.716354899999999795e-01
7.816286399999999857e-01
7.571763400000000033e-01
8.083470000000000377e-01
9.119327400000000194e-01
9.190024700000000157e-01
8.776967500000000255e-01
8.457538300000000397e-01
8.038228200000000490e-01
8.343815900000000063e-01
9.020861399999999808e-01
8.845712399999999809e-01
8.874473200000000395e-01
9.703584299999999940e-01
9.755323099999999581e-01
8.514565299999999892e-01
7.506817599999999757e-01
6.923033299999999945e-01
5.715993799999999903e-01
5.061459000000000374e-01
5.295052399999999881e-01
4.808107699999999984e-01
4.128982600000000169e-01
3.348055600000000021e-01
1.994401799999999947e-01
8.771948799999999824e-02
-2.418975799999999871e-02
-5.301247099999999851e-02
4.868882500000000220e-04
-1.260201300000000080e-01
-4.386145799999999761e-01
-7.973320000000000407e-01
-1.241959199999999930e+00
-1.763496900000000034e+00
-2.206476799999999905e+00
-2.565554500000000182e+00
-2.948695299999999797e+00
-3.314612100000000172e+00
-3.284758399999999856e+00
-2.596885299999999841e+00
-1.736510599999999904e+00
-7.016321300000000205e-01
3.847774400000000261e-01
7.105838899999999958e-01
1.270368699999999906e+00
