-2.441627200000000109e+00
-3.045964699999999858e+00
-3.242639200000000166e+00
-3.281584300000000010e+00
-3.102491999999999805e+00
-3.042162699999999997e+00
-2.738070800000000027e+00
-2.399655999999999789e+00
-1.933064499999999963e+00
-1.669116700000000009e+00
-1.554741200000000045e+00
-1.416329200000000066e+00
-1.113078299999999965e+00
-9.307157400000000136e-01
-9.121194900000000327e-01
-8.651074899999999790e-01
-8.563984000000000041e-01
-7.735200399999999643e-01
-6.996180600000000416e-01
-6.959575799999999646e-01
-7.310196599999999600e-01
-7.033794799999999459e-01
-6.275946399999999814e-01
-5.732227500000000031e-01
-5.578939800000000115e-01
-5.627803000000000111e-01
-5.364785699999999879e-01
-4.889804700000000004e-01
-4.581411799999999812e-01
-4.445362400000000269e-01
-3.957345299999999733e-01
-4.302302199999999965e-01
-3.939730799999999755e-01
-4.181769900000000262e-01
-3.557529400000000175e-01
-3.572131000000000056e-01
-3.329201199999999861e-01
-3.110961199999999760e-01
-2.352144899999999983e-01
-2.573452099999999909e-01
-1.947994999999999866e-01
-1.936726900000000084e-01
-2.478965900000000000e-01
-2.082265299999999930e-01
-1.636708600000000013e-01
-1.567819400000000085e-01
-1.592550699999999986e-01
-1.470224400000000042e-01
-1.049641399999999974e-01
-9.296453600000000039e-02
-5.082323100000000343e-02
7.356228799999999651e-03
4.374151700000000059e-02
2.777599899999999913e-02
8.143943300000000551e-02
1.398210500000000023e-01
1.737421700000000013e-01
2.026089500000000099e-01
2.423405600000000104e-01
3.075937300000000096e-01
3.120358400000000088e-01
3.904508500000000160e-01
3.852655199999999724e-01
4.422012499999999902e-01
4.890542600000000184e-01
5.030613900000000527e-01
5.242026699999999817e-01
5.251185099999999828e-01
5.495082199999999917e-01
5.617196700000000043e-01
5.981433400000000233e-01
5.744668200000000446e-01
5.822944300000000295e-01
6.232739499999999655e-01
6.190504199999999901e-01
6.597017299999999862e-01
6.364686499999999691e-01
6.565677899999999845e-01
6.639035399999999587e-01
7.112914399999999970e-01
6.654139900000000107e-01
7.098649999999999682e-01
7.337249999999999606e-01
7.214817199999999930e-01
7.028178400000000270e-01
7.281279800000000080e-01
7.680122099999999730e-01
7.650643400000000094e-01
7.884417900000000312e-01
7.601710000000000411e-01
7.913150300000000303e-01
8.123480299999999987e-01
8.349619799999999925e-01
8.592360100000000500e-01
8.213581300000000196e-01
8.547069200000000366e-01
9.179922200000000254e-01
9.188722000000000278e-01
9.231886400000000048e-01
9.519813999999999776e-01
9.686055399999999871e-01
9.443314400000000219e-01
9.737654100000000534e-01
9.676616799999999685e-01
9.462846499999999494e-01
9.951745899999999700e-01
9.838484499999999855e-01
9.583867999999999832e-01
9.569240599999999652e-01
9.895802299999999496e-01
1.001634200000000030e+00
9.583449200000000445e-01
9.638152199999999725e-01
9.212290800000000335e-01
9.527748700000000515e-01
9.312420999999999616e-01
9.180435900000000204e-01
8.334113300000000057e-01
7.249525700000000183e-01
7.054494199999999937e-01
7.583244700000000282e-01
7.140306600000000392e-01
6.568851399999999785e-01
6.191221399999999875e-01
5.806328400000000389e-01
5.843311900000000003e-01
6.436379599999999535e-01
7.626435999999999771e-01
6.706996299999999911e-01
5.015750399999999720e-01
2.326152999999999971e-01
-6.821611099999999595e-02
-3.286774100000000032e-01
-7.787797499999999928e-01
-1.343102800000000041e+00
-1.630425800000000036e+00
-1.305564100000000005e+00
-5.939293100000000436e-01
-1.162095999999999962e-01
1.873904499999999862e-01
