-3.088059499999999957e-01
-1.024042399999999908e+00
-1.238854200000000017e+00
-1.795069299999999979e+00
-2.203397999999999968e+00
-2.551798100000000069e+00
-2.573164400000000018e+00
-2.423890600000000006e+00
-2.332080100000000211e+00
-1.897517600000000026e+00
-1.333731299999999953e+00
-8.669991999999999699e-01
-5.428904100000000454e-01
-4.590290499999999940e-01
-3.205577000000000010e-01
-1.825316199999999986e-02
2.389274600000000082e-01
3.893501799999999902e-01
4.375745799999999908e-01
4.020360199999999939e-01
3.642089800000000155e-01
4.126190699999999767e-01
4.860446700000000120e-01
4.617613700000000043e-01
4.538677899999999932e-01
5.363130200000000292e-01
5.508359499999999631e-01
4.815098099999999826e-01
4.375318499999999999e-01
4.239602299999999935e-01
4.460408699999999782e-01
4.952820800000000134e-01
4.963158999999999765e-01
4.444835100000000261e-01
4.235456100000000168e-01
4.238546999999999731e-01
3.927106399999999997e-01
3.847081199999999868e-01
4.327081400000000189e-01
4.487024000000000012e-01
4.058153800000000033e-01
3.626840599999999748e-01
3.333812999999999915e-01
3.110120100000000054e-01
3.042497900000000199e-01
2.825916099999999931e-01
2.635412599999999994e-01
2.940748999999999724e-01
2.938920999999999895e-01
1.905719100000000110e-01
1.242702700000000021e-01
1.785024900000000136e-01
2.175766699999999998e-01
2.027593799999999891e-01
1.584342800000000107e-01
8.320683800000000518e-02
8.052970800000000540e-02
1.088200899999999943e-01
8.804767600000000527e-02
1.235530999999999990e-01
1.540241300000000091e-01
8.950495899999999505e-02
6.545182099999999337e-02
1.048435800000000057e-01
9.222238700000000289e-02
6.886260600000000676e-02
1.240447900000000020e-01
1.699358800000000114e-01
1.663962900000000023e-01
2.402703099999999869e-01
3.049236200000000063e-01
2.815186299999999919e-01
3.414470399999999795e-01
4.238925800000000188e-01
4.241656899999999841e-01
4.791025400000000212e-01
5.503539200000000520e-01
5.676880600000000499e-01
5.840423900000000224e-01
6.011997300000000433e-01
5.960210999999999704e-01
5.848027500000000378e-01
6.779199000000000197e-01
7.818065199999999493e-01
7.182142500000000540e-01
6.878428899999999846e-01
7.466009799999999696e-01
7.261589600000000200e-01
7.499580300000000532e-01
8.449879799999999719e-01
8.298552000000000151e-01
8.140679699999999741e-01
8.501013600000000281e-01
7.512722099999999958e-01
7.123013299999999548e-01
7.977523899999999779e-01
7.585414700000000510e-01
7.575890800000000258e-01
7.723631600000000486e-01
7.202656100000000006e-01
7.961913900000000543e-01
8.110960900000000473e-01
7.842873399999999995e-01
8.198614100000000127e-01
7.697490700000000352e-01
7.960560199999999753e-01
8.416789399999999866e-01
7.997460499999999861e-01
8.472526400000000013e-01
8.324644799999999512e-01
7.313163099999999694e-01
7.423970899999999817e-01
6.763816200000000167e-01
4.691588700000000056e-01
4.519292200000000204e-01
5.461521999999999766e-01
4.757295000000000273e-01
3.509469299999999903e-01
2.336201499999999986e-01
1.666238499999999900e-01
2.080846899999999888e-01
1.187806500000000015e-01
-7.681436199999999714e-02
-1.017273900000000009e-01
-7.712950600000000045e-02
-2.847827099999999945e-01
-6.908723300000000345e-01
-1.106526700000000085e+00
-1.559172100000000061e+00
-2.055918500000000204e+00
-2.460376300000000072e+00
-2.786904100000000106e+00
-3.205180100000000198e+00
-3.520771900000000176e+00
-3.357645400000000002e+00
-2.803071500000000160e+00
-1.760564599999999924e+00
-8.085162599999999866e-01
-6.425332000000000265e-01
3.343620700000000112e-01
