-1.430650699999999942e+00
-1.946702799999999955e+00
-1.901186499999999890e+00
-2.584030900000000130e+00
-2.869318600000000163e+00
-3.073489200000000032e+00
-3.151032100000000113e+00
-2.804567599999999938e+00
-2.373925900000000144e+00
-1.895763599999999993e+00
-1.437968499999999983e+00
-1.153291300000000019e+00
-1.041704100000000022e+00
-8.952417499999999473e-01
-6.077460000000000084e-01
-3.171543299999999843e-01
-1.255017599999999900e-01
-1.182355900000000015e-01
-1.805551800000000096e-01
-7.676199100000000164e-02
9.553314599999999587e-03
-9.206126700000000218e-02
-1.069290199999999996e-01
-1.023342000000000002e-02
-1.486368599999999922e-02
-3.099099599999999982e-02
3.691298800000000031e-04
-3.534413499999999875e-02
-3.641672099999999912e-02
2.780702200000000068e-02
3.435534999999999978e-02
2.046517600000000159e-02
1.583625699999999942e-02
4.675073700000000054e-02
6.646445800000000403e-02
3.326872899999999689e-02
5.834035399999999705e-02
5.363700799999999991e-02
1.637307299999999841e-02
7.343945300000000176e-02
6.176072800000000085e-02
-4.099246499999999703e-03
2.313211600000000118e-02
6.355298800000000470e-02
7.190166700000000244e-02
5.591316300000000183e-02
2.884422000000000028e-02
1.689757600000000096e-02
1.203537000000000010e-02
3.306286199999999842e-02
5.161498099999999728e-02
3.320111800000000168e-02
7.846123899999999859e-03
-7.620465800000000151e-03
5.330809399999999858e-03
-2.042482699999999957e-02
-4.653841000000000228e-02
2.419110299999999852e-02
2.039814300000000139e-03
-8.976549999999999807e-02
-4.735455000000000220e-02
-1.158204999999999998e-02
-1.321676400000000064e-02
2.225386600000000062e-02
1.787868000000000096e-02
2.678251800000000168e-02
8.439674899999999313e-02
9.855789900000000436e-02
9.845721400000000123e-02
1.700373900000000105e-01
2.383898100000000075e-01
2.275433900000000120e-01
2.537800199999999951e-01
3.266013099999999780e-01
3.452089700000000039e-01
4.030247000000000135e-01
4.537167200000000178e-01
4.447540400000000171e-01
5.426807000000000158e-01
6.347558199999999706e-01
6.163990599999999986e-01
6.185957499999999998e-01
6.397038000000000446e-01
6.978689599999999826e-01
7.921254800000000484e-01
7.755623099999999770e-01
7.461767299999999548e-01
8.450187700000000302e-01
8.619454699999999914e-01
8.408462500000000173e-01
9.080360100000000045e-01
8.505419800000000308e-01
8.511842499999999756e-01
9.624514800000000259e-01
8.947878200000000115e-01
8.611263999999999585e-01
9.546179299999999479e-01
9.920503899999999486e-01
9.641395299999999668e-01
9.271114700000000486e-01
9.851495599999999797e-01
1.022914399999999890e+00
9.910506300000000435e-01
1.019599700000000109e+00
1.011613400000000107e+00
1.023624000000000089e+00
1.075061000000000044e+00
1.033528400000000014e+00
1.049953099999999973e+00
1.108874399999999927e+00
1.108405300000000038e+00
1.101927399999999890e+00
1.017699099999999968e+00
9.179748899999999878e-01
8.642394300000000307e-01
8.099282199999999765e-01
8.220292399999999944e-01
8.520588599999999735e-01
8.350320199999999859e-01
8.238623699999999550e-01
7.904029900000000275e-01
6.821067299999999944e-01
5.512008299999999750e-01
5.034137100000000142e-01
5.866617100000000029e-01
6.758176099999999575e-01
6.075734900000000493e-01
4.172927900000000245e-01
1.240216299999999938e-01
-3.580628699999999776e-01
-9.050574399999999908e-01
-1.367088499999999929e+00
-1.880606900000000081e+00
-2.456618499999999816e+00
-2.806382600000000060e+00
-2.774196799999999907e+00
-2.140994300000000017e+00
-1.159535600000000111e+00
-4.466452599999999884e-01
4.973470500000000127e-01
