3.014201499999999978e-01
-3.519202699999999795e-01
-6.374996699999999628e-01
-1.301061699999999988e+00
-1.922414000000000067e+00
-2.457565600000000128e+00
-2.698061599999999949e+00
-2.583153400000000044e+00
-2.439378500000000116e+00
-2.117671800000000104e+00
-1.512493199999999982e+00
-9.226640900000000478e-01
-5.652546899999999486e-01
-4.373842000000000008e-01
-3.832867699999999989e-01
-1.565936800000000129e-01
1.977968200000000121e-01
3.902347299999999741e-01
4.483502400000000110e-01
4.590012500000000273e-01
3.778101200000000270e-01
3.657294799999999957e-01
4.815163499999999819e-01
4.953344900000000162e-01
3.961296200000000156e-01
4.055548199999999825e-01
5.008323399999999870e-01
4.979690999999999979e-01
4.205734099999999809e-01
3.794018299999999955e-01
3.932945199999999808e-01
4.229221400000000020e-01
4.419537299999999891e-01
4.314271700000000265e-01
3.913421000000000260e-01
4.217285900000000143e-01
4.773010400000000097e-01
4.004565400000000275e-01
3.745648400000000100e-01
4.600822099999999915e-01
4.366043000000000007e-01
3.594152800000000036e-01
3.091107399999999950e-01
2.799948800000000015e-01
3.511998499999999801e-01
3.867274199999999884e-01
3.021486999999999923e-01
2.944189600000000073e-01
3.549277499999999863e-01
2.912428699999999870e-01
1.893645499999999926e-01
1.798370699999999878e-01
1.856408099999999894e-01
1.808517199999999936e-01
1.546607999999999872e-01
1.051334200000000052e-01
1.236781299999999972e-01
1.371582600000000041e-01
4.989754700000000043e-02
1.108221900000000079e-02
8.535957299999999415e-02
1.328239599999999909e-01
1.197755800000000065e-01
9.359210599999999436e-02
4.900547899999999762e-02
5.716536400000000323e-02
1.230556500000000025e-01
1.185417099999999946e-01
8.013307699999999700e-02
1.260176899999999878e-01
1.610602999999999896e-01
1.281538399999999911e-01
1.355682500000000013e-01
1.729146900000000098e-01
2.185504500000000072e-01
3.024974000000000274e-01
3.320653399999999866e-01
3.568567999999999740e-01
4.364798500000000026e-01
4.959237599999999913e-01
5.686993399999999976e-01
6.030178200000000377e-01
5.978710000000000413e-01
6.758552300000000290e-01
7.006997499999999546e-01
6.601419899999999563e-01
6.958700500000000178e-01
7.129887700000000494e-01
7.056635199999999886e-01
7.516117300000000334e-01
7.818570299999999529e-01
7.975297500000000372e-01
8.559673899999999946e-01
9.058129400000000109e-01
8.786313700000000226e-01
8.176351099999999983e-01
8.091683200000000520e-01
8.462775200000000053e-01
8.784254700000000415e-01
8.971243899999999938e-01
9.048375199999999507e-01
8.816680199999999967e-01
8.484505100000000466e-01
8.498955599999999944e-01
8.694733500000000337e-01
8.628595399999999804e-01
8.590985700000000058e-01
8.756995800000000330e-01
8.467108199999999751e-01
7.473698100000000233e-01
6.186351599999999618e-01
4.822563100000000214e-01
4.179774700000000176e-01
4.579195099999999741e-01
4.948848000000000136e-01
4.461464399999999775e-01
3.359118999999999855e-01
2.324140799999999951e-01
1.458249899999999877e-01
-1.472113700000000046e-02
-2.086210599999999971e-01
-2.466568600000000056e-01
-2.175535600000000069e-01
-4.052608300000000163e-01
-7.274110499999999480e-01
-1.002194500000000099e+00
-1.398762899999999920e+00
-1.976585700000000001e+00
-2.447772300000000012e+00
-2.767806000000000211e+00
-3.125918899999999834e+00
-3.405424500000000076e+00
-3.504875699999999927e+00
-3.094770899999999880e+00
-2.017250799999999789e+00
-1.052071900000000060e+00
-1.402337800000000023e-01
6.560881899999999600e-01
5.609952000000000272e-01
9.629659600000000097e-01
