7.816650099999999934e-01
-2.744688399999999917e-01
-1.149296799999999896e+00
-2.010150700000000068e+00
-2.737867500000000121e+00
-2.903668699999999880e+00
-2.611726099999999828e+00
-2.310677800000000115e+00
-1.951969199999999960e+00
-1.495318799999999948e+00
-1.059796799999999983e+00
-8.503602300000000502e-01
-7.681282299999999674e-01
-5.023960899999999619e-01
-9.009415899999999311e-02
2.952406499999999934e-01
3.797251400000000165e-01
2.012307399999999913e-01
2.133848799999999990e-01
3.563238799999999817e-01
3.183415700000000181e-01
2.558460499999999915e-01
3.053230900000000192e-01
3.917835100000000015e-01
3.389534300000000000e-01
2.749596799999999841e-01
3.236026000000000180e-01
3.014194299999999882e-01
2.288654800000000100e-01
2.129543700000000039e-01
3.403796599999999728e-01
3.159443699999999744e-01
1.731839199999999912e-01
1.950031799999999982e-01
2.127754699999999943e-01
2.217176999999999898e-01
1.710317100000000035e-01
1.586937200000000103e-01
1.642193100000000072e-01
1.273122100000000090e-01
1.288001599999999969e-01
8.961378899999999925e-02
1.093331399999999953e-01
6.013168499999999722e-02
-1.763560200000000022e-02
1.509708899999999930e-02
-2.367589900000000112e-03
-3.812376499999999696e-02
-6.769559899999999519e-02
-1.279226599999999936e-01
-1.347649999999999959e-01
-8.876969499999999569e-02
-1.753132900000000105e-01
-2.253380899999999909e-01
-1.274989199999999878e-01
-1.759461599999999903e-01
-2.693788400000000083e-01
-3.537738200000000166e-01
-2.762738100000000085e-01
-1.376038900000000065e-01
-2.292224999999999957e-01
-2.228985199999999889e-01
-1.542146899999999876e-01
-1.155228600000000050e-01
-5.442454199999999936e-02
-3.383787299999999748e-02
1.105610100000000047e-02
8.331840699999999711e-02
1.247486599999999973e-01
1.499334300000000064e-01
2.267801600000000084e-01
3.450413199999999847e-01
3.798756899999999881e-01
3.620578500000000144e-01
4.512950800000000151e-01
5.451670100000000074e-01
5.383579400000000348e-01
5.389847399999999622e-01
5.918442600000000109e-01
6.152805599999999764e-01
6.342439199999999611e-01
6.420915999999999846e-01
6.034567600000000365e-01
6.757455900000000071e-01
7.207871999999999613e-01
6.637090900000000016e-01
6.816842300000000021e-01
6.980933999999999751e-01
6.952059600000000117e-01
7.042049799999999804e-01
6.833467899999999817e-01
6.852187299999999981e-01
7.313739999999999686e-01
7.853439100000000339e-01
8.412599499999999786e-01
8.383520700000000048e-01
7.907784799999999503e-01
7.941418900000000169e-01
8.346036900000000092e-01
7.892495000000000482e-01
7.606048600000000492e-01
8.531346800000000341e-01
8.866557900000000547e-01
8.948116799999999982e-01
8.613046600000000552e-01
8.283049300000000503e-01
9.214818399999999965e-01
9.910417799999999833e-01
9.826455899999999577e-01
9.350730299999999717e-01
9.478624500000000230e-01
9.815309599999999524e-01
1.000017399999999945e+00
1.036216500000000096e+00
1.054574600000000029e+00
1.030594100000000068e+00
8.446608899999999975e-01
6.703666900000000428e-01
6.624970999999999499e-01
6.524874800000000086e-01
6.763642300000000107e-01
7.128597399999999640e-01
5.292657800000000190e-01
2.618413900000000072e-01
1.206801499999999999e-01
1.440409100000000081e-02
-3.695464999999999861e-02
6.025749899999999909e-02
1.139509099999999955e-02
-3.977607300000000068e-01
-8.441702599999999501e-01
-1.424130600000000024e+00
-2.034777699999999800e+00
-2.491237899999999783e+00
-3.051483900000000027e+00
-3.532286899999999896e+00
-3.659350499999999951e+00
-2.940633899999999912e+00
-2.368055500000000091e+00
-7.771345800000000192e-01
