-6.471861100000000366e-01
-1.555923600000000073e+00
-1.823354200000000036e+00
-2.334270699999999810e+00
-2.415128499999999789e+00
-2.166163500000000131e+00
-1.984993699999999972e+00
-1.695827600000000102e+00
-1.310239799999999954e+00
-9.462788300000000152e-01
-6.022016799999999614e-01
-3.477173299999999911e-01
-2.827260500000000065e-01
-2.319681899999999908e-01
4.350481900000000013e-02
4.048542299999999816e-01
5.949315600000000259e-01
6.005263499999999866e-01
5.941026400000000152e-01
6.099023000000000083e-01
6.001648299999999825e-01
6.293755300000000164e-01
6.599518599999999457e-01
6.221293700000000149e-01
6.037391899999999811e-01
6.062797199999999664e-01
5.749531199999999842e-01
5.792727600000000532e-01
5.949003299999999772e-01
5.440363900000000363e-01
5.028856400000000226e-01
5.263421099999999742e-01
5.412239300000000197e-01
5.380349399999999616e-01
5.214178900000000505e-01
4.568625800000000181e-01
4.392093699999999878e-01
4.682281099999999752e-01
4.448003799999999952e-01
4.364244600000000140e-01
4.265492900000000254e-01
3.689689800000000020e-01
3.932867600000000130e-01
4.555289499999999880e-01
4.292701300000000275e-01
3.768935700000000111e-01
3.373894900000000141e-01
3.041590299999999969e-01
3.102479899999999735e-01
3.526388899999999826e-01
3.618083400000000061e-01
2.940330899999999970e-01
2.422494500000000051e-01
2.612923799999999908e-01
2.432579800000000125e-01
2.058656799999999953e-01
2.107207200000000002e-01
1.808327899999999933e-01
1.513899099999999887e-01
1.546798199999999956e-01
1.389743599999999912e-01
1.543470100000000067e-01
1.713280299999999923e-01
1.400834300000000088e-01
1.537903800000000043e-01
1.797728299999999946e-01
1.510083299999999962e-01
1.471866099999999955e-01
1.870749300000000004e-01
2.169268400000000097e-01
2.416230400000000111e-01
2.827114499999999753e-01
3.037703099999999878e-01
2.907200200000000234e-01
2.915050499999999878e-01
3.285104899999999883e-01
3.593949900000000253e-01
3.662140999999999869e-01
4.266968400000000217e-01
5.195903899999999576e-01
5.014801399999999632e-01
4.868339899999999942e-01
5.869553499999999868e-01
5.936169100000000531e-01
5.283278200000000036e-01
5.661471799999999721e-01
6.183800699999999484e-01
6.329023999999999761e-01
6.437823900000000377e-01
6.414737600000000040e-01
6.678569600000000550e-01
7.126392400000000071e-01
7.299263999999999752e-01
7.221632500000000343e-01
6.911924000000000401e-01
6.794259999999999744e-01
6.943997600000000325e-01
6.872478899999999724e-01
6.728821999999999859e-01
6.809465999999999575e-01
7.069378499999999788e-01
7.276288899999999726e-01
6.862042600000000103e-01
6.036563900000000427e-01
5.701373600000000375e-01
6.014596800000000520e-01
6.618959599999999499e-01
6.790354600000000351e-01
6.385279799999999950e-01
6.272394300000000422e-01
6.170403300000000257e-01
4.984665300000000188e-01
3.440966500000000039e-01
2.784034000000000231e-01
2.775864599999999793e-01
2.919269099999999839e-01
2.949951499999999838e-01
2.292306500000000080e-01
1.069237799999999960e-01
3.569316299999999997e-02
-2.043814399999999837e-02
-1.547651800000000022e-01
-2.194806900000000061e-01
-7.919200499999999587e-02
7.429520900000000094e-02
8.030817399999999606e-02
-2.914318499999999854e-02
-3.481107999999999980e-01
-9.188418299999999705e-01
-1.542170299999999994e+00
-2.035194300000000123e+00
-2.477970800000000029e+00
-3.135655799999999882e+00
-3.734564199999999889e+00
-3.939196400000000153e+00
-3.822910999999999948e+00
-2.944379599999999986e+00
-1.896138899999999960e+00
-1.476987599999999956e+00
-1.014970199999999934e-01
