-2.237223000000000184e+00
-2.808135200000000165e+00
-3.301231800000000050e+00
-3.467464699999999844e+00
-3.294918399999999803e+00
-2.853754400000000135e+00
-2.197987100000000193e+00
-1.631779400000000102e+00
-1.236468700000000087e+00
-1.125325799999999932e+00
-8.956682599999999939e-01
-4.174066200000000060e-01
-7.953891899999999959e-02
1.623426500000000119e-02
2.419725699999999979e-02
-3.825036899999999847e-03
4.006036100000000266e-02
3.704688899999999951e-02
8.477221999999999535e-02
2.468315899999999966e-02
7.167755500000000390e-02
8.982244000000000339e-02
6.366470999999999936e-02
4.568305799999999861e-02
9.751308699999999136e-03
-4.429911899999999791e-02
8.981909200000000662e-03
2.458036499999999985e-02
1.794721200000000058e-02
2.163795899999999828e-02
8.482665800000000617e-03
-6.568849899999999742e-02
-9.815920899999999727e-02
-5.597294399999999670e-02
-1.051359399999999972e-01
-9.299782099999999441e-02
-2.061708700000000061e-01
-2.024943600000000121e-01
-1.322550000000000114e-01
-2.146822999999999926e-01
-2.516258399999999895e-01
-2.561689400000000116e-01
-2.276712300000000022e-01
-2.094084400000000012e-01
-2.821267000000000080e-01
-2.178094499999999878e-01
-2.785874300000000248e-01
-3.242394699999999741e-01
-2.260663400000000045e-01
-1.456523700000000032e-01
-1.863436699999999890e-01
-1.389014100000000029e-01
-9.958778399999999864e-02
-6.986419400000000446e-02
3.554500800000000293e-02
3.224567700000000037e-02
9.638578100000000370e-02
1.997789000000000093e-01
2.203835199999999994e-01
3.242838000000000109e-01
3.379819800000000152e-01
2.680522399999999972e-01
3.519743599999999861e-01
3.934094000000000202e-01
4.693301200000000173e-01
4.668762499999999926e-01
4.795669699999999813e-01
4.024239900000000092e-01
4.236758500000000205e-01
4.437451600000000274e-01
4.506593500000000141e-01
4.601212199999999974e-01
4.361972000000000071e-01
4.980186400000000124e-01
4.776615599999999850e-01
4.257442300000000013e-01
4.278276100000000248e-01
5.030150399999999689e-01
5.207253400000000365e-01
5.511984800000000462e-01
5.509820100000000220e-01
5.345149300000000547e-01
5.858278799999999675e-01
5.728956200000000498e-01
5.147077399999999692e-01
6.653208600000000139e-01
6.539580900000000474e-01
6.763027999999999818e-01
7.266312299999999613e-01
7.463747899999999547e-01
7.567243599999999848e-01
7.673360599999999865e-01
7.728878900000000218e-01
7.611478699999999487e-01
7.872305099999999944e-01
8.494315500000000352e-01
8.721252299999999735e-01
8.170474199999999687e-01
8.842574300000000109e-01
8.746776200000000445e-01
8.998344299999999629e-01
8.904647399999999768e-01
8.647595399999999932e-01
8.202682300000000426e-01
8.585747500000000532e-01
9.359592199999999806e-01
8.321139199999999514e-01
8.653532699999999522e-01
8.470326700000000431e-01
8.768591599999999708e-01
7.588066900000000059e-01
7.932750400000000424e-01
7.595530700000000524e-01
6.881754500000000219e-01
6.697156699999999852e-01
6.810689599999999455e-01
6.838073399999999857e-01
5.759547200000000311e-01
5.970858599999999683e-01
5.181382599999999616e-01
3.144966200000000045e-01
2.783097199999999827e-01
3.987612500000000115e-01
4.563365200000000232e-01
4.014901200000000059e-01
4.390875200000000089e-01
3.517771800000000226e-01
4.123649300000000184e-01
6.369445900000000327e-01
8.669077200000000483e-01
6.482378399999999541e-01
3.145507300000000006e-01
-1.631294500000000092e-01
-7.193339699999999892e-01
-1.187923300000000015e+00
-1.929631700000000061e+00
-2.988591800000000021e+00
-3.561346499999999970e+00
-3.226100300000000143e+00
-2.133804700000000221e+00
