-4.056504799999999800e-01
-1.167105499999999907e+00
-1.375288899999999925e+00
-1.821625400000000061e+00
-1.955010499999999984e+00
-1.957607899999999956e+00
-2.019779000000000213e+00
-1.860013099999999975e+00
-1.693396799999999924e+00
-1.584247900000000042e+00
-1.167497199999999902e+00
-5.665023900000000223e-01
-2.628645299999999851e-01
-2.068809400000000132e-01
-1.068434600000000012e-01
5.039076399999999761e-02
2.420801300000000045e-01
3.853467799999999999e-01
4.175584099999999910e-01
4.381163299999999983e-01
4.579073499999999908e-01
4.449304399999999826e-01
4.331339000000000161e-01
4.460417600000000093e-01
4.795602700000000107e-01
4.909837599999999913e-01
4.694108799999999748e-01
4.607732800000000073e-01
4.628266899999999850e-01
4.613677600000000156e-01
4.755908699999999989e-01
4.710963699999999865e-01
4.449228900000000153e-01
4.341661099999999940e-01
4.364219899999999819e-01
4.567762000000000211e-01
4.625023899999999855e-01
4.469968500000000011e-01
4.530770299999999917e-01
4.005286200000000019e-01
3.059912799999999766e-01
3.509271199999999813e-01
4.522212199999999793e-01
4.459759200000000257e-01
4.186590000000000034e-01
4.215513900000000258e-01
3.899869499999999989e-01
3.102291600000000038e-01
2.807998299999999725e-01
3.648126899999999950e-01
4.009403500000000009e-01
3.595319000000000154e-01
3.872174400000000238e-01
3.705549799999999783e-01
3.143365799999999766e-01
3.863370300000000257e-01
4.218704500000000079e-01
3.868429800000000029e-01
4.146540799999999805e-01
3.934503899999999832e-01
3.552998399999999779e-01
4.035497000000000112e-01
4.174692999999999876e-01
3.856936499999999990e-01
3.943175700000000061e-01
4.048171199999999748e-01
3.908086700000000246e-01
3.996895799999999888e-01
4.526674600000000215e-01
5.197474300000000103e-01
5.577659900000000448e-01
5.411107899999999526e-01
5.076950199999999969e-01
4.977943699999999860e-01
4.855657299999999732e-01
4.961693200000000248e-01
5.228510499999999839e-01
4.957112100000000132e-01
4.801478900000000216e-01
5.201954500000000037e-01
5.460606900000000152e-01
5.656353600000000315e-01
6.031307999999999669e-01
6.338713400000000053e-01
6.640390600000000143e-01
6.541870600000000424e-01
5.582445200000000218e-01
4.894618299999999866e-01
5.176970199999999522e-01
5.123091800000000307e-01
5.011343799999999904e-01
5.910463099999999637e-01
6.250874400000000497e-01
5.744847499999999885e-01
5.569061800000000284e-01
5.165520999999999585e-01
4.933424499999999879e-01
5.204343900000000245e-01
4.944281500000000107e-01
4.734761699999999740e-01
4.944757100000000127e-01
4.710115300000000116e-01
4.351964700000000019e-01
4.430855499999999947e-01
4.938097100000000128e-01
5.389777799999999619e-01
5.051893800000000212e-01
4.554214500000000054e-01
4.730566500000000230e-01
4.842503899999999750e-01
4.336248899999999851e-01
3.848144600000000248e-01
3.465625399999999745e-01
2.864655799999999974e-01
2.854517500000000041e-01
3.964254500000000125e-01
5.145381500000000274e-01
5.414624999999999577e-01
4.954695199999999966e-01
4.026954400000000156e-01
2.510174000000000016e-01
7.052179999999999560e-02
-3.878572799999999848e-02
1.176352800000000004e-04
9.232812399999999753e-02
5.604526499999999689e-02
-1.002766499999999950e-01
-3.263766399999999956e-01
-7.210570499999999772e-01
-1.263334299999999910e+00
-1.769083799999999984e+00
-2.253859499999999905e+00
-2.904650300000000129e+00
-3.530536899999999978e+00
-3.997189300000000056e+00
-4.163666000000000089e+00
-3.372024899999999992e+00
-2.498381600000000091e+00
-2.239860999999999880e+00
-5.426123000000000474e-01
