-1.100207900000000016e+00
-2.197882499999999961e+00
-2.577265999999999835e+00
-3.228977500000000056e+00
-3.060712999999999795e+00
-2.810574599999999812e+00
-2.434581800000000129e+00
-1.768121499999999902e+00
-1.192116200000000070e+00
-8.567782400000000242e-01
-7.218852100000000549e-01
-6.310865599999999631e-01
-3.367717700000000258e-01
1.126198100000000007e-01
3.928707499999999908e-01
4.147052099999999908e-01
3.542591700000000121e-01
3.351822400000000202e-01
3.527340600000000159e-01
4.113621599999999767e-01
3.409330300000000258e-01
3.221684899999999740e-01
4.439229000000000092e-01
3.674935999999999758e-01
3.461615399999999898e-01
4.243565899999999780e-01
3.610624399999999845e-01
3.321267999999999998e-01
3.691163299999999925e-01
4.040404899999999744e-01
3.783536699999999753e-01
3.243639799999999962e-01
3.606137099999999762e-01
4.216485600000000056e-01
3.915188299999999844e-01
3.072146199999999938e-01
2.889443300000000270e-01
2.543333799999999978e-01
1.971650199999999964e-01
2.050817600000000018e-01
1.534470699999999910e-01
1.306579300000000055e-01
1.182577499999999948e-01
8.275604999999999767e-02
1.460546199999999961e-01
1.055703300000000039e-01
3.375419500000000073e-02
3.720080099999999862e-02
-1.375045199999999981e-02
-1.303272100000000058e-02
-4.536354099999999855e-03
-7.782046700000000428e-02
-5.020341500000000123e-02
-7.183501000000000469e-02
-1.673737799999999998e-01
-1.071945900000000063e-01
-1.448527500000000023e-01
-1.872813299999999959e-01
-1.009987999999999997e-01
-1.248619200000000012e-01
-1.137170500000000001e-01
-3.521573199999999959e-02
-4.071570599999999734e-02
-6.105524699999999565e-04
9.146615700000000626e-02
8.536630100000000554e-02
9.974531000000000369e-02
2.120258799999999999e-01
2.892702799999999907e-01
2.861251699999999842e-01
3.323967700000000081e-01
4.352037599999999951e-01
4.586451899999999804e-01
5.037489099999999942e-01
5.416069399999999812e-01
5.395397199999999449e-01
5.798723000000000072e-01
5.916590000000000460e-01
6.593840499999999993e-01
6.983698000000000405e-01
6.752909000000000272e-01
7.177790699999999635e-01
6.915107799999999916e-01
6.668276800000000337e-01
7.361472500000000307e-01
7.642044399999999849e-01
7.168179099999999471e-01
6.567577199999999893e-01
6.793633500000000325e-01
7.702591399999999533e-01
7.362082100000000295e-01
6.742649400000000348e-01
7.359814599999999762e-01
7.496447699999999603e-01
7.468146700000000138e-01
7.813706799999999841e-01
8.200264200000000336e-01
8.333485800000000054e-01
7.746217399999999476e-01
7.732670699999999453e-01
7.988434399999999602e-01
8.183847800000000339e-01
8.067859699999999634e-01
7.792905799999999550e-01
8.784996000000000471e-01
8.738784200000000446e-01
7.935908900000000488e-01
8.457535499999999651e-01
8.991856799999999872e-01
9.103995900000000363e-01
8.708550099999999849e-01
8.595546099999999967e-01
8.480008999999999464e-01
8.096176999999999957e-01
7.525719699999999790e-01
5.662575800000000381e-01
5.357215300000000013e-01
6.185561800000000110e-01
4.962062899999999943e-01
3.647726399999999813e-01
3.065212999999999965e-01
1.385359899999999977e-01
-1.478131900000000110e-01
-2.517836600000000202e-01
-1.256293900000000074e-01
-1.585234799999999944e-01
-3.994903300000000046e-01
-6.834101700000000390e-01
-1.135046299999999952e+00
-1.695706600000000064e+00
-2.142800400000000050e+00
-2.542847599999999986e+00
-2.898613300000000059e+00
-3.238859000000000155e+00
-3.246045699999999812e+00
-2.691349100000000050e+00
-1.720482800000000090e+00
-5.140452699999999986e-01
1.146763600000000050e-01
9.499648000000000536e-01
