-1.289409199999999922e+00
-2.345520699999999792e+00
-2.439214300000000168e+00
-2.950060699999999869e+00
-3.004975500000000022e+00
-2.862161299999999908e+00
-2.689736700000000091e+00
-2.381773299999999871e+00
-1.997171900000000111e+00
-1.385264700000000015e+00
-7.653921900000000278e-01
-4.701801299999999739e-01
-3.851694900000000032e-01
-2.231527199999999989e-01
5.261979299999999804e-02
3.192033300000000073e-01
4.299958300000000233e-01
4.789516999999999802e-01
5.728760699999999595e-01
5.198755400000000249e-01
3.772075999999999762e-01
4.341413199999999972e-01
5.325528699999999560e-01
4.994431200000000182e-01
4.829979999999999829e-01
4.022755399999999870e-01
3.584624399999999933e-01
4.945879599999999932e-01
4.672704699999999933e-01
3.684284899999999974e-01
4.107773299999999961e-01
4.610894600000000065e-01
4.868029600000000068e-01
4.051258799999999938e-01
3.603774900000000225e-01
4.428958199999999956e-01
4.225819800000000237e-01
3.634391699999999781e-01
3.429923000000000277e-01
2.796115800000000262e-01
2.933854000000000184e-01
3.637857199999999791e-01
3.203907699999999914e-01
3.236836399999999947e-01
3.979539699999999902e-01
3.263571599999999795e-01
2.523279800000000073e-01
2.324156199999999894e-01
1.950083800000000089e-01
1.997970400000000091e-01
1.663882200000000033e-01
1.626512200000000130e-01
1.973379100000000053e-01
1.750609800000000049e-01
1.927690999999999988e-01
1.709593799999999941e-01
9.132791099999999773e-02
1.037592700000000007e-01
1.355917399999999884e-01
9.698099400000000092e-02
5.091773200000000027e-02
8.974960799999999461e-02
1.849764100000000078e-01
1.783942099999999975e-01
8.810715800000000486e-02
9.603831699999999805e-02
1.876396200000000070e-01
2.325135700000000027e-01
2.663526800000000083e-01
3.249093499999999857e-01
3.304084800000000044e-01
2.798498700000000006e-01
2.457174799999999881e-01
3.001898299999999908e-01
4.368289200000000094e-01
5.297553699999999477e-01
5.194021899999999858e-01
5.256357099999999782e-01
5.936638300000000035e-01
6.036186199999999946e-01
5.604656599999999766e-01
5.740433099999999733e-01
6.114770499999999664e-01
6.233706799999999548e-01
6.273965000000000236e-01
6.061717800000000489e-01
6.156804000000000165e-01
6.763710899999999526e-01
6.758105500000000099e-01
6.272906900000000396e-01
6.424642999999999882e-01
6.686177199999999710e-01
6.040238300000000393e-01
5.352088200000000295e-01
5.631772400000000234e-01
6.175130300000000183e-01
6.222525399999999651e-01
6.059221500000000482e-01
5.764636800000000338e-01
5.517180400000000207e-01
6.205559299999999778e-01
6.916179399999999866e-01
6.321853699999999687e-01
5.867028699999999874e-01
6.085233199999999787e-01
6.228755599999999948e-01
6.591584900000000413e-01
6.765585200000000521e-01
6.634409199999999895e-01
6.424468199999999740e-01
6.062545700000000481e-01
5.899649700000000330e-01
5.529298599999999952e-01
4.696396800000000038e-01
4.016003799999999790e-01
3.864096000000000197e-01
4.421823400000000071e-01
5.060792200000000518e-01
5.095280199999999704e-01
4.465856100000000217e-01
3.750560800000000139e-01
3.955241199999999790e-01
3.623992100000000272e-01
2.830505300000000224e-01
4.114421500000000065e-01
5.282394200000000151e-01
3.904008999999999951e-01
1.386601500000000098e-01
-2.049237600000000104e-01
-6.511667300000000269e-01
-1.169596400000000092e+00
-1.661451599999999917e+00
-2.214847499999999858e+00
-2.904967099999999913e+00
-3.297825899999999866e+00
-3.459019800000000089e+00
-3.016741699999999859e+00
-2.037747200000000092e+00
-1.626536699999999946e+00
-1.806297900000000123e-01
