2.166840899999999959e+00
1.712700899999999971e+00
8.486177900000000385e-01
5.260225799999999896e-02
-4.122510899999999867e-01
-9.326399699999999848e-01
-1.407764100000000074e+00
-1.471456700000000062e+00
-1.133879400000000093e+00
-7.629103200000000307e-01
-3.452617700000000234e-01
-1.134582199999999985e-01
-1.718278400000000095e-01
-2.913662900000000069e-02
4.188101200000000079e-01
6.516971799999999870e-01
6.358991099999999896e-01
6.154797600000000424e-01
6.660334999999999450e-01
6.060166900000000245e-01
6.000857499999999733e-01
5.171614900000000015e-01
5.909944400000000098e-01
5.597733999999999766e-01
4.824170199999999742e-01
5.695207799999999487e-01
5.199329799999999890e-01
5.309756700000000107e-01
5.571235900000000019e-01
4.673229500000000147e-01
4.336767699999999892e-01
4.737211199999999955e-01
4.960200699999999796e-01
3.471786700000000225e-01
4.009925899999999821e-01
3.861268800000000057e-01
3.038280300000000267e-01
2.766148600000000179e-01
2.786080799999999802e-01
2.541775399999999796e-01
2.763523500000000244e-01
1.258669900000000119e-01
1.988368000000000080e-01
5.726657999999999749e-02
7.109292899999999915e-02
2.200910699999999998e-02
-1.703807000000000108e-03
5.564022300000000254e-02
-1.747961000000000098e-01
-1.199636200000000069e-01
-1.390696100000000102e-01
-1.458290600000000103e-01
-8.796413200000000043e-02
-2.093029899999999943e-01
-2.006220800000000082e-01
-1.887097899999999884e-01
-1.304355799999999954e-01
-2.087590400000000068e-01
-1.299802700000000089e-01
-8.287468900000000138e-02
-9.791619299999999859e-02
-6.099679400000000001e-02
-5.714244699999999899e-02
2.202171899999999863e-02
1.101105099999999948e-01
9.184939699999999929e-02
1.689132899999999937e-01
2.040213800000000022e-01
2.370740199999999964e-01
2.419557800000000092e-01
2.997318199999999822e-01
3.282914699999999741e-01
3.407826199999999806e-01
3.244465100000000213e-01
3.238950099999999832e-01
3.633588600000000057e-01
3.510947899999999899e-01
4.027515799999999979e-01
3.957519500000000190e-01
4.491777399999999920e-01
3.943058700000000028e-01
3.721986500000000198e-01
3.870576199999999911e-01
3.542252399999999968e-01
4.169968099999999955e-01
3.479094899999999879e-01
3.423990299999999931e-01
4.028840000000000199e-01
3.637393500000000168e-01
3.262975499999999918e-01
4.042314699999999816e-01
3.285069700000000092e-01
3.424760600000000266e-01
3.572326900000000194e-01
3.977144400000000024e-01
4.728030400000000077e-01
5.065981299999999798e-01
5.199548499999999684e-01
5.530204600000000470e-01
5.245131600000000338e-01
5.941588599999999554e-01
6.079942600000000086e-01
5.926657199999999515e-01
5.903377699999999839e-01
5.849305299999999486e-01
5.488349700000000331e-01
6.434393000000000473e-01
6.604875799999999630e-01
5.809531700000000187e-01
5.898087400000000535e-01
6.454907399999999518e-01
6.088291099999999512e-01
6.213511000000000450e-01
5.616536500000000043e-01
5.867818200000000095e-01
6.076586600000000171e-01
5.689365100000000064e-01
5.078639900000000429e-01
4.387790699999999933e-01
3.951136599999999777e-01
3.485098400000000152e-01
1.989631900000000120e-01
1.143495199999999962e-01
6.504784399999999356e-02
-1.994436500000000001e-01
-4.372474399999999872e-01
-6.347385300000000230e-01
-9.744664800000000238e-01
-1.207530299999999945e+00
-1.168246200000000012e+00
-1.415370400000000028e+00
-1.724825800000000076e+00
-2.158204599999999918e+00
-2.838362699999999794e+00
-3.273923200000000033e+00
-3.811972799999999939e+00
-4.561289200000000044e+00
-4.530615899999999918e+00
-3.384086799999999950e+00
-2.124272799999999961e+00
