5.569023000000000029e-02
-8.659650100000000350e-01
-1.524919799999999936e+00
-2.268892000000000131e+00
-2.612853400000000104e+00
-2.762258999999999798e+00
-2.717877300000000051e+00
-2.433306099999999805e+00
-2.102996200000000204e+00
-1.672692099999999904e+00
-1.154006700000000052e+00
-7.166966999999999643e-01
-4.997999699999999823e-01
-4.682186700000000035e-01
-3.701375499999999819e-01
-4.137293100000000168e-02
3.070403099999999830e-01
4.770436399999999910e-01
5.272473699999999930e-01
4.659336600000000272e-01
3.796834399999999832e-01
4.473081700000000049e-01
5.695175799999999677e-01
5.578267500000000378e-01
4.947137300000000182e-01
4.538094400000000084e-01
4.507879200000000086e-01
5.109089199999999886e-01
4.986578099999999791e-01
4.582804300000000164e-01
5.126069899999999846e-01
5.449349599999999683e-01
5.162149099999999713e-01
4.304551099999999741e-01
3.965489300000000217e-01
4.966459699999999922e-01
5.130641900000000311e-01
4.704218099999999958e-01
4.777970899999999799e-01
4.322680600000000095e-01
4.152404900000000176e-01
4.454765299999999817e-01
3.622694699999999823e-01
3.075015400000000176e-01
4.079059600000000119e-01
4.246802499999999814e-01
3.467593400000000270e-01
3.546788599999999847e-01
3.553845999999999949e-01
3.195213399999999870e-01
3.208750699999999845e-01
3.176638999999999990e-01
2.909756099999999956e-01
2.538100699999999987e-01
2.311940700000000015e-01
1.943459600000000120e-01
1.694920099999999985e-01
2.205246999999999902e-01
2.300980800000000104e-01
1.949957400000000007e-01
1.986863899999999905e-01
1.718314800000000087e-01
1.563043199999999966e-01
1.531467800000000101e-01
1.343103200000000108e-01
1.922315300000000116e-01
2.202456799999999992e-01
1.599953299999999912e-01
1.357691799999999893e-01
1.749807200000000063e-01
2.390408499999999992e-01
2.587000500000000147e-01
2.791016700000000239e-01
3.478647000000000267e-01
3.581493800000000172e-01
3.762007199999999885e-01
4.446048100000000169e-01
4.739306099999999744e-01
5.134152100000000107e-01
5.586293700000000140e-01
5.840467499999999479e-01
5.993866700000000103e-01
6.002059400000000489e-01
6.681188399999999916e-01
7.266369999999999774e-01
7.195985000000000298e-01
7.040383000000000058e-01
6.204461399999999793e-01
6.189256400000000546e-01
7.002259899999999648e-01
6.852007100000000461e-01
6.880743799999999855e-01
6.495208500000000384e-01
5.775354900000000402e-01
6.433646400000000432e-01
6.744450600000000406e-01
6.597396500000000108e-01
7.089103500000000224e-01
7.218487900000000179e-01
7.058929999999999927e-01
6.832076700000000447e-01
6.263040800000000408e-01
6.353040599999999483e-01
6.995653499999999747e-01
6.680155100000000346e-01
6.445258999999999849e-01
6.999866700000000330e-01
7.064247900000000246e-01
6.887877300000000425e-01
6.755845600000000006e-01
7.054380500000000387e-01
7.488451999999999886e-01
6.574224699999999810e-01
5.670474300000000190e-01
4.758146200000000214e-01
3.287585800000000225e-01
3.401511500000000132e-01
4.119246200000000191e-01
4.167505100000000184e-01
3.650052899999999823e-01
2.358683199999999924e-01
1.703976199999999996e-01
6.466036000000000006e-02
-1.672021599999999886e-01
-2.140430999999999861e-01
-1.133990599999999960e-01
-1.756603800000000049e-01
-4.096975800000000056e-01
-7.256383499999999875e-01
-1.143540500000000071e+00
-1.647872100000000062e+00
-2.076735900000000079e+00
-2.533071000000000073e+00
-3.113526600000000144e+00
-3.494538200000000039e+00
-3.647574099999999930e+00
-3.153049100000000049e+00
-2.151098499999999802e+00
-1.544801400000000102e+00
-1.044520099999999979e-01
