8.499999999999999778e-01
8.499999999999999778e-01
8.499999999999999778e-01
8.499999999999999778e-01
8.499999999999999778e-01
8.499999999999999778e-01
8.499999999999999778e-01
8.299999999999999600e-01
8.299999999999999600e-01
8.299999999999999600e-01
8.299999999999999600e-01
8.299999999999999600e-01
8.299999999999999600e-01
8.299999999999999600e-01
8.299999999999999600e-01
8.299999999999999600e-01
8.299999999999999600e-01
8.299999999999999600e-01
8.299999999999999600e-01
8.299999999999999600e-01
8.299999999999999600e-01
8.299999999999999600e-01
8.299999999999999600e-01
8.299999999999999600e-01
8.299999999999999600e-01
8.299999999999999600e-01
8.299999999999999600e-01
8.299999999999999600e-01
8.100000000000000533e-01
8.100000000000000533e-01
8.100000000000000533e-01
8.100000000000000533e-01
8.100000000000000533e-01
8.100000000000000533e-01
8.100000000000000533e-01
8.100000000000000533e-01
8.100000000000000533e-01
8.100000000000000533e-01
8.100000000000000533e-01
7.900000000000000355e-01
7.900000000000000355e-01
7.900000000000000355e-01
7.900000000000000355e-01
7.900000000000000355e-01
7.900000000000000355e-01
7.900000000000000355e-01
7.900000000000000355e-01
7.900000000000000355e-01
7.900000000000000355e-01
7.900000000000000355e-01
7.700000000000000178e-01
7.700000000000000178e-01
7.700000000000000178e-01
7.700000000000000178e-01
7.700000000000000178e-01
7.700000000000000178e-01
7.700000000000000178e-01
7.700000000000000178e-01
7.700000000000000178e-01
7.700000000000000178e-01
7.700000000000000178e-01
7.700000000000000178e-01
7.700000000000000178e-01
7.700000000000000178e-01
7.700000000000000178e-01
7.700000000000000178e-01
7.600000000000000089e-01
7.600000000000000089e-01
7.600000000000000089e-01
7.600000000000000089e-01
7.600000000000000089e-01
7.600000000000000089e-01
7.600000000000000089e-01
7.600000000000000089e-01
7.600000000000000089e-01
7.600000000000000089e-01
7.600000000000000089e-01
7.600000000000000089e-01
7.600000000000000089e-01
7.600000000000000089e-01
7.600000000000000089e-01
7.600000000000000089e-01
7.600000000000000089e-01
7.600000000000000089e-01
7.600000000000000089e-01
7.600000000000000089e-01
7.600000000000000089e-01
7.500000000000000000e-01
7.500000000000000000e-01
7.500000000000000000e-01
7.500000000000000000e-01
7.500000000000000000e-01
7.500000000000000000e-01
7.500000000000000000e-01
7.500000000000000000e-01
7.500000000000000000e-01
7.500000000000000000e-01
7.500000000000000000e-01
7.399999999999999911e-01
7.399999999999999911e-01
7.399999999999999911e-01
7.399999999999999911e-01
7.399999999999999911e-01
7.399999999999999911e-01
7.399999999999999911e-01
7.399999999999999911e-01
7.399999999999999911e-01
7.399999999999999911e-01
7.299999999999999822e-01
7.299999999999999822e-01
7.299999999999999822e-01
7.299999999999999822e-01
7.299999999999999822e-01
7.299999999999999822e-01
7.299999999999999822e-01
7.299999999999999822e-01
7.299999999999999822e-01
7.299999999999999822e-01
7.299999999999999822e-01
7.299999999999999822e-01
7.299999999999999822e-01
7.299999999999999822e-01
7.299999999999999822e-01
7.299999999999999822e-01
7.299999999999999822e-01
7.299999999999999822e-01
7.299999999999999822e-01
7.299999999999999822e-01
7.299999999999999822e-01
7.299999999999999822e-01
7.299999999999999822e-01
7.299999999999999822e-01
7.299999999999999822e-01
7.299999999999999822e-01
7.299999999999999822e-01
7.199999999999999734e-01
7.199999999999999734e-01
7.199999999999999734e-01
7.199999999999999734e-01
7.199999999999999734e-01
7.199999999999999734e-01
7.199999999999999734e-01
7.199999999999999734e-01
7.199999999999999734e-01
7.199999999999999734e-01
7.199999999999999734e-01
7.199999999999999734e-01
7.199999999999999734e-01
7.199999999999999734e-01
7.199999999999999734e-01
7.199999999999999734e-01
7.199999999999999734e-01
7.199999999999999734e-01
7.199999999999999734e-01
7.199999999999999734e-01
7.199999999999999734e-01
7.099999999999999645e-01
7.099999999999999645e-01
7.099999999999999645e-01
7.099999999999999645e-01
7.099999999999999645e-01
7.099999999999999645e-01
7.099999999999999645e-01
7.099999999999999645e-01
7.099999999999999645e-01
7.099999999999999645e-01
7.099999999999999645e-01
7.099999999999999645e-01
7.099999999999999645e-01
7.099999999999999645e-01
7.099999999999999645e-01
7.099999999999999645e-01
7.099999999999999645e-01
7.099999999999999645e-01
7.099999999999999645e-01
7.099999999999999645e-01
7.099999999999999645e-01
7.099999999999999645e-01
7.099999999999999645e-01
7.099999999999999645e-01
7.099999999999999645e-01
7.099999999999999645e-01
7.099999999999999645e-01
6.999999999999999556e-01
6.999999999999999556e-01
6.999999999999999556e-01
6.999999999999999556e-01
6.999999999999999556e-01
6.999999999999999556e-01
6.999999999999999556e-01
6.999999999999999556e-01
6.999999999999999556e-01
6.999999999999999556e-01
6.999999999999999556e-01
6.999999999999999556e-01
6.999999999999999556e-01
6.999999999999999556e-01
6.999999999999999556e-01
6.999999999999999556e-01
6.999999999999999556e-01
6.999999999999999556e-01
6.999999999999999556e-01
6.999999999999999556e-01
6.999999999999999556e-01
6.999999999999999556e-01
6.999999999999999556e-01
6.999999999999999556e-01
6.999999999999999556e-01
6.999999999999999556e-01
6.999999999999999556e-01
6.999999999999999556e-01
6.999999999999999556e-01
6.999999999999999556e-01
6.999999999999999556e-01
6.999999999999999556e-01
6.999999999999999556e-01
6.999999999999999556e-01
6.999999999999999556e-01
6.999999999999999556e-01
6.999999999999999556e-01
6.999999999999999556e-01
6.999999999999999556e-01
6.999999999999999556e-01
6.999999999999999556e-01
6.999999999999999556e-01
6.999999999999999556e-01
6.999999999999999556e-01
6.999999999999999556e-01
6.999999999999999556e-01
6.999999999999999556e-01
6.999999999999999556e-01
7.099999999999999645e-01
7.099999999999999645e-01
7.099999999999999645e-01
7.099999999999999645e-01
7.099999999999999645e-01
7.099999999999999645e-01
7.099999999999999645e-01
7.099999999999999645e-01
7.099999999999999645e-01
7.099999999999999645e-01
7.099999999999999645e-01
7.299999999999999822e-01
7.299999999999999822e-01
7.299999999999999822e-01
7.299999999999999822e-01
7.299999999999999822e-01
7.299999999999999822e-01
7.299999999999999822e-01
7.299999999999999822e-01
7.299999999999999822e-01
7.299999999999999822e-01
7.600000000000000089e-01
7.600000000000000089e-01
7.600000000000000089e-01
7.600000000000000089e-01
7.600000000000000089e-01
7.600000000000000089e-01
7.600000000000000089e-01
7.600000000000000089e-01
7.600000000000000089e-01
7.600000000000000089e-01
7.600000000000000089e-01
7.900000000000000355e-01
7.900000000000000355e-01
7.900000000000000355e-01
7.900000000000000355e-01
7.900000000000000355e-01
7.900000000000000355e-01
7.900000000000000355e-01
7.900000000000000355e-01
7.900000000000000355e-01
7.900000000000000355e-01
7.900000000000000355e-01
7.900000000000000355e-01
7.900000000000000355e-01
7.900000000000000355e-01
7.900000000000000355e-01
7.900000000000000355e-01
8.000000000000000444e-01
8.000000000000000444e-01
8.000000000000000444e-01
8.000000000000000444e-01
8.000000000000000444e-01
8.000000000000000444e-01
8.000000000000000444e-01
8.000000000000000444e-01
8.000000000000000444e-01
8.000000000000000444e-01
8.000000000000000444e-01
8.100000000000000533e-01
8.100000000000000533e-01
8.100000000000000533e-01
8.100000000000000533e-01
8.100000000000000533e-01
8.100000000000000533e-01
8.100000000000000533e-01
8.100000000000000533e-01
8.100000000000000533e-01
8.100000000000000533e-01
8.100000000000000533e-01
8.199999999999999512e-01
8.199999999999999512e-01
8.199999999999999512e-01
8.199999999999999512e-01
8.199999999999999512e-01
8.199999999999999512e-01
8.199999999999999512e-01
8.199999999999999512e-01
8.199999999999999512e-01
8.199999999999999512e-01
8.199999999999999512e-01
8.199999999999999512e-01
8.199999999999999512e-01
8.199999999999999512e-01
8.199999999999999512e-01
8.199999999999999512e-01
8.199999999999999512e-01
8.199999999999999512e-01
8.199999999999999512e-01
8.199999999999999512e-01
8.199999999999999512e-01
8.199999999999999512e-01
8.199999999999999512e-01
8.199999999999999512e-01
8.199999999999999512e-01
8.199999999999999512e-01
8.199999999999999512e-01
8.199999999999999512e-01
8.199999999999999512e-01
8.199999999999999512e-01
8.199999999999999512e-01
8.199999999999999512e-01
8.199999999999999512e-01
8.199999999999999512e-01
8.199999999999999512e-01
8.199999999999999512e-01
8.199999999999999512e-01
8.100000000000000533e-01
8.100000000000000533e-01
8.100000000000000533e-01
8.100000000000000533e-01
8.100000000000000533e-01
8.100000000000000533e-01
8.100000000000000533e-01
8.100000000000000533e-01
8.100000000000000533e-01
8.100000000000000533e-01
8.100000000000000533e-01
8.100000000000000533e-01
8.100000000000000533e-01
8.100000000000000533e-01
8.100000000000000533e-01
8.100000000000000533e-01
8.100000000000000533e-01
8.100000000000000533e-01
8.100000000000000533e-01
8.100000000000000533e-01
8.100000000000000533e-01
8.100000000000000533e-01
8.100000000000000533e-01
8.100000000000000533e-01
8.100000000000000533e-01
8.100000000000000533e-01
8.100000000000000533e-01
8.100000000000000533e-01
8.100000000000000533e-01
8.100000000000000533e-01
8.100000000000000533e-01
8.100000000000000533e-01
8.100000000000000533e-01
8.100000000000000533e-01
8.100000000000000533e-01
8.100000000000000533e-01
8.100000000000000533e-01
8.100000000000000533e-01
8.100000000000000533e-01
8.100000000000000533e-01
8.100000000000000533e-01
8.100000000000000533e-01
8.100000000000000533e-01
8.100000000000000533e-01
8.100000000000000533e-01
8.100000000000000533e-01
8.100000000000000533e-01
8.100000000000000533e-01
8.000000000000000444e-01
8.000000000000000444e-01
8.000000000000000444e-01
8.000000000000000444e-01
8.000000000000000444e-01
8.000000000000000444e-01
8.000000000000000444e-01
8.000000000000000444e-01
8.000000000000000444e-01
8.000000000000000444e-01
8.000000000000000444e-01
8.100000000000000533e-01
8.100000000000000533e-01
8.100000000000000533e-01
8.100000000000000533e-01
8.100000000000000533e-01
8.100000000000000533e-01
8.100000000000000533e-01
8.100000000000000533e-01
8.100000000000000533e-01
8.100000000000000533e-01
8.100000000000000533e-01
8.100000000000000533e-01
8.100000000000000533e-01
8.100000000000000533e-01
8.100000000000000533e-01
8.100000000000000533e-01
8.100000000000000533e-01
8.100000000000000533e-01
8.100000000000000533e-01
8.100000000000000533e-01
8.100000000000000533e-01
8.100000000000000533e-01
8.100000000000000533e-01
8.100000000000000533e-01
8.100000000000000533e-01
8.100000000000000533e-01
8.100000000000000533e-01
8.100000000000000533e-01
8.100000000000000533e-01
8.100000000000000533e-01
8.100000000000000533e-01
8.100000000000000533e-01
8.100000000000000533e-01
8.100000000000000533e-01
8.100000000000000533e-01
8.100000000000000533e-01
8.100000000000000533e-01
8.100000000000000533e-01
8.100000000000000533e-01
8.100000000000000533e-01
8.100000000000000533e-01
8.100000000000000533e-01
8.100000000000000533e-01
8.100000000000000533e-01
8.100000000000000533e-01
8.100000000000000533e-01
8.100000000000000533e-01
8.100000000000000533e-01
8.199999999999999512e-01
8.199999999999999512e-01
8.199999999999999512e-01
8.199999999999999512e-01
8.199999999999999512e-01
8.199999999999999512e-01
8.199999999999999512e-01
8.199999999999999512e-01
8.199999999999999512e-01
8.199999999999999512e-01
8.100000000000000533e-01
8.100000000000000533e-01
8.100000000000000533e-01
8.100000000000000533e-01
8.100000000000000533e-01
8.100000000000000533e-01
8.100000000000000533e-01
8.100000000000000533e-01
8.100000000000000533e-01
8.100000000000000533e-01
8.100000000000000533e-01
8.100000000000000533e-01
8.100000000000000533e-01
8.100000000000000533e-01
8.100000000000000533e-01
8.100000000000000533e-01
8.100000000000000533e-01
8.100000000000000533e-01
8.100000000000000533e-01
8.100000000000000533e-01
8.100000000000000533e-01
8.100000000000000533e-01
8.100000000000000533e-01
8.100000000000000533e-01
8.100000000000000533e-01
8.100000000000000533e-01
8.100000000000000533e-01
8.100000000000000533e-01
8.100000000000000533e-01
8.100000000000000533e-01
8.100000000000000533e-01
8.100000000000000533e-01
8.100000000000000533e-01
8.100000000000000533e-01
8.100000000000000533e-01
8.100000000000000533e-01
8.100000000000000533e-01
8.100000000000000533e-01
8.100000000000000533e-01
8.100000000000000533e-01
8.100000000000000533e-01
8.100000000000000533e-01
8.100000000000000533e-01
8.100000000000000533e-01
8.100000000000000533e-01
8.100000000000000533e-01
8.100000000000000533e-01
8.100000000000000533e-01
8.000000000000000444e-01
8.000000000000000444e-01
8.000000000000000444e-01
8.000000000000000444e-01
8.000000000000000444e-01
8.000000000000000444e-01
8.000000000000000444e-01
8.000000000000000444e-01
8.000000000000000444e-01
8.000000000000000444e-01
8.000000000000000444e-01
8.000000000000000444e-01
8.000000000000000444e-01
8.000000000000000444e-01
8.000000000000000444e-01
8.000000000000000444e-01
8.000000000000000444e-01
8.000000000000000444e-01
8.000000000000000444e-01
8.000000000000000444e-01
8.000000000000000444e-01
8.000000000000000444e-01
8.000000000000000444e-01
8.000000000000000444e-01
8.000000000000000444e-01
8.000000000000000444e-01
8.000000000000000444e-01
8.000000000000000444e-01
8.000000000000000444e-01
8.000000000000000444e-01
8.000000000000000444e-01
8.000000000000000444e-01
8.000000000000000444e-01
8.000000000000000444e-01
8.000000000000000444e-01
8.000000000000000444e-01
8.000000000000000444e-01
8.000000000000000444e-01
8.000000000000000444e-01
8.000000000000000444e-01
8.000000000000000444e-01
8.000000000000000444e-01
8.000000000000000444e-01
7.900000000000000355e-01
7.900000000000000355e-01
7.900000000000000355e-01
7.900000000000000355e-01
7.900000000000000355e-01
7.900000000000000355e-01
7.900000000000000355e-01
7.900000000000000355e-01
7.900000000000000355e-01
7.900000000000000355e-01
7.900000000000000355e-01
7.900000000000000355e-01
7.900000000000000355e-01
7.900000000000000355e-01
7.900000000000000355e-01
7.900000000000000355e-01
7.900000000000000355e-01
7.900000000000000355e-01
7.900000000000000355e-01
7.900000000000000355e-01
7.900000000000000355e-01
7.900000000000000355e-01
7.900000000000000355e-01
7.900000000000000355e-01
7.900000000000000355e-01
7.900000000000000355e-01
7.900000000000000355e-01
7.900000000000000355e-01
7.900000000000000355e-01
7.900000000000000355e-01
7.900000000000000355e-01
7.900000000000000355e-01
7.900000000000000355e-01
7.900000000000000355e-01
7.900000000000000355e-01
7.900000000000000355e-01
7.900000000000000355e-01
7.900000000000000355e-01
7.900000000000000355e-01
7.900000000000000355e-01
7.900000000000000355e-01
7.900000000000000355e-01
7.900000000000000355e-01
7.900000000000000355e-01
7.900000000000000355e-01
7.900000000000000355e-01
7.900000000000000355e-01
7.900000000000000355e-01
7.900000000000000355e-01
7.900000000000000355e-01
7.900000000000000355e-01
7.900000000000000355e-01
7.900000000000000355e-01
7.800000000000000266e-01
7.800000000000000266e-01
7.800000000000000266e-01
7.800000000000000266e-01
7.800000000000000266e-01
7.800000000000000266e-01
7.800000000000000266e-01
7.800000000000000266e-01
7.800000000000000266e-01
7.800000000000000266e-01
7.800000000000000266e-01
7.800000000000000266e-01
7.800000000000000266e-01
7.800000000000000266e-01
7.800000000000000266e-01
7.800000000000000266e-01
7.800000000000000266e-01
7.800000000000000266e-01
7.800000000000000266e-01
7.800000000000000266e-01
7.800000000000000266e-01
7.800000000000000266e-01
7.800000000000000266e-01
7.800000000000000266e-01
7.800000000000000266e-01
7.800000000000000266e-01
7.800000000000000266e-01
7.800000000000000266e-01
7.800000000000000266e-01
7.800000000000000266e-01
7.800000000000000266e-01
7.800000000000000266e-01
7.800000000000000266e-01
7.800000000000000266e-01
7.800000000000000266e-01
7.800000000000000266e-01
7.800000000000000266e-01
7.800000000000000266e-01
7.800000000000000266e-01
7.800000000000000266e-01
7.800000000000000266e-01
7.800000000000000266e-01
7.800000000000000266e-01
7.800000000000000266e-01
7.800000000000000266e-01
7.800000000000000266e-01
7.800000000000000266e-01
7.800000000000000266e-01
7.800000000000000266e-01
7.800000000000000266e-01
7.800000000000000266e-01
7.800000000000000266e-01
7.800000000000000266e-01
7.800000000000000266e-01
7.800000000000000266e-01
7.800000000000000266e-01
7.800000000000000266e-01
7.800000000000000266e-01
7.800000000000000266e-01
7.800000000000000266e-01
7.800000000000000266e-01
7.800000000000000266e-01
7.800000000000000266e-01
7.800000000000000266e-01
7.800000000000000266e-01
7.800000000000000266e-01
7.800000000000000266e-01
7.800000000000000266e-01
7.800000000000000266e-01
7.800000000000000266e-01
7.800000000000000266e-01
7.800000000000000266e-01
7.800000000000000266e-01
7.800000000000000266e-01
7.800000000000000266e-01
7.800000000000000266e-01
7.800000000000000266e-01
7.800000000000000266e-01
7.800000000000000266e-01
7.800000000000000266e-01
7.800000000000000266e-01
7.800000000000000266e-01
7.800000000000000266e-01
7.800000000000000266e-01
7.800000000000000266e-01
7.800000000000000266e-01
7.900000000000000355e-01
7.900000000000000355e-01
7.900000000000000355e-01
7.900000000000000355e-01
7.900000000000000355e-01
7.900000000000000355e-01
7.900000000000000355e-01
7.900000000000000355e-01
7.900000000000000355e-01
7.900000000000000355e-01
7.900000000000000355e-01
7.900000000000000355e-01
7.900000000000000355e-01
7.900000000000000355e-01
7.900000000000000355e-01
7.900000000000000355e-01
7.900000000000000355e-01
7.900000000000000355e-01
7.900000000000000355e-01
7.900000000000000355e-01
7.900000000000000355e-01
8.000000000000000444e-01
8.000000000000000444e-01
8.000000000000000444e-01
8.000000000000000444e-01
8.000000000000000444e-01
8.000000000000000444e-01
8.000000000000000444e-01
8.000000000000000444e-01
8.000000000000000444e-01
8.000000000000000444e-01
8.000000000000000444e-01
8.000000000000000444e-01
8.000000000000000444e-01
8.000000000000000444e-01
8.000000000000000444e-01
8.000000000000000444e-01
8.000000000000000444e-01
8.000000000000000444e-01
8.000000000000000444e-01
8.000000000000000444e-01
8.000000000000000444e-01
8.100000000000000533e-01
8.100000000000000533e-01
8.100000000000000533e-01
8.100000000000000533e-01
8.100000000000000533e-01
8.100000000000000533e-01
8.100000000000000533e-01
8.100000000000000533e-01
8.100000000000000533e-01
8.100000000000000533e-01
8.100000000000000533e-01
8.199999999999999512e-01
8.199999999999999512e-01
8.199999999999999512e-01
8.199999999999999512e-01
8.199999999999999512e-01
8.199999999999999512e-01
8.199999999999999512e-01
8.199999999999999512e-01
8.199999999999999512e-01
8.199999999999999512e-01
8.199999999999999512e-01
8.100000000000000533e-01
8.100000000000000533e-01
8.100000000000000533e-01
8.100000000000000533e-01
8.100000000000000533e-01
8.100000000000000533e-01
8.100000000000000533e-01
8.100000000000000533e-01
8.100000000000000533e-01
8.100000000000000533e-01
8.100000000000000533e-01
8.100000000000000533e-01
8.100000000000000533e-01
8.100000000000000533e-01
8.100000000000000533e-01
8.100000000000000533e-01
8.000000000000000444e-01
8.000000000000000444e-01
8.000000000000000444e-01
8.000000000000000444e-01
8.000000000000000444e-01
8.000000000000000444e-01
8.000000000000000444e-01
8.000000000000000444e-01
8.000000000000000444e-01
8.000000000000000444e-01
7.900000000000000355e-01
7.900000000000000355e-01
7.900000000000000355e-01
7.900000000000000355e-01
7.900000000000000355e-01
7.900000000000000355e-01
7.900000000000000355e-01
7.900000000000000355e-01
7.900000000000000355e-01
7.900000000000000355e-01
7.900000000000000355e-01
7.900000000000000355e-01
7.900000000000000355e-01
7.900000000000000355e-01
7.900000000000000355e-01
7.900000000000000355e-01
7.800000000000000266e-01
7.800000000000000266e-01
7.800000000000000266e-01
7.800000000000000266e-01
7.800000000000000266e-01
7.800000000000000266e-01
7.800000000000000266e-01
7.800000000000000266e-01
7.800000000000000266e-01
7.800000000000000266e-01
7.800000000000000266e-01
7.700000000000000178e-01
7.700000000000000178e-01
7.700000000000000178e-01
7.700000000000000178e-01
7.700000000000000178e-01
7.700000000000000178e-01
7.700000000000000178e-01
7.700000000000000178e-01
7.700000000000000178e-01
7.700000000000000178e-01
7.700000000000000178e-01
7.700000000000000178e-01
7.700000000000000178e-01
7.700000000000000178e-01
7.700000000000000178e-01
7.700000000000000178e-01
7.600000000000000089e-01
7.600000000000000089e-01
7.600000000000000089e-01
7.600000000000000089e-01
7.600000000000000089e-01
7.600000000000000089e-01
7.600000000000000089e-01
7.600000000000000089e-01
7.600000000000000089e-01
7.600000000000000089e-01
7.600000000000000089e-01
7.600000000000000089e-01
7.600000000000000089e-01
7.600000000000000089e-01
7.600000000000000089e-01
7.600000000000000089e-01
7.600000000000000089e-01
7.600000000000000089e-01
7.600000000000000089e-01
7.600000000000000089e-01
7.600000000000000089e-01
7.600000000000000089e-01
7.600000000000000089e-01
7.600000000000000089e-01
7.600000000000000089e-01
7.600000000000000089e-01
7.600000000000000089e-01
7.399999999999999911e-01
7.399999999999999911e-01
7.399999999999999911e-01
7.399999999999999911e-01
7.399999999999999911e-01
7.399999999999999911e-01
7.399999999999999911e-01
7.399999999999999911e-01
7.399999999999999911e-01
7.399999999999999911e-01
7.299999999999999822e-01
7.299999999999999822e-01
7.299999999999999822e-01
7.299999999999999822e-01
7.299999999999999822e-01
7.299999999999999822e-01
7.299999999999999822e-01
7.299999999999999822e-01
7.299999999999999822e-01
7.299999999999999822e-01
7.299999999999999822e-01
7.199999999999999734e-01
7.199999999999999734e-01
7.199999999999999734e-01
7.199999999999999734e-01
7.199999999999999734e-01
7.199999999999999734e-01
7.199999999999999734e-01
7.199999999999999734e-01
7.199999999999999734e-01
7.199999999999999734e-01
7.199999999999999734e-01
7.199999999999999734e-01
7.199999999999999734e-01
7.199999999999999734e-01
7.199999999999999734e-01
7.199999999999999734e-01
7.199999999999999734e-01
7.199999999999999734e-01
7.199999999999999734e-01
7.199999999999999734e-01
7.199999999999999734e-01
7.199999999999999734e-01
7.199999999999999734e-01
7.199999999999999734e-01
7.199999999999999734e-01
7.199999999999999734e-01
7.199999999999999734e-01
7.199999999999999734e-01
7.199999999999999734e-01
7.199999999999999734e-01
7.199999999999999734e-01
7.199999999999999734e-01
7.199999999999999734e-01
7.199999999999999734e-01
7.199999999999999734e-01
7.199999999999999734e-01
7.199999999999999734e-01
7.199999999999999734e-01
7.199999999999999734e-01
7.199999999999999734e-01
7.199999999999999734e-01
7.199999999999999734e-01
7.199999999999999734e-01
7.199999999999999734e-01
7.199999999999999734e-01
7.199999999999999734e-01
7.199999999999999734e-01
7.199999999999999734e-01
7.199999999999999734e-01
7.199999999999999734e-01
7.199999999999999734e-01
7.199999999999999734e-01
7.199999999999999734e-01
7.199999999999999734e-01
7.199999999999999734e-01
7.199999999999999734e-01
7.199999999999999734e-01
7.199999999999999734e-01
7.199999999999999734e-01
7.199999999999999734e-01
7.199999999999999734e-01
7.199999999999999734e-01
7.199999999999999734e-01
7.199999999999999734e-01
7.199999999999999734e-01
7.199999999999999734e-01
7.199999999999999734e-01
7.199999999999999734e-01
7.199999999999999734e-01
7.199999999999999734e-01
7.199999999999999734e-01
7.199999999999999734e-01
7.199999999999999734e-01
7.199999999999999734e-01
7.199999999999999734e-01
7.199999999999999734e-01
7.199999999999999734e-01
7.199999999999999734e-01
7.199999999999999734e-01
7.199999999999999734e-01
7.199999999999999734e-01
7.199999999999999734e-01
7.199999999999999734e-01
7.199999999999999734e-01
7.199999999999999734e-01
7.199999999999999734e-01
7.199999999999999734e-01
7.199999999999999734e-01
7.199999999999999734e-01
7.199999999999999734e-01
7.199999999999999734e-01
7.199999999999999734e-01
7.199999999999999734e-01
7.199999999999999734e-01
