8.900000000000000133e-01
8.900000000000000133e-01
8.900000000000000133e-01
8.900000000000000133e-01
8.900000000000000133e-01
8.900000000000000133e-01
8.900000000000000133e-01
8.900000000000000133e-01
8.900000000000000133e-01
8.900000000000000133e-01
8.900000000000000133e-01
8.900000000000000133e-01
8.900000000000000133e-01
8.900000000000000133e-01
8.900000000000000133e-01
8.900000000000000133e-01
8.900000000000000133e-01
8.900000000000000133e-01
8.900000000000000133e-01
8.900000000000000133e-01
8.900000000000000133e-01
8.900000000000000133e-01
8.900000000000000133e-01
8.900000000000000133e-01
8.900000000000000133e-01
8.900000000000000133e-01
8.900000000000000133e-01
8.900000000000000133e-01
8.900000000000000133e-01
8.900000000000000133e-01
8.900000000000000133e-01
8.900000000000000133e-01
8.900000000000000133e-01
8.900000000000000133e-01
8.900000000000000133e-01
8.900000000000000133e-01
8.900000000000000133e-01
8.900000000000000133e-01
8.900000000000000133e-01
8.900000000000000133e-01
8.900000000000000133e-01
8.900000000000000133e-01
8.900000000000000133e-01
8.900000000000000133e-01
8.900000000000000133e-01
8.900000000000000133e-01
8.900000000000000133e-01
8.900000000000000133e-01
8.900000000000000133e-01
8.900000000000000133e-01
8.900000000000000133e-01
8.900000000000000133e-01
8.900000000000000133e-01
8.900000000000000133e-01
8.900000000000000133e-01
8.900000000000000133e-01
8.900000000000000133e-01
8.900000000000000133e-01
8.900000000000000133e-01
8.900000000000000133e-01
8.900000000000000133e-01
8.900000000000000133e-01
8.900000000000000133e-01
8.900000000000000133e-01
8.900000000000000133e-01
8.900000000000000133e-01
8.900000000000000133e-01
8.900000000000000133e-01
8.900000000000000133e-01
8.900000000000000133e-01
8.900000000000000133e-01
8.900000000000000133e-01
8.900000000000000133e-01
8.900000000000000133e-01
8.900000000000000133e-01
8.900000000000000133e-01
8.900000000000000133e-01
8.900000000000000133e-01
8.900000000000000133e-01
8.900000000000000133e-01
8.900000000000000133e-01
8.900000000000000133e-01
8.900000000000000133e-01
8.900000000000000133e-01
8.900000000000000133e-01
8.900000000000000133e-01
8.900000000000000133e-01
8.900000000000000133e-01
8.900000000000000133e-01
8.900000000000000133e-01
8.900000000000000133e-01
8.900000000000000133e-01
8.900000000000000133e-01
8.900000000000000133e-01
8.900000000000000133e-01
8.900000000000000133e-01
8.900000000000000133e-01
8.900000000000000133e-01
8.900000000000000133e-01
8.900000000000000133e-01
8.900000000000000133e-01
8.900000000000000133e-01
8.900000000000000133e-01
8.900000000000000133e-01
8.900000000000000133e-01
8.900000000000000133e-01
8.900000000000000133e-01
8.900000000000000133e-01
8.900000000000000133e-01
8.900000000000000133e-01
8.900000000000000133e-01
8.900000000000000133e-01
8.900000000000000133e-01
8.900000000000000133e-01
8.900000000000000133e-01
8.900000000000000133e-01
8.900000000000000133e-01
8.900000000000000133e-01
8.900000000000000133e-01
8.900000000000000133e-01
8.900000000000000133e-01
8.900000000000000133e-01
8.900000000000000133e-01
8.900000000000000133e-01
8.900000000000000133e-01
8.900000000000000133e-01
8.900000000000000133e-01
8.900000000000000133e-01
8.900000000000000133e-01
8.900000000000000133e-01
8.900000000000000133e-01
8.900000000000000133e-01
8.900000000000000133e-01
8.900000000000000133e-01
8.900000000000000133e-01
8.900000000000000133e-01
8.900000000000000133e-01
8.900000000000000133e-01
8.900000000000000133e-01
8.900000000000000133e-01
8.900000000000000133e-01
8.900000000000000133e-01
8.900000000000000133e-01
8.900000000000000133e-01
8.900000000000000133e-01
8.900000000000000133e-01
8.900000000000000133e-01
8.900000000000000133e-01
8.900000000000000133e-01
8.900000000000000133e-01
8.900000000000000133e-01
8.900000000000000133e-01
8.900000000000000133e-01
8.900000000000000133e-01
8.900000000000000133e-01
8.900000000000000133e-01
8.900000000000000133e-01
8.900000000000000133e-01
8.900000000000000133e-01
8.900000000000000133e-01
8.900000000000000133e-01
8.900000000000000133e-01
8.900000000000000133e-01
8.900000000000000133e-01
8.900000000000000133e-01
8.900000000000000133e-01
8.900000000000000133e-01
8.900000000000000133e-01
8.900000000000000133e-01
8.900000000000000133e-01
8.900000000000000133e-01
8.900000000000000133e-01
8.900000000000000133e-01
8.900000000000000133e-01
8.900000000000000133e-01
8.900000000000000133e-01
8.900000000000000133e-01
8.900000000000000133e-01
8.900000000000000133e-01
8.900000000000000133e-01
8.900000000000000133e-01
8.900000000000000133e-01
8.900000000000000133e-01
8.900000000000000133e-01
8.900000000000000133e-01
8.900000000000000133e-01
8.900000000000000133e-01
8.900000000000000133e-01
8.900000000000000133e-01
8.900000000000000133e-01
8.900000000000000133e-01
8.900000000000000133e-01
8.900000000000000133e-01
8.900000000000000133e-01
8.900000000000000133e-01
8.900000000000000133e-01
8.900000000000000133e-01
8.900000000000000133e-01
8.900000000000000133e-01
8.900000000000000133e-01
8.900000000000000133e-01
8.900000000000000133e-01
8.900000000000000133e-01
8.900000000000000133e-01
8.900000000000000133e-01
8.900000000000000133e-01
8.900000000000000133e-01
8.900000000000000133e-01
8.900000000000000133e-01
8.900000000000000133e-01
8.900000000000000133e-01
8.900000000000000133e-01
8.900000000000000133e-01
8.900000000000000133e-01
8.900000000000000133e-01
8.900000000000000133e-01
8.900000000000000133e-01
8.900000000000000133e-01
8.900000000000000133e-01
8.900000000000000133e-01
8.900000000000000133e-01
8.900000000000000133e-01
8.900000000000000133e-01
8.900000000000000133e-01
8.900000000000000133e-01
8.900000000000000133e-01
8.900000000000000133e-01
8.900000000000000133e-01
8.900000000000000133e-01
8.900000000000000133e-01
8.900000000000000133e-01
8.900000000000000133e-01
8.900000000000000133e-01
8.900000000000000133e-01
8.900000000000000133e-01
8.900000000000000133e-01
8.900000000000000133e-01
8.900000000000000133e-01
8.900000000000000133e-01
8.900000000000000133e-01
8.900000000000000133e-01
8.900000000000000133e-01
8.900000000000000133e-01
8.900000000000000133e-01
8.900000000000000133e-01
8.900000000000000133e-01
8.900000000000000133e-01
8.900000000000000133e-01
8.900000000000000133e-01
8.900000000000000133e-01
8.900000000000000133e-01
8.900000000000000133e-01
8.900000000000000133e-01
8.900000000000000133e-01
8.900000000000000133e-01
8.900000000000000133e-01
8.900000000000000133e-01
8.900000000000000133e-01
8.900000000000000133e-01
8.900000000000000133e-01
8.900000000000000133e-01
8.900000000000000133e-01
8.900000000000000133e-01
8.900000000000000133e-01
8.900000000000000133e-01
8.900000000000000133e-01
8.900000000000000133e-01
8.900000000000000133e-01
8.900000000000000133e-01
8.900000000000000133e-01
8.900000000000000133e-01
8.900000000000000133e-01
8.900000000000000133e-01
8.900000000000000133e-01
8.900000000000000133e-01
8.900000000000000133e-01
8.900000000000000133e-01
8.900000000000000133e-01
8.900000000000000133e-01
8.900000000000000133e-01
8.900000000000000133e-01
8.900000000000000133e-01
8.900000000000000133e-01
8.900000000000000133e-01
8.900000000000000133e-01
8.900000000000000133e-01
8.900000000000000133e-01
8.900000000000000133e-01
8.900000000000000133e-01
8.900000000000000133e-01
8.900000000000000133e-01
8.900000000000000133e-01
8.900000000000000133e-01
8.900000000000000133e-01
8.900000000000000133e-01
8.900000000000000133e-01
8.900000000000000133e-01
8.900000000000000133e-01
8.900000000000000133e-01
8.900000000000000133e-01
8.900000000000000133e-01
8.900000000000000133e-01
8.900000000000000133e-01
8.900000000000000133e-01
8.900000000000000133e-01
8.900000000000000133e-01
8.900000000000000133e-01
8.900000000000000133e-01
8.900000000000000133e-01
8.900000000000000133e-01
8.900000000000000133e-01
8.900000000000000133e-01
8.900000000000000133e-01
8.900000000000000133e-01
8.900000000000000133e-01
8.900000000000000133e-01
8.900000000000000133e-01
8.900000000000000133e-01
8.900000000000000133e-01
8.900000000000000133e-01
8.900000000000000133e-01
8.900000000000000133e-01
8.900000000000000133e-01
8.900000000000000133e-01
8.900000000000000133e-01
8.900000000000000133e-01
8.900000000000000133e-01
8.900000000000000133e-01
8.900000000000000133e-01
8.900000000000000133e-01
8.900000000000000133e-01
8.900000000000000133e-01
8.900000000000000133e-01
8.900000000000000133e-01
8.900000000000000133e-01
8.900000000000000133e-01
8.900000000000000133e-01
8.900000000000000133e-01
8.900000000000000133e-01
8.900000000000000133e-01
8.900000000000000133e-01
8.900000000000000133e-01
8.900000000000000133e-01
8.900000000000000133e-01
8.900000000000000133e-01
8.900000000000000133e-01
8.900000000000000133e-01
8.900000000000000133e-01
8.900000000000000133e-01
8.900000000000000133e-01
8.900000000000000133e-01
8.900000000000000133e-01
8.900000000000000133e-01
8.900000000000000133e-01
8.900000000000000133e-01
8.900000000000000133e-01
8.900000000000000133e-01
8.900000000000000133e-01
8.900000000000000133e-01
8.900000000000000133e-01
8.900000000000000133e-01
8.900000000000000133e-01
8.900000000000000133e-01
8.900000000000000133e-01
8.900000000000000133e-01
8.900000000000000133e-01
8.900000000000000133e-01
8.900000000000000133e-01
8.900000000000000133e-01
8.900000000000000133e-01
8.900000000000000133e-01
8.900000000000000133e-01
8.900000000000000133e-01
8.900000000000000133e-01
8.900000000000000133e-01
8.900000000000000133e-01
8.900000000000000133e-01
8.900000000000000133e-01
8.900000000000000133e-01
8.900000000000000133e-01
8.900000000000000133e-01
8.900000000000000133e-01
8.900000000000000133e-01
8.900000000000000133e-01
8.900000000000000133e-01
8.900000000000000133e-01
8.900000000000000133e-01
8.900000000000000133e-01
8.900000000000000133e-01
8.900000000000000133e-01
8.900000000000000133e-01
8.900000000000000133e-01
8.900000000000000133e-01
8.900000000000000133e-01
8.900000000000000133e-01
8.900000000000000133e-01
8.900000000000000133e-01
8.900000000000000133e-01
8.900000000000000133e-01
8.900000000000000133e-01
8.900000000000000133e-01
8.900000000000000133e-01
8.900000000000000133e-01
8.900000000000000133e-01
8.900000000000000133e-01
8.900000000000000133e-01
8.900000000000000133e-01
8.900000000000000133e-01
8.900000000000000133e-01
8.900000000000000133e-01
8.900000000000000133e-01
8.900000000000000133e-01
8.900000000000000133e-01
8.900000000000000133e-01
8.900000000000000133e-01
8.900000000000000133e-01
8.900000000000000133e-01
8.900000000000000133e-01
8.900000000000000133e-01
8.900000000000000133e-01
8.900000000000000133e-01
8.900000000000000133e-01
8.900000000000000133e-01
8.900000000000000133e-01
8.900000000000000133e-01
8.900000000000000133e-01
8.900000000000000133e-01
8.900000000000000133e-01
8.900000000000000133e-01
8.900000000000000133e-01
8.900000000000000133e-01
8.900000000000000133e-01
8.900000000000000133e-01
8.900000000000000133e-01
8.900000000000000133e-01
8.900000000000000133e-01
9.000000000000000222e-01
9.000000000000000222e-01
9.000000000000000222e-01
9.000000000000000222e-01
9.000000000000000222e-01
9.000000000000000222e-01
9.000000000000000222e-01
9.000000000000000222e-01
9.000000000000000222e-01
9.000000000000000222e-01
9.000000000000000222e-01
9.000000000000000222e-01
9.000000000000000222e-01
9.000000000000000222e-01
9.000000000000000222e-01
9.000000000000000222e-01
9.000000000000000222e-01
9.000000000000000222e-01
9.000000000000000222e-01
9.000000000000000222e-01
9.000000000000000222e-01
9.000000000000000222e-01
9.000000000000000222e-01
9.000000000000000222e-01
9.000000000000000222e-01
9.000000000000000222e-01
9.000000000000000222e-01
9.000000000000000222e-01
9.000000000000000222e-01
9.000000000000000222e-01
9.000000000000000222e-01
9.000000000000000222e-01
9.000000000000000222e-01
9.000000000000000222e-01
9.000000000000000222e-01
9.000000000000000222e-01
9.000000000000000222e-01
9.000000000000000222e-01
9.000000000000000222e-01
9.000000000000000222e-01
9.000000000000000222e-01
9.000000000000000222e-01
9.000000000000000222e-01
9.000000000000000222e-01
9.000000000000000222e-01
9.000000000000000222e-01
9.000000000000000222e-01
9.000000000000000222e-01
9.000000000000000222e-01
9.000000000000000222e-01
9.000000000000000222e-01
9.000000000000000222e-01
9.000000000000000222e-01
9.100000000000000311e-01
9.100000000000000311e-01
9.100000000000000311e-01
9.100000000000000311e-01
9.100000000000000311e-01
9.100000000000000311e-01
9.100000000000000311e-01
9.100000000000000311e-01
9.100000000000000311e-01
9.100000000000000311e-01
9.100000000000000311e-01
9.100000000000000311e-01
9.100000000000000311e-01
9.100000000000000311e-01
9.100000000000000311e-01
9.100000000000000311e-01
9.100000000000000311e-01
9.100000000000000311e-01
9.100000000000000311e-01
9.100000000000000311e-01
9.100000000000000311e-01
9.100000000000000311e-01
9.100000000000000311e-01
9.100000000000000311e-01
9.100000000000000311e-01
9.100000000000000311e-01
9.100000000000000311e-01
9.100000000000000311e-01
9.100000000000000311e-01
9.100000000000000311e-01
9.100000000000000311e-01
9.100000000000000311e-01
9.100000000000000311e-01
9.100000000000000311e-01
9.100000000000000311e-01
9.100000000000000311e-01
9.100000000000000311e-01
9.100000000000000311e-01
9.100000000000000311e-01
9.100000000000000311e-01
9.100000000000000311e-01
9.100000000000000311e-01
9.100000000000000311e-01
9.100000000000000311e-01
9.100000000000000311e-01
9.100000000000000311e-01
9.100000000000000311e-01
9.100000000000000311e-01
9.100000000000000311e-01
9.100000000000000311e-01
9.100000000000000311e-01
9.100000000000000311e-01
9.100000000000000311e-01
9.100000000000000311e-01
9.100000000000000311e-01
9.100000000000000311e-01
9.100000000000000311e-01
9.100000000000000311e-01
9.100000000000000311e-01
9.100000000000000311e-01
9.100000000000000311e-01
9.100000000000000311e-01
9.100000000000000311e-01
9.100000000000000311e-01
9.100000000000000311e-01
9.100000000000000311e-01
9.100000000000000311e-01
9.100000000000000311e-01
9.100000000000000311e-01
9.100000000000000311e-01
9.100000000000000311e-01
9.100000000000000311e-01
9.100000000000000311e-01
9.100000000000000311e-01
9.100000000000000311e-01
9.100000000000000311e-01
9.100000000000000311e-01
9.100000000000000311e-01
9.100000000000000311e-01
9.100000000000000311e-01
9.100000000000000311e-01
9.100000000000000311e-01
9.100000000000000311e-01
9.100000000000000311e-01
9.100000000000000311e-01
9.100000000000000311e-01
9.100000000000000311e-01
9.100000000000000311e-01
9.100000000000000311e-01
9.100000000000000311e-01
9.100000000000000311e-01
9.100000000000000311e-01
9.100000000000000311e-01
9.100000000000000311e-01
9.100000000000000311e-01
9.100000000000000311e-01
9.100000000000000311e-01
9.100000000000000311e-01
9.100000000000000311e-01
9.100000000000000311e-01
9.100000000000000311e-01
9.100000000000000311e-01
9.100000000000000311e-01
9.100000000000000311e-01
9.100000000000000311e-01
9.100000000000000311e-01
9.100000000000000311e-01
9.000000000000000222e-01
9.000000000000000222e-01
9.000000000000000222e-01
9.000000000000000222e-01
9.000000000000000222e-01
9.000000000000000222e-01
9.000000000000000222e-01
9.000000000000000222e-01
9.000000000000000222e-01
9.000000000000000222e-01
9.000000000000000222e-01
9.000000000000000222e-01
9.000000000000000222e-01
9.000000000000000222e-01
9.000000000000000222e-01
9.000000000000000222e-01
9.000000000000000222e-01
9.000000000000000222e-01
9.000000000000000222e-01
9.000000000000000222e-01
9.000000000000000222e-01
9.000000000000000222e-01
9.000000000000000222e-01
9.000000000000000222e-01
9.000000000000000222e-01
9.000000000000000222e-01
9.000000000000000222e-01
9.000000000000000222e-01
9.000000000000000222e-01
9.000000000000000222e-01
9.000000000000000222e-01
9.000000000000000222e-01
9.000000000000000222e-01
9.000000000000000222e-01
9.000000000000000222e-01
9.000000000000000222e-01
9.000000000000000222e-01
9.000000000000000222e-01
9.000000000000000222e-01
9.000000000000000222e-01
9.000000000000000222e-01
9.000000000000000222e-01
9.000000000000000222e-01
9.000000000000000222e-01
9.000000000000000222e-01
9.000000000000000222e-01
9.000000000000000222e-01
9.000000000000000222e-01
9.000000000000000222e-01
9.000000000000000222e-01
9.000000000000000222e-01
9.000000000000000222e-01
9.000000000000000222e-01
9.000000000000000222e-01
9.000000000000000222e-01
9.000000000000000222e-01
9.000000000000000222e-01
9.000000000000000222e-01
9.000000000000000222e-01
9.000000000000000222e-01
9.000000000000000222e-01
9.000000000000000222e-01
9.000000000000000222e-01
9.000000000000000222e-01
8.900000000000000133e-01
8.900000000000000133e-01
8.900000000000000133e-01
8.900000000000000133e-01
8.900000000000000133e-01
8.900000000000000133e-01
8.900000000000000133e-01
8.900000000000000133e-01
8.900000000000000133e-01
8.900000000000000133e-01
8.900000000000000133e-01
8.900000000000000133e-01
8.900000000000000133e-01
8.900000000000000133e-01
8.900000000000000133e-01
8.900000000000000133e-01
8.900000000000000133e-01
8.900000000000000133e-01
8.900000000000000133e-01
8.900000000000000133e-01
8.900000000000000133e-01
8.900000000000000133e-01
8.900000000000000133e-01
8.900000000000000133e-01
8.900000000000000133e-01
8.900000000000000133e-01
8.900000000000000133e-01
8.900000000000000133e-01
8.900000000000000133e-01
8.900000000000000133e-01
8.900000000000000133e-01
8.900000000000000133e-01
8.900000000000000133e-01
8.900000000000000133e-01
8.900000000000000133e-01
8.900000000000000133e-01
8.900000000000000133e-01
8.900000000000000133e-01
8.900000000000000133e-01
8.900000000000000133e-01
8.900000000000000133e-01
8.900000000000000133e-01
8.900000000000000133e-01
8.900000000000000133e-01
8.900000000000000133e-01
8.900000000000000133e-01
8.900000000000000133e-01
8.900000000000000133e-01
8.900000000000000133e-01
8.900000000000000133e-01
8.900000000000000133e-01
8.900000000000000133e-01
8.900000000000000133e-01
8.900000000000000133e-01
8.900000000000000133e-01
8.900000000000000133e-01
8.900000000000000133e-01
8.900000000000000133e-01
8.900000000000000133e-01
8.900000000000000133e-01
8.900000000000000133e-01
8.900000000000000133e-01
8.900000000000000133e-01
8.900000000000000133e-01
8.900000000000000133e-01
8.900000000000000133e-01
8.900000000000000133e-01
8.900000000000000133e-01
8.900000000000000133e-01
8.900000000000000133e-01
8.900000000000000133e-01
8.900000000000000133e-01
8.900000000000000133e-01
8.900000000000000133e-01
8.900000000000000133e-01
8.900000000000000133e-01
8.900000000000000133e-01
8.900000000000000133e-01
8.900000000000000133e-01
8.900000000000000133e-01
8.900000000000000133e-01
8.900000000000000133e-01
8.900000000000000133e-01
8.900000000000000133e-01
8.900000000000000133e-01
8.900000000000000133e-01
8.900000000000000133e-01
8.900000000000000133e-01
8.900000000000000133e-01
8.900000000000000133e-01
8.900000000000000133e-01
8.900000000000000133e-01
8.900000000000000133e-01
8.900000000000000133e-01
8.900000000000000133e-01
8.900000000000000133e-01
8.900000000000000133e-01
8.900000000000000133e-01
8.900000000000000133e-01
8.900000000000000133e-01
8.900000000000000133e-01
8.900000000000000133e-01
8.900000000000000133e-01
8.900000000000000133e-01
8.900000000000000133e-01
8.900000000000000133e-01
8.900000000000000133e-01
8.900000000000000133e-01
8.900000000000000133e-01
8.900000000000000133e-01
8.900000000000000133e-01
8.900000000000000133e-01
8.900000000000000133e-01
8.900000000000000133e-01
8.900000000000000133e-01
8.900000000000000133e-01
8.900000000000000133e-01
8.900000000000000133e-01
8.900000000000000133e-01
8.900000000000000133e-01
8.900000000000000133e-01
8.900000000000000133e-01
8.900000000000000133e-01
8.900000000000000133e-01
8.900000000000000133e-01
8.900000000000000133e-01
8.900000000000000133e-01
8.900000000000000133e-01
8.900000000000000133e-01
8.900000000000000133e-01
8.900000000000000133e-01
8.900000000000000133e-01
8.900000000000000133e-01
8.900000000000000133e-01
8.900000000000000133e-01
8.900000000000000133e-01
8.900000000000000133e-01
8.900000000000000133e-01
8.800000000000000044e-01
8.800000000000000044e-01
8.800000000000000044e-01
8.800000000000000044e-01
8.800000000000000044e-01
8.800000000000000044e-01
8.800000000000000044e-01
8.800000000000000044e-01
8.800000000000000044e-01
8.800000000000000044e-01
8.800000000000000044e-01
8.800000000000000044e-01
8.800000000000000044e-01
8.800000000000000044e-01
8.800000000000000044e-01
8.800000000000000044e-01
8.800000000000000044e-01
8.800000000000000044e-01
8.800000000000000044e-01
8.800000000000000044e-01
8.800000000000000044e-01
8.800000000000000044e-01
8.800000000000000044e-01
8.800000000000000044e-01
8.800000000000000044e-01
8.800000000000000044e-01
8.800000000000000044e-01
8.900000000000000133e-01
8.900000000000000133e-01
8.900000000000000133e-01
8.900000000000000133e-01
8.900000000000000133e-01
8.900000000000000133e-01
8.900000000000000133e-01
8.900000000000000133e-01
8.900000000000000133e-01
8.900000000000000133e-01
8.900000000000000133e-01
8.900000000000000133e-01
8.900000000000000133e-01
8.900000000000000133e-01
8.900000000000000133e-01
8.900000000000000133e-01
8.900000000000000133e-01
8.900000000000000133e-01
8.900000000000000133e-01
8.900000000000000133e-01
8.900000000000000133e-01
8.900000000000000133e-01
8.900000000000000133e-01
8.900000000000000133e-01
8.900000000000000133e-01
8.900000000000000133e-01
8.900000000000000133e-01
8.900000000000000133e-01
8.900000000000000133e-01
8.900000000000000133e-01
8.900000000000000133e-01
8.900000000000000133e-01
8.900000000000000133e-01
8.900000000000000133e-01
8.900000000000000133e-01
8.900000000000000133e-01
8.900000000000000133e-01
8.900000000000000133e-01
8.900000000000000133e-01
8.900000000000000133e-01
8.900000000000000133e-01
8.900000000000000133e-01
8.900000000000000133e-01
8.900000000000000133e-01
8.900000000000000133e-01
8.900000000000000133e-01
8.900000000000000133e-01
8.900000000000000133e-01
8.900000000000000133e-01
8.900000000000000133e-01
8.900000000000000133e-01
8.900000000000000133e-01
8.900000000000000133e-01
8.900000000000000133e-01
8.900000000000000133e-01
8.900000000000000133e-01
8.900000000000000133e-01
8.900000000000000133e-01
8.900000000000000133e-01
8.900000000000000133e-01
8.900000000000000133e-01
8.900000000000000133e-01
8.900000000000000133e-01
8.900000000000000133e-01
9.000000000000000222e-01
9.000000000000000222e-01
9.000000000000000222e-01
9.000000000000000222e-01
9.000000000000000222e-01
9.000000000000000222e-01
9.000000000000000222e-01
9.000000000000000222e-01
9.000000000000000222e-01
9.000000000000000222e-01
9.000000000000000222e-01
9.000000000000000222e-01
9.000000000000000222e-01
9.000000000000000222e-01
9.000000000000000222e-01
9.000000000000000222e-01
9.000000000000000222e-01
9.000000000000000222e-01
9.000000000000000222e-01
9.000000000000000222e-01
9.000000000000000222e-01
9.000000000000000222e-01
9.000000000000000222e-01
9.000000000000000222e-01
9.000000000000000222e-01
9.000000000000000222e-01
9.000000000000000222e-01
9.000000000000000222e-01
9.000000000000000222e-01
9.000000000000000222e-01
9.000000000000000222e-01
9.000000000000000222e-01
9.000000000000000222e-01
9.000000000000000222e-01
9.000000000000000222e-01
9.000000000000000222e-01
9.000000000000000222e-01
9.000000000000000222e-01
9.000000000000000222e-01
9.000000000000000222e-01
9.000000000000000222e-01
9.000000000000000222e-01
9.000000000000000222e-01
9.000000000000000222e-01
9.000000000000000222e-01
9.000000000000000222e-01
9.000000000000000222e-01
9.000000000000000222e-01
9.000000000000000222e-01
9.000000000000000222e-01
9.000000000000000222e-01
9.000000000000000222e-01
9.000000000000000222e-01
9.000000000000000222e-01
9.000000000000000222e-01
9.000000000000000222e-01
9.000000000000000222e-01
9.000000000000000222e-01
9.000000000000000222e-01
9.000000000000000222e-01
9.000000000000000222e-01
9.000000000000000222e-01
9.000000000000000222e-01
9.000000000000000222e-01
9.000000000000000222e-01
9.000000000000000222e-01
9.000000000000000222e-01
9.000000000000000222e-01
9.000000000000000222e-01
9.000000000000000222e-01
9.000000000000000222e-01
