8.039394399999999496e-01
-1.106909900000000002e+00
-2.854107299999999903e+00
-3.898687300000000189e+00
-4.153131799999999707e+00
-3.997155799999999815e+00
-3.290887500000000188e+00
-2.189364199999999983e+00
-1.582271299999999936e+00
-1.419741799999999943e+00
-7.762382199999999788e-01
-3.646683399999999797e-01
-3.513191700000000139e-01
-2.820984599999999953e-01
-3.280950200000000150e-01
-2.444547599999999932e-01
-2.720429300000000161e-01
-2.529556299999999869e-01
-2.169826499999999991e-01
-2.982159799999999916e-01
-3.090075700000000092e-01
-3.177571200000000040e-01
-3.763587400000000249e-01
-4.096946699999999830e-01
-3.789625300000000196e-01
-4.321681700000000181e-01
-4.725624500000000228e-01
-4.505196499999999937e-01
-4.719391800000000137e-01
-5.083215800000000506e-01
-6.361213300000000404e-01
-5.761383599999999605e-01
-6.478597299999999670e-01
-6.547182799999999858e-01
-6.618944300000000336e-01
-6.460658400000000023e-01
-5.751266800000000012e-01
-5.814988399999999613e-01
-5.612751099999999660e-01
-5.683086200000000421e-01
-4.549440900000000232e-01
-4.389184300000000261e-01
-3.241536099999999809e-01
-2.169782100000000047e-01
-2.214116499999999876e-01
-1.477762599999999926e-01
-6.338985599999999443e-02
2.235919499999999838e-02
-5.392265200000000147e-02
3.655866099999999924e-02
6.254465800000000297e-02
1.289971000000000000e-02
1.709190499999999890e-01
2.364932599999999829e-02
-9.007340099999999999e-04
4.644637800000000344e-02
6.893682800000000555e-02
2.210819500000000062e-02
9.424455900000000552e-02
8.570401900000000628e-02
1.630688000000000137e-01
1.641819599999999879e-01
1.365268199999999932e-01
1.895400999999999891e-01
2.447517399999999954e-01
3.432076800000000150e-01
2.558180999999999927e-01
3.101117600000000141e-01
3.933497000000000243e-01
3.404573799999999761e-01
4.729640700000000142e-01
5.560185699999999898e-01
6.304130799999999590e-01
6.022866000000000053e-01
5.331564500000000040e-01
5.966996799999999546e-01
7.615127499999999605e-01
6.054458299999999626e-01
7.338736900000000229e-01
6.985152100000000530e-01
6.793509500000000090e-01
6.143873399999999485e-01
5.974417800000000334e-01
5.448783999999999850e-01
5.252010900000000371e-01
5.231741500000000045e-01
4.848646500000000081e-01
4.905320799999999815e-01
4.530977299999999763e-01
3.750175800000000170e-01
3.710079900000000097e-01
4.800507199999999863e-01
4.253048700000000015e-01
5.088137700000000541e-01
6.884767899999999496e-01
8.355812599999999923e-01
9.802153000000000116e-01
1.170598400000000039e+00
1.324090800000000012e+00
1.585612500000000091e+00
1.716115199999999952e+00
1.934145599999999909e+00
1.940437299999999921e+00
1.856597400000000064e+00
1.797955299999999923e+00
1.611886399999999941e+00
1.432476300000000036e+00
1.116787399999999986e+00
8.685515299999999606e-01
4.838951400000000014e-01
1.095893800000000001e-01
-1.271404999999999896e-01
-3.181593799999999916e-01
-3.904573000000000071e-01
-2.371271299999999915e-01
-3.302395599999999876e-01
-3.641121399999999730e-01
-3.923664000000000041e-01
-4.026389200000000113e-01
-3.586434900000000092e-01
-4.211362200000000056e-01
-3.274301900000000098e-01
-3.876707600000000031e-01
-4.789231099999999852e-01
-4.273839099999999780e-01
-3.376814499999999941e-01
-2.774162700000000203e-01
-2.491794099999999901e-01
1.269083099999999964e-01
7.574026999999999843e-01
8.538134200000000451e-01
8.794327699999999748e-01
1.026521800000000040e+00
1.074676500000000035e+00
8.469406000000000434e-01
5.736899500000000041e-01
8.579863300000000192e-01
1.202415800000000035e+00
6.132416699999999610e-01
-1.655646500000000021e+00
