-6.151314500000000240e-01
-2.362604999999999844e+00
-3.414365200000000211e+00
-4.268656599999999912e+00
-3.930781099999999917e+00
-2.844926200000000183e+00
-1.890145900000000045e+00
-1.821200200000000047e+00
-1.229679200000000083e+00
-5.984834599999999671e-01
-5.855591700000000177e-01
-5.148155800000000504e-01
-5.146881500000000109e-01
-4.305402500000000132e-01
-4.379069600000000118e-01
-4.758737000000000106e-01
-4.694117700000000060e-01
-4.840568499999999830e-01
-5.711212700000000142e-01
-5.257957100000000272e-01
-5.401064300000000262e-01
-6.141946999999999823e-01
-5.460525400000000307e-01
-5.535082599999999742e-01
-6.429677099999999701e-01
-6.829060000000000130e-01
-7.631491099999999639e-01
-8.764743900000000476e-01
-8.645587599999999817e-01
-8.535371200000000380e-01
-8.655343300000000184e-01
-8.997976199999999647e-01
-1.068059599999999998e+00
-1.128026399999999985e+00
-1.066595900000000041e+00
-1.050383300000000020e+00
-1.018166099999999963e+00
-9.425594200000000367e-01
-9.733016899999999971e-01
-9.254090400000000161e-01
-7.358257400000000059e-01
-6.489958999999999589e-01
-6.567724000000000339e-01
-4.301870199999999755e-01
-3.932887199999999805e-01
-3.434261900000000201e-01
-2.127549999999999997e-01
-1.658133499999999982e-01
-1.295170300000000052e-01
-1.528037899999999949e-01
-9.043705900000000020e-02
2.711258999999999891e-02
9.073175999999999464e-02
8.652130800000000510e-02
1.159826300000000032e-01
1.990409599999999890e-01
1.291144999999999932e-01
1.647446399999999977e-01
2.874769400000000141e-01
3.672643400000000224e-01
2.727909299999999870e-01
2.870520599999999978e-01
2.816299700000000072e-01
3.529649899999999785e-01
4.657242100000000273e-01
5.347585900000000336e-01
4.790708000000000188e-01
5.867306199999999805e-01
5.562108199999999947e-01
6.951353399999999905e-01
5.715234599999999832e-01
6.017845200000000450e-01
7.487694900000000375e-01
6.925813800000000242e-01
6.524957099999999510e-01
6.371678400000000408e-01
6.475797899999999885e-01
7.176563500000000539e-01
6.664928500000000255e-01
6.637233000000000160e-01
5.697705100000000078e-01
5.833217800000000119e-01
5.927565500000000487e-01
4.982088299999999914e-01
6.402322999999999764e-01
6.099471600000000437e-01
4.027718200000000026e-01
3.639113400000000276e-01
4.674478400000000033e-01
3.901196599999999792e-01
4.377467999999999915e-01
4.706106600000000140e-01
3.395981900000000220e-01
4.513542500000000124e-01
5.009745899999999974e-01
4.750096400000000108e-01
6.166913299999999820e-01
6.961181100000000121e-01
9.733107699999999918e-01
1.066535100000000069e+00
1.258549899999999999e+00
1.484265100000000004e+00
1.558267400000000080e+00
1.755401599999999895e+00
1.922879299999999958e+00
1.938908000000000076e+00
1.751125599999999949e+00
1.559821899999999983e+00
1.533777100000000004e+00
1.227138999999999980e+00
1.081658299999999961e+00
6.615873599999999577e-01
2.610571700000000051e-01
4.853894499999999827e-03
-1.624966599999999872e-01
-1.719612500000000099e-01
-1.424175000000000024e-01
-2.054337499999999983e-01
-1.843175699999999861e-01
-1.431222600000000011e-01
-1.991695699999999902e-01
-1.253389799999999887e-01
-1.329556400000000138e-01
-2.620278100000000276e-01
-1.299399699999999880e-01
-1.854319700000000015e-01
-1.770917700000000095e-01
-1.302027199999999940e-01
-9.721131099999999470e-02
1.950342599999999871e-01
8.951928799999999686e-01
1.349556800000000001e+00
1.004972799999999999e+00
9.953075599999999801e-01
1.037756300000000076e+00
6.529381600000000452e-01
6.568904899999999936e-01
5.466380899999999654e-01
1.290847999999999995e+00
9.192763200000000356e-01
