1.501834700000000078e+00
1.200161099999999953e-01
-2.233010399999999951e+00
-4.153155299999999883e+00
-4.545487099999999892e+00
-3.912011300000000080e+00
-2.906558200000000092e+00
-1.814271299999999920e+00
-1.609939000000000009e+00
-1.142909100000000011e+00
-4.358669900000000097e-01
-4.168402600000000180e-01
-5.240973500000000174e-01
-3.355238199999999726e-01
-2.977787100000000020e-01
-3.740142499999999925e-01
-2.836951799999999912e-01
-4.128527499999999906e-01
-3.607366599999999868e-01
-3.927424800000000049e-01
-4.061790900000000204e-01
-4.947894600000000143e-01
-5.156231700000000195e-01
-5.313094000000000428e-01
-5.532604199999999750e-01
-5.690637400000000401e-01
-6.163382099999999975e-01
-6.273765000000000036e-01
-6.908971900000000499e-01
-6.460997000000000545e-01
-7.195823199999999975e-01
-7.969616299999999764e-01
-7.841358999999999968e-01
-8.663791299999999973e-01
-8.124227299999999818e-01
-8.033739600000000536e-01
-8.612614200000000553e-01
-8.851139199999999985e-01
-9.006681199999999610e-01
-7.953186399999999656e-01
-7.048182600000000297e-01
-7.619860999999999995e-01
-6.230668200000000212e-01
-5.159785199999999961e-01
-4.371274399999999782e-01
-3.880131299999999839e-01
-2.316350000000000076e-01
-1.570244000000000084e-01
-1.421059299999999914e-01
-3.323611900000000147e-02
-1.100446000000000063e-02
3.313550999999999996e-02
4.702679099999999834e-02
5.351336000000000287e-02
8.191973299999999458e-02
9.750706200000000545e-02
7.890474299999999941e-02
5.216593299999999767e-02
1.070812099999999961e-01
1.689014000000000071e-01
1.423863300000000054e-01
1.834704199999999952e-01
1.927721400000000085e-01
1.960649700000000051e-01
2.129467399999999955e-01
2.384525000000000117e-01
3.297404299999999733e-01
3.896478899999999967e-01
4.262233599999999956e-01
4.342927999999999789e-01
4.815505500000000216e-01
5.233662100000000539e-01
4.576251199999999963e-01
4.964455500000000132e-01
5.028600500000000029e-01
5.693596499999999949e-01
5.721837199999999513e-01
5.117800900000000208e-01
5.802030000000000243e-01
4.978375299999999726e-01
5.423912400000000522e-01
4.253618800000000255e-01
4.222434700000000096e-01
4.096898600000000168e-01
2.918765500000000124e-01
3.726338599999999834e-01
3.728981599999999785e-01
2.916444999999999732e-01
3.380179899999999904e-01
3.334516100000000094e-01
2.512424100000000271e-01
2.620783799999999997e-01
2.753899799999999787e-01
2.911282900000000118e-01
2.783353700000000264e-01
3.499423799999999973e-01
4.379499499999999768e-01
6.486744199999999738e-01
8.411960899999999519e-01
9.457917000000000129e-01
1.102338899999999899e+00
1.182068399999999908e+00
1.490265299999999904e+00
1.643130999999999897e+00
1.667430699999999932e+00
1.572580599999999995e+00
1.568609900000000001e+00
1.365992499999999943e+00
1.147398600000000046e+00
9.916875899999999522e-01
7.460912600000000339e-01
5.353594999999999882e-01
1.488761299999999954e-01
-1.014590699999999984e-01
-2.618188200000000077e-01
-2.772681200000000068e-01
-2.527805000000000191e-01
-2.720468300000000172e-01
-3.158388599999999991e-01
-2.824192600000000053e-01
-2.769457300000000011e-01
-1.972046500000000091e-01
-2.057777699999999987e-01
-2.674415800000000121e-01
-1.810250399999999982e-01
-2.374737500000000112e-01
-1.671286800000000017e-01
-1.507201400000000024e-01
6.952516499999999988e-02
4.640674499999999925e-01
9.208597099999999980e-01
1.068694100000000091e+00
1.291343799999999931e+00
1.745112500000000066e+00
1.940228599999999970e+00
1.701513800000000076e+00
1.392998100000000017e+00
1.370926799999999890e+00
1.668085899999999899e+00
2.264972999999999986e-02
