-2.272562600000000099e+00
-4.414921699999999838e+00
-4.895896500000000096e+00
-4.650301699999999983e+00
-3.591679599999999972e+00
-2.305529799999999963e+00
-1.377981600000000029e+00
-1.073697499999999971e+00
-4.691410999999999776e-01
-6.667211500000000401e-02
-7.194165900000000502e-02
-6.313246999999999609e-02
-1.480950299999999990e-02
-1.247081100000000005e-02
1.572612899999999841e-02
-4.614152400000000320e-02
-3.250774499999999848e-03
-6.629948600000000296e-03
-9.351862599999999359e-02
-8.394700099999999332e-02
-1.052977499999999955e-01
-1.386321000000000081e-01
-6.894404099999999758e-02
-2.349498200000000037e-01
-2.486367700000000069e-01
-2.780859399999999759e-01
-3.887554200000000182e-01
-3.446842500000000253e-01
-4.514792300000000091e-01
-4.766947599999999952e-01
-4.784597700000000065e-01
-5.383023799999999692e-01
-6.120138000000000522e-01
-5.993193799999999571e-01
-6.288189199999999479e-01
-7.308647400000000127e-01
-6.507635899999999474e-01
-5.098047300000000392e-01
-4.410561000000000065e-01
-4.524316600000000133e-01
-3.974308799999999864e-01
-2.788518500000000122e-01
-1.831129800000000085e-01
-1.584910800000000064e-01
-1.001472199999999951e-01
-3.743852699999999922e-02
6.213061700000000430e-03
4.936083699999999769e-02
1.244567399999999963e-01
1.115197599999999956e-01
1.352171699999999976e-01
1.559742000000000073e-01
1.183965399999999946e-01
1.634998300000000127e-01
1.443359999999999921e-01
1.321846399999999921e-01
1.999460499999999863e-01
1.482067999999999997e-01
1.376072600000000090e-01
1.706554499999999863e-01
2.250461900000000071e-01
1.908535899999999896e-01
1.909868899999999925e-01
3.038256899999999816e-01
2.238453300000000090e-01
2.121432000000000040e-01
3.368610400000000005e-01
3.549234099999999947e-01
3.980424599999999868e-01
4.436776399999999843e-01
4.256867799999999868e-01
4.205063399999999785e-01
4.186340000000000061e-01
5.452755900000000322e-01
5.262705300000000141e-01
4.894875799999999777e-01
5.095274899999999718e-01
4.851233799999999929e-01
5.194280399999999798e-01
5.893247999999999820e-01
4.164472599999999858e-01
4.296311999999999909e-01
4.556778400000000007e-01
3.047469300000000270e-01
3.871952900000000253e-01
3.118460100000000068e-01
3.150292100000000040e-01
3.549571000000000254e-01
3.653550400000000198e-01
2.974879100000000220e-01
2.212779599999999958e-01
2.762443299999999824e-01
3.547757699999999903e-01
3.584505499999999789e-01
4.399735599999999858e-01
6.220844399999999608e-01
8.582539799999999719e-01
1.020134199999999991e+00
1.095756900000000034e+00
1.230927700000000069e+00
1.459777000000000102e+00
1.707869700000000046e+00
1.757415399999999961e+00
1.657226400000000099e+00
1.692803999999999975e+00
1.499754400000000043e+00
1.374877300000000080e+00
1.196471700000000027e+00
8.099578800000000189e-01
5.533283599999999636e-01
2.917307599999999779e-01
-7.290870200000000578e-02
-1.708619799999999966e-01
-1.888969100000000012e-01
-3.145794399999999880e-01
-2.461948599999999876e-01
-3.584551999999999738e-01
-2.135066700000000095e-01
-3.091388199999999808e-01
-3.587085899999999938e-01
-3.733728599999999731e-01
-3.333642399999999784e-01
-1.955551700000000004e-01
-3.498480299999999765e-01
-2.480362200000000017e-01
-2.443450000000000066e-01
-2.280155899999999902e-01
-1.279613300000000120e-01
2.993350399999999967e-01
7.647600799999999532e-01
8.317532899999999785e-01
7.877577999999999525e-01
8.519609299999999497e-01
8.466683900000000484e-01
6.987411599999999723e-01
4.970724999999999727e-01
9.187086700000000050e-01
9.642033599999999538e-01
3.361763899999999916e-01
-2.155930300000000077e+00
