-1.148061800000000021e+00
-3.241784099999999835e+00
-3.851462699999999906e+00
-3.917720500000000161e+00
-3.791260900000000156e+00
-3.163410700000000020e+00
-1.992910299999999912e+00
-1.620708299999999991e+00
-1.350623200000000024e+00
-6.783105499999999566e-01
-3.692457699999999732e-01
-4.065809599999999913e-01
-3.226807199999999765e-01
-3.566468400000000205e-01
-3.620285100000000256e-01
-3.400130199999999991e-01
-3.463867900000000000e-01
-3.348204200000000075e-01
-3.865025699999999897e-01
-3.444854600000000211e-01
-4.220260200000000017e-01
-3.892430100000000004e-01
-4.106203500000000228e-01
-4.902789499999999911e-01
-5.528280599999999545e-01
-5.649765900000000007e-01
-5.240734200000000120e-01
-5.198761100000000024e-01
-6.310258300000000098e-01
-6.676183399999999768e-01
-7.436707700000000365e-01
-7.257881299999999758e-01
-7.335258999999999530e-01
-8.267038899999999968e-01
-7.657209299999999663e-01
-7.512663600000000219e-01
-7.390989799999999610e-01
-7.356729800000000319e-01
-6.798029700000000064e-01
-7.341351799999999983e-01
-6.382654800000000517e-01
-4.872298299999999749e-01
-4.664301699999999773e-01
-3.784383199999999947e-01
-2.616244500000000084e-01
-2.316543199999999969e-01
-2.426324300000000100e-01
-1.505971100000000062e-01
-1.498568100000000070e-01
-8.977152900000000268e-02
-2.990207699999999913e-02
-7.379019500000000287e-02
-1.744440799999999936e-03
-1.174223500000000017e-03
8.890506799999999682e-03
3.747866200000000286e-02
4.371827100000000299e-02
4.051855199999999935e-02
4.196075199999999700e-02
9.012308800000000397e-02
1.204239299999999985e-01
9.676995200000000630e-02
2.326104800000000083e-01
2.137114499999999973e-01
1.725763499999999895e-01
2.433071199999999878e-01
3.463759299999999985e-01
4.015910200000000208e-01
4.376328700000000071e-01
5.229097600000000012e-01
5.122363899999999859e-01
5.247171299999999761e-01
5.334311800000000048e-01
5.218466099999999885e-01
5.842466099999999996e-01
5.295241899999999502e-01
5.434938200000000164e-01
5.711645499999999931e-01
5.091304300000000227e-01
5.153109999999999635e-01
4.426864300000000196e-01
5.283398500000000553e-01
4.868149099999999896e-01
4.105483699999999958e-01
4.484587300000000276e-01
3.844678799999999841e-01
4.942851100000000275e-01
4.325544100000000003e-01
3.994823299999999966e-01
4.201982400000000006e-01
3.080572599999999994e-01
3.616178899999999974e-01
3.221837599999999857e-01
4.289398099999999769e-01
4.010924799999999735e-01
4.683699299999999899e-01
6.215038699999999583e-01
7.329205199999999643e-01
9.645591900000000107e-01
1.068200500000000108e+00
1.188377599999999923e+00
1.484980399999999978e+00
1.748144399999999932e+00
1.893809999999999993e+00
1.770459400000000016e+00
1.727281400000000078e+00
1.537452400000000052e+00
1.507809500000000025e+00
1.287331199999999898e+00
9.986834999999999463e-01
6.939526799999999884e-01
4.325430599999999792e-01
1.063642800000000055e-01
-6.353047000000000555e-02
-1.632222899999999921e-01
-1.481546900000000055e-01
-1.229261100000000051e-01
-9.271148699999999521e-02
-1.359261499999999956e-01
-1.500136599999999931e-01
-1.710736800000000057e-01
-1.409729000000000121e-01
-8.453524900000000675e-02
-1.265231400000000062e-01
-1.996894399999999958e-01
-9.688086899999999446e-02
-8.426921900000000631e-02
-3.224967599999999796e-02
1.901202399999999959e-01
6.761508000000000518e-01
1.161532100000000067e+00
1.093067400000000022e+00
1.514884399999999909e+00
1.822969199999999956e+00
1.547018100000000063e+00
1.219055599999999906e+00
1.055029800000000018e+00
1.390543700000000049e+00
8.770543499999999826e-01
-1.496210299999999993e+00
