1.924891800000000097e-01
-2.404364999999999863e+00
-4.387645400000000251e+00
-4.947195899999999646e+00
-4.147436700000000087e+00
-3.099247500000000155e+00
-1.879101499999999980e+00
-1.557717199999999913e+00
-1.065904900000000044e+00
-2.886602600000000018e-01
-2.491017500000000107e-01
-2.401248900000000075e-01
-2.464527800000000102e-01
-1.867540699999999942e-01
-2.520507900000000245e-01
-2.051539099999999949e-01
-2.062771399999999977e-01
-1.639126099999999864e-01
-1.722288499999999889e-01
-2.651012500000000105e-01
-2.719099700000000008e-01
-3.213772899999999821e-01
-3.669840200000000219e-01
-2.544653000000000054e-01
-3.435636300000000087e-01
-3.591060899999999889e-01
-3.414848699999999959e-01
-3.873751999999999751e-01
-4.623282400000000014e-01
-4.568438000000000221e-01
-5.893185699999999860e-01
-5.407038899999999648e-01
-6.349192999999999643e-01
-6.538525400000000376e-01
-6.644857600000000364e-01
-7.343717600000000401e-01
-7.065348399999999973e-01
-7.463656699999999811e-01
-7.808298599999999867e-01
-7.245760799999999557e-01
-6.759930199999999445e-01
-6.054195900000000075e-01
-5.819573099999999499e-01
-4.278289499999999856e-01
-3.888813300000000250e-01
-1.895262799999999914e-01
-1.104424400000000028e-01
1.702954399999999932e-03
6.756085400000000352e-02
4.745132199999999717e-02
4.962576800000000066e-02
1.129916200000000009e-01
2.391343300000000061e-01
1.919782200000000050e-01
2.580970300000000051e-01
2.169474999999999876e-01
2.039550699999999883e-01
2.801193799999999734e-01
2.173637599999999892e-01
3.197880499999999904e-01
2.611574400000000185e-01
3.722803800000000218e-01
3.818347400000000058e-01
3.488859400000000055e-01
4.604416900000000146e-01
4.140588199999999941e-01
4.565299800000000019e-01
4.391431000000000084e-01
5.861515400000000264e-01
5.539956600000000009e-01
6.034384099999999806e-01
7.004440800000000245e-01
6.705302100000000154e-01
6.671666899999999512e-01
6.358693199999999601e-01
6.250031999999999810e-01
6.356917300000000104e-01
7.165489400000000231e-01
6.639389399999999775e-01
6.182989399999999636e-01
5.930286999999999642e-01
6.128906100000000023e-01
5.321099200000000140e-01
6.144971900000000264e-01
4.677664100000000214e-01
4.819222699999999859e-01
4.310045100000000073e-01
3.954997000000000096e-01
3.915919199999999822e-01
4.092416199999999726e-01
4.027346800000000115e-01
3.976869599999999783e-01
3.569892499999999802e-01
2.962424300000000010e-01
2.844746599999999903e-01
3.838817400000000268e-01
4.419665899999999925e-01
5.321214399999999456e-01
8.278373900000000063e-01
1.126596600000000059e+00
1.190098000000000100e+00
1.271111600000000008e+00
1.657429599999999947e+00
1.893226099999999912e+00
1.998013800000000062e+00
1.885277499999999939e+00
1.775279800000000074e+00
1.599597099999999994e+00
1.453945499999999891e+00
1.274947400000000064e+00
9.067595699999999592e-01
4.915720700000000276e-01
-7.729567500000000292e-03
-1.490987099999999954e-01
-3.194869699999999813e-01
-3.677717500000000084e-01
-2.752181400000000000e-01
-3.073485100000000192e-01
-3.872388399999999731e-01
-3.417337799999999870e-01
-4.323875099999999749e-01
-2.217807499999999987e-01
-2.111685799999999946e-01
-3.920698100000000186e-01
-3.488852399999999854e-01
-3.027766800000000202e-01
-3.314504699999999970e-01
-2.282439900000000077e-01
-1.160637100000000005e-01
2.588291500000000078e-01
1.086890099999999970e+00
1.285615900000000034e+00
7.952350999999999726e-01
6.290114700000000170e-01
2.743770700000000007e-01
-1.587372599999999911e-01
-2.418839799999999984e-01
-5.867510900000000307e-02
7.741260500000000100e-01
-1.206414700000000062e+00
