-1.545803199999999933e+00
-2.852089499999999944e+00
-3.799033300000000057e+00
-4.510146100000000047e+00
-4.076051399999999880e+00
-2.997704500000000216e+00
-1.784647499999999942e+00
-1.335786499999999988e+00
-1.049566800000000022e+00
-5.838283100000000170e-01
-1.356266600000000100e-01
1.579611200000000104e-02
-1.230215600000000020e-01
-9.807533599999999907e-02
-3.129633399999999788e-01
-1.565949600000000053e-01
-3.565571800000000291e-02
-4.409647600000000112e-01
-4.092297799999999874e-01
-3.035344400000000165e-01
-1.794523500000000105e-01
-2.162870500000000085e-01
-2.410420100000000010e-01
-2.430768700000000004e-01
-3.714757200000000092e-01
-3.457862600000000119e-01
-3.867312099999999919e-01
-1.357137800000000061e-01
-2.937876400000000165e-01
-4.508319299999999918e-01
-4.702593999999999941e-01
-3.233143700000000176e-01
-1.870288300000000070e-01
-4.792519299999999927e-01
-3.065596099999999824e-01
-2.662363300000000210e-01
-6.191677300000000272e-01
-4.330712899999999976e-01
-3.341341500000000186e-01
-5.349347399999999642e-01
-3.795184999999999809e-01
-2.676007599999999931e-01
-2.482469800000000060e-01
-2.534376600000000090e-01
-3.858804699999999754e-01
-2.235829699999999920e-01
-1.980595500000000009e-01
-2.584733499999999906e-01
-8.293572300000000286e-02
-2.082011099999999948e-01
1.251866699999999999e-01
3.665723600000000276e-02
-1.680956200000000011e-01
2.491068800000000028e-01
2.631430699999999859e-02
-1.319914000000000087e-01
1.362037399999999898e-01
1.838658999999999988e-01
2.654327800000000001e-02
-2.486525300000000105e-01
-1.447409900000000138e-01
-6.576442899999999925e-02
-9.621699499999999960e-02
4.430948199999999726e-02
2.635743799999999970e-01
5.674973600000000201e-02
-4.048615800000000126e-02
3.563970300000000035e-01
4.685568999999999984e-01
-3.920285099999999689e-02
-4.407757200000000236e-02
3.470093799999999784e-01
6.059461699999999507e-01
2.328809699999999927e-01
2.736007200000000195e-01
4.215377299999999994e-01
4.605087299999999773e-01
7.149847499999999467e-01
6.180484299999999820e-01
5.764053900000000175e-01
6.139503899999999570e-01
4.943368499999999943e-01
5.876215799999999767e-01
6.117949099999999696e-01
4.731143500000000168e-01
7.613930899999999946e-01
5.851111700000000138e-01
4.049506099999999886e-01
5.397250900000000184e-01
6.330043899999999724e-01
5.544582000000000122e-01
3.154991999999999797e-01
5.582895900000000022e-01
6.961995800000000401e-01
7.174635600000000002e-01
7.915919200000000044e-01
9.332234499999999544e-01
1.099597500000000005e+00
1.336062599999999989e+00
1.696761399999999975e+00
1.707146000000000052e+00
1.799517000000000033e+00
2.083437599999999890e+00
1.985474799999999984e+00
1.887357699999999916e+00
1.962795599999999974e+00
1.403691500000000092e+00
7.841832100000000194e-01
8.308599300000000243e-01
6.443813999999999931e-01
1.735434499999999880e-01
6.999762800000000618e-02
7.153441000000000660e-02
-1.650173699999999966e-01
-3.240203799999999967e-01
-1.851116999999999901e-01
-1.933407199999999937e-01
6.492596400000000267e-02
2.600184599999999860e-02
-2.092917300000000091e-01
-1.614307500000000117e-01
-3.791840200000000105e-01
-1.544099999999999917e-01
1.240401899999999946e-01
3.017933100000000021e-02
-3.057644199999999812e-01
2.680602400000000121e-02
3.890987399999999985e-01
7.898920999999999859e-01
1.569773899999999944e+00
1.732827799999999918e+00
1.317291500000000060e+00
1.084056499999999978e+00
9.936727400000000543e-01
7.494407799999999731e-02
-8.479035299999999609e-01
-9.060808500000000487e-01
-1.181127800000000061e+00
-8.417784499999999559e-01
-1.563670399999999905e+00
