-1.784607000000000054e+00
-3.388157599999999992e+00
-3.248681799999999953e+00
-3.488572299999999959e+00
-3.193728300000000075e+00
-2.578180800000000161e+00
-1.767984299999999953e+00
-1.565200799999999948e+00
-1.399332800000000043e+00
-8.597261999999999960e-01
-7.393979699999999600e-01
-7.222440799999999550e-01
-6.739988399999999880e-01
-6.405226899999999501e-01
-7.030149199999999876e-01
-6.488028000000000128e-01
-6.281900700000000448e-01
-6.603413700000000386e-01
-6.560705399999999798e-01
-7.076719999999999677e-01
-7.350835300000000405e-01
-6.701988599999999519e-01
-7.019450799999999990e-01
-7.128371199999999908e-01
-6.853451699999999480e-01
-7.221343099999999460e-01
-7.213573699999999977e-01
-7.839174100000000367e-01
-7.775208999999999593e-01
-7.751340500000000189e-01
-8.589383999999999908e-01
-8.307096899999999451e-01
-8.058649199999999846e-01
-7.781284000000000534e-01
-8.196996100000000229e-01
-8.292183199999999532e-01
-7.850196400000000185e-01
-7.706634300000000382e-01
-7.057876499999999886e-01
-7.329677500000000290e-01
-6.960430300000000070e-01
-6.245995600000000536e-01
-5.700508899999999768e-01
-5.598090799999999589e-01
-4.287565700000000035e-01
-3.879739200000000277e-01
-3.242972800000000211e-01
-3.503692999999999946e-01
-3.524329199999999829e-01
-2.939189799999999964e-01
-2.176182799999999973e-01
-1.899857399999999863e-01
-1.772879599999999944e-01
-2.158317100000000099e-01
-1.787517899999999937e-01
-1.268681600000000076e-01
-1.825069800000000131e-01
-1.395556300000000138e-01
-1.494968700000000039e-01
-1.267566300000000090e-01
-5.046288100000000110e-02
-2.733366200000000162e-02
-2.616277599999999870e-02
1.017684299999999922e-03
-1.579252399999999876e-02
6.066902500000000142e-02
1.094252399999999931e-01
1.180095200000000066e-01
1.402405100000000127e-01
1.886460000000000081e-01
2.347444700000000106e-01
2.260073999999999972e-01
3.051925099999999724e-01
3.051617699999999989e-01
3.208303399999999916e-01
3.775005200000000061e-01
4.118225200000000252e-01
3.726357699999999773e-01
4.430072700000000085e-01
3.707848799999999834e-01
3.811772199999999833e-01
4.301804000000000183e-01
3.725011699999999926e-01
3.891719799999999729e-01
2.811988999999999739e-01
3.645636199999999771e-01
3.030771999999999911e-01
3.106517500000000043e-01
3.998453599999999830e-01
3.244352799999999926e-01
3.658546500000000035e-01
3.771601800000000115e-01
4.524717600000000006e-01
6.000348699999999980e-01
7.324815900000000157e-01
8.861677700000000213e-01
1.040961599999999931e+00
1.085232900000000056e+00
1.219063100000000066e+00
1.474685299999999977e+00
1.684910300000000083e+00
1.779727099999999895e+00
1.773202900000000026e+00
1.699833699999999892e+00
1.586913000000000018e+00
1.501688600000000040e+00
1.376477299999999904e+00
1.213963499999999973e+00
9.909753399999999823e-01
7.245319900000000146e-01
4.841733899999999813e-01
2.817261099999999741e-01
3.054694199999999915e-01
2.038687000000000138e-01
2.797828700000000168e-01
3.031449199999999844e-01
2.720143300000000264e-01
2.605148299999999750e-01
2.052780600000000122e-01
2.390044199999999952e-01
3.144629999999999925e-01
2.762326099999999895e-01
3.614577700000000116e-01
3.280210399999999860e-01
3.942412000000000138e-01
4.154876699999999756e-01
3.692458299999999971e-01
5.702896499999999813e-01
8.341893500000000516e-01
1.302147100000000002e+00
1.509545700000000101e+00
1.559589499999999962e+00
1.786095800000000011e+00
1.737390500000000060e+00
1.549224600000000063e+00
1.245990399999999942e+00
1.244538200000000039e+00
1.546268100000000034e+00
1.444360899999999948e+00
-6.302986700000000331e-02
