-1.675360500000000030e+00
-3.469428000000000178e+00
-4.230538899999999991e+00
-4.597622199999999992e+00
-3.939075700000000069e+00
-2.970644699999999805e+00
-1.864925900000000025e+00
-1.505054799999999915e+00
-1.244293899999999953e+00
-5.218054600000000542e-01
-2.721832599999999824e-01
-3.457783999999999858e-01
-2.624821999999999989e-01
-2.916305200000000042e-01
-2.839514000000000205e-01
-2.878059600000000273e-01
-3.529262400000000022e-01
-4.243869699999999745e-01
-2.836473199999999806e-01
-2.720080799999999854e-01
-2.643019799999999919e-01
-2.716522599999999787e-01
-3.060189799999999960e-01
-3.305451899999999887e-01
-2.579348799999999775e-01
-3.106079400000000268e-01
-4.098988499999999813e-01
-3.809605300000000194e-01
-4.538212999999999830e-01
-5.397030699999999515e-01
-4.642574400000000212e-01
-4.189910299999999865e-01
-5.661123999999999601e-01
-4.490656399999999882e-01
-4.477283100000000182e-01
-4.729893299999999856e-01
-5.026059400000000288e-01
-4.988208299999999928e-01
-4.802289299999999983e-01
-4.687789199999999878e-01
-5.002625400000000333e-01
-4.018120800000000159e-01
-2.834432700000000249e-01
-1.922592100000000137e-01
-1.151078799999999958e-01
-6.566398699999999311e-02
8.556496500000000671e-02
3.572004200000000046e-02
-3.216662300000000009e-03
1.142697399999999947e-01
9.664585000000000536e-02
7.999813899999999589e-02
1.245400700000000027e-01
1.097585100000000036e-01
1.412216199999999922e-01
1.608098599999999989e-01
1.826067000000000107e-01
1.879331300000000038e-01
1.673398600000000069e-01
2.185577499999999951e-01
2.224639099999999869e-01
1.899402400000000102e-01
2.630045100000000247e-01
1.969762899999999983e-01
1.607463600000000048e-01
3.142725299999999944e-01
2.578957499999999792e-01
2.884737900000000077e-01
3.427883999999999931e-01
3.523563800000000246e-01
4.194836499999999857e-01
4.733017700000000105e-01
5.403809099999999921e-01
4.655306599999999850e-01
6.041103899999999971e-01
5.501840700000000250e-01
5.342052000000000467e-01
5.706714800000000087e-01
6.404277099999999834e-01
5.196916599999999997e-01
6.320759900000000320e-01
5.662305499999999991e-01
4.467995499999999898e-01
5.658094799999999758e-01
5.441811100000000234e-01
4.733189199999999763e-01
5.239487800000000028e-01
4.490687099999999821e-01
4.653053300000000170e-01
4.157627899999999932e-01
4.062150999999999956e-01
3.773720400000000197e-01
3.880819500000000088e-01
5.215350199999999603e-01
6.444690199999999480e-01
7.842754800000000248e-01
9.053567599999999826e-01
1.135585000000000067e+00
1.276259299999999985e+00
1.478953100000000020e+00
1.680539999999999923e+00
1.940662799999999910e+00
2.044291400000000092e+00
1.944572100000000026e+00
1.861724099999999993e+00
1.628864199999999984e+00
1.497697199999999951e+00
1.373201899999999975e+00
9.812947199999999537e-01
8.981460900000000080e-01
5.177784600000000514e-01
1.794631299999999985e-01
-1.505984300000000053e-01
-3.156675999999999926e-01
-2.916702600000000145e-01
-2.919253199999999882e-01
-4.135295199999999838e-01
-3.853200099999999906e-01
-3.673435500000000187e-01
-4.608907600000000104e-01
-3.706182900000000169e-01
-3.656504099999999813e-01
-3.018535900000000050e-01
-3.377208400000000221e-01
-2.670344800000000185e-01
-1.965905900000000095e-01
-2.883126100000000247e-01
-1.958132499999999943e-01
6.204067099999999862e-02
6.841014300000000103e-01
1.132063400000000053e+00
1.055149399999999904e+00
8.831024299999999938e-01
6.089170900000000497e-01
3.277652699999999975e-01
-1.794949299999999970e-01
-1.139012699999999989e-01
4.105531700000000228e-01
6.919228400000000390e-01
-7.700520800000000277e-01
