-1.310422399999999987e+00
-3.326568799999999992e+00
-3.995612599999999848e+00
-4.444600799999999907e+00
-3.945861299999999794e+00
-3.248387500000000205e+00
-2.091545800000000010e+00
-1.380229300000000103e+00
-1.147103699999999948e+00
-5.173729700000000431e-01
-7.629644600000000387e-02
-2.355096999999999885e-01
-1.521055699999999955e-01
-6.414296599999999571e-02
-9.533415400000000428e-02
-1.531885699999999961e-01
-1.005165999999999976e-01
-1.255543899999999879e-01
-3.774015499999999745e-02
-5.829723600000000228e-02
-6.542742499999999739e-02
-8.017333899999999625e-02
-1.026274400000000003e-01
-7.537971499999999991e-02
-1.364828899999999956e-01
-1.840708699999999975e-01
-1.586013900000000088e-01
-8.688890100000000449e-02
-7.338878199999999963e-02
-1.549116399999999893e-01
-1.591873500000000052e-01
-3.875360500000000347e-02
-2.370146999999999948e-01
-2.183648499999999992e-01
-1.804385000000000017e-01
-2.527908400000000166e-01
-2.062514199999999909e-01
-3.069693199999999900e-01
-2.190158500000000119e-01
-1.054497999999999963e-01
-1.583172599999999874e-01
-1.131404700000000069e-01
-1.079773599999999945e-01
-5.288667200000000262e-02
1.305906400000000078e-01
5.706258100000000111e-02
1.477586300000000019e-01
1.414058300000000101e-01
7.503738899999999601e-02
1.535348400000000058e-01
2.030260500000000135e-01
1.137300799999999973e-01
9.845954699999999449e-02
1.349575399999999870e-01
6.323529999999999429e-02
6.499026800000000381e-02
6.952280099999999519e-02
8.391613200000000439e-02
8.113593800000000467e-02
1.592192500000000066e-01
1.222802499999999931e-01
5.651174400000000264e-02
1.287145899999999898e-01
1.092035600000000051e-01
9.106265500000000623e-02
1.120792000000000038e-01
1.611149900000000135e-01
1.578541900000000053e-01
1.226546800000000020e-01
1.342130800000000124e-01
3.264026400000000216e-01
2.450990700000000022e-01
2.832487100000000146e-01
2.855177700000000041e-01
4.176268399999999992e-01
5.131752099999999928e-01
4.519323800000000224e-01
4.233077700000000276e-01
4.105015000000000192e-01
4.399231100000000061e-01
3.671671300000000082e-01
4.133580499999999769e-01
5.384950899999999541e-01
4.639351099999999839e-01
4.149394499999999875e-01
4.254775299999999927e-01
4.391780900000000210e-01
3.162227499999999969e-01
2.670720200000000211e-01
2.193246500000000099e-01
3.542519599999999769e-01
5.315476599999999774e-01
6.063117999999999563e-01
7.521967899999999485e-01
8.319440900000000250e-01
9.078755200000000469e-01
1.086811699999999936e+00
1.389988400000000013e+00
1.708024200000000103e+00
1.960450299999999979e+00
2.014759900000000048e+00
1.995718000000000103e+00
1.881768000000000107e+00
1.634876800000000019e+00
1.490516399999999964e+00
1.331357799999999925e+00
1.101785299999999967e+00
8.231984500000000260e-01
5.345775099999999780e-01
9.680354800000000315e-02
-2.122716199999999942e-01
-2.958230199999999921e-01
-4.212325599999999781e-01
-3.378335199999999983e-01
-3.071410600000000213e-01
-2.666695900000000119e-01
-3.259100999999999804e-01
-2.542002199999999767e-01
-2.888474999999999793e-01
-3.653571999999999931e-01
-2.891050399999999798e-01
-3.019320799999999916e-01
-3.210449400000000009e-01
-2.603180700000000125e-01
-2.585985599999999773e-01
-3.057776300000000225e-01
-4.576458399999999704e-02
2.757773199999999925e-01
8.083622499999999489e-01
9.009407999999999861e-01
8.996870900000000226e-01
8.480108100000000038e-01
6.535700899999999924e-01
4.323415400000000242e-01
9.016117399999999671e-02
1.587156700000000031e-01
7.960553799999999791e-01
7.777813699999999719e-02
-1.417028500000000024e+00
-3.355584100000000181e+00
