1.057634600000000091e+00
-6.086206499999999853e-01
-2.646214599999999972e+00
-3.865376700000000110e+00
-4.393100500000000075e+00
-2.976142799999999866e+00
-1.786754399999999965e+00
-1.901959699999999920e+00
-1.625527299999999897e+00
-9.702139400000000524e-01
-5.556311800000000023e-01
-4.728445499999999746e-01
-8.559684400000000526e-01
-4.311711599999999978e-01
-3.519698800000000127e-01
-9.154700399999999849e-01
-6.937339700000000331e-01
-5.250970299999999646e-01
-2.707914000000000154e-01
-4.319172200000000184e-02
-7.592357499999999870e-01
-6.745414100000000079e-01
-9.846762699999999160e-03
-1.519854499999999942e-01
-1.412386200000000036e+00
-1.373095900000000036e+00
-6.675189500000000553e-01
-5.675613000000000463e-01
-6.041558999999999680e-01
-2.457977399999999868e-01
-2.486410099999999956e-01
-9.853171099999999960e-01
-9.779329700000000125e-01
-8.949538500000000507e-01
-1.214745799999999987e+00
-1.279647299999999932e+00
-1.009180900000000047e+00
-9.073286699999999483e-01
2.673334900000000174e-03
-4.185858299999999921e-01
-1.207047999999999899e+00
-1.382878999999999969e+00
-6.556031500000000234e-01
-2.335670900000000050e-01
-3.273205100000000090e-01
-1.175055500000000003e-01
-3.317313499999999804e-01
-2.679407999999999790e-01
-1.206278900000000015e-01
-4.619650799999999724e-01
-3.104843400000000253e-01
-3.339077399999999807e-02
3.262766699999999909e-01
-4.030818199999999796e-02
-2.124484600000000056e-01
4.837210299999999963e-01
3.433237399999999884e-01
-2.274529799999999991e-01
-7.332988499999999743e-02
3.976101599999999903e-01
4.695450500000000194e-01
-2.218644700000000081e-01
6.405563499999999966e-02
6.017720899999999817e-01
3.029349100000000017e-01
9.447235599999999345e-02
4.844251199999999868e-01
6.074110200000000237e-01
5.324686699999999773e-01
2.983836899999999792e-01
3.377447100000000035e-02
3.870870299999999986e-01
4.724363200000000207e-01
3.823737199999999725e-01
5.790598500000000426e-01
6.616886299999999999e-01
8.000873499999999749e-01
8.699525000000000174e-01
7.414369899999999625e-01
5.089981999999999562e-01
3.855212599999999767e-01
7.303931800000000585e-02
3.645149599999999990e-01
5.537409300000000201e-01
4.413324400000000203e-02
2.342951600000000023e-01
6.309687600000000174e-01
6.379792300000000083e-01
5.092564800000000114e-01
5.196865099999999904e-01
7.261279999999999957e-01
6.340189000000000519e-01
1.591950400000000099e-01
-1.866043500000000022e-01
1.849167000000000172e-02
3.669552700000000001e-01
7.150933999999999902e-01
1.362440400000000107e+00
1.009635899999999920e+00
3.706288799999999939e-01
9.086063199999999673e-01
2.048218599999999778e+00
2.245962399999999803e+00
1.151319399999999993e+00
1.406655200000000105e+00
2.070872800000000069e+00
2.266614899999999988e+00
1.755053600000000102e+00
1.797151799999999966e+00
1.125010899999999925e+00
4.937006700000000081e-01
6.932797000000000542e-01
-3.026842100000000091e-01
-3.875978199999999818e-01
-9.851493299999999897e-02
1.955918799999999957e-01
-1.116947699999999988e-01
-6.143396300000000115e-02
4.266268899999999809e-01
6.819274599999999853e-02
-4.229370899999999878e-02
-1.997232899999999978e-01
-3.924756899999999882e-01
-4.547400600000000015e-01
-1.317933400000000001e-03
-2.523241700000000143e-01
-2.160901899999999876e-01
5.512239399999999678e-01
4.356987699999999991e-02
4.813122999999999707e-02
1.062775900000000107e+00
1.186333300000000035e+00
1.103498199999999985e+00
1.165156800000000104e+00
9.059066099999999455e-01
4.395880999999999816e-01
2.568949999999999845e-01
1.088041700000000001e+00
1.686662799999999907e+00
2.152336400000000038e-01
