7.403586500000000070e-01
-2.177994700000000172e+00
-3.705828900000000203e+00
-4.167688499999999685e+00
-3.607305499999999832e+00
-2.648081599999999813e+00
-1.572797400000000012e+00
-1.177302099999999907e+00
-7.454602299999999460e-01
1.678641100000000108e-01
3.174882199999999877e-01
2.362064399999999897e-01
3.116040199999999816e-01
2.977325900000000192e-01
3.172739500000000268e-01
2.396041999999999894e-01
1.012456099999999998e-01
1.585674199999999867e-01
1.671999299999999966e-01
1.081754300000000030e-01
4.897483799999999970e-02
-2.137831200000000001e-02
-1.196582199999999957e-01
-9.054792899999999922e-02
-9.463226200000000865e-03
-1.542208700000000099e-01
-1.870933599999999863e-01
-2.091689300000000029e-01
-2.401434799999999925e-01
-3.647526999999999853e-01
-4.329956999999999834e-01
-4.040679500000000091e-01
-6.191330800000000023e-01
-5.191512299999999636e-01
-5.722978600000000471e-01
-7.001175099999999984e-01
-7.001863000000000392e-01
-4.853506200000000104e-01
-4.773683599999999916e-01
-5.434210299999999716e-01
-3.589007300000000011e-01
-2.509959999999999969e-01
-1.559659200000000079e-01
-1.196674900000000014e-01
8.403032500000000293e-02
1.768892800000000098e-01
2.034105499999999955e-01
2.115926200000000090e-01
2.052436099999999930e-01
2.763333700000000226e-01
2.151807599999999987e-01
3.910650999999999988e-01
4.803975699999999960e-01
6.208819899999999947e-01
3.920932899999999832e-01
4.098512999999999740e-01
5.115710799999999558e-01
3.479518200000000228e-01
4.096608400000000261e-01
5.898093699999999995e-01
6.434317699999999585e-01
6.475251699999999833e-01
7.385671499999999501e-01
7.127525099999999503e-01
6.029067799999999755e-01
6.705116500000000146e-01
7.953073600000000187e-01
9.927934999999999954e-01
9.331977200000000083e-01
7.486074700000000526e-01
9.573552300000000015e-01
1.001775099999999918e+00
8.694571899999999909e-01
7.178443300000000304e-01
1.129427299999999912e+00
9.761051699999999665e-01
5.119459699999999724e-01
7.100351499999999483e-01
7.654157099999999714e-01
8.787429700000000121e-01
8.395491299999999768e-01
6.888852600000000548e-01
6.944972600000000051e-01
5.449232200000000415e-01
6.030012399999999939e-01
6.619793699999999559e-01
6.434446499999999514e-01
7.142070299999999650e-01
7.079666700000000201e-01
4.951242000000000143e-01
5.880116199999999571e-01
4.155535399999999990e-01
4.818104000000000275e-01
6.558410599999999757e-01
2.903480500000000242e-01
6.495239099999999821e-02
2.317315899999999873e-01
5.648256499999999569e-01
8.835207800000000056e-01
9.218652499999999694e-01
1.012701199999999968e+00
1.173987399999999903e+00
1.515789800000000076e+00
1.652552800000000044e+00
1.514629299999999956e+00
1.614241800000000060e+00
1.441510099999999905e+00
1.202490800000000082e+00
8.854154199999999530e-01
5.682549999999999546e-01
2.364702800000000049e-01
-4.605597900000000244e-01
-9.430240899999999815e-01
-1.200014300000000089e+00
-1.630784199999999906e+00
-1.750811499999999965e+00
-1.619658499999999890e+00
-1.752029599999999965e+00
-1.489083699999999899e+00
-1.384046799999999910e+00
-1.309091500000000075e+00
-1.210869100000000032e+00
-1.320777700000000054e+00
-1.124531500000000017e+00
-1.045530499999999918e+00
-1.381430600000000064e+00
-1.202268499999999962e+00
-9.649585800000000102e-01
-8.797867799999999905e-01
-6.051678000000000335e-01
1.312176600000000137e-01
9.679843500000000212e-02
1.650139200000000084e-01
4.395779000000000214e-01
3.742228100000000168e-01
6.373502500000000071e-02
1.743547399999999942e-02
4.510417800000000033e-01
9.686032599999999659e-01
-1.146761399999999931e+00
