-1.268157800000000002e+00
-3.337187699999999868e+00
-4.375897700000000334e+00
-4.411551300000000175e+00
-3.695583599999999969e+00
-2.734148600000000151e+00
-1.739776200000000106e+00
-1.528677199999999958e+00
-8.961360099999999829e-01
-3.737426099999999751e-01
-4.191062300000000240e-01
-3.341045899999999791e-01
-3.584726799999999880e-01
-3.169999099999999959e-01
-3.325213799999999775e-01
-3.488865899999999964e-01
-3.424047100000000010e-01
-3.842861699999999825e-01
-3.542383800000000194e-01
-4.554393999999999942e-01
-4.686160799999999904e-01
-4.362438200000000044e-01
-4.759216900000000083e-01
-4.289778699999999834e-01
-5.074614100000000017e-01
-4.939859699999999965e-01
-5.818541499999999589e-01
-6.303200300000000311e-01
-6.143804000000000487e-01
-6.542415700000000500e-01
-7.177151400000000292e-01
-7.928291499999999825e-01
-7.642883299999999602e-01
-8.482595899999999522e-01
-7.781998599999999655e-01
-8.141803199999999574e-01
-8.178888500000000006e-01
-7.688226799999999805e-01
-7.048543999999999921e-01
-6.123563100000000148e-01
-5.692985000000000406e-01
-4.867958299999999849e-01
-3.192137199999999786e-01
-2.550259799999999855e-01
-1.086496700000000037e-01
-1.139717700000000000e-01
-2.968604799999999960e-02
5.245995299999999667e-02
3.438161499999999732e-02
8.172759100000000221e-02
6.686262399999999551e-02
1.209024699999999980e-01
1.085607199999999994e-01
9.214567199999999791e-02
1.324620699999999873e-01
6.494388299999999392e-02
3.167155199999999865e-02
5.371777999999999970e-02
5.829051700000000003e-02
1.419779999999999931e-01
1.219706799999999980e-01
1.409427099999999988e-01
1.688524100000000083e-01
2.413019299999999978e-01
2.628717300000000257e-01
2.800367799999999852e-01
3.736921500000000007e-01
4.133545399999999925e-01
3.573242999999999836e-01
4.611742099999999733e-01
4.631326599999999738e-01
5.601798000000000055e-01
6.104434899999999775e-01
5.413727499999999582e-01
6.144186699999999446e-01
6.822972000000000481e-01
6.552550999999999792e-01
6.241633100000000267e-01
6.976643799999999729e-01
5.760373300000000141e-01
6.511673399999999834e-01
5.916476699999999589e-01
6.087693699999999764e-01
6.250211599999999645e-01
6.107732999999999635e-01
5.626105099999999526e-01
5.385938500000000406e-01
4.692342800000000036e-01
4.820954100000000020e-01
4.374613099999999921e-01
4.218882400000000255e-01
5.073790200000000139e-01
4.542694400000000243e-01
4.882948799999999867e-01
4.949630099999999810e-01
5.499565699999999779e-01
7.277881600000000173e-01
8.820430299999999502e-01
1.029170200000000035e+00
1.117513500000000048e+00
1.296637299999999993e+00
1.472302299999999953e+00
1.678076799999999924e+00
1.917796599999999962e+00
1.907883199999999890e+00
1.872841900000000059e+00
1.725091699999999895e+00
1.510066700000000095e+00
1.285908400000000062e+00
9.313788699999999698e-01
7.049322900000000169e-01
3.736022600000000193e-01
2.275698599999999815e-03
-2.629221099999999867e-01
-3.136187500000000017e-01
-3.359490099999999924e-01
-3.448134700000000108e-01
-2.857171299999999858e-01
-3.273119299999999732e-01
-3.008129500000000234e-01
-2.820338800000000146e-01
-3.289740999999999915e-01
-3.428766300000000156e-01
-3.563236000000000181e-01
-2.956019300000000127e-01
-2.440674399999999966e-01
-3.694904399999999756e-01
-3.217837499999999795e-01
-1.675015699999999885e-01
1.901005799999999912e-01
7.176380500000000273e-01
8.988133799999999951e-01
1.054966499999999918e+00
1.307263599999999970e+00
1.488577000000000039e+00
1.139506899999999989e+00
6.350530399999999576e-01
4.857190699999999750e-01
8.512408900000000278e-01
9.625255300000000458e-02
