-1.921475100000000102e+00
-3.331421199999999860e+00
-3.739972100000000133e+00
-4.165399299999999805e+00
-3.660429199999999827e+00
-3.169603099999999785e+00
-2.031080100000000055e+00
-1.302010700000000076e+00
-1.076720200000000016e+00
-5.299438100000000151e-01
-2.553301299999999885e-01
-1.452028900000000011e-01
-1.789278800000000114e-01
-2.409445500000000073e-01
-2.428964200000000018e-01
-2.157400899999999955e-01
-1.811386399999999897e-01
-1.288231400000000026e-01
-1.634621699999999900e-01
-2.217976200000000009e-01
-7.534956600000000670e-02
-1.558147599999999966e-01
-1.974933300000000086e-02
-5.585083899999999935e-02
-8.588853200000000354e-02
-3.132226300000000296e-02
-1.287918600000000080e-01
-1.525461899999999982e-01
-1.569336000000000064e-01
-1.736991999999999980e-01
-1.405664199999999975e-01
-9.375991200000000081e-02
-3.936570699999999978e-02
-1.671553400000000064e-02
-9.257735300000000112e-02
-1.673720600000000100e-02
2.389302199999999987e-02
-2.518439100000000042e-02
2.219671499999999881e-02
-8.463119099999999451e-03
-2.920760899999999896e-02
5.745637299999999809e-02
1.984380500000000047e-01
1.676421999999999912e-01
1.141138099999999961e-01
1.551887399999999917e-01
2.784634599999999960e-01
3.126867600000000080e-01
2.683252199999999754e-01
2.351517800000000047e-01
2.370928200000000097e-01
3.120471400000000006e-01
3.061712899999999848e-01
2.795775300000000185e-01
2.921269200000000121e-01
2.251479299999999961e-01
1.656321099999999991e-01
1.890920399999999890e-01
1.805523099999999936e-01
2.667731500000000144e-01
2.885794799999999993e-01
3.129838899999999868e-01
3.442529400000000073e-01
2.651754199999999950e-01
2.352814500000000031e-01
2.632326099999999780e-01
3.021424799999999911e-01
3.970009400000000244e-01
3.250049600000000094e-01
2.976157600000000070e-01
2.859248500000000082e-01
3.975876799999999989e-01
4.202744700000000111e-01
4.857265000000000055e-01
4.030442000000000191e-01
5.209740600000000166e-01
5.127045399999999864e-01
4.102038199999999968e-01
5.041893800000000203e-01
4.760005099999999878e-01
3.612007700000000043e-01
4.519039400000000040e-01
4.600404599999999844e-01
4.661045799999999906e-01
4.781575399999999920e-01
4.437608200000000003e-01
4.665402399999999949e-01
4.455554999999999932e-01
4.471333900000000194e-01
3.315686999999999940e-01
3.984801299999999880e-01
4.635268599999999850e-01
4.399587099999999751e-01
5.747788999999999815e-01
7.010583599999999915e-01
7.662367700000000115e-01
1.065611499999999934e+00
1.331023800000000090e+00
1.406554099999999918e+00
1.782905299999999915e+00
2.129553200000000146e+00
2.225658600000000042e+00
2.202184499999999989e+00
2.074456599999999984e+00
1.724295099999999969e+00
1.494479799999999914e+00
1.306806600000000040e+00
9.971456600000000448e-01
7.277152900000000146e-01
3.512206500000000231e-01
1.023901299999999959e-01
-1.317274900000000026e-01
-2.194897399999999887e-01
-2.591738100000000045e-01
-3.964718600000000093e-01
-3.610713099999999787e-01
-2.846541599999999894e-01
-3.961339400000000177e-01
-3.604553300000000182e-01
-2.502359900000000192e-01
-4.040585199999999766e-01
-3.883668699999999752e-01
-3.441919500000000243e-01
-1.975127000000000133e-01
-2.150460399999999939e-01
-3.534828300000000256e-01
-3.492132800000000148e-01
-1.701798099999999869e-01
2.117043799999999976e-01
1.008231199999999994e+00
1.052891800000000044e+00
5.905156000000000294e-01
-4.160279699999999692e-02
-1.097691999999999890e+00
-1.608773500000000078e+00
-1.807550599999999896e+00
-1.625422300000000098e+00
-1.133036099999999990e+00
-7.887867200000000523e-01
-1.631847400000000059e+00
