1.023849299999999962e+00
-9.180846499999999466e-01
-3.335143200000000085e+00
-4.772864099999999610e+00
-4.477772599999999770e+00
-3.611853899999999840e+00
-2.358039799999999797e+00
-1.614965100000000042e+00
-1.379522300000000090e+00
-5.188764799999999733e-01
-9.275197500000000039e-02
-1.056231499999999990e-01
-9.163511300000000415e-02
-6.842100399999999361e-02
-1.953556100000000129e-01
-7.167022400000000459e-02
-1.630993000000000026e-01
-1.336736799999999892e-01
1.061881599999999967e-02
-1.846953799999999923e-01
-1.285547700000000126e-01
-1.972371099999999933e-01
-2.917224999999999957e-01
-3.066619999999999902e-01
-3.596153000000000266e-01
-2.165191099999999869e-01
-4.294908299999999901e-01
-4.472707100000000158e-01
-5.306626399999999633e-01
-6.376986000000000043e-01
-5.682483999999999869e-01
-6.470380999999999494e-01
-7.053189600000000503e-01
-7.732752600000000198e-01
-9.055348300000000128e-01
-7.894468599999999725e-01
-7.502787600000000445e-01
-8.036459299999999528e-01
-6.485931299999999622e-01
-6.389291000000000276e-01
-5.877921600000000080e-01
-5.044846499999999789e-01
-3.481574399999999847e-01
-2.061967899999999909e-01
-1.813176999999999844e-02
1.587499800000000127e-01
1.128217499999999984e-01
1.800600099999999926e-01
2.323436500000000127e-01
2.262337000000000098e-01
2.958825800000000061e-01
1.878031799999999862e-01
2.399857300000000082e-01
2.658936100000000025e-01
2.645498099999999964e-01
2.614495399999999803e-01
3.093443699999999796e-01
2.222679300000000024e-01
2.370204300000000042e-01
4.373006799999999972e-01
3.843083199999999811e-01
3.215386499999999814e-01
4.424012600000000184e-01
3.450373400000000257e-01
3.029869099999999982e-01
4.278965499999999866e-01
4.486928600000000267e-01
3.602230000000000154e-01
4.227550500000000211e-01
5.046759899999999632e-01
4.850033200000000155e-01
6.847407199999999694e-01
7.832667300000000221e-01
5.951738500000000043e-01
6.923857900000000010e-01
6.502870600000000278e-01
7.154740699999999620e-01
5.555932300000000490e-01
4.447469700000000192e-01
5.665837599999999918e-01
4.770323300000000044e-01
3.516375099999999865e-01
3.828455399999999842e-01
4.172312799999999822e-01
3.904583799999999938e-01
3.676507299999999812e-01
3.334783900000000134e-01
3.808956000000000008e-01
3.061054899999999801e-01
3.457864199999999832e-01
7.491358400000000528e-02
1.109398300000000032e-01
2.112184300000000126e-01
1.532330399999999870e-01
2.191462000000000132e-01
3.234684299999999735e-01
2.909219800000000244e-01
3.853936600000000268e-01
7.531238199999999994e-01
8.834686699999999560e-01
1.094525399999999982e+00
1.245350900000000038e+00
1.408878000000000075e+00
1.882854299999999981e+00
1.776499599999999957e+00
1.640442600000000084e+00
1.592472700000000074e+00
1.424349499999999935e+00
1.149327800000000011e+00
8.913337900000000147e-01
6.561684800000000539e-01
1.872207499999999913e-01
-2.530673099999999898e-01
-4.816012399999999860e-01
-5.394216800000000145e-01
-7.206641999999999770e-01
-7.503742100000000415e-01
-7.577638599999999558e-01
-6.831943299999999608e-01
-6.612775100000000128e-01
-7.098761999999999572e-01
-6.161302400000000512e-01
-7.665557299999999907e-01
-7.744883200000000079e-01
-7.109113599999999922e-01
-7.036646399999999524e-01
-7.714518599999999893e-01
-6.945915299999999570e-01
-4.052395699999999934e-01
1.244760800000000028e-01
8.856256799999999707e-01
8.930301699999999565e-01
1.145578699999999950e+00
1.659605800000000020e+00
1.541085599999999944e+00
1.243054399999999893e+00
9.452889700000000062e-01
1.024090100000000003e+00
1.414861399999999936e+00
-2.501895900000000172e-01
