-7.701357699999999973e-01
-2.147658600000000195e+00
-3.203380300000000069e+00
-4.069297699999999907e+00
-4.208805400000000141e+00
-3.844289499999999915e+00
-3.188921000000000117e+00
-2.034726700000000221e+00
-1.426536199999999921e+00
-1.094965399999999978e+00
-5.391817399999999649e-01
-3.353476100000000182e-01
-3.366991599999999973e-01
-2.172745500000000107e-01
-2.109565700000000099e-01
-2.792680000000000162e-01
-2.109194500000000083e-01
-1.707256299999999893e-01
-2.342413999999999885e-01
-1.623955199999999877e-01
-1.388493899999999892e-01
-3.287128100000000219e-01
-2.510606100000000174e-01
-2.697880699999999909e-01
-1.723718399999999984e-01
-1.907976000000000116e-01
-2.416620700000000066e-01
-2.050459299999999874e-01
-2.116601999999999928e-01
-2.838873399999999880e-01
-2.900594799999999807e-01
-2.448303300000000127e-01
-2.393973899999999877e-01
-2.868729999999999891e-01
-1.482715500000000020e-01
-1.152130199999999993e-01
-1.209361600000000009e-01
-1.547297199999999873e-01
-1.704446199999999911e-01
-3.868297999999999875e-02
-1.223147699999999928e-02
-1.276687399999999924e-02
4.066777199999999787e-02
1.610869499999999926e-02
5.419945999999999792e-02
1.481837000000000015e-01
9.338369700000000162e-02
1.738687499999999886e-01
1.871165200000000084e-01
2.151007600000000020e-01
1.984779600000000088e-01
1.277936799999999928e-01
1.222556999999999949e-01
9.224192500000000239e-02
6.789503099999999458e-02
1.213897399999999960e-01
1.047322799999999970e-01
1.496604500000000004e-01
1.402666300000000033e-01
1.049217300000000047e-01
7.686268799999999846e-02
1.255287200000000103e-01
1.492836499999999900e-01
6.787091000000000651e-02
1.198035600000000034e-01
1.035872399999999971e-01
1.509974299999999880e-01
1.873293199999999936e-01
1.679382500000000111e-01
1.977840100000000101e-01
2.944838399999999967e-01
2.892700400000000061e-01
3.843160400000000254e-01
3.853124700000000180e-01
3.944063199999999769e-01
4.835896399999999873e-01
5.031361899999999832e-01
5.562285999999999619e-01
5.359559799999999985e-01
5.197993400000000541e-01
5.683692099999999581e-01
5.411968799999999913e-01
5.720926100000000014e-01
5.370180199999999848e-01
4.269715199999999933e-01
4.945654600000000123e-01
4.850174099999999822e-01
5.213503299999999729e-01
4.677506599999999848e-01
5.564706699999999451e-01
4.343327399999999949e-01
4.549815600000000071e-01
4.950740399999999930e-01
6.503439199999999643e-01
7.526343500000000075e-01
7.852519100000000529e-01
1.098716299999999979e+00
1.207119099999999889e+00
1.375119399999999992e+00
1.637430500000000011e+00
1.819018599999999930e+00
1.975783800000000090e+00
1.970041600000000059e+00
1.915502999999999956e+00
1.812151700000000032e+00
1.719155200000000105e+00
1.461742099999999933e+00
1.228136200000000011e+00
1.098810800000000087e+00
8.479514099999999610e-01
5.108185499999999823e-01
1.545176099999999997e-01
2.712555100000000122e-02
-6.689369100000000512e-02
-1.105110599999999943e-01
-1.291078499999999962e-01
-2.342802999999999969e-01
-1.698125600000000013e-01
-2.688191099999999722e-01
-2.044455500000000037e-01
-2.223761900000000014e-01
-2.385403899999999910e-01
-1.848800499999999902e-01
-3.150325800000000065e-01
-2.751316400000000106e-01
-1.740549299999999966e-01
-1.647526500000000005e-01
-1.192653699999999956e-01
1.042394199999999993e-01
5.549090800000000545e-01
1.174320500000000100e+00
1.235597599999999963e+00
9.918235100000000193e-01
9.751823799999999320e-02
-9.886185800000000246e-01
-1.558685199999999993e+00
-1.559779199999999921e+00
-1.123434999999999961e+00
-4.805246599999999924e-01
-1.209774399999999916e+00
