-9.937148300000000489e-01
-2.961040300000000070e+00
-3.619259000000000004e+00
-4.575166300000000241e+00
-4.846663099999999780e+00
-3.918328600000000161e+00
-2.257895500000000055e+00
-1.425896300000000005e+00
-1.366927299999999956e+00
-8.169503399999999971e-01
-4.046122100000000277e-01
-4.926165200000000022e-01
-4.356074899999999861e-01
-3.303679800000000055e-01
-2.155730800000000003e-01
-1.223088900000000000e-02
4.248064299999999849e-02
-5.620370999999999700e-02
-2.068765899999999991e-01
-5.294755899999999821e-03
1.539246599999999909e-01
-9.812303599999999681e-02
-1.055956599999999940e-01
-1.753042399999999931e-02
-7.533325500000000174e-02
-1.516965299999999961e-01
-1.220496299999999923e-02
-5.248138399999999898e-02
-4.047736600000000073e-02
-8.714051600000000120e-02
-5.013735700000000045e-02
-7.116542100000000648e-02
-1.231602599999999936e-01
-1.577574300000000040e-01
-3.092723899999999873e-02
-3.073083399999999854e-02
-6.213406900000000010e-02
7.809860999999999887e-02
1.981279299999999868e-02
-6.215403700000000226e-02
-1.573116499999999973e-01
3.807959699999999975e-02
2.088391699999999906e-01
9.496654400000000343e-03
-7.013989299999999483e-02
1.171794300000000011e-01
1.907939700000000072e-01
2.023593999999999948e-01
1.032095900000000038e-01
2.042051699999999914e-01
3.295534900000000045e-01
2.898209900000000006e-01
3.076171200000000217e-01
3.489315900000000137e-01
1.189492800000000045e-01
8.669794699999999743e-02
3.564578399999999980e-02
-2.095663000000000109e-01
3.922680900000000137e-02
3.116693300000000222e-01
3.525227699999999853e-01
1.974413100000000088e-01
1.283526600000000073e-01
2.019166400000000083e-01
1.433602900000000013e-01
3.293556300000000103e-01
5.052096000000000364e-01
3.845616000000000034e-01
3.444045099999999970e-01
4.138532400000000111e-01
4.337351500000000137e-01
3.770826600000000139e-01
2.953785400000000227e-01
3.020607499999999890e-01
5.020733899999999528e-01
5.850398399999999777e-01
5.451901099999999500e-01
4.742195699999999792e-01
4.077105500000000049e-01
4.534160199999999752e-01
5.463325999999999460e-01
4.287432700000000096e-01
5.082083400000000362e-01
4.808751700000000184e-01
4.403708499999999804e-01
5.956465100000000179e-01
2.889866700000000010e-01
2.781204199999999793e-01
2.664100200000000251e-01
4.660940900000000164e-01
4.171313799999999961e-01
2.208267100000000094e-01
1.511406000000000138e-01
1.972380800000000101e-01
2.450981200000000026e-01
2.672248099999999793e-01
6.900449800000000300e-01
9.010381699999999716e-01
1.079741700000000026e+00
1.181644499999999987e+00
1.747741100000000047e+00
1.913808299999999907e+00
1.989063599999999932e+00
1.948125899999999966e+00
1.804259999999999975e+00
1.609329599999999916e+00
1.401769599999999949e+00
1.194104099999999891e+00
9.162778900000000393e-01
4.787712100000000026e-01
1.456827400000000050e-01
-1.039457099999999967e-01
-3.758985799999999822e-01
-4.430476300000000256e-01
-5.075605100000000203e-01
-4.937289799999999840e-01
-5.030778000000000194e-01
-5.499148000000000369e-01
-5.066815700000000255e-01
-2.795892500000000114e-01
-2.381069199999999997e-01
-3.319139700000000026e-01
-4.222335400000000183e-01
-3.656838600000000272e-01
-2.830827300000000046e-01
-4.741097499999999965e-01
-4.152216699999999872e-01
-1.508333000000000035e-01
3.743721400000000199e-01
9.978815500000000061e-01
9.639357499999999801e-01
7.347576099999999499e-01
8.109834399999999999e-01
4.199392499999999862e-01
2.956324399999999963e-01
-1.571349599999999902e-01
-2.707763999999999727e-01
-2.029552799999999879e-01
-2.166776900000000061e-01
-2.111662700000000115e+00
