6.986882199999999710e-01
-9.942811299999999575e-01
-2.868739399999999939e+00
-3.690300600000000042e+00
-4.941391499999999937e+00
-4.502728900000000145e+00
-3.075503599999999782e+00
-1.823782699999999979e+00
-1.660950099999999985e+00
-6.964492300000000302e-01
1.385822499999999902e-01
9.886536399999999725e-02
1.651650500000000077e-01
1.316421899999999923e-01
1.845809900000000003e-01
9.089502700000000324e-02
1.501467700000000127e-01
1.317378200000000020e-02
1.058304899999999993e-01
7.805193800000000126e-02
5.635001199999999794e-02
6.305496100000000659e-02
-6.378846700000000147e-02
-7.227872999999999937e-02
-1.203320300000000065e-01
-6.938779900000000000e-02
-2.722011999999999765e-01
-3.060323600000000033e-01
-3.553580100000000019e-01
-3.204048899999999978e-01
-4.701039499999999927e-01
-5.267699000000000131e-01
-6.319259799999999982e-01
-7.846464399999999451e-01
-6.678444599999999731e-01
-7.755374000000000434e-01
-6.931482799999999500e-01
-8.161399599999999976e-01
-7.933423200000000453e-01
-7.311963400000000002e-01
-7.148314799999999636e-01
-5.732751099999999767e-01
-5.526504700000000048e-01
-4.452623800000000132e-01
-3.533339300000000183e-01
-1.378565700000000116e-01
-5.648391999999999996e-02
4.414440900000000251e-02
6.425121500000000041e-02
1.430157599999999918e-01
2.032018700000000067e-01
2.035453799999999980e-01
2.218620599999999998e-01
2.761133900000000141e-01
2.669886200000000098e-01
3.089000700000000266e-01
3.408626799999999735e-01
3.232327400000000184e-01
2.950642399999999776e-01
3.139974700000000007e-01
3.339173899999999806e-01
3.971253699999999776e-01
3.035705200000000104e-01
3.779912599999999956e-01
3.013854400000000044e-01
3.378969700000000187e-01
4.843974899999999861e-01
4.232080899999999812e-01
5.667287100000000244e-01
6.211988299999999796e-01
6.729399499999999534e-01
6.036389899999999864e-01
8.148071399999999853e-01
7.982287599999999816e-01
7.305275799999999542e-01
7.897104900000000427e-01
7.356015900000000274e-01
8.485162699999999614e-01
7.786868700000000310e-01
8.437453900000000395e-01
7.235665700000000200e-01
6.573545100000000030e-01
7.587936699999999757e-01
6.761365900000000373e-01
4.278422499999999795e-01
5.513019999999999587e-01
6.979061300000000134e-01
4.119282200000000116e-01
4.347267200000000109e-01
3.416737200000000141e-01
3.121132500000000087e-01
3.587854500000000058e-01
2.134651899999999991e-01
2.702987399999999818e-01
1.686671499999999879e-01
2.237031499999999895e-01
1.623405800000000121e-01
1.798639300000000052e-01
1.021646199999999977e-01
1.690008500000000080e-01
2.898332699999999762e-01
6.196146000000000154e-01
1.112876200000000093e+00
1.120507499999999990e+00
1.227858200000000011e+00
1.311462499999999975e+00
1.814589599999999914e+00
1.954718200000000072e+00
1.891198399999999946e+00
1.791980899999999988e+00
1.437360799999999994e+00
1.292268299999999925e+00
1.106245600000000051e+00
7.712495499999999504e-01
4.196714699999999909e-01
-1.709475199999999917e-01
-6.599111100000000230e-01
-6.575996100000000011e-01
-7.744574400000000525e-01
-5.655371799999999727e-01
-5.800430899999999834e-01
-7.625875500000000029e-01
-5.558029799999999465e-01
-7.450512500000000538e-01
-7.772753300000000420e-01
-6.983329299999999629e-01
-7.049849400000000044e-01
-6.559587399999999846e-01
-7.175484199999999646e-01
-6.161050900000000219e-01
-6.522965800000000147e-01
-3.111760700000000268e-01
4.241603800000000035e-01
7.043048400000000431e-01
6.283930399999999583e-01
8.311185199999999718e-01
7.228886599999999607e-01
5.538944000000000090e-01
-2.735810599999999870e-01
-1.744018800000000091e-01
