1.195860200000000012e-01
-2.461231300000000122e+00
-3.963222599999999929e+00
-4.304998499999999950e+00
-4.184178000000000175e+00
-4.049954600000000404e+00
-3.151379700000000117e+00
-1.669246800000000031e+00
-1.097487399999999891e+00
-8.516880500000000298e-01
-7.497345900000000618e-02
3.613565100000000040e-03
-1.089393599999999990e-01
-1.388985699999999990e-01
-1.141575400000000018e-01
-1.564848600000000034e-01
-4.833605400000000329e-02
-5.387287600000000010e-02
-8.690081900000000414e-02
-8.992695800000000128e-02
-1.684317300000000017e-01
-1.581535599999999986e-01
-1.134703299999999943e-01
-1.269544700000000137e-01
-1.518940400000000079e-01
-2.249129400000000056e-01
-3.051946899999999907e-01
-1.902494100000000077e-01
-1.342492700000000039e-01
-2.533192000000000221e-01
-2.905103800000000125e-01
-3.155594999999999928e-01
-3.980383699999999747e-01
-4.264338500000000032e-01
-3.684268199999999882e-01
-2.563421499999999909e-01
-4.099017699999999986e-01
-4.039018999999999804e-01
-3.711080299999999776e-01
-3.636660400000000237e-01
-4.258575800000000133e-01
-3.892715900000000007e-01
-2.842377899999999902e-01
-2.148092500000000071e-01
-1.408553600000000128e-01
-7.779866400000000348e-02
-4.993065599999999687e-02
-6.304961000000000419e-03
8.568311100000000624e-02
4.487077500000000163e-02
1.119447600000000043e-01
1.003180099999999991e-01
1.944652199999999942e-01
1.394850599999999941e-01
9.817329900000000553e-02
1.714094800000000030e-01
1.578559200000000107e-01
1.461992199999999908e-01
1.133516200000000002e-01
9.845129199999999581e-02
1.915640899999999924e-01
9.407877900000000126e-02
9.875029500000000182e-02
9.812179599999999724e-02
8.705629099999999398e-02
1.440660500000000011e-01
2.728998499999999994e-01
2.546425900000000020e-01
1.331684599999999885e-01
2.858452899999999741e-01
2.674320399999999820e-01
3.227166100000000148e-01
2.999904400000000249e-01
4.430616199999999893e-01
4.640082099999999765e-01
4.448492299999999844e-01
4.352456100000000050e-01
3.438407099999999939e-01
3.793297099999999866e-01
3.468495300000000170e-01
5.225446700000000444e-01
4.421981600000000068e-01
3.842557899999999860e-01
4.147600399999999965e-01
2.920655400000000124e-01
2.917453099999999799e-01
2.143860800000000066e-01
1.836151799999999890e-01
3.596625399999999750e-01
2.754740299999999809e-01
2.454537599999999931e-01
2.697373800000000266e-01
3.129028899999999891e-01
3.418272199999999872e-01
4.302062300000000228e-01
6.422998899999999844e-01
8.942450899999999647e-01
9.246510799999999586e-01
1.091010199999999930e+00
1.408754700000000026e+00
1.523878199999999961e+00
1.856019599999999992e+00
1.976706599999999980e+00
1.906928200000000073e+00
1.780856699999999959e+00
1.521729200000000004e+00
1.414902799999999905e+00
1.115071499999999993e+00
8.679073200000000377e-01
5.644110100000000463e-01
7.730085100000000375e-02
-2.122013399999999883e-01
-4.325606799999999752e-01
-3.997486000000000095e-01
-4.020529099999999856e-01
-3.884487300000000198e-01
-4.416926999999999937e-01
-4.952834600000000087e-01
-3.032019699999999873e-01
-4.413658300000000145e-01
-4.351078099999999838e-01
-3.164077299999999981e-01
-2.987715899999999758e-01
-3.325317799999999990e-01
-4.223013400000000250e-01
-3.942285700000000004e-01
-2.738185899999999728e-01
-1.670880999999999894e-01
1.367241599999999974e-02
5.496377700000000255e-01
1.019926899999999970e+00
1.166777600000000081e+00
1.267140099999999991e+00
1.227539799999999959e+00
1.169586199999999909e+00
8.363473599999999841e-01
6.774228599999999600e-01
1.039506400000000053e+00
9.961900200000000094e-01
-1.721706200000000075e+00
