2.530197799999999830e+00
1.649815000000000031e+00
2.470455900000000093e-01
-1.166057300000000074e+00
-2.528823899999999902e+00
-3.435729699999999998e+00
-2.940386000000000166e+00
-2.065139199999999953e+00
-1.242985699999999971e+00
-1.293822500000000097e+00
-4.041936300000000259e-01
1.077762800000000021e-01
-9.341953899999999589e-02
-4.060136599999999985e-02
-9.192484500000000502e-02
-2.106030399999999914e-01
-1.073759700000000011e-01
-1.606342000000000048e-01
-8.219289500000000193e-02
-2.036430499999999921e-01
-2.501243499999999953e-01
-1.963207999999999898e-01
-3.553663899999999765e-01
-3.785141699999999831e-01
-5.827888100000000460e-01
-4.839200000000000168e-01
-5.333179799999999693e-01
-6.979711100000000057e-01
-7.619562899999999805e-01
-7.468463199999999524e-01
-7.859430499999999764e-01
-9.287793899999999825e-01
-1.020568300000000095e+00
-1.185065000000000035e+00
-1.154885600000000068e+00
-1.192644599999999944e+00
-1.361482400000000093e+00
-1.344934300000000027e+00
-1.434931699999999921e+00
-1.358842099999999942e+00
-1.345774599999999932e+00
-1.426257399999999897e+00
-1.328810700000000011e+00
-1.168012800000000073e+00
-1.121057200000000087e+00
-1.078363699999999925e+00
-8.614956200000000175e-01
-8.868823500000000415e-01
-7.255374999999999464e-01
-6.877706000000000097e-01
-5.393123499999999959e-01
-4.821392500000000192e-01
-5.595173500000000244e-01
-3.138145700000000149e-01
-2.114885400000000026e-01
-2.033499800000000135e-01
-3.357918999999999765e-01
-1.814904800000000096e-01
-1.973291799999999929e-01
-2.163613000000000064e-01
-1.531999599999999961e-01
-1.721579699999999935e-01
-1.159222800000000025e-01
-1.455402699999999994e-01
-1.254617500000000108e-01
-1.593798600000000121e-01
-5.837465900000000235e-02
8.080187200000000028e-03
1.375342199999999952e-02
9.371218100000000550e-02
1.681218999999999908e-01
2.160190899999999969e-01
3.012180999999999886e-01
1.930310799999999938e-01
3.554732500000000184e-01
3.247233900000000006e-01
2.531083299999999925e-01
4.521068699999999940e-01
4.450482499999999786e-01
4.488723399999999808e-01
4.884147799999999928e-01
5.933130699999999980e-01
4.217892100000000255e-01
6.393606200000000461e-01
4.503092000000000206e-01
4.248361199999999838e-01
4.588235099999999900e-01
4.911993800000000188e-01
4.397051000000000154e-01
2.805385899999999766e-01
3.298591900000000243e-01
2.876987100000000241e-01
3.803252799999999878e-01
1.933477700000000021e-01
2.222762899999999875e-01
3.725666499999999992e-01
3.601356900000000083e-01
3.272404600000000108e-01
5.748972100000000474e-01
9.122338800000000525e-01
1.088379399999999997e+00
1.232125700000000101e+00
1.321429200000000082e+00
1.569544700000000015e+00
1.890753099999999964e+00
2.211566799999999944e+00
2.165359299999999987e+00
2.198377600000000154e+00
1.951456499999999927e+00
1.890220199999999906e+00
1.534264800000000095e+00
1.343190399999999896e+00
1.124111700000000047e+00
6.246650599999999942e-01
5.965118500000000240e-02
-2.251765799999999873e-01
-3.064160899999999743e-01
-3.567331699999999883e-01
-3.455959399999999904e-01
-3.168642300000000245e-01
-3.608442000000000038e-01
-3.277895200000000009e-01
-2.412691999999999892e-01
-3.026382699999999870e-01
-2.471000799999999997e-01
-3.082639600000000035e-01
-1.380488699999999902e-01
-2.791371400000000058e-01
-1.107207000000000052e-01
-1.078354299999999960e-01
3.567556100000000008e-01
1.055848099999999956e+00
9.457350799999999502e-01
9.794006600000000340e-01
1.342358900000000022e+00
1.425314299999999923e+00
1.770579600000000031e+00
1.424771100000000068e+00
1.617822899999999953e+00
2.017107100000000042e+00
