-8.308123400000000380e-01
-3.050561599999999984e+00
-4.047605299999999851e+00
-4.232660400000000323e+00
-3.669619099999999801e+00
-2.828234099999999973e+00
-1.995890699999999907e+00
-1.692274700000000021e+00
-1.262288999999999994e+00
-6.397288199999999758e-01
-5.058309399999999512e-01
-5.000482499999999719e-01
-5.075687199999999732e-01
-5.185261799999999477e-01
-5.076934800000000303e-01
-4.257963399999999954e-01
-4.295877499999999904e-01
-4.946718600000000188e-01
-5.557032600000000322e-01
-5.481954900000000075e-01
-5.782013700000000478e-01
-5.503356999999999832e-01
-5.807320299999999547e-01
-6.258534700000000228e-01
-5.853284899999999791e-01
-5.773642599999999625e-01
-6.574849000000000387e-01
-6.954928200000000116e-01
-7.370157400000000303e-01
-8.320198600000000555e-01
-8.411633299999999869e-01
-9.265353600000000300e-01
-9.111922300000000474e-01
-8.663673699999999700e-01
-8.761032600000000503e-01
-8.136130200000000201e-01
-8.845131200000000415e-01
-7.116855199999999604e-01
-6.942911600000000183e-01
-6.636926800000000348e-01
-5.326964100000000091e-01
-4.955533799999999878e-01
-3.789541100000000107e-01
-3.542394400000000165e-01
-2.487535300000000005e-01
-1.771550299999999911e-01
-1.707479500000000094e-01
-1.061515400000000026e-01
-6.825584299999999660e-03
-1.323875899999999925e-02
-6.804408500000000241e-03
7.032620100000000485e-02
7.663264300000000029e-02
7.922244700000000139e-02
1.545009499999999980e-01
1.103138699999999944e-01
1.478627499999999872e-01
1.528749000000000080e-01
2.316462999999999994e-01
2.464279100000000000e-01
2.110390500000000058e-01
1.981161399999999961e-01
2.639306799999999731e-01
3.265633499999999745e-01
3.856878699999999882e-01
3.574193099999999901e-01
3.958325100000000263e-01
5.022007699999999630e-01
4.981275900000000090e-01
6.062900700000000143e-01
5.568353000000000330e-01
6.463038800000000528e-01
6.564924500000000052e-01
7.247440400000000338e-01
6.659353799999999657e-01
6.511935599999999491e-01
7.090477400000000374e-01
6.774928099999999453e-01
5.833496200000000131e-01
5.786820000000000297e-01
6.521461499999999800e-01
5.151629300000000189e-01
5.616323600000000527e-01
5.391820800000000080e-01
4.228604300000000094e-01
5.462515300000000407e-01
4.990808400000000256e-01
4.349266600000000205e-01
4.532391299999999901e-01
4.178233399999999875e-01
4.832763099999999867e-01
4.195433499999999816e-01
4.923391300000000137e-01
5.259886400000000073e-01
4.409590700000000085e-01
4.785329799999999967e-01
5.383854799999999718e-01
7.507574000000000192e-01
8.721774500000000208e-01
1.079817199999999922e+00
1.220475699999999941e+00
1.290104700000000104e+00
1.544134499999999965e+00
1.715432999999999986e+00
1.876940099999999889e+00
1.700084200000000045e+00
1.646537300000000092e+00
1.488251800000000014e+00
1.289434699999999934e+00
1.140018399999999987e+00
8.621853299999999720e-01
5.918801299999999488e-01
1.724874799999999986e-01
-1.290808999999999984e-01
-1.431074999999999986e-01
-2.593161900000000020e-01
-2.916048600000000213e-01
-2.253879900000000103e-01
-2.159959499999999921e-01
-2.355938200000000093e-01
-2.237094000000000027e-01
-2.579311599999999927e-01
-1.614915399999999890e-01
-2.827130999999999950e-01
-3.184545400000000082e-01
-2.399265999999999899e-01
-2.061860199999999976e-01
-1.618105800000000094e-01
-3.242173899999999803e-02
1.919735300000000033e-01
8.535297800000000157e-01
9.482368599999999592e-01
9.035401499999999864e-01
1.239000099999999938e+00
1.199446800000000035e+00
9.506025099999999561e-01
9.395959200000000289e-01
1.306431499999999968e+00
1.898159300000000105e+00
1.704777899999999902e-01
