-5.705754100000000051e-01
-3.018294200000000149e+00
-4.255153899999999823e+00
-4.170564999999999856e+00
-3.825495099999999926e+00
-2.955220000000000180e+00
-1.756035900000000094e+00
-1.505998799999999971e+00
-1.114680600000000021e+00
-4.140778999999999987e-01
-2.099941700000000078e-01
-2.528204800000000141e-01
-1.791487200000000113e-01
-2.553990800000000005e-01
-2.265887900000000121e-01
-2.399993599999999949e-01
-2.517823200000000039e-01
-3.104319899999999910e-01
-2.903524000000000105e-01
-2.851681699999999986e-01
-3.187175600000000109e-01
-3.320705400000000251e-01
-4.362512499999999793e-01
-3.797580600000000084e-01
-4.156113300000000010e-01
-5.102611400000000019e-01
-5.404202900000000254e-01
-6.198655199999999477e-01
-6.958797700000000086e-01
-6.765029700000000368e-01
-7.044601200000000230e-01
-7.256848000000000187e-01
-8.126165600000000433e-01
-8.621852100000000352e-01
-7.548483200000000171e-01
-8.927999899999999878e-01
-9.071061500000000555e-01
-7.834333100000000494e-01
-8.313189699999999904e-01
-7.545410500000000464e-01
-6.978300299999999901e-01
-6.881446700000000138e-01
-6.202407899999999863e-01
-5.811126100000000294e-01
-3.902556899999999884e-01
-3.967104200000000080e-01
-2.986756899999999937e-01
-4.837673499999999710e-02
-1.594015099999999963e-01
-1.229904100000000014e-02
2.722176000000000110e-02
-2.108942399999999898e-02
2.312120800000000073e-02
7.549935100000000621e-02
1.188522500000000065e-01
6.728479699999999342e-02
1.270079600000000031e-01
2.011845600000000123e-01
2.057395300000000038e-01
2.075207099999999971e-01
2.630984699999999732e-01
2.349706799999999873e-01
2.632296199999999975e-01
2.723870999999999931e-01
3.831537500000000152e-01
3.822310400000000219e-01
2.681422500000000264e-01
4.335115299999999783e-01
4.279668899999999887e-01
5.072204900000000238e-01
5.461285900000000249e-01
5.195790900000000212e-01
6.342066200000000542e-01
5.219286199999999543e-01
6.167136800000000418e-01
6.102419599999999722e-01
4.911390299999999765e-01
5.757591699999999868e-01
6.230198700000000311e-01
5.717147099999999593e-01
6.231034800000000429e-01
4.940683499999999895e-01
5.307893700000000381e-01
5.898291799999999530e-01
5.231262500000000149e-01
4.926863000000000214e-01
4.760613100000000153e-01
5.181569499999999495e-01
4.333093599999999768e-01
4.664067000000000074e-01
4.748578299999999808e-01
4.515225700000000120e-01
4.337660700000000036e-01
4.343510700000000058e-01
5.403182800000000396e-01
7.225710800000000322e-01
8.264266099999999504e-01
1.048553800000000091e+00
1.112254199999999971e+00
1.340277699999999905e+00
1.560997399999999979e+00
1.700550999999999924e+00
1.924083399999999999e+00
1.835126999999999953e+00
1.873557499999999987e+00
1.743467700000000065e+00
1.531183799999999984e+00
1.421121400000000090e+00
1.158227200000000012e+00
8.444457499999999950e-01
4.563910600000000151e-01
9.432687300000000552e-02
-1.108672899999999933e-01
-2.965938799999999764e-01
-3.701240399999999875e-01
-3.841021399999999808e-01
-4.219685899999999767e-01
-3.790897899999999821e-01
-3.319344100000000131e-01
-3.799251900000000237e-01
-3.355963399999999930e-01
-3.688602899999999796e-01
-3.540654699999999933e-01
-3.375883100000000026e-01
-3.952475899999999820e-01
-4.324778300000000075e-01
-3.415306300000000017e-01
-3.444394000000000067e-01
-1.544911499999999938e-01
2.425901099999999977e-01
8.075726600000000532e-01
7.516941099999999709e-01
8.161062700000000225e-01
9.110437399999999908e-01
9.589450400000000263e-01
7.647448000000000023e-01
8.766466099999999928e-01
1.284150799999999926e+00
1.924786899999999967e+00
4.811814200000000263e-01
