-8.540143399999999829e-01
-3.809343000000000146e+00
-4.134833600000000331e+00
-4.450936699999999746e+00
-3.818215400000000148e+00
-2.505578499999999931e+00
-1.797430800000000106e+00
-1.562802400000000036e+00
-7.961613199999999502e-01
-2.304554299999999889e-01
-2.659675599999999918e-01
-3.285096900000000208e-01
-1.706495899999999899e-01
-1.645752600000000010e-01
-2.643519200000000180e-01
-1.983508099999999885e-01
-2.048491799999999918e-01
-2.132226700000000030e-01
-2.045068200000000058e-01
-2.992502200000000112e-01
-3.500597200000000186e-01
-3.647628500000000273e-01
-4.055644999999999945e-01
-4.205096999999999863e-01
-5.005918299999999599e-01
-4.697949399999999942e-01
-5.719818100000000349e-01
-6.230993900000000307e-01
-6.270159299999999991e-01
-6.308951799999999999e-01
-6.682403700000000280e-01
-6.762058899999999761e-01
-7.545481600000000233e-01
-7.162129499999999593e-01
-7.263946700000000201e-01
-7.878327299999999811e-01
-8.002554699999999688e-01
-7.736582499999999918e-01
-7.523641699999999988e-01
-6.541268500000000374e-01
-6.311312100000000536e-01
-5.517939699999999670e-01
-5.444865100000000346e-01
-4.254497199999999757e-01
-3.558294799999999758e-01
-2.667875599999999792e-01
-1.309673399999999877e-01
-5.731518299999999871e-02
-8.407974000000000003e-02
2.695796500000000040e-03
9.675516700000000303e-02
1.504453199999999935e-01
1.167665299999999934e-01
1.484315999999999969e-01
1.866406899999999980e-01
2.135844000000000076e-01
2.027169900000000136e-01
3.139983199999999974e-01
2.592288500000000107e-01
3.504981300000000188e-01
2.983240300000000178e-01
3.457672500000000260e-01
2.654308200000000117e-01
3.099756699999999809e-01
5.312936900000000406e-01
5.272986100000000009e-01
5.360392000000000490e-01
5.066884999999999861e-01
5.482470200000000293e-01
5.862317599999999906e-01
5.679033300000000395e-01
6.884755099999999572e-01
6.446709600000000151e-01
6.354548800000000552e-01
5.456479800000000324e-01
5.462744699999999565e-01
5.653274000000000354e-01
5.864926700000000492e-01
5.619153399999999854e-01
5.596330299999999758e-01
4.854614700000000060e-01
5.867949900000000163e-01
4.176116999999999746e-01
4.075770000000000226e-01
3.690030200000000149e-01
3.540924200000000188e-01
3.500237700000000118e-01
4.115270799999999896e-01
3.965105800000000014e-01
2.944757599999999753e-01
3.636653000000000246e-01
2.599454500000000223e-01
2.951610399999999856e-01
3.253887799999999886e-01
3.742556400000000005e-01
2.664553700000000247e-01
2.964268999999999932e-01
2.836307399999999923e-01
2.830261800000000161e-01
3.682201800000000080e-01
4.998401100000000041e-01
7.607908300000000290e-01
9.712510199999999649e-01
1.179811600000000071e+00
1.400017499999999915e+00
1.802502999999999966e+00
1.976851899999999995e+00
2.110269499999999798e+00
2.140335900000000180e+00
1.978151699999999957e+00
1.720576799999999906e+00
1.462474599999999958e+00
1.173154100000000088e+00
7.369936200000000159e-01
2.214197599999999932e-01
-2.007719799999999888e-01
-3.082104999999999984e-01
-3.290574600000000238e-01
-2.078496900000000036e-01
-2.386624800000000102e-01
-3.665601199999999893e-01
-2.989618199999999892e-01
-2.664376099999999914e-01
-3.448879699999999882e-01
-3.400027899999999992e-01
-2.410285699999999975e-01
-2.556171099999999807e-01
-2.858617900000000045e-01
-2.113087700000000069e-01
-1.129931299999999972e-01
3.228775999999999868e-01
1.196612100000000067e+00
1.328846799999999995e+00
1.253713300000000030e+00
1.023789099999999896e+00
3.416360700000000139e-01
-4.085095299999999844e-04
-9.947495000000000642e-02
1.063359399999999955e+00
-5.493269600000000308e-01
