-1.796561700000000039e+00
-3.307729600000000048e+00
-3.858225800000000039e+00
-4.066113699999999831e+00
-3.789129700000000156e+00
-3.448263400000000090e+00
-2.565184200000000025e+00
-1.724357799999999941e+00
-1.524258700000000077e+00
-1.034990099999999913e+00
-5.405246400000000007e-01
-5.364184199999999514e-01
-5.447665000000000424e-01
-5.298819999999999641e-01
-4.412916499999999798e-01
-4.059499599999999986e-01
-4.507692600000000049e-01
-4.208128300000000266e-01
-4.772060499999999927e-01
-4.862581300000000106e-01
-3.936746799999999991e-01
-3.557687400000000277e-01
-2.776156699999999811e-01
-3.143784800000000157e-01
-3.771718000000000015e-01
-4.131171299999999991e-01
-3.310665799999999992e-01
-2.037185499999999982e-01
-2.999189500000000175e-01
-3.697380499999999848e-01
-2.802079800000000231e-01
-3.066798099999999971e-01
-4.441986499999999727e-01
-4.024904699999999891e-01
-2.469037199999999932e-01
-3.632813999999999766e-01
-4.139029300000000022e-01
-2.483400900000000133e-01
-2.790577300000000038e-01
-2.842979299999999765e-01
-1.433519900000000125e-01
-1.298631500000000001e-02
-8.170897400000000366e-02
-1.664265799999999906e-01
1.474228999999999991e-02
1.938732699999999934e-02
1.917831799999999975e-02
1.956789200000000062e-01
8.032642600000000632e-02
1.104520900000000028e-01
1.158245900000000050e-01
9.198531899999999595e-02
1.163883200000000034e-01
8.342874899999999649e-02
1.004989800000000016e-01
1.167918800000000007e-01
6.146961900000000312e-02
-1.728003100000000125e-01
5.335920799999999825e-02
9.928791300000000541e-02
1.259963400000000122e-01
1.586249399999999921e-01
1.125380700000000039e-01
7.908821000000000601e-02
1.224592000000000042e-01
1.286328499999999930e-01
1.734915399999999996e-01
-3.934472199999999864e-02
-4.326048999999999867e-02
1.295436600000000049e-01
2.727269199999999838e-01
3.363537999999999806e-01
4.414190100000000005e-01
4.231561500000000087e-01
5.199039300000000141e-01
4.343499100000000057e-01
3.650750899999999910e-01
4.239865899999999965e-01
4.042868099999999965e-01
4.075815999999999883e-01
3.588553099999999829e-01
4.005577100000000113e-01
3.883648900000000181e-01
4.089372900000000088e-01
4.055619699999999939e-01
4.458899299999999899e-01
5.006415499999999907e-01
5.430739900000000064e-01
4.890204899999999744e-01
4.091583899999999829e-01
4.709332500000000254e-01
5.241603599999999918e-01
5.720774699999999768e-01
7.497031499999999848e-01
8.703692800000000229e-01
1.133094199999999940e+00
1.326618199999999970e+00
1.471668799999999999e+00
1.588706699999999916e+00
1.935764800000000063e+00
2.152930299999999963e+00
2.200391699999999950e+00
2.116652100000000036e+00
1.857667100000000016e+00
1.814445599999999992e+00
1.688093800000000089e+00
1.359071499999999988e+00
1.115908499999999970e+00
8.536843299999999912e-01
6.069499499999999603e-01
2.941200299999999768e-01
1.201646799999999959e-01
-8.640804099999999793e-03
-1.756762799999999902e-01
-1.245402000000000037e-01
-1.010805000000000037e-01
-1.047132300000000044e-01
-1.770817199999999980e-01
-1.053102300000000047e-01
-1.785410500000000067e-01
-1.775158599999999975e-01
-7.235390999999999351e-02
-1.628366800000000114e-01
-1.385655600000000043e-01
-7.060321799999999537e-02
7.064965400000000617e-02
1.201869899999999936e-01
1.681967099999999993e-01
5.397193500000000421e-01
9.473346499999999448e-01
7.987634300000000520e-01
6.511099200000000087e-01
4.963713100000000100e-01
3.093079200000000140e-01
2.439301799999999965e-01
-9.918827600000000577e-02
-1.772944899999999990e-01
1.992288999999999866e-01
1.048617000000000021e-01
-1.072867599999999921e+00
