-7.135962499999999598e-02
-2.773063899999999915e+00
-3.834521399999999858e+00
-4.432792599999999972e+00
-4.049355799999999839e+00
-2.848632499999999901e+00
-1.835888600000000093e+00
-1.655854900000000018e+00
-1.039587500000000109e+00
-1.570693700000000137e-01
-1.806117200000000034e-01
-2.233599800000000135e-01
-1.743030399999999924e-01
-1.609739799999999887e-01
-1.494978899999999944e-01
-1.838594699999999971e-01
-1.955282899999999935e-01
-1.778982899999999867e-01
-1.948429299999999975e-01
-2.528675599999999912e-01
-3.382356000000000251e-01
-3.344925200000000154e-01
-1.983230400000000060e-01
-3.103965100000000144e-01
-4.494130700000000256e-01
-4.723221200000000120e-01
-4.450905800000000134e-01
-5.816435399999999589e-01
-6.067175000000000207e-01
-6.234396800000000516e-01
-7.796692499999999804e-01
-8.122556600000000460e-01
-9.007967300000000455e-01
-8.465528399999999731e-01
-9.024208299999999516e-01
-9.340164699999999876e-01
-8.928777199999999858e-01
-8.289318199999999859e-01
-8.559506999999999532e-01
-8.028699200000000147e-01
-7.445735700000000179e-01
-7.232865800000000123e-01
-5.563503600000000437e-01
-4.605160400000000154e-01
-2.862898999999999861e-01
-2.594917500000000210e-01
-2.098670300000000100e-01
-1.256603000000000026e-01
-7.959065399999999679e-02
1.044418000000000013e-01
-3.308231200000000261e-02
5.476594199999999801e-02
3.542409700000000161e-02
7.933966600000000313e-02
1.267385299999999881e-01
1.219878300000000054e-01
7.957520199999999766e-02
6.679587900000000245e-02
2.064220400000000011e-01
2.195636900000000058e-01
2.815159300000000253e-01
2.481384299999999932e-01
2.915465400000000207e-01
2.763050100000000175e-01
3.461131000000000069e-01
3.833422400000000008e-01
3.542231499999999866e-01
3.556743199999999883e-01
4.861900599999999795e-01
5.357047200000000231e-01
5.645856700000000394e-01
6.786730399999999497e-01
6.159682499999999949e-01
7.283968899999999635e-01
6.874448199999999565e-01
6.373458699999999810e-01
8.060303399999999563e-01
7.413696699999999806e-01
5.814114500000000518e-01
6.047266799999999609e-01
5.855873999999999802e-01
6.778507599999999966e-01
5.625384300000000337e-01
5.729226400000000385e-01
5.087269700000000006e-01
5.181548700000000451e-01
5.001866400000000157e-01
4.136530199999999824e-01
3.296916999999999764e-01
3.227559899999999926e-01
3.596015799999999762e-01
3.351406399999999897e-01
3.290143899999999899e-01
3.584139199999999970e-01
3.965255500000000044e-01
2.945439100000000199e-01
2.899021999999999988e-01
3.233164499999999775e-01
4.882220500000000185e-01
7.592307900000000442e-01
8.937638900000000053e-01
1.189930099999999991e+00
1.367015199999999986e+00
1.636594899999999964e+00
1.949974300000000049e+00
2.127666200000000174e+00
2.024904100000000096e+00
1.978380699999999992e+00
1.835221400000000003e+00
1.479905800000000049e+00
1.323204999999999965e+00
9.518883999999999679e-01
4.741154300000000044e-01
2.652793300000000007e-02
-2.520116700000000209e-01
-3.829790100000000086e-01
-4.295457100000000250e-01
-4.650573499999999805e-01
-3.762299700000000247e-01
-4.107079499999999883e-01
-4.002405499999999727e-01
-4.058101000000000069e-01
-3.001623299999999772e-01
-1.591825799999999902e-01
-3.064441099999999918e-01
-2.866874799999999945e-01
-3.093982800000000255e-01
-2.847552799999999995e-01
-1.685486999999999957e-01
2.080140400000000112e-01
1.002162400000000009e+00
1.390206899999999912e+00
1.286372499999999919e+00
1.188801199999999891e+00
1.005117999999999956e+00
3.647960499999999828e-01
2.213609199999999957e-02
3.493908399999999803e-01
9.598133300000000201e-01
-1.336890399999999923e+00
