-2.141850100000000090e+00
-4.116339599999999876e+00
-4.610461100000000201e+00
-4.516796399999999601e+00
-3.347260299999999855e+00
-2.147257499999999819e+00
-1.600388600000000050e+00
-1.210400300000000096e+00
-4.910998100000000255e-01
-3.152646499999999796e-01
-4.341760199999999958e-01
-3.493816000000000144e-01
-2.859288700000000016e-01
-3.864561499999999983e-01
-3.543125300000000144e-01
-3.382924500000000223e-01
-3.788373099999999827e-01
-3.163546799999999992e-01
-4.208127999999999869e-01
-4.973098699999999872e-01
-4.225463600000000097e-01
-3.597544200000000192e-01
-4.589983599999999941e-01
-4.600315099999999768e-01
-4.519835300000000222e-01
-5.391263800000000161e-01
-5.265949199999999664e-01
-5.801964800000000144e-01
-5.758229999999999738e-01
-5.994521800000000011e-01
-6.826793700000000076e-01
-6.894999000000000544e-01
-7.232705799999999963e-01
-7.789788300000000110e-01
-7.970416399999999957e-01
-7.740665799999999486e-01
-7.038957099999999523e-01
-7.249724400000000513e-01
-6.254167000000000476e-01
-5.623903500000000388e-01
-5.417376999999999887e-01
-4.334442299999999859e-01
-4.224033600000000055e-01
-2.426340200000000058e-01
-2.648073499999999969e-01
-2.146195899999999990e-01
-8.395696800000000681e-02
-7.156123300000000187e-02
-6.892376199999999953e-02
-5.803889899999999796e-02
6.564694899999999611e-02
-5.087103100000000405e-03
-4.846323500000000034e-02
5.467429099999999986e-02
3.658743400000000201e-02
-2.661125099999999896e-02
5.374719599999999708e-02
7.250299699999999958e-02
7.437879999999999492e-02
1.300912300000000021e-01
4.955229500000000314e-02
4.038982299999999831e-02
9.890269699999999775e-02
1.645779800000000126e-01
1.923774699999999949e-01
2.853440099999999813e-01
2.571832199999999902e-01
3.242380999999999736e-01
3.955337899999999962e-01
4.366684000000000121e-01
4.211729599999999851e-01
4.615191399999999944e-01
5.919389000000000456e-01
6.021675800000000356e-01
5.892167000000000376e-01
5.725592099999999851e-01
5.807956699999999861e-01
5.638854300000000208e-01
5.216216099999999578e-01
5.430551500000000420e-01
4.832090199999999891e-01
5.513211799999999663e-01
5.310363200000000061e-01
4.344398700000000058e-01
4.647874499999999909e-01
5.122343000000000313e-01
3.930463100000000098e-01
3.628740400000000088e-01
3.843863599999999825e-01
3.738729700000000267e-01
4.268492999999999871e-01
3.614478799999999992e-01
3.046257600000000232e-01
3.621655200000000185e-01
4.525998800000000100e-01
5.379175000000000484e-01
6.892249799999999871e-01
8.565268700000000512e-01
1.008729500000000057e+00
1.217227000000000059e+00
1.427192400000000028e+00
1.593391400000000013e+00
1.869601899999999928e+00
1.869514099999999956e+00
1.770004399999999922e+00
1.668960999999999917e+00
1.497216199999999997e+00
1.250271700000000097e+00
9.927268900000000285e-01
8.229426199999999580e-01
5.278390200000000476e-01
3.035401500000000086e-01
-2.560654999999999876e-02
-2.762569899999999801e-01
-1.824219300000000099e-01
-2.320769099999999974e-01
-1.571376399999999951e-01
-1.864200099999999971e-01
-1.786666500000000102e-01
-9.146839299999999506e-02
-1.139280700000000063e-01
-1.033887299999999981e-01
-7.066647299999999354e-02
-1.474404800000000126e-01
-1.728306300000000129e-01
-1.554244899999999985e-01
-3.372199199999999925e-02
5.023638400000000328e-04
1.387060499999999974e-01
5.597397100000000014e-01
1.269868800000000020e+00
1.336967800000000040e+00
1.090980099999999897e+00
1.145195299999999916e+00
9.537626900000000241e-01
6.509732499999999478e-01
5.195860599999999607e-01
1.163621199999999911e+00
1.533595599999999948e+00
5.989292599999999911e-02
