-1.348760800000000093e-01
-2.186798600000000037e-01
-2.446586199999999933e-01
-3.031226900000000279e-01
-3.207211300000000209e-01
-3.288361899999999727e-01
-3.055616500000000180e-01
-2.599406699999999848e-01
-2.097301500000000041e-01
-1.479109599999999802e-01
-9.957228599999999596e-02
-8.728358699999999581e-02
-8.013531900000001040e-02
-4.573841299999999860e-02
-1.712643200000000046e-02
-3.696117599999999945e-04
9.728690400000000044e-03
4.577036000000000472e-03
1.072833200000000015e-02
1.761684999999999987e-02
1.448100999999999902e-02
1.537328500000000042e-02
1.507999399999999934e-02
1.917013199999999945e-02
2.108232999999999982e-02
1.766851600000000216e-02
1.996095800000000087e-02
2.605045300000000119e-02
2.723252899999999838e-02
2.257319399999999782e-02
2.588624299999999628e-02
3.269360999999999795e-02
2.528142199999999784e-02
1.695440299999999983e-02
2.216616799999999998e-02
2.477034900000000053e-02
2.157102500000000062e-02
2.302290499999999976e-02
2.600467199999999951e-02
2.675337900000000074e-02
2.416974699999999837e-02
2.092248099999999972e-02
1.603843099999999883e-02
2.087088299999999980e-02
3.065359799999999718e-02
1.738967999999999764e-02
5.800740999999999883e-03
9.227727300000000341e-03
9.744219299999998946e-03
1.293778399999999905e-02
1.221087599999999898e-02
5.380361699999999976e-03
5.150265600000000429e-03
8.464245900000000322e-03
1.139897700000000111e-02
1.236059100000000063e-02
9.144201700000000044e-03
1.217741900000000009e-02
1.234548599999999927e-02
9.863034099999999291e-03
1.779888299999999798e-02
1.927735400000000002e-02
2.038966799999999968e-02
2.304303900000000127e-02
2.749076599999999981e-02
3.842505899999999752e-02
3.914782299999999826e-02
4.122785699999999970e-02
4.218444400000000150e-02
4.417285199999999856e-02
5.174850300000000125e-02
4.987966300000000464e-02
5.479109199999999957e-02
5.648849700000000557e-02
5.408385300000000118e-02
6.154177600000000636e-02
6.439317199999999852e-02
6.728855699999999884e-02
6.792363099999999820e-02
6.581542900000000862e-02
6.424226099999999495e-02
6.600514600000000065e-02
7.373880800000000291e-02
6.762232599999999649e-02
6.196994300000000649e-02
6.809836299999999509e-02
7.002883899999999551e-02
6.743166899999999964e-02
6.252850299999999917e-02
6.632354299999999869e-02
7.014385700000000390e-02
6.606687099999999924e-02
6.791465800000000275e-02
6.678055800000000375e-02
6.164174399999999832e-02
6.474228199999999822e-02
6.352408499999999403e-02
6.084295199999999182e-02
6.617504800000000020e-02
6.288114100000000151e-02
6.218546600000000174e-02
6.734257099999998997e-02
6.636849300000000063e-02
6.946167899999999840e-02
6.994506500000000071e-02
6.574030200000000046e-02
6.452985299999999813e-02
6.724524600000000851e-02
7.502332999999999918e-02
7.831744699999999837e-02
7.437050700000000236e-02
7.534884099999999973e-02
7.982801000000000480e-02
7.539491600000000626e-02
7.001032700000001108e-02
7.136202099999999771e-02
6.621912500000000368e-02
6.268681800000000526e-02
6.245733500000000271e-02
5.922650499999999874e-02
5.730265899999999885e-02
4.571850900000000439e-02
4.812031299999999789e-02
4.504625500000000032e-02
2.802530999999999772e-02
4.481058999999999737e-02
5.225184600000000457e-02
3.999030800000000219e-02
1.938991400000000115e-02
-2.983053100000000041e-02
-8.204494599999999360e-02
-1.351948199999999933e-01
-1.858837899999999932e-01
-2.340741799999999928e-01
-2.884425800000000040e-01
-3.196063000000000098e-01
-2.842263299999999715e-01
-2.045011399999999979e-01
-1.478295599999999987e-01
-2.631447199999999847e-02
