-1.521825099999999861e-02
-5.515120199999999639e-02
-7.404089799999999388e-02
-1.285285399999999967e-01
-1.512623899999999966e-01
-1.796045799999999859e-01
-2.069598300000000113e-01
-2.025282199999999810e-01
-1.934829799999999989e-01
-1.789890500000000106e-01
-1.549255599999999899e-01
-1.269190800000000174e-01
-8.714963300000000412e-02
-4.965171499999999905e-02
-3.954243200000000236e-02
-3.601350799999999963e-02
-2.303688000000000263e-02
-8.383338500000000332e-03
1.757797000000000179e-02
3.464145100000000366e-02
3.169351999999999586e-02
3.308096200000000542e-02
3.107405499999999973e-02
2.969440099999999874e-02
3.638469700000000057e-02
3.381903399999999782e-02
3.094378999999999880e-02
3.438191000000000164e-02
3.325724600000000419e-02
3.312515300000000440e-02
3.146894399999999870e-02
2.265006500000000048e-02
2.387489100000000225e-02
3.515068300000000201e-02
3.423148999999999637e-02
3.278322699999999812e-02
4.107587399999999833e-02
4.225924200000000241e-02
4.031117000000000034e-02
4.138947499999999502e-02
3.951214800000000388e-02
3.752164800000000466e-02
3.256163299999999955e-02
2.488851199999999805e-02
2.387489100000000225e-02
2.875176500000000204e-02
3.254028099999999729e-02
3.654054699999999961e-02
4.263959999999999972e-02
4.803904600000000191e-02
4.849552399999999819e-02
4.156567400000000384e-02
3.794842299999999502e-02
4.310603899999999877e-02
4.410497199999999923e-02
4.250399900000000064e-02
4.107587399999999833e-02
3.387890300000000188e-02
3.169356699999999888e-02
3.930509899999999612e-02
4.420332500000000164e-02
4.930513799999999835e-02
5.614844900000000305e-02
5.033809500000000631e-02
4.420332500000000164e-02
4.974282900000000229e-02
4.890984599999999988e-02
5.145322000000000090e-02
5.984058199999999633e-02
5.330737900000000196e-02
5.081598799999999944e-02
5.928480099999999808e-02
5.827685700000000135e-02
5.584450999999999998e-02
6.024578099999999825e-02
6.361500500000000224e-02
6.140430799999999772e-02
5.820839399999999664e-02
6.098953799999999592e-02
6.589784099999999867e-02
6.609548499999999549e-02
6.573992600000000408e-02
6.663997900000000196e-02
6.283790799999999788e-02
5.984058199999999633e-02
6.296068800000000076e-02
5.923684299999999736e-02
4.904036199999999707e-02
4.733077700000000443e-02
5.438981299999999519e-02
5.953131499999999438e-02
5.652608199999999833e-02
5.045822800000000774e-02
4.983945000000000042e-02
5.174112199999999356e-02
5.224852599999999653e-02
5.358568000000000359e-02
5.423026600000000613e-02
5.220837900000000614e-02
5.297738700000000078e-02
5.671313100000000690e-02
5.620868799999999277e-02
5.482055400000000051e-02
6.136763699999999572e-02
6.922293699999999828e-02
6.911239700000000596e-02
6.467185599999999979e-02
5.983532999999999907e-02
5.514940499999999857e-02
5.465146400000000376e-02
5.586012299999999764e-02
5.164918400000000076e-02
4.576705099999999610e-02
4.521475400000000283e-02
4.820692099999999980e-02
5.471837000000000228e-02
6.140430799999999772e-02
6.350041700000000344e-02
6.035463300000000475e-02
4.610546599999999773e-02
2.543861700000000364e-02
9.280025500000000510e-03
-7.286267699999999722e-03
-1.581906699999999916e-02
-7.399622600000000001e-03
-1.994560099999999857e-03
-1.262213399999999840e-02
-3.216010799999999975e-02
-6.682119899999999779e-02
-1.183715999999999935e-01
-1.741718800000000011e-01
-2.300516499999999964e-01
-2.982525999999999788e-01
-3.590451100000000006e-01
-3.901534299999999678e-01
-4.052294399999999963e-01
-3.420369200000000220e-01
-2.402640100000000278e-01
-2.038376299999999919e-01
-5.725935299999999895e-02
