-5.272242600000000279e-02
-9.051664099999999491e-02
-1.034236500000000059e-01
-1.480547299999999955e-01
-1.500898900000000036e-01
-1.879564900000000038e-01
-1.938300700000000210e-01
-1.890701200000000082e-01
-1.708872100000000116e-01
-1.314611200000000146e-01
-8.512366999999999850e-02
-4.440243600000000346e-02
-2.253124800000000025e-02
-1.813322900000000071e-02
-9.743263400000000407e-03
1.162254199999999960e-02
3.295803199999999822e-02
4.284443000000000279e-02
4.067408800000000407e-02
4.274157199999999851e-02
4.670985500000000151e-02
4.212813999999999448e-02
4.189568400000000248e-02
4.275511399999999684e-02
4.090530900000000081e-02
3.788194500000000020e-02
3.891530299999999831e-02
4.052384800000000120e-02
3.768201999999999663e-02
3.913593199999999828e-02
3.738717500000000166e-02
3.593180299999999827e-02
3.619704699999999609e-02
3.423918799999999679e-02
3.325764199999999698e-02
3.471794000000000269e-02
3.781668600000000213e-02
3.547968499999999692e-02
3.613885099999999961e-02
3.827253600000000283e-02
3.513784099999999605e-02
3.314767700000000039e-02
3.175385900000000233e-02
3.042508799999999944e-02
3.124366399999999738e-02
3.264787300000000086e-02
3.046233599999999958e-02
2.879666699999999802e-02
2.874189899999999784e-02
2.730773899999999754e-02
3.089099699999999643e-02
3.350770200000000032e-02
2.733404099999999642e-02
2.754390400000000100e-02
3.075596900000000106e-02
2.858470399999999897e-02
2.878977899999999798e-02
2.656199799999999639e-02
2.505148999999999918e-02
2.778203200000000164e-02
2.658640799999999887e-02
2.887803600000000276e-02
2.999406900000000167e-02
2.878977899999999798e-02
3.329586199999999552e-02
2.972066199999999839e-02
3.242408199999999990e-02
3.666932900000000051e-02
2.713863100000000333e-02
2.880815800000000038e-02
3.471794000000000269e-02
3.298706599999999545e-02
3.805428900000000503e-02
3.916867799999999844e-02
4.129433999999999882e-02
4.038202200000000353e-02
3.281131400000000115e-02
3.768201999999999663e-02
4.079936399999999769e-02
4.005581300000000261e-02
3.757302900000000084e-02
3.982277099999999986e-02
3.963853299999999663e-02
3.610840900000000103e-02
3.323589999999999878e-02
2.805948099999999723e-02
3.800083699999999565e-02
3.291120699999999788e-02
2.393445300000000137e-02
2.885543199999999683e-02
2.689563500000000107e-02
2.582569900000000057e-02
2.323621999999999840e-02
2.459550799999999857e-02
2.845838500000000271e-02
3.265663900000000119e-02
3.224453099999999989e-02
2.876423799999999753e-02
3.027181899999999842e-02
3.021635500000000030e-02
3.041795700000000241e-02
2.565380700000000069e-02
3.356505699999999537e-02
3.849023000000000028e-02
3.114728099999999889e-02
3.027181899999999842e-02
2.799466700000000086e-02
3.852728999999999876e-02
3.800941299999999884e-02
3.678949100000000055e-02
4.532663699999999601e-02
3.969237400000000249e-02
4.361017999999999839e-02
5.124532099999999646e-02
4.670943100000000264e-02
4.583539400000000152e-02
4.960228700000000185e-02
4.348464400000000285e-02
3.349921799999999728e-02
2.878977899999999798e-02
2.606559700000000285e-02
2.972672399999999951e-02
4.235478799999999738e-02
4.765477900000000128e-02
4.133815200000000301e-02
3.572293799999999575e-02
3.323589999999999878e-02
3.638890399999999969e-02
5.102143599999999640e-02
6.559870799999999169e-02
6.203210999999999448e-02
1.645474000000000242e-02
-4.261444999999999816e-02
-1.208962700000000001e-01
-2.018624299999999816e-01
-2.609151600000000348e-01
-4.111006599999999511e-01
-4.408041400000000110e-01
-5.857470099999999569e-01
-4.212133200000000022e-01
