1.986514500000000072e-02
-2.885943399999999978e-02
-3.714947500000000125e-02
-1.072501800000000005e-01
-1.239685799999999949e-01
-1.460342199999999924e-01
-1.803112499999999785e-01
-1.821308100000000041e-01
-1.738415100000000046e-01
-1.484818099999999919e-01
-1.054480499999999876e-01
-7.564145599999999581e-02
-4.827905400000000180e-02
-2.564021699999999987e-02
-2.727284599999999989e-02
-1.602048600000000045e-02
1.018269100000000066e-02
2.742330399999999904e-02
3.776929099999999651e-02
4.000913999999999859e-02
3.506928799999999707e-02
2.371928899999999757e-02
2.087952300000000053e-02
2.970935499999999979e-02
2.920446500000000237e-02
2.718921999999999659e-02
2.980664200000000125e-02
3.336973799999999601e-02
3.912630000000000274e-02
3.592524400000000201e-02
3.384192899999999976e-02
3.819549099999999808e-02
3.528423700000000302e-02
3.355854999999999949e-02
3.724791499999999950e-02
3.719480900000000229e-02
3.305377899999999841e-02
3.046414100000000014e-02
3.078598399999999888e-02
2.962597499999999884e-02
2.919829800000000100e-02
3.410305800000000553e-02
3.897211800000000004e-02
3.798582999999999821e-02
3.347903300000000526e-02
3.338640699999999989e-02
3.855247900000000061e-02
3.801848700000000358e-02
3.256704700000000174e-02
3.439709100000000463e-02
4.035559899999999894e-02
4.030295999999999879e-02
3.863011400000000012e-02
3.974173400000000078e-02
3.904871699999999668e-02
3.780160600000000148e-02
3.813277500000000070e-02
3.667491500000000237e-02
3.267788500000000373e-02
3.424610100000000101e-02
3.928048800000000229e-02
3.802956700000000023e-02
4.185368199999999622e-02
4.812315699999999974e-02
4.465014500000000219e-02
4.254177699999999590e-02
4.151998399999999589e-02
4.342304000000000302e-02
5.074949399999999222e-02
4.777824900000000180e-02
4.364069300000000123e-02
4.928757999999999750e-02
5.415664799999999474e-02
5.542696700000000753e-02
5.626826900000000270e-02
5.759046300000000146e-02
5.429879099999999903e-02
4.955058799999999958e-02
5.332448099999999996e-02
5.785276299999999455e-02
5.656157099999999799e-02
6.045889399999999914e-02
6.386309700000000755e-02
5.626445799999999636e-02
5.560347899999999732e-02
6.047713200000000289e-02
5.846462399999999976e-02
6.027559999999999862e-02
6.222216299999999700e-02
6.161602200000000640e-02
6.464305800000000324e-02
6.604773299999999736e-02
6.436294800000000316e-02
6.142959099999999173e-02
5.982965900000000031e-02
5.851382000000000805e-02
5.477603500000000070e-02
5.493968899999999989e-02
5.812277899999999942e-02
5.832445000000000684e-02
5.722295899999999685e-02
5.599922599999999917e-02
5.530304200000000364e-02
5.338808499999999485e-02
5.099839699999999393e-02
5.132750700000000832e-02
4.924917200000000078e-02
4.564587700000000137e-02
4.700752400000000192e-02
5.188083500000000015e-02
5.306302699999999872e-02
4.834165199999999885e-02
4.707374300000000122e-02
4.809156600000000226e-02
3.930183899999999814e-02
2.577760399999999910e-02
1.800653299999999818e-02
1.906258699999999889e-02
2.617121600000000409e-02
3.427175100000000307e-02
4.106815500000000202e-02
3.437559800000000026e-02
1.721114300000000166e-02
5.360840999999999870e-03
-1.433288199999999991e-02
-4.217406799999999512e-02
-5.290856299999999873e-02
-5.893144799999999739e-02
-7.889179200000000225e-02
-9.004797300000000337e-02
-1.167796099999999920e-01
-1.632493500000000153e-01
-2.122181299999999771e-01
-2.860393800000000097e-01
-3.252239599999999786e-01
-3.909327599999999903e-01
-4.431039700000000137e-01
-3.964094200000000123e-01
-4.001283500000000215e-01
-1.504161800000000104e-01
