-9.668984900000000826e-02
-2.310165700000000322e-01
-2.980837499999999807e-01
-3.342556600000000100e-01
-3.189897999999999900e-01
-3.154114499999999821e-01
-2.922812599999999872e-01
-2.654268300000000025e-01
-2.028948000000000140e-01
-1.263317800000000046e-01
-7.385880599999999907e-02
-6.591698499999999739e-02
-5.683633899999999961e-02
-2.283769999999999897e-02
7.768380399999999346e-03
2.238197399999999893e-02
2.481671699999999856e-02
2.516858300000000132e-02
2.697457200000000221e-02
2.612258800000000214e-02
2.407868599999999845e-02
2.662007100000000209e-02
3.045159800000000333e-02
2.648094100000000090e-02
2.841938500000000187e-02
2.432900199999999888e-02
2.336067099999999952e-02
2.769184599999999913e-02
2.133519299999999883e-02
2.535438699999999906e-02
3.014101599999999964e-02
2.357432699999999909e-02
2.428679900000000128e-02
2.260536099999999743e-02
1.816575900000000007e-02
1.995391999999999999e-02
1.828636900000000023e-02
1.386430200000000022e-02
1.505030099999999857e-02
1.287024700000000133e-02
1.602492999999999973e-02
1.411968199999999972e-02
5.721804199999999674e-03
9.840802899999999062e-03
-9.838434700000001608e-04
-7.349282000000000384e-03
-1.352089199999999963e-03
4.445328800000000399e-04
-2.318773299999999770e-03
-5.108202099999999655e-03
-3.601872800000000159e-03
-5.269003799999999807e-03
-6.092073700000000605e-03
-4.494684100000000126e-03
-6.518682700000000274e-03
-8.098795299999999447e-03
-9.754112199999999747e-03
-4.653100099999999892e-04
2.931043500000000100e-03
7.087477899999999886e-03
5.585306899999999825e-03
6.499224900000000367e-03
1.519240999999999994e-02
1.418345000000000022e-02
1.825034199999999926e-02
1.988583099999999965e-02
2.943656099999999998e-02
2.945544399999999730e-02
2.903683500000000042e-02
3.130883300000000119e-02
3.104045200000000310e-02
3.862242000000000453e-02
4.337871000000000088e-02
3.917320100000000471e-02
3.406292300000000189e-02
3.234845399999999871e-02
3.225024099999999894e-02
3.752040899999999762e-02
4.232757200000000081e-02
4.294206500000000148e-02
4.206210999999999978e-02
3.810375300000000409e-02
3.336897300000000316e-02
3.957925999999999805e-02
4.208850900000000311e-02
4.112380100000000149e-02
4.465497899999999742e-02
4.577152400000000093e-02
6.035133399999999954e-02
5.258260999999999491e-02
4.914616000000000123e-02
5.742827700000000674e-02
6.096428299999999412e-02
5.858129699999999745e-02
5.307728999999999919e-02
6.308442300000000058e-02
6.014321500000000681e-02
5.690185899999999908e-02
6.682918499999999928e-02
6.414262499999999478e-02
6.388979599999999870e-02
6.921854800000000474e-02
8.146520100000000097e-02
8.462609399999999893e-02
7.756354800000000993e-02
7.469632400000000838e-02
7.681342799999998916e-02
8.367428899999999892e-02
8.147681700000000693e-02
8.905240500000000115e-02
8.984382700000000110e-02
9.211572300000001046e-02
8.758978300000000439e-02
8.853733399999999532e-02
9.061441800000000213e-02
8.078290700000000102e-02
7.979836900000000788e-02
7.961935200000000434e-02
7.928425799999999635e-02
6.434017399999999998e-02
4.757529099999999872e-02
5.065092599999999889e-02
5.815040000000000486e-02
5.856020199999999176e-02
4.780652900000000038e-02
3.459117800000000020e-02
3.535382399999999897e-02
2.437339900000000045e-02
1.992402500000000146e-02
4.939279200000000480e-02
5.403544899999999929e-02
3.042681700000000183e-02
-7.584333999999999867e-03
-5.574978499999999615e-02
-1.263777899999999899e-01
-1.564023400000000008e-01
-2.648591500000000432e-01
-3.104930399999999979e-01
-3.984882100000000094e-01
-2.924599199999999843e-01
