1.881726599999999916e-01
1.347983399999999887e-01
6.948436700000000521e-02
1.099358700000000084e-02
-1.570128399999999938e-02
-5.236181100000000116e-02
-7.892350400000000543e-02
-9.217359899999999495e-02
-1.046721300000000021e-01
-9.353000599999999887e-02
-6.440079600000001014e-02
-3.377214499999999647e-02
-1.130236800000000014e-03
1.442043899999999844e-02
1.480161200000000045e-02
1.619991700000000118e-02
3.300306599999999757e-02
6.663211100000000775e-02
8.004291300000000720e-02
7.825169800000000842e-02
8.005925599999999531e-02
8.100556700000000054e-02
7.642828299999999964e-02
6.539165199999999456e-02
6.809294999999999931e-02
7.587322600000000195e-02
7.515349000000000335e-02
7.527348300000000214e-02
6.869292899999999980e-02
6.021492200000000405e-02
6.335711600000000499e-02
6.909775500000001069e-02
6.950336999999999488e-02
6.511606400000000128e-02
5.909780199999999789e-02
6.013802299999999879e-02
6.227304500000000603e-02
5.752127599999999619e-02
5.464934700000000090e-02
5.227231699999999870e-02
4.993029699999999849e-02
5.659301199999999810e-02
5.420425199999999444e-02
4.316763900000000070e-02
4.742817300000000402e-02
5.000848100000000740e-02
4.348690200000000089e-02
4.121682200000000018e-02
3.934949799999999664e-02
4.086840900000000137e-02
4.341699999999999726e-02
3.512734399999999785e-02
2.890046900000000155e-02
2.802948300000000087e-02
2.806738599999999972e-02
3.262598900000000107e-02
2.474339199999999947e-02
1.699205100000000107e-02
2.294470900000000063e-02
2.630400800000000025e-02
2.069512999999999908e-02
1.272789400000000001e-02
1.708297099999999888e-02
1.390092499999999974e-02
7.779651099999999875e-03
1.319457300000000111e-02
6.143451999999999767e-03
5.610561000000000020e-03
1.022211900000000000e-02
4.741233699999999884e-03
7.474137000000000489e-03
1.005576000000000039e-02
6.946217200000000258e-03
5.265309299999999804e-03
6.376402700000000437e-03
7.646786299999999703e-03
1.204294399999999987e-02
1.918636699999999931e-02
1.570391299999999990e-02
1.861327399999999910e-02
2.938541499999999806e-02
2.494831600000000163e-02
1.874703400000000270e-02
2.392057800000000137e-02
3.619249399999999867e-02
3.582858400000000360e-02
2.816034700000000224e-02
3.297686000000000367e-02
3.522426099999999977e-02
3.862146699999999960e-02
3.767715400000000436e-02
2.980075700000000063e-02
3.656806799999999524e-02
4.132489599999999985e-02
3.481243800000000110e-02
3.212263899999999450e-02
3.720373800000000009e-02
3.952865600000000229e-02
3.600438200000000144e-02
3.826587699999999675e-02
3.950305299999999631e-02
3.746313399999999516e-02
3.757827400000000179e-02
3.445152899999999463e-02
3.430434799999999840e-02
3.819627700000000070e-02
3.627927599999999919e-02
3.140750999999999959e-02
2.838941099999999634e-02
2.769123499999999807e-02
3.167849799999999938e-02
3.501141300000000511e-02
3.358497900000000091e-02
3.386718300000000209e-02
3.332519400000000243e-02
2.444173799999999758e-02
1.290534100000000073e-02
5.926561999999999802e-03
1.492459200000000085e-03
-1.547033599999999946e-03
-3.716301899999999853e-03
-1.011483799999999926e-02
-2.288410600000000128e-02
-4.390309499999999615e-02
-6.527714999999999212e-02
-7.894649299999999259e-02
-9.264956700000000211e-02
-9.929491099999999959e-02
-1.015439200000000097e-01
-1.199030700000000005e-01
-1.498551600000000150e-01
-1.871230100000000063e-01
-2.272281099999999832e-01
-2.950226999999999711e-01
-3.245738200000000129e-01
-3.679784099999999780e-01
-4.453285200000000055e-01
-4.084200400000000397e-01
-4.446077999999999975e-01
-2.190553400000000150e-01
