1.279990500000000031e-01
3.476983499999999894e-02
-5.566728199999999849e-02
-1.462951399999999902e-01
-2.317994999999999917e-01
-2.860763499999999793e-01
-3.012660200000000232e-01
-2.896644600000000125e-01
-2.593125699999999645e-01
-2.013227500000000225e-01
-1.231788899999999992e-01
-6.953184700000000773e-02
-5.498826799999999293e-02
-5.597977299999999656e-02
-4.556690299999999888e-02
-6.010215299999999844e-03
3.037796599999999930e-02
4.282087099999999646e-02
5.268432499999999713e-02
5.424655900000000669e-02
5.318721299999999708e-02
5.936067999999999900e-02
5.670111300000000437e-02
4.754189899999999858e-02
4.083086200000000249e-02
4.427560900000000049e-02
5.386114600000000557e-02
5.222062200000000820e-02
4.977968199999999871e-02
5.268026500000000389e-02
5.403394799999999831e-02
6.352333300000000127e-02
7.094006399999999712e-02
5.899919500000000427e-02
4.979345200000000193e-02
5.472116900000000006e-02
4.670706100000000111e-02
2.749349999999999711e-02
2.240083300000000194e-02
2.933849499999999916e-02
3.900772500000000004e-02
4.940189999999999859e-02
4.904713900000000348e-02
4.156837800000000305e-02
3.743615100000000084e-02
2.926118400000000258e-02
2.754066100000000100e-02
2.594181699999999896e-02
6.821186799999999321e-03
3.143927700000000158e-03
1.226785799999999954e-02
8.532779299999999553e-03
9.741772999999998711e-03
9.359114999999999449e-03
1.400085900000000005e-03
-8.101992900000000875e-04
-3.886153099999999864e-03
-7.626213599999999079e-03
-7.570999999999999605e-03
-1.332868299999999916e-02
-2.089562699999999995e-02
-2.100983600000000048e-02
-2.322216400000000000e-02
-2.586636600000000175e-02
-2.178468600000000102e-02
-2.233892700000000148e-02
-2.298898199999999808e-02
-1.359048499999999937e-02
-5.455455799999999952e-03
-1.055051499999999989e-02
-1.907090200000000069e-02
-8.171581299999999479e-03
1.122685300000000018e-02
1.577640200000000187e-02
1.601085099999999956e-02
1.791771099999999936e-02
1.243403700000000021e-02
1.672092199999999917e-02
3.449048899999999918e-02
3.789321099999999609e-02
4.011117900000000375e-02
5.334986800000000168e-02
5.735089799999999738e-02
6.481671399999999750e-02
7.014158900000000418e-02
5.945070099999999469e-02
5.884439000000000336e-02
6.482971299999999715e-02
6.705399900000000302e-02
7.296167800000000203e-02
7.258831100000000258e-02
6.529218000000000521e-02
6.490967100000000212e-02
7.409817999999999960e-02
8.689592599999999833e-02
9.130349000000000104e-02
7.926555500000000143e-02
6.733603500000000242e-02
7.349916600000000466e-02
8.350978000000000567e-02
8.382216000000000666e-02
8.525245900000000265e-02
8.676468000000001068e-02
8.264500399999999414e-02
8.451718499999999468e-02
9.072770300000000676e-02
9.356054199999999654e-02
9.633532200000000101e-02
9.004514500000000699e-02
7.848726000000000314e-02
8.320677699999999566e-02
9.370742899999999487e-02
8.317251200000000400e-02
5.973869299999999549e-02
4.604877400000000065e-02
3.736272100000000151e-02
3.308366599999999769e-02
4.135349900000000190e-02
3.429504299999999728e-02
1.795188600000000023e-02
2.346691199999999949e-02
1.885631299999999955e-02
1.857676399999999865e-03
-3.107533700000000235e-03
-2.222747900000000051e-03
2.282264899999999867e-03
-1.792265900000000051e-02
-6.177659199999999823e-02
-9.921394000000000046e-02
-1.527250500000000011e-01
-2.122859899999999800e-01
-2.438279399999999930e-01
-2.786510999999999849e-01
-3.266175399999999840e-01
-3.398056999999999883e-01
-3.098622600000000005e-01
-2.299609100000000184e-01
-1.080945700000000009e-01
-4.185197999999999349e-03
1.047059200000000079e-01
