1.461842000000000141e-01
1.108219800000000144e-01
7.478673999999999045e-02
-1.769640000000000102e-02
-7.224982800000000205e-02
-1.117583599999999872e-01
-1.340862199999999782e-01
-1.714812599999999965e-01
-2.029786399999999880e-01
-2.107424099999999911e-01
-2.030436800000000042e-01
-1.646524099999999990e-01
-1.261990600000000018e-01
-9.681441500000000089e-02
-7.046837499999999976e-02
-6.214090300000000427e-02
-6.447396600000000755e-02
-3.997979699999999748e-02
5.036295700000000333e-03
1.877651500000000057e-02
1.930094300000000096e-02
2.427506600000000139e-02
1.986911200000000127e-02
2.390197200000000050e-02
1.929610699999999984e-02
1.263797500000000094e-02
2.230266700000000171e-02
2.853275000000000255e-02
2.487182300000000124e-02
1.440306600000000083e-02
2.382236100000000023e-02
3.706524099999999877e-02
3.026362499999999886e-02
2.832456900000000083e-02
3.032651900000000317e-02
3.238284599999999985e-02
2.790996100000000049e-02
1.900399399999999975e-02
1.956260500000000027e-02
2.137787600000000052e-02
2.461662400000000014e-02
2.140406300000000095e-02
1.476599299999999983e-02
1.982831100000000124e-02
2.607570299999999869e-02
2.510605599999999812e-02
1.776987799999999937e-02
1.635191300000000264e-02
1.975922399999999884e-02
1.407325199999999964e-02
9.170252800000000537e-03
8.814456400000000164e-03
9.326213400000000001e-03
1.129882599999999966e-02
1.089017899999999983e-02
9.009218700000000066e-03
9.640434999999999283e-03
1.272936099999999980e-02
1.245104300000000018e-02
6.072530799999999868e-03
5.492727200000000268e-03
1.039478500000000014e-02
2.772934599999999673e-03
-2.021490300000000021e-03
5.268425299999999860e-03
8.517319900000000499e-03
1.061429799999999944e-02
1.099437500000000068e-02
1.175546799999999982e-02
9.793467199999999345e-03
4.129607100000000017e-03
1.083316200000000035e-02
1.705977399999999977e-02
1.242706399999999982e-02
1.199651900000000063e-02
1.803189100000000128e-02
1.996137199999999806e-02
2.030562899999999865e-02
2.579976099999999745e-02
2.605362099999999903e-02
3.024299200000000326e-02
3.541662999999999756e-02
3.013064899999999893e-02
4.098759500000000167e-02
5.225021300000000368e-02
5.422903899999999972e-02
5.969449400000000072e-02
5.426047299999999657e-02
5.543998599999999666e-02
6.443346099999999743e-02
6.308959699999999726e-02
6.207053099999999823e-02
6.209131399999999468e-02
6.226793200000000500e-02
7.096529499999999768e-02
7.578688899999999617e-02
6.970086899999999863e-02
7.278695799999999883e-02
7.859042000000000805e-02
7.097790699999999287e-02
7.000218999999999192e-02
7.380627199999999222e-02
7.806346399999999908e-02
8.799214800000000614e-02
8.585065499999999794e-02
8.502678900000000539e-02
8.566756700000000002e-02
8.182842799999999472e-02
8.597266800000000209e-02
8.953322500000000794e-02
9.514213600000000215e-02
9.129822899999999464e-02
8.068109399999999487e-02
8.873820000000000319e-02
9.774496200000000468e-02
9.330373000000000139e-02
8.926533100000000331e-02
8.391820800000000802e-02
7.158320500000001085e-02
5.883271500000000070e-02
5.261206699999999847e-02
5.752473999999999782e-02
5.845875299999999525e-02
4.248158500000000226e-02
2.044716499999999978e-02
3.612066500000000319e-03
-1.012837100000000060e-02
-3.231228199999999773e-02
-5.365359400000000584e-02
-5.545989500000000211e-02
-6.168596200000000390e-02
-9.670952299999999169e-02
-1.214526800000000073e-01
-1.867206899999999947e-01
-2.284959400000000085e-01
-2.810411899999999963e-01
-3.720533000000000312e-01
-3.603936799999999940e-01
-5.248937899999999157e-01
-3.154052999999999995e-01
