-4.574520099999999923e-02
-1.261223399999999994e-01
-1.534746300000000008e-01
-1.977983700000000011e-01
-1.825240899999999999e-01
-1.943173499999999998e-01
-1.985424499999999814e-01
-1.897269799999999895e-01
-1.796926900000000160e-01
-1.569581300000000013e-01
-1.235413799999999923e-01
-7.053613499999999981e-02
-3.597362999999999950e-02
-3.304299200000000020e-02
-2.059560199999999758e-02
6.416759099999999778e-03
2.371847699999999823e-02
3.500054000000000359e-02
3.999505700000000052e-02
3.869953699999999913e-02
3.763593999999999967e-02
3.896116700000000488e-02
3.943674500000000221e-02
3.345176200000000294e-02
3.962575200000000020e-02
4.734923100000000551e-02
4.229887499999999967e-02
4.465606600000000120e-02
4.493740999999999708e-02
4.542475899999999511e-02
5.153217300000000056e-02
5.162327900000000108e-02
4.831160999999999789e-02
4.214519400000000388e-02
4.124375400000000053e-02
3.955961499999999936e-02
3.786599499999999952e-02
4.622163199999999861e-02
4.344286800000000254e-02
3.695611799999999614e-02
4.715927400000000103e-02
5.313675500000000079e-02
4.757990899999999662e-02
4.591411699999999735e-02
4.293851900000000138e-02
3.785556999999999811e-02
3.984629099999999896e-02
4.230661499999999881e-02
4.032022600000000068e-02
3.723025200000000534e-02
3.581660400000000188e-02
3.626351700000000206e-02
3.749576799999999877e-02
3.805534300000000536e-02
3.579076500000000216e-02
3.438719199999999698e-02
3.685808499999999877e-02
3.750826100000000107e-02
3.374625399999999636e-02
3.273948799999999715e-02
3.728164400000000267e-02
3.921934800000000110e-02
3.747029200000000226e-02
3.627608999999999695e-02
3.620135400000000503e-02
4.099762800000000124e-02
4.471944099999999866e-02
4.746660300000000304e-02
5.169084900000000399e-02
4.939948400000000045e-02
4.995535999999999727e-02
5.193329900000000221e-02
5.007137999999999867e-02
5.157176999999999595e-02
5.173235999999999807e-02
5.391354599999999969e-02
5.745126200000000294e-02
5.389586300000000219e-02
5.016234000000000665e-02
5.127401000000000181e-02
5.284933699999999623e-02
5.380017200000000027e-02
5.292206800000000266e-02
5.012183700000000242e-02
4.652383899999999739e-02
4.459292399999999906e-02
5.182433600000000556e-02
5.667366399999999860e-02
5.315708999999999712e-02
5.332133100000000653e-02
5.019274999999999431e-02
4.546903299999999898e-02
5.072187700000000549e-02
4.775668100000000221e-02
4.029053700000000127e-02
4.899658299999999633e-02
5.123844100000000262e-02
4.875245799999999852e-02
4.986270999999999759e-02
4.416105299999999872e-02
4.787817300000000303e-02
5.059794899999999623e-02
4.537927500000000364e-02
4.792606600000000328e-02
5.160788200000000769e-02
5.190100100000000216e-02
5.176616099999999804e-02
5.198217299999999957e-02
5.165405899999999523e-02
5.163957200000000164e-02
5.442797600000000291e-02
5.323606899999999698e-02
4.323209399999999869e-02
3.689031199999999455e-02
3.431794800000000090e-02
3.281508100000000289e-02
4.849613800000000113e-02
6.476179099999999911e-02
5.678751499999999675e-02
3.982323999999999586e-02
2.865035899999999677e-02
1.664462400000000022e-02
7.074759199999999977e-03
1.665193400000000018e-02
3.227754199999999934e-02
2.859626200000000076e-02
9.179135899999999598e-03
-2.688190799999999950e-02
-8.600729499999999750e-02
-1.407423999999999897e-01
-1.948500799999999811e-01
-2.796996800000000061e-01
-3.608394099999999716e-01
-4.225730500000000056e-01
-4.032189500000000204e-01
-3.371037700000000248e-01
-2.688673300000000155e-01
-1.596768299999999918e-01
-1.787983200000000106e-01
-6.371586700000000936e-02
