-5.024953299999999901e-02
-1.254323999999999995e-01
-1.542715899999999862e-01
-1.771151499999999990e-01
-1.987691799999999898e-01
-2.200603999999999894e-01
-2.115254800000000157e-01
-1.828529799999999983e-01
-1.264935799999999944e-01
-8.128630700000000209e-02
-5.127449499999999633e-02
-5.160405099999999801e-02
-3.252529099999999784e-02
-1.092976600000000048e-03
2.378941600000000073e-02
2.464354900000000070e-02
2.410781799999999961e-02
2.666449200000000144e-02
2.315265600000000062e-02
2.343468700000000265e-02
2.597999699999999773e-02
3.147767899999999452e-02
2.646503900000000270e-02
2.301033699999999876e-02
3.043269399999999972e-02
2.710877300000000267e-02
2.495337599999999934e-02
2.778891399999999789e-02
1.981760700000000097e-02
1.827805500000000138e-02
2.929687400000000053e-02
2.313255900000000045e-02
1.980579799999999946e-02
2.833946899999999908e-02
2.580417800000000053e-02
2.751157000000000255e-02
2.485545299999999957e-02
2.297228400000000254e-02
2.164715999999999863e-02
2.442022799999999869e-02
3.192973899999999865e-02
3.032396399999999839e-02
2.647471800000000125e-02
2.577050799999999753e-02
2.164744999999999864e-02
2.020202299999999951e-02
2.649144199999999699e-02
3.506705899999999765e-02
3.629770100000000166e-02
2.796719799999999867e-02
3.205971200000000410e-02
3.290359299999999487e-02
3.059437899999999794e-02
3.705998700000000257e-02
3.499654600000000337e-02
3.205781900000000129e-02
3.225004699999999697e-02
3.442774699999999466e-02
4.007677199999999662e-02
4.142037700000000128e-02
4.449774199999999985e-02
4.153091400000000211e-02
3.946921500000000194e-02
4.657419599999999826e-02
4.654413100000000247e-02
4.494012800000000279e-02
4.978200700000000312e-02
5.050678199999999313e-02
4.963590099999999616e-02
5.448210100000000500e-02
5.395034499999999678e-02
4.784799499999999733e-02
5.264098099999999641e-02
5.625234500000000221e-02
5.403111200000000613e-02
5.406686899999999657e-02
4.969645999999999786e-02
4.785041799999999873e-02
4.713012300000000293e-02
4.696653800000000212e-02
5.120298599999999201e-02
4.736287200000000031e-02
4.313742500000000007e-02
4.171740999999999644e-02
4.128295499999999618e-02
4.454309000000000046e-02
4.860844599999999960e-02
4.525257100000000532e-02
4.678702299999999703e-02
4.953256600000000009e-02
4.739801899999999957e-02
4.809964600000000284e-02
5.156890800000000358e-02
5.384527399999999853e-02
4.647883300000000412e-02
5.067389100000000562e-02
5.878479599999999333e-02
5.537036499999999778e-02
5.404494600000000343e-02
5.840958499999999998e-02
5.986876599999999687e-02
5.264395499999999922e-02
5.502623499999999973e-02
6.412871300000000385e-02
6.146598300000000181e-02
6.328167799999999399e-02
6.492778000000000438e-02
6.796214899999999948e-02
7.482954299999999837e-02
6.800298600000000138e-02
6.381069999999999798e-02
6.595947100000000562e-02
6.727111300000000738e-02
6.797017299999999485e-02
6.843884299999999921e-02
6.489904999999999979e-02
5.001323300000000416e-02
4.310574600000000034e-02
4.912735799999999597e-02
6.466331799999999741e-02
6.568107199999999313e-02
5.798241899999999338e-02
4.103492000000000250e-02
1.781452600000000067e-02
-7.275300399999999439e-03
-1.729236099999999915e-02
-1.331451999999999983e-02
-3.149889100000000108e-02
-5.740868000000000360e-02
-1.038479900000000011e-01
-1.675125399999999876e-01
-2.229596100000000303e-01
-2.984069699999999936e-01
-3.692807999999999646e-01
-4.378374999999999906e-01
-4.252111799999999664e-01
-3.461061400000000066e-01
-2.147045200000000098e-01
-1.773524000000000211e-01
-1.067542599999999897e-01
