8.867355300000000218e-02
3.496448900000000137e-02
-3.284512900000000069e-02
-8.347213100000000496e-02
-1.179706499999999963e-01
-1.240088199999999918e-01
-1.212619900000000001e-01
-1.069256200000000129e-01
-7.341236900000000509e-02
-4.063085599999999992e-02
-1.997756099999999785e-02
-1.193861700000000033e-02
5.064489400000000280e-03
3.169927200000000056e-02
4.132328000000000390e-02
4.251316500000000553e-02
4.117020899999999928e-02
4.443325900000000273e-02
4.296180600000000516e-02
4.139116400000000112e-02
4.069561800000000285e-02
4.168562099999999909e-02
4.161411799999999855e-02
3.982793600000000128e-02
4.081252800000000069e-02
3.881408599999999764e-02
3.659063299999999741e-02
3.648666799999999988e-02
3.866269199999999850e-02
3.376030700000000329e-02
3.183723900000000329e-02
3.012203199999999997e-02
2.863629200000000069e-02
2.778484399999999604e-02
2.651807099999999723e-02
2.353007900000000235e-02
2.648161700000000243e-02
2.438555900000000110e-02
2.322901499999999869e-02
1.975990999999999859e-02
1.810104700000000205e-02
1.803805099999999939e-02
1.946419599999999958e-02
1.536223700000000081e-02
1.342157599999999930e-02
1.231472200000000017e-02
1.061940299999999948e-02
1.364341099999999939e-02
1.194146999999999917e-02
1.459959299999999925e-02
1.787933600000000262e-02
1.813853600000000024e-02
2.198659900000000250e-02
3.063053600000000334e-02
3.077430400000000232e-02
3.009539500000000395e-02
3.208347300000000124e-02
3.908897399999999855e-02
4.225988199999999861e-02
4.558498400000000200e-02
4.520937800000000145e-02
4.890453399999999951e-02
5.082548599999999611e-02
5.338413800000000459e-02
5.530113899999999916e-02
5.517244300000000157e-02
5.513878800000000802e-02
5.718225899999999917e-02
5.638199299999999831e-02
5.624757700000000693e-02
6.035729299999999936e-02
5.856439599999999773e-02
6.036191500000000210e-02
6.096621900000000205e-02
6.586882600000000532e-02
6.217274400000000201e-02
6.451081100000000124e-02
6.692339499999999664e-02
6.676690300000000244e-02
6.377165700000000936e-02
6.491352799999999812e-02
6.591811599999999882e-02
6.284720299999999038e-02
7.089302899999999630e-02
6.905868200000001011e-02
6.971449300000000238e-02
7.239787500000000042e-02
7.322459700000000238e-02
7.379750899999999725e-02
7.499813199999999513e-02
7.856978100000000520e-02
7.609274299999999047e-02
7.842029100000000308e-02
8.071998999999999147e-02
7.986770199999999875e-02
8.004660500000000678e-02
8.354853800000000552e-02
8.800569399999999542e-02
8.560567199999999377e-02
8.457469100000000739e-02
8.606605800000000084e-02
8.252417500000000516e-02
7.651473300000000144e-02
7.772075000000000511e-02
6.317532200000000597e-02
5.636475399999999608e-02
6.701095900000000882e-02
6.793004299999999551e-02
5.437438500000000424e-02
3.197928099999999829e-02
9.906009900000000215e-03
1.182631200000000028e-02
8.869171000000000346e-03
-4.005035199999999740e-02
-5.903743099999999439e-02
-7.880103899999998940e-02
-1.078829800000000033e-01
-1.411828800000000106e-01
-1.941018200000000082e-01
-2.535941600000000129e-01
-2.846410799999999908e-01
-2.933887499999999759e-01
-2.750428299999999604e-01
-2.571518199999999754e-01
-2.750841800000000115e-01
-3.070743999999999696e-01
-3.153228799999999721e-01
-3.009698799999999674e-01
-2.708372900000000083e-01
-2.359932600000000102e-01
-2.067783400000000049e-01
-1.641858599999999890e-01
-1.087709800000000032e-01
-6.342264000000000235e-02
-2.986154100000000186e-02
-5.924320299999999949e-03
1.249323600000000131e-02
2.179054799999999986e-02
3.043567500000000231e-02
4.387897999999999799e-02
