-1.629227299999999878e-01
-1.836658300000000021e-01
-1.670371900000000021e-01
-2.065133100000000055e-01
-2.075493199999999816e-01
-1.997395100000000090e-01
-2.130714900000000023e-01
-2.225487499999999896e-01
-2.328751099999999963e-01
-2.349480899999999983e-01
-2.266903000000000112e-01
-2.117928299999999875e-01
-1.841403699999999977e-01
-1.493668599999999902e-01
-1.209218999999999988e-01
-1.025007199999999896e-01
-8.881279000000000257e-02
-7.644244999999999512e-02
-5.703408199999999983e-02
-2.943898899999999874e-02
-1.098831800000000039e-02
-1.012718599999999983e-02
-1.279730500000000014e-02
-9.011573200000001088e-03
-4.754854200000000267e-03
-3.642598700000000168e-03
-2.090959199999999941e-03
-2.463925300000000050e-04
1.631144099999999987e-03
3.888213599999999943e-03
2.768567100000000024e-03
9.599534799999999684e-04
3.860089600000000346e-03
6.267602399999999858e-03
6.466613599999999733e-03
8.925370700000000851e-03
1.147996899999999959e-02
1.103008200000000008e-02
1.031385999999999935e-02
1.276555199999999946e-02
1.713433900000000190e-02
1.865348099999999953e-02
1.607818700000000073e-02
1.426522799999999959e-02
1.454183900000000085e-02
1.370464799999999983e-02
1.486018199999999956e-02
1.691933400000000115e-02
1.632267500000000177e-02
1.890231599999999887e-02
2.078206299999999992e-02
1.830367800000000031e-02
2.166536499999999893e-02
2.693288999999999753e-02
2.587120999999999865e-02
2.477252899999999800e-02
2.585091400000000261e-02
2.657631799999999808e-02
2.773155100000000012e-02
2.796957299999999758e-02
2.524943800000000252e-02
2.331479700000000169e-02
2.661561700000000114e-02
2.933842999999999868e-02
2.616704000000000252e-02
2.572297299999999967e-02
3.182440000000000269e-02
3.560682700000000062e-02
3.424660599999999888e-02
3.272336900000000215e-02
3.556848699999999586e-02
4.012174000000000296e-02
4.163384700000000160e-02
4.496222100000000360e-02
4.759352700000000352e-02
4.495868800000000359e-02
4.746706199999999737e-02
5.220369400000000187e-02
5.038709999999999717e-02
5.158139000000000474e-02
5.823371800000000376e-02
6.298647400000000063e-02
6.477601200000000781e-02
6.547775999999999597e-02
6.760968000000000533e-02
7.075291000000000219e-02
7.270601499999999884e-02
7.263201999999999159e-02
6.999014000000000624e-02
6.913076199999999838e-02
7.429211999999998928e-02
7.820249500000001075e-02
7.458166099999999354e-02
7.314887899999999998e-02
7.843254899999999030e-02
8.055493799999999260e-02
7.866956699999999580e-02
7.823137100000000788e-02
7.989912500000000140e-02
8.412896899999999789e-02
8.619147700000000245e-02
8.198366499999999724e-02
7.907982399999999301e-02
8.143321300000000429e-02
8.182340099999999006e-02
8.086178600000000494e-02
8.280524699999999849e-02
8.442687100000000056e-02
8.739672699999999350e-02
9.020165399999999223e-02
8.657361300000000759e-02
8.373411399999999838e-02
8.535104699999999933e-02
8.616410300000000577e-02
8.648080999999999130e-02
8.445641000000000953e-02
7.760841300000000109e-02
6.855939299999999625e-02
6.166409699999999411e-02
6.274931300000000101e-02
7.252248699999999659e-02
8.465740099999999324e-02
9.220052100000000750e-02
9.191635900000000303e-02
8.660374099999999797e-02
7.906219999999999914e-02
6.507303600000000077e-02
4.436663600000000096e-02
3.073317199999999610e-02
2.484767400000000015e-02
1.037916799999999938e-02
-4.301211099999999697e-03
-4.030235399999999857e-02
-8.794024100000000232e-02
-1.218406300000000053e-01
-1.960496300000000025e-01
-2.336403699999999861e-01
-2.750302800000000158e-01
-4.141235600000000017e-01
-2.869272600000000173e-01
