-6.535561800000000768e-03
-9.077442700000000475e-02
-1.292172400000000110e-01
-1.948265100000000083e-01
-2.486197000000000268e-01
-2.890163399999999827e-01
-2.899602799999999592e-01
-2.617307199999999723e-01
-2.206138800000000122e-01
-1.655471000000000026e-01
-1.154091900000000087e-01
-7.616646200000000422e-02
-6.128400499999999557e-02
-6.077237800000000190e-02
-4.211115799999999576e-02
-1.157933599999999910e-02
1.148513800000000064e-02
2.822772499999999865e-02
3.275847299999999629e-02
2.560736100000000209e-02
2.757386199999999760e-02
3.725505299999999631e-02
3.866560000000000136e-02
3.701401499999999734e-02
3.732821299999999898e-02
3.432915000000000272e-02
3.378986800000000068e-02
3.829223600000000033e-02
3.892214399999999880e-02
3.844928499999999971e-02
4.113229999999999664e-02
3.903857200000000055e-02
3.204910899999999924e-02
3.254287100000000099e-02
3.720711000000000157e-02
3.529005300000000178e-02
3.641145999999999966e-02
3.884665500000000077e-02
3.396215400000000134e-02
3.148553800000000041e-02
3.013280199999999673e-02
2.973015000000000033e-02
3.496929999999999483e-02
3.470949099999999510e-02
2.877497500000000125e-02
2.727791299999999738e-02
2.971252400000000057e-02
3.286540400000000084e-02
3.166727899999999957e-02
2.349919599999999997e-02
1.875417500000000140e-02
2.133164200000000135e-02
1.571808699999999864e-02
3.183724000000000189e-03
4.382685900000000620e-03
1.347227500000000057e-02
1.718150200000000127e-02
1.927091900000000094e-02
1.734484400000000162e-02
1.464599000000000109e-02
1.546731699999999952e-02
1.530145400000000079e-02
1.514039000000000010e-02
1.651634600000000119e-02
2.124504299999999818e-02
2.303655199999999834e-02
2.245780800000000271e-02
2.903564499999999882e-02
3.084005000000000080e-02
2.955354099999999914e-02
3.496929999999999483e-02
3.462033500000000208e-02
2.951506799999999847e-02
3.108414099999999916e-02
4.123813199999999679e-02
5.049810200000000304e-02
4.983022599999999830e-02
4.923370100000000471e-02
5.127878599999999981e-02
4.854746399999999851e-02
4.960926899999999751e-02
5.793277700000000474e-02
6.228293599999999708e-02
6.307316799999999890e-02
6.461563099999999282e-02
6.469449600000000411e-02
6.516917699999999480e-02
6.340981399999999490e-02
6.060180499999999471e-02
6.410575699999999932e-02
6.955414000000000041e-02
7.083499499999999782e-02
6.696293300000000226e-02
6.467913299999999976e-02
6.507455800000000457e-02
6.165452200000000327e-02
6.116269600000000251e-02
5.961108200000000273e-02
5.473352000000000078e-02
5.749350699999999925e-02
6.107053700000000113e-02
6.522237300000000015e-02
7.155416900000000080e-02
7.436878900000000459e-02
7.536574399999999840e-02
7.203650100000000278e-02
7.137244800000000500e-02
7.463928000000000229e-02
7.283482199999999351e-02
7.527528599999999681e-02
8.189472999999999892e-02
8.168822200000000477e-02
7.647416299999999778e-02
7.193589000000000233e-02
6.522619500000000070e-02
5.375709199999999244e-02
5.141810999999999604e-02
5.322352200000000227e-02
4.597052399999999872e-02
4.991888800000000154e-02
5.746911799999999959e-02
3.846096599999999921e-02
1.844874900000000040e-02
1.897080100000000241e-02
1.828368200000000249e-02
2.120531700000000130e-02
2.311076800000000028e-02
-1.396504900000000108e-03
-3.172361899999999457e-02
-6.112683500000000436e-02
-1.148615500000000067e-01
-1.789107100000000006e-01
-2.422644599999999870e-01
-3.180784899999999915e-01
-3.708326499999999859e-01
-3.876788700000000087e-01
-3.348410199999999892e-01
-2.203609599999999946e-01
-1.558429899999999868e-01
-1.206787599999999995e-02
