-8.720042699999999702e-02
-1.737933600000000078e-01
-2.179270600000000058e-01
-2.621594700000000056e-01
-2.743221000000000132e-01
-2.848696199999999901e-01
-2.642508900000000160e-01
-2.144996799999999981e-01
-1.699625899999999967e-01
-1.330246900000000010e-01
-1.049184999999999979e-01
-8.882805700000000193e-02
-7.681474499999998984e-02
-5.335216200000000158e-02
-8.219395699999999805e-03
2.251471600000000059e-02
2.549417899999999876e-02
2.548690800000000256e-02
2.451746999999999954e-02
3.253560400000000269e-02
3.660498499999999961e-02
3.003990000000000132e-02
2.505801300000000051e-02
2.282233100000000126e-02
2.994645799999999872e-02
3.249731599999999831e-02
3.314087999999999756e-02
3.654299999999999909e-02
3.409036499999999748e-02
3.415676799999999708e-02
3.079934100000000091e-02
2.554439700000000341e-02
2.950270199999999871e-02
2.928629799999999880e-02
2.918849999999999917e-02
3.646424899999999719e-02
3.091589699999999774e-02
2.846303000000000027e-02
3.194594700000000231e-02
2.750464899999999907e-02
3.115367600000000167e-02
2.964761799999999711e-02
1.996119000000000018e-02
2.011719600000000038e-02
2.074665199999999737e-02
1.692642600000000136e-02
1.352804900000000032e-02
1.091040100000000013e-02
1.605264799999999922e-02
1.885591699999999982e-02
1.937179900000000204e-02
2.553476299999999852e-02
1.479760699999999908e-02
1.256546199999999947e-03
7.932169299999999867e-03
6.050037600000000501e-03
-2.730053799999999919e-03
2.676988500000000108e-03
3.258124999999999737e-03
1.324041900000000067e-03
4.208576500000000176e-04
-8.013944400000000412e-03
-7.617359599999999967e-03
-2.498343799999999931e-03
-4.595910199999999994e-03
-3.745637000000000445e-03
-2.779511799999999973e-03
-2.446297499999999900e-04
7.644091199999999628e-03
5.464050399999999946e-03
4.073649000000000367e-03
6.683552600000000794e-03
8.908082299999999995e-03
1.443742799999999868e-02
1.751168800000000095e-02
2.412257500000000027e-02
2.494508499999999879e-02
3.147999199999999831e-02
4.302433299999999794e-02
3.522284399999999621e-02
3.730326500000000212e-02
5.110693300000000022e-02
4.916123099999999968e-02
5.094805799999999746e-02
5.791534299999999413e-02
5.729094799999999432e-02
6.293357200000000706e-02
6.418942600000000775e-02
7.024424999999999419e-02
7.449431500000000539e-02
6.451896199999999915e-02
7.512918799999999953e-02
8.210598799999999087e-02
7.931477700000000297e-02
8.530114699999999384e-02
8.373399600000000498e-02
8.325072499999999764e-02
8.729844600000000177e-02
8.872617099999999257e-02
8.778550599999999926e-02
8.875173599999999774e-02
9.246011699999999445e-02
9.287311700000000503e-02
9.229017700000000102e-02
9.290616100000000099e-02
9.211842900000000167e-02
9.032044000000000183e-02
9.203937700000000555e-02
9.510303000000000506e-02
9.294077700000000219e-02
9.359608199999999711e-02
9.442829799999999385e-02
9.256985500000000644e-02
9.342736799999999675e-02
8.403979200000000205e-02
7.062660899999999298e-02
6.551038800000000273e-02
6.463758699999999635e-02
7.034714200000000139e-02
7.176378499999999661e-02
5.944076900000000441e-02
5.078857599999999500e-02
4.136005799999999816e-02
2.251564799999999922e-02
1.286495800000000099e-02
1.465250799999999985e-02
1.996871000000000063e-02
1.465593500000000014e-02
-7.414854399999999505e-03
-4.197642599999999724e-02
-9.619845600000000163e-02
-1.630910999999999889e-01
-2.319957599999999953e-01
-3.071661900000000056e-01
-3.630928700000000120e-01
-3.661980499999999972e-01
-3.081850800000000001e-01
-1.974047999999999914e-01
-8.713740000000000374e-02
1.537546999999999872e-02
