1.083764900000000128e-02
-4.946455900000000516e-02
-8.504460700000000817e-02
-1.592600100000000074e-01
-2.173999199999999965e-01
-2.697613099999999764e-01
-2.957288000000000139e-01
-2.851025799999999943e-01
-2.668231899999999879e-01
-2.239501000000000130e-01
-1.630585400000000018e-01
-1.075460700000000075e-01
-7.061794999999999878e-02
-6.305429599999999579e-02
-5.770686099999999819e-02
-3.171844199999999947e-02
5.396297300000000088e-03
3.344277299999999509e-02
3.599188300000000229e-02
3.453888399999999886e-02
4.682685799999999898e-02
4.859761099999999889e-02
3.883006700000000283e-02
3.550559600000000038e-02
3.812650899999999593e-02
4.411364300000000099e-02
4.765719799999999784e-02
4.667618199999999662e-02
4.681214100000000156e-02
4.603688699999999856e-02
4.470028999999999669e-02
4.480548899999999696e-02
4.230195500000000219e-02
4.042414200000000318e-02
4.492505700000000435e-02
4.480842699999999790e-02
3.928457300000000318e-02
4.252117400000000186e-02
4.431554000000000049e-02
3.926509599999999933e-02
4.047611899999999791e-02
4.013065400000000171e-02
3.691988300000000056e-02
3.733869399999999866e-02
3.468202399999999880e-02
3.448160200000000009e-02
3.755161699999999547e-02
3.103597599999999984e-02
2.178959600000000135e-02
2.101524700000000079e-02
2.220341799999999907e-02
2.054052799999999887e-02
2.047843299999999728e-02
1.923332399999999956e-02
1.385297900000000137e-02
1.216513699999999948e-02
1.837399299999999819e-02
2.356935400000000069e-02
1.493896999999999933e-02
3.831613200000000274e-03
6.902522199999999546e-03
8.320858500000000157e-03
3.014753499999999961e-03
5.159545500000000794e-04
-2.014522500000000098e-03
6.455939500000000553e-03
1.455702299999999880e-02
4.311201399999999885e-03
2.545943299999999833e-03
1.176844499999999891e-02
1.272491400000000036e-02
1.611997800000000008e-02
2.176329999999999931e-02
2.237892999999999827e-02
2.575032899999999889e-02
2.865129000000000287e-02
2.720385900000000384e-02
3.493423699999999993e-02
4.459993999999999764e-02
4.419521099999999814e-02
4.881908999999999554e-02
5.189197300000000096e-02
4.509578599999999882e-02
5.242941500000000005e-02
6.627490999999999244e-02
6.456682999999999173e-02
6.438569400000000720e-02
7.434304099999999860e-02
7.689450200000000346e-02
7.494829799999999653e-02
7.260279099999999985e-02
6.536086599999998970e-02
7.004011799999999843e-02
7.918049900000000141e-02
7.576166600000000528e-02
7.690402400000000138e-02
7.843143700000000662e-02
7.496880200000000105e-02
7.705549700000000057e-02
7.301443999999999990e-02
6.966395000000000226e-02
7.722238300000000555e-02
8.201830599999999916e-02
8.477560300000000493e-02
8.614372600000000380e-02
8.066647099999998960e-02
7.822580500000000936e-02
8.005236400000000085e-02
7.792461800000000105e-02
7.858520900000000309e-02
8.544669000000000569e-02
8.407746000000000663e-02
7.420544100000001086e-02
6.450060500000000252e-02
5.334694399999999337e-02
4.405930000000000263e-02
4.104337500000000000e-02
4.571763300000000058e-02
5.510322800000000409e-02
5.363326200000000099e-02
4.308627099999999543e-02
3.793078100000000369e-02
3.240227600000000069e-02
1.832354900000000147e-02
3.614821099999999867e-03
3.494836800000000136e-03
1.271933700000000070e-02
2.834745999999999967e-03
-2.439135900000000134e-02
-5.379344700000000812e-02
-1.012229499999999921e-01
-1.582644900000000077e-01
-2.119648600000000049e-01
-2.515720799999999757e-01
-2.863089500000000065e-01
-3.528017900000000040e-01
-3.530559300000000178e-01
-2.848988900000000157e-01
-2.493448799999999910e-01
-6.598301300000000702e-02
