-1.569510900000000153e-01
-1.982881099999999897e-01
-1.839078399999999891e-01
-2.406860599999999795e-01
-2.480275499999999855e-01
-2.664377299999999837e-01
-2.421552999999999900e-01
-2.090684899999999957e-01
-1.608427199999999946e-01
-1.084240099999999873e-01
-7.834629199999999793e-02
-7.013986399999999621e-02
-4.640286799999999989e-02
-5.969552599999999702e-03
6.846448700000000442e-03
7.531667000000000570e-03
1.689162500000000039e-02
1.660543399999999878e-02
1.429684900000000036e-02
1.382687800000000078e-02
1.056674799999999907e-02
1.429179100000000160e-02
1.795600099999999921e-02
1.726860000000000200e-02
1.626114199999999926e-02
2.632269300000000117e-02
3.050627100000000147e-02
2.513890499999999958e-02
2.545980600000000149e-02
2.208512900000000195e-02
2.253289199999999881e-02
1.841860499999999762e-02
2.259021200000000187e-02
2.972622899999999985e-02
1.988025499999999945e-02
1.243045599999999945e-02
1.180159400000000032e-02
1.656463099999999980e-02
1.293069299999999831e-02
1.639118699999999804e-02
2.235181400000000110e-02
1.993073599999999751e-02
2.173713399999999824e-02
1.680948100000000112e-02
1.848384299999999980e-02
1.998294700000000090e-02
1.744760799999999987e-02
1.813119499999999926e-02
1.608015499999999876e-02
1.987579800000000008e-02
2.526720099999999955e-02
2.450475199999999770e-02
2.432258699999999968e-02
3.174525100000000211e-02
3.462707899999999811e-02
3.045640900000000026e-02
2.732114100000000018e-02
2.809109599999999943e-02
3.792658699999999772e-02
4.088388800000000017e-02
3.702301000000000203e-02
3.683912699999999929e-02
3.686378799999999456e-02
4.035049100000000222e-02
4.546835000000000460e-02
4.563546100000000216e-02
4.284777900000000250e-02
5.254228899999999897e-02
5.926076200000000155e-02
5.246609500000000426e-02
5.337984099999999732e-02
5.547274500000000386e-02
5.669282199999999688e-02
6.489827500000000526e-02
6.415108499999999658e-02
5.424931800000000470e-02
5.159918300000000679e-02
4.965716900000000100e-02
4.752334400000000209e-02
5.034238900000000128e-02
4.417171999999999765e-02
3.617893700000000129e-02
4.452799600000000024e-02
5.212739699999999893e-02
5.524117600000000294e-02
5.671016699999999883e-02
4.465120100000000147e-02
4.454376300000000011e-02
4.875250199999999617e-02
4.874829399999999757e-02
5.396956099999999923e-02
5.151850500000000610e-02
4.849883700000000297e-02
4.326465699999999803e-02
4.571668799999999838e-02
5.683802300000000141e-02
5.890988400000000264e-02
6.209000199999999831e-02
7.013186200000000314e-02
7.058506300000000344e-02
6.979540100000000691e-02
7.007584199999999930e-02
6.677738099999999677e-02
7.157156300000000471e-02
8.533264599999999811e-02
8.874521900000000019e-02
8.344194299999999065e-02
8.589736800000000172e-02
8.607694600000000140e-02
8.102470600000000189e-02
8.329382800000000031e-02
9.216267100000000156e-02
9.619056099999999387e-02
9.455008299999999311e-02
9.232612599999999448e-02
7.669053900000000201e-02
6.015962500000000823e-02
6.078095000000000026e-02
6.761934799999999579e-02
7.199319800000000824e-02
6.964741700000000313e-02
5.824953699999999707e-02
3.630835000000000312e-02
1.180618300000000134e-02
-1.084665800000000034e-02
-1.659739099999999953e-02
-1.362824400000000116e-02
-3.300779899999999739e-02
-6.390246099999999374e-02
-1.077472000000000013e-01
-1.509808100000000208e-01
-1.969222599999999879e-01
-2.611953999999999665e-01
-3.319166500000000353e-01
-3.835761500000000046e-01
-3.729819500000000065e-01
-3.106381599999999965e-01
-1.746388200000000002e-01
-1.067762899999999959e-01
-5.052731100000000010e-03
