-7.566860400000000042e-02
-1.779697299999999927e-01
-2.076684000000000307e-01
-2.428569099999999814e-01
-2.612662600000000279e-01
-2.657645100000000093e-01
-2.663210900000000381e-01
-2.575863999999999931e-01
-2.425190300000000243e-01
-2.093226200000000148e-01
-1.491483600000000076e-01
-8.351574000000000497e-02
-4.379829899999999887e-02
-3.455125499999999600e-02
-3.025869400000000264e-02
-4.534241399999999755e-03
2.556648300000000096e-02
3.564173500000000078e-02
4.132818400000000392e-02
4.804249500000000450e-02
4.993789299999999709e-02
5.571322800000000353e-02
5.846864000000000228e-02
5.410509100000000793e-02
4.993789299999999709e-02
4.557034399999999874e-02
4.420898999999999662e-02
4.746192400000000255e-02
4.806316900000000281e-02
4.613465400000000410e-02
4.959604100000000043e-02
5.794616000000000350e-02
5.368734099999999954e-02
4.375645300000000071e-02
5.160445099999999563e-02
5.719572699999999482e-02
4.806316900000000281e-02
4.469938099999999637e-02
4.192253299999999794e-02
3.831967800000000285e-02
4.056427399999999739e-02
3.967320800000000147e-02
3.770633099999999571e-02
3.633768799999999993e-02
3.681482600000000188e-02
3.987435300000000127e-02
3.237458899999999529e-02
2.430392600000000000e-02
2.744120700000000218e-02
2.955973199999999829e-02
2.930508499999999808e-02
2.929735600000000356e-02
2.931593099999999993e-02
2.905656099999999811e-02
2.288935500000000012e-02
2.029875100000000029e-02
2.369175899999999974e-02
2.251467000000000052e-02
2.244923700000000036e-02
2.363075299999999740e-02
1.994231200000000023e-02
2.044977400000000042e-02
2.365602900000000203e-02
2.040118099999999740e-02
1.994231200000000023e-02
2.201654200000000006e-02
1.181079500000000067e-02
5.087896100000000206e-03
1.994231200000000023e-02
3.529842700000000028e-02
3.682003799999999938e-02
3.770542799999999917e-02
4.056427399999999739e-02
4.396785500000000013e-02
5.162913300000000760e-02
5.265023500000000356e-02
4.618844500000000158e-02
4.928166199999999691e-02
5.490893999999999636e-02
5.295244500000000076e-02
5.743678900000000198e-02
6.875371199999999461e-02
6.952784300000000584e-02
6.335453800000000191e-02
6.493568400000000740e-02
6.881897200000000603e-02
6.792827500000001018e-02
6.970285200000000958e-02
6.868513200000000984e-02
6.310666200000000781e-02
6.686973899999999749e-02
7.091963100000001075e-02
6.868513200000000984e-02
7.049193700000000451e-02
6.804666900000000407e-02
6.502633799999998909e-02
7.055985500000000465e-02
7.192663800000000107e-02
6.738129699999999278e-02
6.469210200000000133e-02
6.868513200000000984e-02
7.108356899999999923e-02
6.214588899999999583e-02
6.446061699999999783e-02
7.618402700000000138e-02
7.033428999999999376e-02
6.528484300000000906e-02
7.358730399999999228e-02
7.430930300000000710e-02
6.722706100000000462e-02
6.084915300000000304e-02
5.243237200000000486e-02
4.243899799999999861e-02
3.833382100000000403e-02
4.100112200000000096e-02
4.292729599999999673e-02
4.431372199999999983e-02
4.448194500000000190e-02
3.635233799999999793e-02
2.681213299999999841e-02
1.994231200000000023e-02
1.217851699999999981e-02
1.299373000000000021e-02
2.333429399999999848e-02
2.181703600000000146e-02
3.524367500000000208e-03
-2.216241399999999834e-02
-6.003179499999999891e-02
-1.075389100000000014e-01
-1.499927400000000133e-01
-1.928156799999999893e-01
-2.400456000000000256e-01
-2.950112900000000371e-01
-3.360072100000000006e-01
-3.249334199999999728e-01
-2.814382199999999612e-01
-1.994003799999999882e-01
-1.126598900000000125e-01
-8.738715700000000697e-02
-9.974257199999998595e-04
