-7.146949199999999558e-02
-1.421965700000000221e-01
-1.464046699999999868e-01
-1.895014500000000157e-01
-2.145423599999999875e-01
-2.193109000000000308e-01
-2.149770099999999962e-01
-1.968068300000000159e-01
-1.768714700000000029e-01
-1.444274600000000075e-01
-9.778418199999999727e-02
-5.517618800000000101e-02
-3.670890400000000053e-02
-3.825543499999999736e-02
-2.729156799999999869e-02
1.154329099999999979e-03
1.979518499999999986e-02
2.541486899999999965e-02
3.351671299999999659e-02
3.476215700000000186e-02
3.019250399999999848e-02
3.761512399999999978e-02
4.221230100000000068e-02
3.637162099999999981e-02
3.526520100000000296e-02
3.458327099999999876e-02
3.456057900000000099e-02
3.880717000000000194e-02
4.016844700000000296e-02
4.053221599999999591e-02
3.923738499999999962e-02
3.691041800000000039e-02
4.042457700000000320e-02
4.257306000000000284e-02
3.842299300000000251e-02
3.529432799999999981e-02
3.740934099999999873e-02
3.948837800000000453e-02
3.509824899999999803e-02
3.202076799999999807e-02
3.962595700000000332e-02
4.703109100000000403e-02
4.554255200000000003e-02
4.188051099999999527e-02
4.050115099999999912e-02
3.968687699999999541e-02
3.818290700000000204e-02
3.700254900000000263e-02
3.620782000000000167e-02
3.443086299999999905e-02
3.370663999999999605e-02
3.134796299999999952e-02
2.678749100000000355e-02
3.107841199999999970e-02
3.927625699999999498e-02
3.678580399999999834e-02
3.020638800000000068e-02
2.950056099999999806e-02
3.250493599999999816e-02
3.392087900000000100e-02
3.359447799999999706e-02
3.788117100000000514e-02
4.168152500000000399e-02
3.699079900000000476e-02
3.403143900000000360e-02
3.986282500000000451e-02
4.493366799999999606e-02
4.306928000000000145e-02
3.969302499999999984e-02
4.132724200000000014e-02
4.485526699999999728e-02
4.518076499999999773e-02
4.557458500000000079e-02
4.956674099999999750e-02
5.277158499999999586e-02
5.390953699999999349e-02
5.576355100000000148e-02
5.554586999999999719e-02
5.149123199999999789e-02
5.272909099999999183e-02
6.124817299999999604e-02
6.377857600000000349e-02
6.225811199999999740e-02
6.458336400000000421e-02
6.181297799999999759e-02
6.169736999999999444e-02
6.714733200000000402e-02
6.313473099999999949e-02
6.116334500000000091e-02
6.203369399999999340e-02
5.658027399999999985e-02
5.789471599999999885e-02
5.849546300000000448e-02
5.621110700000000321e-02
6.161411900000000191e-02
6.079272500000000579e-02
5.669090400000000030e-02
5.766862499999999420e-02
5.635862299999999658e-02
5.697622300000000639e-02
5.705119600000000540e-02
5.267904100000000284e-02
5.026758799999999500e-02
4.865147000000000221e-02
5.175707100000000171e-02
5.919667499999999721e-02
5.827247399999999772e-02
5.322657699999999714e-02
5.611824399999999768e-02
5.923510600000000265e-02
5.681204899999999641e-02
5.604719900000000588e-02
5.289201200000000214e-02
4.393980299999999950e-02
3.818430999999999909e-02
3.642049900000000201e-02
4.009762900000000269e-02
4.754471600000000076e-02
4.984866200000000191e-02
5.017308000000000184e-02
4.678189900000000179e-02
3.454847500000000210e-02
1.988862899999999795e-02
2.847850899999999734e-03
-1.043519799999999970e-02
-1.003206199999999958e-02
-8.255210100000000273e-03
-1.970419400000000126e-02
-4.457417500000000060e-02
-8.152255999999999392e-02
-1.314304399999999817e-01
-1.859905399999999820e-01
-2.541298600000000407e-01
-3.242251800000000017e-01
-3.753064099999999792e-01
-4.152306900000000134e-01
-3.705763999999999725e-01
-2.821095599999999815e-01
-2.500875900000000263e-01
-8.278060900000000499e-02
