-1.566468900000000247e-02
-9.687065999999999732e-02
-1.445466099999999920e-01
-2.331976899999999853e-01
-2.695962299999999923e-01
-2.722800100000000167e-01
-2.691934400000000061e-01
-2.359360600000000030e-01
-1.938419700000000023e-01
-1.481142799999999871e-01
-8.643441600000000002e-02
-4.645295800000000253e-02
-4.553492199999999851e-02
-3.497155799999999981e-02
-3.564995199999999691e-03
2.292569800000000130e-02
4.534018699999999708e-02
6.026325099999999685e-02
6.012807300000000410e-02
5.326843599999999540e-02
5.172961299999999374e-02
5.463868899999999723e-02
5.274047800000000036e-02
5.034206799999999676e-02
5.206120899999999718e-02
5.186215699999999901e-02
5.407541999999999904e-02
6.006784899999999261e-02
6.075478800000000401e-02
5.640287400000000562e-02
5.379829499999999598e-02
5.805491000000000124e-02
6.256837499999999552e-02
5.640931300000000259e-02
5.190571800000000346e-02
5.400289200000000372e-02
5.045102799999999499e-02
4.698798099999999811e-02
4.940010499999999971e-02
5.026989600000000141e-02
5.028173500000000795e-02
5.012850399999999734e-02
4.766795199999999955e-02
4.483164299999999741e-02
4.142967100000000125e-02
3.572974199999999489e-02
3.364315500000000098e-02
3.841257399999999794e-02
3.993012199999999845e-02
3.272272399999999470e-02
2.731642000000000098e-02
2.777554400000000270e-02
2.434028199999999781e-02
1.656078199999999959e-02
1.483503899999999952e-02
1.810116499999999892e-02
1.612506500000000093e-02
1.046457500000000027e-02
1.117942600000000099e-02
1.332823800000000093e-02
8.258617899999999221e-03
4.226059600000000097e-03
3.031754499999999956e-03
-8.817981799999999478e-05
1.012451200000000001e-03
3.870951400000000216e-03
1.190510799999999932e-03
2.892434599999999922e-03
1.016514200000000027e-02
9.722154600000001284e-03
8.813109900000001135e-03
1.653713400000000194e-02
1.780982199999999946e-02
1.426684500000000022e-02
2.155818100000000265e-02
3.156645799999999863e-02
3.542709399999999925e-02
4.092525799999999908e-02
4.631139799999999668e-02
4.750784200000000151e-02
5.149175999999999753e-02
5.689450199999999958e-02
5.778762800000000061e-02
5.979020200000000063e-02
6.364515699999999387e-02
6.593654599999999866e-02
7.173341699999999377e-02
7.662065500000000973e-02
7.110261900000000579e-02
6.751553099999998975e-02
7.374002699999999966e-02
7.521271100000000154e-02
7.143570800000000054e-02
7.099961700000000098e-02
6.838535300000000983e-02
6.535919900000000671e-02
6.997724499999999348e-02
7.276016100000000375e-02
6.945646199999999659e-02
7.154006300000000096e-02
7.622915199999999447e-02
7.659066000000000485e-02
7.560054899999998912e-02
7.284726099999999649e-02
7.451617299999999111e-02
8.036359899999999390e-02
7.882309099999999791e-02
7.314701300000001072e-02
7.097558000000001033e-02
7.451496900000000034e-02
7.741626399999999852e-02
6.665349400000000757e-02
5.312718600000000679e-02
4.526039999999999924e-02
3.803916499999999978e-02
3.892159399999999686e-02
3.765993899999999645e-02
2.841668700000000297e-02
2.780213899999999655e-02
2.487272899999999967e-02
1.196835800000000012e-02
-4.059412499999999718e-04
-1.156378800000000019e-02
-1.107209200000000039e-02
-4.172990300000000222e-03
-2.076281399999999749e-02
-5.352019900000000441e-02
-8.051643299999999837e-02
-1.216983600000000054e-01
-1.871051499999999979e-01
-2.396987700000000054e-01
-2.633099600000000096e-01
-2.976951300000000300e-01
-3.329093100000000138e-01
-3.317334799999999695e-01
-3.157857000000000025e-01
-2.449785299999999721e-01
-1.394068900000000055e-01
-8.502577599999999736e-02
4.217253499999999711e-02
