-2.640489599999999992e-01
-2.914234399999999781e-01
-1.233021900000000060e-01
-8.742998700000000067e-02
-1.013180800000000048e-01
-1.764226799999999984e-01
-1.820488799999999963e-01
-1.930755299999999952e-01
-1.968796999999999908e-01
-2.089011900000000144e-01
-2.013647600000000037e-01
-2.120720599999999789e-01
-2.171168600000000226e-01
-2.199640300000000048e-01
-2.113450099999999998e-01
-2.135938700000000190e-01
-2.139063099999999884e-01
-2.070765999999999996e-01
-1.970176399999999939e-01
-1.818379900000000049e-01
-1.714237299999999964e-01
-1.603418900000000147e-01
-1.417654200000000031e-01
-1.186279800000000079e-01
-9.330692799999999731e-02
-7.545238699999999576e-02
-5.717059199999999924e-02
-3.570993499999999821e-02
-1.690853999999999968e-02
-8.153758199999999734e-03
2.465422499999999836e-03
9.876451799999999906e-03
5.226110600000000161e-03
2.036150300000000128e-03
1.260488999999999880e-02
1.349743599999999807e-02
4.419575700000000044e-03
-4.745196099999999736e-03
-3.575717600000000163e-03
-8.968293900000000318e-03
-1.099897900000000074e-02
-1.123661800000000030e-02
-1.450671900000000125e-02
-1.992102000000000109e-02
-1.120265900000000023e-02
-1.361466899999999938e-02
-9.533967600000000167e-03
-7.073600299999999652e-04
-1.035873000000000089e-03
-1.708591599999999960e-03
1.218328299999999961e-02
1.498361800000000063e-02
1.887073700000000201e-02
2.842788399999999702e-02
2.964868000000000017e-02
2.982388300000000242e-02
3.223433299999999696e-02
4.058517400000000164e-02
4.097786299999999632e-02
4.748142200000000229e-02
4.067336300000000404e-02
3.882862000000000119e-02
4.015240299999999624e-02
3.648881600000000031e-02
4.068599399999999616e-02
3.493891500000000094e-02
3.745445099999999972e-02
3.614063499999999735e-02
3.103024700000000038e-02
2.857474999999999946e-02
3.573561800000000371e-02
3.867414300000000110e-02
3.812818800000000036e-02
3.480619599999999758e-02
4.081237999999999533e-02
2.982376700000000103e-02
3.411474999999999924e-02
3.424109499999999917e-02
3.586997599999999786e-02
3.924438400000000021e-02
3.946575100000000030e-02
3.671266899999999639e-02
3.169176399999999727e-02
4.473367699999999947e-02
4.260035499999999947e-02
4.110316299999999812e-02
4.765281300000000220e-02
3.770981600000000017e-02
4.944765799999999850e-02
4.174789699999999909e-02
3.588638100000000192e-02
3.864566600000000213e-02
3.984556799999999788e-02
4.200826500000000296e-02
3.509198499999999915e-02
4.508910300000000537e-02
4.129061800000000115e-02
3.378767400000000365e-02
3.766938799999999810e-02
3.335948799999999964e-02
3.993179499999999910e-02
3.935338099999999978e-02
3.823584199999999905e-02
4.896989499999999940e-02
6.974775199999999620e-02
7.417850099999999391e-02
9.811686599999999703e-02
1.126546300000000056e-01
1.389824600000000021e-01
1.623627300000000107e-01
2.010084299999999879e-01
1.992582999999999993e-01
1.865379799999999921e-01
1.719003800000000193e-01
1.543331199999999903e-01
1.221482299999999965e-01
1.011868999999999963e-01
4.908928799999999482e-02
3.790255700000000100e-04
-4.476601200000000259e-03
-1.404096000000000077e-03
-7.143028799999999456e-03
-1.616862499999999897e-03
4.374201799999999818e-04
-5.807616600000000025e-03
-1.314568099999999934e-03
-1.102208300000000023e-03
-1.916411900000000116e-03
-3.833835499999999584e-03
2.851618100000000242e-03
1.215345199999999862e-02
6.909444700000000328e-02
1.415393600000000029e-01
1.265822799999999915e-01
1.383296099999999917e-01
1.325233299999999947e-01
9.029667199999999450e-02
8.075643700000000036e-02
1.609599500000000183e-01
8.817643199999999903e-02
