-1.465050099999999980e-02
-1.286675100000000127e-01
-2.266075999999999924e-01
-2.860297500000000270e-01
-2.787082600000000410e-01
-2.576315000000000133e-01
-1.938008299999999795e-01
-1.244705200000000012e-01
-7.839791299999999963e-02
-5.141885899999999732e-02
-4.363349600000000078e-02
-1.269816199999999895e-02
3.325221899999999953e-02
5.328929799999999883e-02
5.666457200000000333e-02
4.582102300000000239e-02
4.823664500000000160e-02
3.844485999999999737e-02
4.200551000000000285e-02
4.735349500000000239e-02
4.647860399999999975e-02
5.321995200000000092e-02
4.967477000000000004e-02
4.384918499999999886e-02
4.402701600000000215e-02
4.230002000000000068e-02
4.192696099999999870e-02
4.525735699999999806e-02
3.660720800000000219e-02
3.461178499999999908e-02
3.035774500000000195e-02
2.891726199999999913e-02
2.445256399999999955e-02
2.902601599999999823e-02
1.351315900000000028e-02
1.773370499999999891e-02
2.219545699999999830e-02
7.647240299999999262e-03
2.027825999999999934e-02
1.025311500000000015e-02
3.883913800000000395e-03
7.418142499999999702e-03
-1.278924900000000166e-03
5.461067500000000175e-04
-2.988572200000000172e-03
-1.979949099999999892e-02
-1.943476100000000178e-02
-2.175194300000000275e-02
-2.349344499999999822e-02
-2.492951300000000037e-02
-2.369042799999999949e-02
-2.240891499999999800e-02
-2.906277700000000144e-02
-2.384639499999999940e-02
-1.869664799999999974e-02
-2.174347100000000033e-02
-2.133628900000000134e-02
-1.053200200000000038e-02
-8.772819099999999010e-03
1.271044999999999890e-04
-2.384564799999999880e-03
1.304088100000000156e-03
9.066870799999999717e-03
1.266294400000000063e-02
2.006335499999999800e-02
2.996453700000000289e-02
3.399401300000000348e-02
3.342486900000000288e-02
4.190276899999999943e-02
4.113037700000000269e-02
4.775018799999999897e-02
4.832963499999999579e-02
4.152395799999999970e-02
4.363849300000000042e-02
5.496096200000000209e-02
6.524954899999999003e-02
6.161415900000000168e-02
5.339111600000000235e-02
5.700598199999999671e-02
5.439448300000000736e-02
5.355076699999999912e-02
5.640855299999999323e-02
5.503308199999999706e-02
6.131663600000000075e-02
5.666457200000000333e-02
6.040199799999999841e-02
6.751427499999999859e-02
6.796426599999999540e-02
6.875032500000000102e-02
7.480432700000000379e-02
7.684227300000000260e-02
7.109262899999999052e-02
6.636310199999999326e-02
7.131471100000000285e-02
8.123357000000000494e-02
7.630803999999999365e-02
6.484160899999999450e-02
7.611360500000000084e-02
8.786491700000000071e-02
7.721440499999999985e-02
8.189110099999999393e-02
8.478984200000000415e-02
8.303115399999999591e-02
9.205565400000000065e-02
8.904085800000000051e-02
9.154299400000000253e-02
9.791369699999999399e-02
8.839354400000000445e-02
9.012805100000000069e-02
9.160676199999999436e-02
9.374978400000000267e-02
9.595012799999999564e-02
7.895053300000000329e-02
8.086188399999999499e-02
7.961793000000000342e-02
7.683275800000000100e-02
5.678167499999999673e-02
3.479953599999999897e-02
3.095193700000000228e-02
2.986963899999999644e-02
2.955084300000000025e-02
2.086198499999999956e-02
1.558857400000000001e-03
-1.263911299999999870e-02
-3.192904600000000259e-02
-4.793793400000000149e-02
-3.470786599999999694e-02
-4.577454000000000245e-02
-7.982853300000000707e-02
-1.262554800000000033e-01
-1.861274300000000104e-01
-2.379596799999999790e-01
-2.771006999999999776e-01
-3.324491399999999763e-01
-3.820236799999999766e-01
-3.702244499999999827e-01
-3.042119799999999930e-01
-1.740889399999999976e-01
-9.618175399999999431e-02
-1.076530599999999879e-02
