-1.467521599999999926e-01
-2.558113800000000326e-01
-2.732940300000000211e-01
-3.046367200000000275e-01
-2.808517499999999556e-01
-2.730774699999999888e-01
-2.340312899999999752e-01
-1.844775499999999901e-01
-1.293452300000000055e-01
-9.788379599999999514e-02
-8.327904499999999599e-02
-6.286557699999999194e-02
-4.708105699999999560e-02
-1.408258400000000042e-02
2.604355099999999812e-02
3.430682200000000071e-02
3.263313699999999956e-02
3.389736399999999927e-02
3.765776699999999477e-02
4.194831899999999780e-02
3.953437899999999450e-02
4.005294300000000057e-02
3.685715199999999719e-02
4.244698000000000221e-02
4.072158199999999922e-02
3.213435599999999587e-02
3.555075500000000333e-02
3.127510199999999907e-02
3.006968999999999961e-02
3.227849700000000321e-02
2.945395199999999852e-02
3.409177099999999988e-02
4.057658900000000318e-02
3.928826900000000066e-02
3.026786299999999902e-02
2.035000999999999824e-02
2.445997899999999975e-02
2.574475299999999869e-02
2.159991199999999889e-02
2.229318000000000272e-02
2.003927500000000222e-02
2.012135899999999838e-02
1.985027500000000056e-02
2.150780000000000053e-02
1.613862099999999883e-02
8.442972800000000250e-03
1.468737699999999799e-02
2.002625799999999817e-02
1.870218200000000122e-02
1.625462999999999908e-02
1.557012799999999905e-02
1.138640599999999996e-02
6.357270800000000208e-03
2.405145200000000094e-03
-3.386387499999999988e-03
-3.559455699999999802e-03
-5.167690300000000493e-03
-4.828212000000000129e-03
-3.647590999999999941e-03
-3.444782500000000136e-03
-5.954195699999999605e-03
-1.109747200000000059e-02
-1.097148100000000081e-03
-2.550382600000000114e-03
-5.283310799999999668e-03
-4.288401900000000586e-03
-2.583740299999999837e-03
7.112612499999999664e-03
-7.567846300000000137e-04
4.506471699999999546e-03
4.272321500000000535e-03
4.132992399999999532e-03
2.449998999999999927e-02
3.103650200000000053e-02
3.488896300000000200e-02
3.512980599999999953e-02
4.122339199999999759e-02
5.559889199999999698e-02
5.851304799999999806e-02
5.140685400000000183e-02
5.253111499999999628e-02
5.943407299999999699e-02
5.352500500000000050e-02
5.743656700000000781e-02
6.680421000000000276e-02
6.814450299999999516e-02
7.008918399999999882e-02
7.181316899999999614e-02
7.636834600000000361e-02
7.338958100000000928e-02
7.368555899999999770e-02
7.721295000000000242e-02
7.633535299999999468e-02
7.386084299999999547e-02
6.617463799999999396e-02
6.400884500000000865e-02
6.217979399999999657e-02
6.683955499999999494e-02
6.628749700000000078e-02
7.021932000000000174e-02
8.502295399999999781e-02
7.621871900000000422e-02
7.510803800000000197e-02
8.218274400000000202e-02
7.916849099999999362e-02
7.836528400000000727e-02
7.362104199999999765e-02
7.390228299999999917e-02
7.724096799999999319e-02
7.325138999999999956e-02
7.968408899999999961e-02
8.125852000000000075e-02
7.354891300000000742e-02
8.135016200000000364e-02
8.374001500000000098e-02
7.596998900000000166e-02
6.887498999999999705e-02
5.055242100000000016e-02
4.152794599999999614e-02
4.989642300000000225e-02
5.469723699999999578e-02
5.069082000000000449e-02
3.498830499999999732e-02
2.980822799999999911e-02
2.483095899999999967e-02
1.458275199999999917e-02
2.667893399999999790e-02
3.941990399999999867e-02
3.697997499999999826e-02
2.463052699999999928e-02
-1.144273399999999954e-02
-7.441923699999999919e-02
-1.300968299999999966e-01
-1.900500499999999982e-01
-2.643926200000000226e-01
-3.398225200000000168e-01
-3.963361799999999824e-01
-3.149471799999999932e-01
-2.779386400000000146e-01
-1.189181499999999864e-01
