-1.282348999999999850e-01
-2.338963399999999804e-01
-2.673577400000000104e-01
-3.567914399999999597e-01
-3.378158099999999942e-01
-3.370055399999999923e-01
-2.874657099999999854e-01
-2.161996999999999947e-01
-1.553225099999999970e-01
-1.100640300000000071e-01
-9.724283200000000127e-02
-8.498456299999999908e-02
-4.965797599999999951e-02
-1.223268800000000024e-02
3.358197299999999934e-03
5.480546499999999939e-03
4.609428399999999752e-03
5.461553400000000204e-03
9.066473000000000240e-03
1.291753800000000098e-02
1.160952100000000112e-02
4.567686199999999690e-03
8.727057100000001205e-03
1.657173099999999927e-02
1.510511700000000124e-02
1.350934500000000073e-02
1.093076500000000027e-02
1.423693900000000054e-02
1.353849199999999919e-02
4.698294699999999366e-03
2.518808999999999892e-03
6.010997399999999831e-03
1.395704500000000126e-02
1.316071400000000044e-02
8.310401499999999549e-04
-5.311870000000000355e-05
7.095227699999999763e-03
3.235023900000000372e-03
-3.318105200000000081e-03
-2.602359700000000074e-03
-1.972975899999999949e-03
-8.497321300000000924e-03
-1.226758899999999888e-02
-4.588611099999999852e-03
-4.842281900000000236e-03
-1.699398099999999828e-02
-1.649206099999999883e-02
-1.584846499999999908e-02
-2.396267099999999789e-02
-2.343611999999999779e-02
-2.409879000000000188e-02
-2.740302199999999910e-02
-2.626681399999999944e-02
-2.482929799999999965e-02
-2.560231499999999702e-02
-2.756525599999999979e-02
-2.587436000000000250e-02
-2.529809200000000119e-02
-3.036775900000000111e-02
-3.092269999999999741e-02
-2.961108999999999963e-02
-2.777520900000000209e-02
-1.856322599999999864e-02
-1.067995000000000055e-02
2.222484900000000138e-03
6.196972499999999981e-03
2.868376499999999909e-03
1.084274499999999912e-02
1.166686599999999970e-02
1.250159999999999813e-02
2.087324999999999944e-02
2.971785900000000272e-02
3.520705500000000099e-02
3.662737800000000210e-02
4.696790699999999624e-02
5.760443699999999445e-02
5.698401400000000644e-02
5.643971599999999395e-02
5.541520100000000421e-02
5.380369200000000018e-02
6.111054500000000222e-02
6.492470000000000185e-02
6.625753900000000418e-02
7.541657400000000011e-02
7.622790499999999858e-02
6.851283500000000803e-02
6.839670100000000419e-02
7.064738000000000961e-02
7.161663199999999951e-02
6.992674899999999638e-02
6.953301200000000515e-02
7.554465500000000222e-02
7.929359099999999660e-02
8.102678800000000237e-02
8.304585800000000018e-02
8.549756799999999601e-02
9.251571000000000100e-02
9.653773499999999952e-02
9.277547499999999614e-02
9.171810799999999264e-02
9.487481100000000334e-02
9.780075099999999133e-02
9.601057600000000025e-02
9.960141299999999975e-02
1.073661299999999902e-01
9.946089199999999519e-02
9.828642600000001006e-02
1.119065299999999902e-01
1.088871600000000106e-01
1.058327500000000032e-01
1.153822700000000090e-01
1.172948000000000046e-01
1.215658700000000064e-01
1.140773399999999993e-01
1.028931400000000079e-01
9.228066700000001066e-02
7.741220699999999677e-02
8.660633500000000651e-02
8.128647599999999640e-02
6.884007000000000320e-02
6.803180500000000075e-02
5.619328599999999507e-02
4.762362299999999687e-02
4.486626000000000503e-02
5.207776100000000019e-02
5.549066600000000099e-02
3.241431100000000121e-02
-5.670195799999999458e-04
-3.474754500000000468e-02
-8.836492900000000872e-02
-1.419713400000000014e-01
-1.695175600000000116e-01
-2.043994699999999720e-01
-2.561738500000000363e-01
-2.676989300000000016e-01
-2.318566900000000042e-01
-1.482315700000000069e-01
-1.824395100000000131e-02
9.570766499999999385e-03
1.241799600000000059e-01
