5.935813499999999937e-02
-6.746990499999999669e-02
-8.243668600000000901e-02
-2.041340599999999783e-01
-2.305855900000000069e-01
-2.622714099999999826e-01
-2.992708800000000169e-01
-2.726162699999999939e-01
-2.483402400000000176e-01
-2.165339599999999698e-01
-1.657096200000000019e-01
-1.080599200000000037e-01
-5.320089799999999647e-02
-2.503296400000000130e-02
-2.309915700000000210e-02
-9.508935899999999483e-03
1.930327400000000221e-02
3.949679300000000226e-02
5.444031099999999818e-02
5.851134200000000091e-02
5.864061200000000168e-02
6.510268500000000735e-02
6.142021300000000128e-02
5.744318299999999489e-02
6.312656099999999770e-02
6.528955999999999649e-02
6.683953600000000494e-02
6.782207099999999766e-02
6.461729899999998916e-02
6.150315899999999475e-02
6.014580099999999874e-02
6.043260999999999772e-02
6.223749499999999685e-02
6.136276300000000072e-02
5.981590599999999508e-02
6.113254900000000130e-02
6.101389200000000013e-02
5.342917600000000183e-02
4.939908499999999536e-02
5.292891199999999463e-02
4.992509299999999678e-02
4.603271099999999699e-02
5.268356500000000164e-02
5.277591400000000016e-02
4.570125700000000207e-02
4.411781099999999983e-02
4.446218999999999866e-02
4.351918899999999979e-02
4.135858299999999738e-02
3.794724199999999908e-02
3.657653000000000293e-02
3.594230500000000078e-02
3.321950199999999798e-02
2.748957299999999979e-02
1.837965300000000274e-02
1.471930599999999797e-02
2.148090000000000069e-02
1.929674600000000004e-02
1.128060999999999994e-02
1.616439500000000154e-02
1.479064899999999946e-02
9.259150100000000314e-03
1.463743799999999914e-02
1.503937999999999976e-02
1.309579399999999914e-02
1.637003599999999753e-02
1.873208999999999985e-02
2.044350199999999881e-02
1.507158899999999982e-02
1.143426699999999969e-02
1.296632799999999919e-02
1.136334500000000039e-02
1.554507099999999885e-02
2.389966400000000102e-02
2.866209399999999907e-02
3.132917200000000235e-02
2.897804999999999825e-02
3.474524799999999941e-02
4.220115500000000408e-02
3.879071399999999697e-02
4.322738199999999475e-02
4.961999300000000113e-02
4.327461700000000133e-02
4.287725399999999659e-02
4.943804999999999727e-02
4.995671699999999771e-02
5.291627599999999820e-02
6.076133999999999702e-02
6.240461699999999556e-02
6.195323499999999539e-02
6.116710400000000686e-02
5.783759100000000070e-02
5.887862499999999694e-02
6.099386399999999486e-02
6.482263299999999062e-02
6.751359599999999517e-02
6.171444799999999814e-02
6.039775600000000383e-02
6.129737500000000117e-02
5.757431300000000196e-02
6.056374900000000006e-02
6.168719799999999864e-02
5.949770199999999953e-02
5.940156599999999593e-02
5.903022599999999814e-02
6.348714699999999378e-02
6.528178399999999548e-02
6.328880099999999176e-02
6.757626699999999542e-02
6.226340000000000346e-02
4.962286600000000159e-02
3.958474000000000020e-02
3.281107300000000310e-02
3.634573400000000454e-02
3.882037099999999935e-02
3.842395699999999470e-02
3.711543199999999681e-02
2.342610900000000052e-02
2.159463299999999850e-02
2.633265300000000100e-02
1.363964400000000111e-02
1.269399300000000064e-02
2.485313500000000189e-02
2.378592099999999807e-02
1.370294599999999884e-02
-1.162579700000000021e-02
-6.142754900000000490e-02
-1.181024000000000101e-01
-1.674895999999999885e-01
-2.172325600000000190e-01
-2.851785500000000306e-01
-3.307794000000000012e-01
-3.599603900000000190e-01
-3.482235599999999875e-01
-2.359376099999999921e-01
-1.806194099999999803e-01
-9.533059200000000566e-02
1.677171100000000121e-03
-1.391621999999999859e-01
7.896437800000000173e-02
